[
{
  "ts": "2018-02-06T12:27:16.577603",
  "type": "SETTINGS",
  "values": {
    "date": "2018/02/06 13:27:16",
    "date_iso": "2018-02-06T13:27:16.576746",
    "params": null,
    "system": {
      "nodename": "gibson",
      "machine": "x86_64",
      "platform": "Linux-4.4.0-112-generic-x86_64-with-debian-stretch-sid",
      "processor": "x86_64",
      "version": "#135-Ubuntu SMP Fri Jan 19 11:48:36 UTC 2018",
      "system": "Linux",
      "cpu_count": 8,
      "cpu_times": {
        "user": 350309.6,
        "system": 21018.42,
        "idle": 7979510.37,
        "nice": 823.12
      },
      "cpu_percent": 80.4,
      "virtual_memory": {
        "total": 33618501632,
        "available": 22791561216,
        "percent": 32.2,
        "used": 9782063104,
        "free": 10365497344
      }
    },
    "process": {
      "username": "evgeniya",
      "cwd": "/cw/dtailocal/mercs_python/src/core",
      "create_time": 1517919420.45,
      "cpu_times": {
        "user": 1.82,
        "system": 0.86
      }
    },
    "logfile": "/cw/dtailocal/mercs_python/out/621/rf1/logs/mercspython_Log_F08",
    "command": "python /cw/dtailocal/mercs_python/bin/mercspython.py /cw/dtailocal/mercs_python/out/621/rf1/settings/mercspython_Settings_F08.s"
  }
},
{
  "ts": "2018-02-06T12:27:16.577772",
  "type": "INFO",
  "values": {
    "cmd": "python /cw/dtailocal/mercs_python/bin/mercspython.py /cw/dtailocal/mercs_python/out/621/rf1/settings/mercspython_Settings_F08.s",
    "cwd": null
  }
},
{
  "ts": "2018-02-06T12:27:16.582493",
  "type": "INFO",
  "values": "Start: Run process"
},
{
  "ts": "2018-02-06T12:27:16.582915",
  "type": "INFO",
  "values": "Write log to /cw/dtailocal/mercs_python/out/621/rf1/logs/mercspython_Log_F08.running.log"
},
{
  "ts": "2018-02-06T12:28:27.469140",
  "type": "INFO",
  "values": "Process ended (returncode 0)"
},
{
  "ts": "2018-02-06T12:28:27.469220",
  "type": "INFO",
  "values": "Finished: Run process 70.887 seconds"
},
{
  "ts": "2018-02-06T12:28:27.469299",
  "type": "WARNING",
  "values": {
    "Exit": "finished",
    "Returncode": 0,
    "Time": 70.88675260543823
  }
}
]
