[
{
  "ts": "2018-02-05T18:32:04.629305",
  "type": "SETTINGS",
  "values": {
    "date": "2018/02/05 19:32:04",
    "date_iso": "2018-02-05T19:32:04.628402",
    "params": null,
    "system": {
      "nodename": "gibson",
      "machine": "x86_64",
      "platform": "Linux-4.4.0-112-generic-x86_64-with-debian-stretch-sid",
      "processor": "x86_64",
      "version": "#135-Ubuntu SMP Fri Jan 19 11:48:36 UTC 2018",
      "system": "Linux",
      "cpu_count": 8,
      "cpu_times": {
        "user": 173497.94,
        "system": 18981.5,
        "idle": 7643520.16,
        "nice": 755.49
      },
      "cpu_percent": 100.0,
      "virtual_memory": {
        "total": 33618501632,
        "available": 13516374016,
        "percent": 59.8,
        "used": 19078082560,
        "free": 1353207808
      }
    },
    "process": {
      "username": "evgeniya",
      "cwd": "/cw/dtailocal/mercs_python/src/core",
      "create_time": 1517855257.74,
      "cpu_times": {
        "user": 1.23,
        "system": 0.23
      }
    },
    "logfile": "/cw/dtailocal/mercs_python/out/358/scm20d/logs/mercspython_Log_F04",
    "command": "python /cw/dtailocal/mercs_python/bin/mercspython.py /cw/dtailocal/mercs_python/out/358/scm20d/settings/mercspython_Settings_F04.s"
  }
},
{
  "ts": "2018-02-05T18:32:04.629465",
  "type": "INFO",
  "values": {
    "cmd": "python /cw/dtailocal/mercs_python/bin/mercspython.py /cw/dtailocal/mercs_python/out/358/scm20d/settings/mercspython_Settings_F04.s",
    "cwd": null
  }
},
{
  "ts": "2018-02-05T18:32:04.670476",
  "type": "INFO",
  "values": "Start: Run process"
},
{
  "ts": "2018-02-05T18:32:04.703779",
  "type": "INFO",
  "values": "Write log to /cw/dtailocal/mercs_python/out/358/scm20d/logs/mercspython_Log_F04.running.log"
},
{
  "ts": "2018-02-05T18:33:09.393866",
  "type": "INFO",
  "values": "Process ended (returncode 0)"
},
{
  "ts": "2018-02-05T18:33:09.393947",
  "type": "INFO",
  "values": "Finished: Run process 64.723 seconds"
},
{
  "ts": "2018-02-05T18:33:09.394027",
  "type": "WARNING",
  "values": {
    "Exit": "finished",
    "Returncode": 0,
    "Time": 64.72349977493286
  }
},
{
  "ts": "2018-02-05T18:33:09.394425",
  "type": "INFO",
  "values": "Closing /cw/dtailocal/mercs_python/out/358/scm20d/logs/mercspython_Log_F04.running.log"
}
]
