[
{
  "ts": "2018-02-07T10:15:11.997186",
  "type": "SETTINGS",
  "values": {
    "date": "2018/02/07 11:15:11",
    "date_iso": "2018-02-07T11:15:11.996243",
    "params": null,
    "system": {
      "nodename": "gibson",
      "machine": "x86_64",
      "platform": "Linux-4.4.0-112-generic-x86_64-with-debian-stretch-sid",
      "processor": "x86_64",
      "version": "#135-Ubuntu SMP Fri Jan 19 11:48:36 UTC 2018",
      "system": "Linux",
      "cpu_count": 8,
      "cpu_times": {
        "user": 377195.39,
        "system": 22347.3,
        "idle": 8577338.55,
        "nice": 898.04
      },
      "cpu_percent": 99.2,
      "virtual_memory": {
        "total": 33618501632,
        "available": 26464411648,
        "percent": 21.3,
        "used": 6284472320,
        "free": 12298989568
      }
    },
    "process": {
      "username": "evgeniya",
      "cwd": "/cw/dtailocal/mercs_python/src/core",
      "create_time": 1517998486.06,
      "cpu_times": {
        "user": 1.15,
        "system": 0.16
      }
    },
    "logfile": "/cw/dtailocal/mercs_python/out/709/jura/logs/mercspython_Log_F07",
    "command": "python /cw/dtailocal/mercs_python/bin/mercspython.py /cw/dtailocal/mercs_python/out/709/jura/settings/mercspython_Settings_F07.s"
  }
},
{
  "ts": "2018-02-07T10:15:11.997353",
  "type": "INFO",
  "values": {
    "cmd": "python /cw/dtailocal/mercs_python/bin/mercspython.py /cw/dtailocal/mercs_python/out/709/jura/settings/mercspython_Settings_F07.s",
    "cwd": null
  }
},
{
  "ts": "2018-02-07T10:15:12.017263",
  "type": "INFO",
  "values": "Start: Run process"
},
{
  "ts": "2018-02-07T10:15:12.055797",
  "type": "INFO",
  "values": "Write log to /cw/dtailocal/mercs_python/out/709/jura/logs/mercspython_Log_F07.running.log"
},
{
  "ts": "2018-02-07T10:15:15.463060",
  "type": "INFO",
  "values": "Process ended (returncode 0)"
},
{
  "ts": "2018-02-07T10:15:15.463141",
  "type": "INFO",
  "values": "Finished: Run process 3.446 seconds"
},
{
  "ts": "2018-02-07T10:15:15.463229",
  "type": "WARNING",
  "values": {
    "Exit": "finished",
    "Returncode": 0,
    "Time": 3.445904016494751
  }
}
]
