[
{
  "ts": "2018-02-07T10:14:57.184781",
  "type": "SETTINGS",
  "values": {
    "date": "2018/02/07 11:14:57",
    "date_iso": "2018-02-07T11:14:57.183933",
    "params": null,
    "system": {
      "nodename": "gibson",
      "machine": "x86_64",
      "platform": "Linux-4.4.0-112-generic-x86_64-with-debian-stretch-sid",
      "processor": "x86_64",
      "version": "#135-Ubuntu SMP Fri Jan 19 11:48:36 UTC 2018",
      "system": "Linux",
      "cpu_count": 8,
      "cpu_times": {
        "user": 377084.53,
        "system": 22341.28,
        "idle": 8577337.5,
        "nice": 898.04
      },
      "cpu_percent": 99.0,
      "virtual_memory": {
        "total": 33618501632,
        "available": 26518945792,
        "percent": 21.1,
        "used": 6233866240,
        "free": 12355883008
      }
    },
    "process": {
      "username": "evgeniya",
      "cwd": "/cw/dtailocal/mercs_python/src/core",
      "create_time": 1517998486.06,
      "cpu_times": {
        "user": 0.9,
        "system": 0.11
      }
    },
    "logfile": "/cw/dtailocal/mercs_python/out/709/jura/logs/mercspython_Log_F03",
    "command": "python /cw/dtailocal/mercs_python/bin/mercspython.py /cw/dtailocal/mercs_python/out/709/jura/settings/mercspython_Settings_F03.s"
  }
},
{
  "ts": "2018-02-07T10:14:57.184935",
  "type": "INFO",
  "values": {
    "cmd": "python /cw/dtailocal/mercs_python/bin/mercspython.py /cw/dtailocal/mercs_python/out/709/jura/settings/mercspython_Settings_F03.s",
    "cwd": null
  }
},
{
  "ts": "2018-02-07T10:14:57.197529",
  "type": "INFO",
  "values": "Start: Run process"
},
{
  "ts": "2018-02-07T10:14:57.209592",
  "type": "INFO",
  "values": "Write log to /cw/dtailocal/mercs_python/out/709/jura/logs/mercspython_Log_F03.running.log"
},
{
  "ts": "2018-02-07T10:15:01.015348",
  "type": "INFO",
  "values": "Process ended (returncode 0)"
},
{
  "ts": "2018-02-07T10:15:01.015434",
  "type": "INFO",
  "values": "Finished: Run process 3.818 seconds"
},
{
  "ts": "2018-02-07T10:15:01.015514",
  "type": "WARNING",
  "values": {
    "Exit": "finished",
    "Returncode": 0,
    "Time": 3.817931652069092
  }
}
]
