[
{
  "ts": "2018-02-07T10:15:04.497131",
  "type": "SETTINGS",
  "values": {
    "date": "2018/02/07 11:15:04",
    "date_iso": "2018-02-07T11:15:04.496143",
    "params": null,
    "system": {
      "nodename": "gibson",
      "machine": "x86_64",
      "platform": "Linux-4.4.0-112-generic-x86_64-with-debian-stretch-sid",
      "processor": "x86_64",
      "version": "#135-Ubuntu SMP Fri Jan 19 11:48:36 UTC 2018",
      "system": "Linux",
      "cpu_count": 8,
      "cpu_times": {
        "user": 377139.36,
        "system": 22344.24,
        "idle": 8577337.94,
        "nice": 898.04
      },
      "cpu_percent": 99.0,
      "virtual_memory": {
        "total": 33618501632,
        "available": 26551095296,
        "percent": 21.0,
        "used": 6197985280,
        "free": 12386820096
      }
    },
    "process": {
      "username": "evgeniya",
      "cwd": "/cw/dtailocal/mercs_python/src/core",
      "create_time": 1517998486.06,
      "cpu_times": {
        "user": 1.0,
        "system": 0.13
      }
    },
    "logfile": "/cw/dtailocal/mercs_python/out/709/jura/logs/mercspython_Log_F05",
    "command": "python /cw/dtailocal/mercs_python/bin/mercspython.py /cw/dtailocal/mercs_python/out/709/jura/settings/mercspython_Settings_F05.s"
  }
},
{
  "ts": "2018-02-07T10:15:04.497283",
  "type": "INFO",
  "values": {
    "cmd": "python /cw/dtailocal/mercs_python/bin/mercspython.py /cw/dtailocal/mercs_python/out/709/jura/settings/mercspython_Settings_F05.s",
    "cwd": null
  }
},
{
  "ts": "2018-02-07T10:15:04.509773",
  "type": "INFO",
  "values": "Start: Run process"
},
{
  "ts": "2018-02-07T10:15:04.528412",
  "type": "INFO",
  "values": "Write log to /cw/dtailocal/mercs_python/out/709/jura/logs/mercspython_Log_F05.running.log"
},
{
  "ts": "2018-02-07T10:15:08.334989",
  "type": "INFO",
  "values": "Process ended (returncode 0)"
},
{
  "ts": "2018-02-07T10:15:08.335089",
  "type": "INFO",
  "values": "Finished: Run process 3.825 seconds"
},
{
  "ts": "2018-02-07T10:15:08.335174",
  "type": "WARNING",
  "values": {
    "Exit": "finished",
    "Returncode": 0,
    "Time": 3.825345993041992
  }
},
{
  "ts": "2018-02-07T10:15:08.355876",
  "type": "INFO",
  "values": "Closing /cw/dtailocal/mercs_python/out/709/jura/logs/mercspython_Log_F05.running.log"
}
]
