[
{
  "ts": "2018-02-07T10:18:07.524355",
  "type": "SETTINGS",
  "values": {
    "date": "2018/02/07 11:18:07",
    "date_iso": "2018-02-07T11:18:07.515211",
    "params": null,
    "system": {
      "nodename": "gibson",
      "machine": "x86_64",
      "platform": "Linux-4.4.0-112-generic-x86_64-with-debian-stretch-sid",
      "processor": "x86_64",
      "version": "#135-Ubuntu SMP Fri Jan 19 11:48:36 UTC 2018",
      "system": "Linux",
      "cpu_count": 8,
      "cpu_times": {
        "user": 378551.91,
        "system": 22387.16,
        "idle": 8577342.74,
        "nice": 898.04
      },
      "cpu_percent": 100.0,
      "virtual_memory": {
        "total": 33618501632,
        "available": 25520947200,
        "percent": 24.1,
        "used": 7229050880,
        "free": 11431800832
      }
    },
    "process": {
      "username": "evgeniya",
      "cwd": "/cw/dtailocal/mercs_python/src/core",
      "create_time": 1517998685.94,
      "cpu_times": {
        "user": 0.52,
        "system": 0.07
      }
    },
    "logfile": "/cw/dtailocal/mercs_python/out/730/jura/logs/mercspython_Log_F00",
    "command": "python /cw/dtailocal/mercs_python/bin/mercspython.py /cw/dtailocal/mercs_python/out/730/jura/settings/mercspython_Settings_F00.s"
  }
},
{
  "ts": "2018-02-07T10:18:07.524530",
  "type": "INFO",
  "values": {
    "cmd": "python /cw/dtailocal/mercs_python/bin/mercspython.py /cw/dtailocal/mercs_python/out/730/jura/settings/mercspython_Settings_F00.s",
    "cwd": null
  }
},
{
  "ts": "2018-02-07T10:18:07.553141",
  "type": "INFO",
  "values": "Start: Run process"
},
{
  "ts": "2018-02-07T10:18:07.595814",
  "type": "INFO",
  "values": "Write log to /cw/dtailocal/mercs_python/out/730/jura/logs/mercspython_Log_F00.running.log"
},
{
  "ts": "2018-02-07T10:18:10.199117",
  "type": "INFO",
  "values": "Process ended (returncode 0)"
},
{
  "ts": "2018-02-07T10:18:10.199196",
  "type": "INFO",
  "values": "Finished: Run process 2.646 seconds"
},
{
  "ts": "2018-02-07T10:18:10.199282",
  "type": "WARNING",
  "values": {
    "Exit": "finished",
    "Returncode": 0,
    "Time": 2.6461267471313477
  }
}
]
