[
{
  "ts": "2018-02-07T10:18:10.205436",
  "type": "SETTINGS",
  "values": {
    "date": "2018/02/07 11:18:10",
    "date_iso": "2018-02-07T11:18:10.204268",
    "params": null,
    "system": {
      "nodename": "gibson",
      "machine": "x86_64",
      "platform": "Linux-4.4.0-112-generic-x86_64-with-debian-stretch-sid",
      "processor": "x86_64",
      "version": "#135-Ubuntu SMP Fri Jan 19 11:48:36 UTC 2018",
      "system": "Linux",
      "cpu_count": 8,
      "cpu_times": {
        "user": 378573.01,
        "system": 22387.52,
        "idle": 8577342.74,
        "nice": 898.04
      },
      "cpu_percent": 100.0,
      "virtual_memory": {
        "total": 33618501632,
        "available": 25355546624,
        "percent": 24.6,
        "used": 7394140160,
        "free": 11266560000
      }
    },
    "process": {
      "username": "evgeniya",
      "cwd": "/cw/dtailocal/mercs_python/src/core",
      "create_time": 1517998685.94,
      "cpu_times": {
        "user": 0.6,
        "system": 0.1
      }
    },
    "logfile": "/cw/dtailocal/mercs_python/out/730/jura/logs/mercspython_Log_F01",
    "command": "python /cw/dtailocal/mercs_python/bin/mercspython.py /cw/dtailocal/mercs_python/out/730/jura/settings/mercspython_Settings_F01.s"
  }
},
{
  "ts": "2018-02-07T10:18:10.205618",
  "type": "INFO",
  "values": {
    "cmd": "python /cw/dtailocal/mercs_python/bin/mercspython.py /cw/dtailocal/mercs_python/out/730/jura/settings/mercspython_Settings_F01.s",
    "cwd": null
  }
},
{
  "ts": "2018-02-07T10:18:10.221577",
  "type": "INFO",
  "values": "Start: Run process"
},
{
  "ts": "2018-02-07T10:18:10.250518",
  "type": "INFO",
  "values": "Write log to /cw/dtailocal/mercs_python/out/730/jura/logs/mercspython_Log_F01.running.log"
},
{
  "ts": "2018-02-07T10:18:12.853622",
  "type": "INFO",
  "values": "Process ended (returncode 0)"
},
{
  "ts": "2018-02-07T10:18:12.853696",
  "type": "INFO",
  "values": "Finished: Run process 2.632 seconds"
},
{
  "ts": "2018-02-07T10:18:12.853779",
  "type": "WARNING",
  "values": {
    "Exit": "finished",
    "Returncode": 0,
    "Time": 2.6321492195129395
  }
},
{
  "ts": "2018-02-07T10:18:12.864805",
  "type": "INFO",
  "values": "Closing /cw/dtailocal/mercs_python/out/730/jura/logs/mercspython_Log_F01.running.log"
}
]
