[
{
  "ts": "2018-02-06T10:04:50.356540",
  "type": "SETTINGS",
  "values": {
    "date": "2018/02/06 11:04:50",
    "date_iso": "2018-02-06T11:04:50.355457",
    "params": null,
    "system": {
      "nodename": "gibson",
      "machine": "x86_64",
      "platform": "Linux-4.4.0-112-generic-x86_64-with-debian-stretch-sid",
      "processor": "x86_64",
      "version": "#135-Ubuntu SMP Fri Jan 19 11:48:36 UTC 2018",
      "system": "Linux",
      "cpu_count": 8,
      "cpu_times": {
        "user": 316306.37,
        "system": 20481.96,
        "idle": 7945914.13,
        "nice": 819.07
      },
      "cpu_percent": 78.1,
      "virtual_memory": {
        "total": 33618501632,
        "available": 25193668608,
        "percent": 25.1,
        "used": 7442108416,
        "free": 13966434304
      }
    },
    "process": {
      "username": "evgeniya",
      "cwd": "/cw/dtailocal/mercs_python/src/core",
      "create_time": 1517911405.12,
      "cpu_times": {
        "user": 2.25,
        "system": 0.42
      }
    },
    "logfile": "/cw/dtailocal/mercs_python/out/550/oes10/logs/mercspython_Log_F06",
    "command": "python /cw/dtailocal/mercs_python/bin/mercspython.py /cw/dtailocal/mercs_python/out/550/oes10/settings/mercspython_Settings_F06.s"
  }
},
{
  "ts": "2018-02-06T10:04:50.356708",
  "type": "INFO",
  "values": {
    "cmd": "python /cw/dtailocal/mercs_python/bin/mercspython.py /cw/dtailocal/mercs_python/out/550/oes10/settings/mercspython_Settings_F06.s",
    "cwd": null
  }
},
{
  "ts": "2018-02-06T10:04:50.360252",
  "type": "INFO",
  "values": "Start: Run process"
},
{
  "ts": "2018-02-06T10:04:50.360644",
  "type": "INFO",
  "values": "Write log to /cw/dtailocal/mercs_python/out/550/oes10/logs/mercspython_Log_F06.running.log"
},
{
  "ts": "2018-02-06T10:05:04.182162",
  "type": "INFO",
  "values": "Process ended (returncode 0)"
},
{
  "ts": "2018-02-06T10:05:04.182225",
  "type": "INFO",
  "values": "Finished: Run process 13.822 seconds"
},
{
  "ts": "2018-02-06T10:05:04.182279",
  "type": "WARNING",
  "values": {
    "Exit": "finished",
    "Returncode": 0,
    "Time": 13.822003364562988
  }
},
{
  "ts": "2018-02-06T10:05:04.182523",
  "type": "INFO",
  "values": "Closing /cw/dtailocal/mercs_python/out/550/oes10/logs/mercspython_Log_F06.running.log"
}
]
