[
{
  "ts": "2018-02-07T13:04:20.357168",
  "type": "SETTINGS",
  "values": {
    "date": "2018/02/07 14:04:20",
    "date_iso": "2018-02-07T14:04:20.356332",
    "params": null,
    "system": {
      "nodename": "gibson",
      "machine": "x86_64",
      "platform": "Linux-4.4.0-112-generic-x86_64-with-debian-stretch-sid",
      "processor": "x86_64",
      "version": "#135-Ubuntu SMP Fri Jan 19 11:48:36 UTC 2018",
      "system": "Linux",
      "cpu_count": 8,
      "cpu_times": {
        "user": 400129.73,
        "system": 23540.89,
        "idle": 8633956.7,
        "nice": 906.12
      },
      "cpu_percent": 99.4,
      "virtual_memory": {
        "total": 33618501632,
        "available": 25798631424,
        "percent": 23.3,
        "used": 6877143040,
        "free": 11504873472
      }
    },
    "process": {
      "username": "evgeniya",
      "cwd": "/cw/dtailocal/mercs_python/src/core",
      "create_time": 1518008621.83,
      "cpu_times": {
        "user": 1.12,
        "system": 0.14
      }
    },
    "logfile": "/cw/dtailocal/mercs_python/out/809/jura/logs/mercspython_Log_F09",
    "command": "python /cw/dtailocal/mercs_python/bin/mercspython.py /cw/dtailocal/mercs_python/out/809/jura/settings/mercspython_Settings_F09.s"
  }
},
{
  "ts": "2018-02-07T13:04:20.357324",
  "type": "INFO",
  "values": {
    "cmd": "python /cw/dtailocal/mercs_python/bin/mercspython.py /cw/dtailocal/mercs_python/out/809/jura/settings/mercspython_Settings_F09.s",
    "cwd": null
  }
},
{
  "ts": "2018-02-07T13:04:20.366900",
  "type": "INFO",
  "values": "Start: Run process"
},
{
  "ts": "2018-02-07T13:04:20.399897",
  "type": "INFO",
  "values": "Write log to /cw/dtailocal/mercs_python/out/809/jura/logs/mercspython_Log_F09.running.log"
},
{
  "ts": "2018-02-07T13:04:24.404684",
  "type": "INFO",
  "values": "Process ended (returncode 0)"
},
{
  "ts": "2018-02-07T13:04:24.404767",
  "type": "INFO",
  "values": "Finished: Run process 4.038 seconds"
},
{
  "ts": "2018-02-07T13:04:24.404876",
  "type": "WARNING",
  "values": {
    "Exit": "finished",
    "Returncode": 0,
    "Time": 4.037896394729614
  }
},
{
  "ts": "2018-02-07T13:04:24.405272",
  "type": "INFO",
  "values": "Closing /cw/dtailocal/mercs_python/out/809/jura/logs/mercspython_Log_F09.running.log"
}
]
