[
{
  "ts": "2018-02-05T18:05:51.981269",
  "type": "SETTINGS",
  "values": {
    "date": "2018/02/05 19:05:51",
    "date_iso": "2018-02-05T19:05:51.980348",
    "params": null,
    "system": {
      "nodename": "gibson",
      "machine": "x86_64",
      "platform": "Linux-4.4.0-112-generic-x86_64-with-debian-stretch-sid",
      "processor": "x86_64",
      "version": "#135-Ubuntu SMP Fri Jan 19 11:48:36 UTC 2018",
      "system": "Linux",
      "cpu_count": 8,
      "cpu_times": {
        "user": 160990.64,
        "system": 18911.96,
        "idle": 7643519.11,
        "nice": 753.62
      },
      "cpu_percent": 100.0,
      "virtual_memory": {
        "total": 33618501632,
        "available": 15746109440,
        "percent": 53.2,
        "used": 16897929216,
        "free": 3513892864
      }
    },
    "process": {
      "username": "evgeniya",
      "cwd": "/cw/dtailocal/mercs_python/src/core",
      "create_time": 1517853287.89,
      "cpu_times": {
        "user": 1.38,
        "system": 0.18
      }
    },
    "logfile": "/cw/dtailocal/mercs_python/out/352/scm20d/logs/mercspython_Log_F04",
    "command": "python /cw/dtailocal/mercs_python/bin/mercspython.py /cw/dtailocal/mercs_python/out/352/scm20d/settings/mercspython_Settings_F04.s"
  }
},
{
  "ts": "2018-02-05T18:05:51.981429",
  "type": "INFO",
  "values": {
    "cmd": "python /cw/dtailocal/mercs_python/bin/mercspython.py /cw/dtailocal/mercs_python/out/352/scm20d/settings/mercspython_Settings_F04.s",
    "cwd": null
  }
},
{
  "ts": "2018-02-05T18:05:52.008444",
  "type": "INFO",
  "values": "Start: Run process"
},
{
  "ts": "2018-02-05T18:05:52.056068",
  "type": "INFO",
  "values": "Write log to /cw/dtailocal/mercs_python/out/352/scm20d/logs/mercspython_Log_F04.running.log"
},
{
  "ts": "2018-02-05T18:08:38.853937",
  "type": "INFO",
  "values": "Process ended (returncode 0)"
},
{
  "ts": "2018-02-05T18:08:38.854023",
  "type": "INFO",
  "values": "Finished: Run process 166.846 seconds"
},
{
  "ts": "2018-02-05T18:08:38.854107",
  "type": "WARNING",
  "values": {
    "Exit": "finished",
    "Returncode": 0,
    "Time": 166.84560680389404
  }
},
{
  "ts": "2018-02-05T18:08:38.859794",
  "type": "INFO",
  "values": "Closing /cw/dtailocal/mercs_python/out/352/scm20d/logs/mercspython_Log_F04.running.log"
}
]
