[
{
  "ts": "2018-02-06T10:13:53.236104",
  "type": "SETTINGS",
  "values": {
    "date": "2018/02/06 11:13:53",
    "date_iso": "2018-02-06T11:13:53.235213",
    "params": null,
    "system": {
      "nodename": "gibson",
      "machine": "x86_64",
      "platform": "Linux-4.4.0-112-generic-x86_64-with-debian-stretch-sid",
      "processor": "x86_64",
      "version": "#135-Ubuntu SMP Fri Jan 19 11:48:36 UTC 2018",
      "system": "Linux",
      "cpu_count": 8,
      "cpu_times": {
        "user": 319441.45,
        "system": 20562.43,
        "idle": 7947013.94,
        "nice": 819.07
      },
      "cpu_percent": 63.1,
      "virtual_memory": {
        "total": 33618501632,
        "available": 19634917376,
        "percent": 41.6,
        "used": 13018402816,
        "free": 8306032640
      }
    },
    "process": {
      "username": "evgeniya",
      "cwd": "/cw/dtailocal/mercs_python/src/core",
      "create_time": 1517911551.33,
      "cpu_times": {
        "user": 1.52,
        "system": 0.54
      }
    },
    "logfile": "/cw/dtailocal/mercs_python/out/556/scm20d/logs/mercspython_Log_F08",
    "command": "python /cw/dtailocal/mercs_python/bin/mercspython.py /cw/dtailocal/mercs_python/out/556/scm20d/settings/mercspython_Settings_F08.s"
  }
},
{
  "ts": "2018-02-06T10:13:53.236260",
  "type": "INFO",
  "values": {
    "cmd": "python /cw/dtailocal/mercs_python/bin/mercspython.py /cw/dtailocal/mercs_python/out/556/scm20d/settings/mercspython_Settings_F08.s",
    "cwd": null
  }
},
{
  "ts": "2018-02-06T10:13:53.239406",
  "type": "INFO",
  "values": "Start: Run process"
},
{
  "ts": "2018-02-06T10:13:53.239945",
  "type": "INFO",
  "values": "Write log to /cw/dtailocal/mercs_python/out/556/scm20d/logs/mercspython_Log_F08.running.log"
},
{
  "ts": "2018-02-06T10:14:40.722983",
  "type": "INFO",
  "values": "Process ended (returncode 0)"
},
{
  "ts": "2018-02-06T10:14:40.723074",
  "type": "INFO",
  "values": "Finished: Run process 47.484 seconds"
},
{
  "ts": "2018-02-06T10:14:40.723163",
  "type": "WARNING",
  "values": {
    "Exit": "finished",
    "Returncode": 0,
    "Time": 47.48370122909546
  }
},
{
  "ts": "2018-02-06T10:14:40.723532",
  "type": "INFO",
  "values": "Closing /cw/dtailocal/mercs_python/out/556/scm20d/logs/mercspython_Log_F08.running.log"
}
]
