[
{
  "ts": "2018-02-06T09:54:01.935565",
  "type": "SETTINGS",
  "values": {
    "date": "2018/02/06 10:54:01",
    "date_iso": "2018-02-06T10:54:01.934940",
    "params": null,
    "system": {
      "nodename": "gibson",
      "machine": "x86_64",
      "platform": "Linux-4.4.0-112-generic-x86_64-with-debian-stretch-sid",
      "processor": "x86_64",
      "version": "#135-Ubuntu SMP Fri Jan 19 11:48:36 UTC 2018",
      "system": "Linux",
      "cpu_count": 8,
      "cpu_times": {
        "user": 312499.7,
        "system": 20357.09,
        "idle": 7944710.77,
        "nice": 819.07
      },
      "cpu_percent": 63.0,
      "virtual_memory": {
        "total": 33618501632,
        "available": 25878401024,
        "percent": 23.0,
        "used": 6659186688,
        "free": 15270490112
      }
    },
    "process": {
      "username": "evgeniya",
      "cwd": "/cw/dtailocal/mercs_python/src/core",
      "create_time": 1517910833.83,
      "cpu_times": {
        "user": 0.77,
        "system": 0.3
      }
    },
    "logfile": "/cw/dtailocal/mercs_python/out/527/jura/logs/mercspython_Log_F04",
    "command": "python /cw/dtailocal/mercs_python/bin/mercspython.py /cw/dtailocal/mercs_python/out/527/jura/settings/mercspython_Settings_F04.s"
  }
},
{
  "ts": "2018-02-06T09:54:01.935686",
  "type": "INFO",
  "values": {
    "cmd": "python /cw/dtailocal/mercs_python/bin/mercspython.py /cw/dtailocal/mercs_python/out/527/jura/settings/mercspython_Settings_F04.s",
    "cwd": null
  }
},
{
  "ts": "2018-02-06T09:54:01.938019",
  "type": "INFO",
  "values": "Start: Run process"
},
{
  "ts": "2018-02-06T09:54:01.938497",
  "type": "INFO",
  "values": "Write log to /cw/dtailocal/mercs_python/out/527/jura/logs/mercspython_Log_F04.running.log"
},
{
  "ts": "2018-02-06T09:54:03.742229",
  "type": "INFO",
  "values": "Process ended (returncode 0)"
},
{
  "ts": "2018-02-06T09:54:03.742289",
  "type": "INFO",
  "values": "Finished: Run process 1.804 seconds"
},
{
  "ts": "2018-02-06T09:54:03.742345",
  "type": "WARNING",
  "values": {
    "Exit": "finished",
    "Returncode": 0,
    "Time": 1.8043086528778076
  }
},
{
  "ts": "2018-02-06T09:54:03.742615",
  "type": "INFO",
  "values": "Closing /cw/dtailocal/mercs_python/out/527/jura/logs/mercspython_Log_F04.running.log"
}
]
