[
{
  "ts": "2018-02-06T09:54:00.128835",
  "type": "SETTINGS",
  "values": {
    "date": "2018/02/06 10:54:00",
    "date_iso": "2018-02-06T10:54:00.128222",
    "params": null,
    "system": {
      "nodename": "gibson",
      "machine": "x86_64",
      "platform": "Linux-4.4.0-112-generic-x86_64-with-debian-stretch-sid",
      "processor": "x86_64",
      "version": "#135-Ubuntu SMP Fri Jan 19 11:48:36 UTC 2018",
      "system": "Linux",
      "cpu_count": 8,
      "cpu_times": {
        "user": 312491.14,
        "system": 20356.6,
        "idle": 7944705.52,
        "nice": 819.07
      },
      "cpu_percent": 61.0,
      "virtual_memory": {
        "total": 33618501632,
        "available": 25950887936,
        "percent": 22.8,
        "used": 6586806272,
        "free": 15344144384
      }
    },
    "process": {
      "username": "evgeniya",
      "cwd": "/cw/dtailocal/mercs_python/src/core",
      "create_time": 1517910833.83,
      "cpu_times": {
        "user": 0.62,
        "system": 0.21
      }
    },
    "logfile": "/cw/dtailocal/mercs_python/out/527/jura/logs/mercspython_Log_F03",
    "command": "python /cw/dtailocal/mercs_python/bin/mercspython.py /cw/dtailocal/mercs_python/out/527/jura/settings/mercspython_Settings_F03.s"
  }
},
{
  "ts": "2018-02-06T09:54:00.128923",
  "type": "INFO",
  "values": {
    "cmd": "python /cw/dtailocal/mercs_python/bin/mercspython.py /cw/dtailocal/mercs_python/out/527/jura/settings/mercspython_Settings_F03.s",
    "cwd": null
  }
},
{
  "ts": "2018-02-06T09:54:00.131286",
  "type": "INFO",
  "values": "Start: Run process"
},
{
  "ts": "2018-02-06T09:54:00.131747",
  "type": "INFO",
  "values": "Write log to /cw/dtailocal/mercs_python/out/527/jura/logs/mercspython_Log_F03.running.log"
},
{
  "ts": "2018-02-06T09:54:01.934036",
  "type": "INFO",
  "values": "Process ended (returncode 0)"
},
{
  "ts": "2018-02-06T09:54:01.934094",
  "type": "INFO",
  "values": "Finished: Run process 1.803 seconds"
},
{
  "ts": "2018-02-06T09:54:01.934158",
  "type": "WARNING",
  "values": {
    "Exit": "finished",
    "Returncode": 0,
    "Time": 1.8028547763824463
  }
},
{
  "ts": "2018-02-06T09:54:01.934407",
  "type": "INFO",
  "values": "Closing /cw/dtailocal/mercs_python/out/527/jura/logs/mercspython_Log_F03.running.log"
}
]
