Var0,Var1,Var2,Var3,Var4,Var5,Var6,Var7,Var8,Var9,Var10,Var11,Var12,Var13,Var14,Var15,Var16,Var17,Var18,Var19,Var20,Var21,Var22,Var23,Var24,Var25
0.022099447513812154,0.0,1.0,,0.0,0.0,0.0,0.0,0.0,0.0,0.0,0.0,0.0,1.0,0.0,0.0,0.0800501578176069,0.0005543428511215621,1.0,0.0,0.0,0.0,0.0,0.04584221748400853,0.23809523809523808,0.0
0.5911602209944752,0.0,0.0,,1.0,0.0,0.0,0.0,0.0,0.0,0.0,0.0,0.0,0.0,1.0,0.0,0.017855851786424768,0.90888864878682,0.0,0.0,0.0,1.0,0.1570492845009837,0.015991471215351813,0.047619047619047616,0.0
0.4419889502762431,0.0,0.0,,0.0,1.0,1.0,0.0,0.0,0.0,0.0,0.0,0.0,0.0,0.0,0.0,0.8611229683543287,0.9993742812293036,0.0,0.0,1.0,0.0,0.07385546634730929,0.07782515991471216,0.047619047619047616,0.0
0.48342541436464087,0.0,0.0,,0.0,1.0,0.0,0.0,0.0,0.0,0.0,0.0,0.0,1.0,0.0,0.0,0.07886537859325748,0.00024119998694367906,1.0,0.0,0.0,0.0,0.08288220030713707,0.015991471215351813,0.19047619047619047,0.05
0.5386740331491713,0.0,0.0,,1.0,0.0,0.0,0.0,0.0,0.0,0.0,0.0,0.0,0.0,1.0,0.0,0.0015191945202456133,0.9082853248436552,0.0,0.0,0.0,1.0,0.6269914009768099,0.005330490405117271,0.047619047619047616,0.0
0.7541436464088398,0.0,0.0,,0.0,1.0,0.0,0.0,1.0,0.0,0.0,0.0,0.0,0.0,0.0,0.0,0.08643695275589407,0.0011729544025923405,1.0,0.0,0.0,0.0,0.2814438700899822,0.1044776119402985,0.047619047619047616,0.0
0.5303867403314917,0.0,0.0,,0.0,1.0,0.0,0.0,0.0,0.0,1.0,0.0,0.0,0.0,0.0,0.0,0.861566617026663,0.9999986433513158,0.0,0.0,1.0,0.0,0.08310623928177177,0.10660980810234541,0.19047619047619047,0.05
0.5359116022099447,0.0,0.0,,0.0,1.0,0.0,0.0,0.0,0.0,0.0,0.0,0.0,1.0,0.0,0.0,0.07469861772772692,0.0016497860423284204,1.0,0.0,0.0,0.0,0.35747251449124817,0.03624733475479744,0.0,0.0
0.09668508287292818,0.0,0.0,,0.0,1.0,0.0,0.0,0.0,0.0,0.0,0.0,0.0,1.0,0.0,0.0,0.07350600414236325,0.002367918911447613,1.0,0.0,0.0,0.0,0.5669652495183162,0.014925373134328358,0.047619047619047616,0.05
0.31215469613259667,1.0,0.0,,0.0,0.0,0.0,1.0,0.0,0.0,0.0,0.0,0.0,0.0,0.0,0.0,0.011770120149998568,0.9071482912584605,0.0,0.0,0.0,1.0,0.46036546866916767,0.005330490405117271,0.047619047619047616,0.0
0.2292817679558011,0.0,0.0,,0.0,1.0,0.0,0.0,0.0,0.0,0.0,0.0,0.0,1.0,0.0,0.0,0.07348988774256036,0.0006401761910018726,1.0,0.0,0.0,0.0,0.20254956353134304,0.005330490405117271,0.09523809523809523,0.0
0.07734806629834254,0.0,0.0,,0.0,1.0,0.0,0.0,0.0,0.0,0.0,0.0,0.0,1.0,0.0,0.0,0.06298378578260418,0.0023240606868239217,1.0,0.0,0.0,0.0,0.7610685437059305,0.022388059701492536,0.0,0.0
0.17679558011049723,0.0,0.0,,1.0,0.0,0.0,0.0,1.0,0.0,0.0,0.0,0.0,0.0,0.0,0.0,0.862496667598582,1.0,0.0,0.0,1.0,0.0,0.08609614123416962,0.05543710021321962,0.047619047619047616,0.05
0.4281767955801105,0.0,0.0,,0.0,1.0,0.0,0.0,0.0,0.0,0.0,0.0,0.0,1.0,0.0,0.0,0.07908944131828602,0.0008942744646885499,1.0,0.0,0.0,0.0,0.09546504380980313,0.024520255863539446,0.0,0.0
0.9613259668508287,0.0,0.0,,1.0,0.0,1.0,0.0,0.0,0.0,0.0,0.0,0.0,0.0,0.0,0.0,0.018227648176306125,0.9076433667857251,0.0,0.0,0.0,1.0,0.22497993832818042,0.05543710021321962,0.09523809523809523,0.0
0.3812154696132597,0.0,0.0,,0.0,0.0,0.0,0.0,0.0,0.0,0.0,0.0,0.0,0.0,0.0,1.0,0.023810413835570584,0.90840766620708,0.0,0.0,0.0,1.0,0.10443067623109416,0.017057569296375266,0.047619047619047616,0.0
0.6160220994475138,0.0,0.0,,0.0,1.0,0.0,0.0,0.0,1.0,0.0,0.0,0.0,0.0,0.0,0.0,0.07645955824500457,0.0004577373157194464,1.0,0.0,0.0,0.0,0.1031699478192861,0.06396588486140725,0.0,0.0
0.7044198895027625,0.0,0.0,,1.0,0.0,0.0,0.0,0.0,0.0,0.0,0.0,0.0,0.0,0.0,1.0,0.02012423505858683,0.9080450360386636,0.0,0.0,0.0,1.0,0.09499048852716778,0.039445628997867806,0.09523809523809523,0.0
0.9861878453038674,0.0,0.0,,1.0,0.0,1.0,0.0,0.0,0.0,0.0,0.0,0.0,0.0,0.0,0.0,0.02400291527765327,0.9067134954794441,0.0,0.0,0.0,1.0,0.5026762473879092,0.03837953091684435,0.047619047619047616,0.0
0.23756906077348067,0.0,0.0,,0.0,1.0,0.0,0.0,0.0,0.0,0.0,0.0,0.0,1.0,0.0,0.0,0.07159262934362133,0.002419208331102457,1.0,0.0,0.0,0.0,0.607013234593247,0.022388059701492536,0.0,0.0
0.6767955801104972,0.0,1.0,,0.0,0.0,0.0,0.0,0.0,1.0,0.0,0.0,0.0,0.0,0.0,0.0,0.06334461406706524,0.003412194173926832,1.0,0.0,0.0,0.0,1.0,0.07142857142857142,0.0,0.0
0.36187845303867405,0.0,0.0,,1.0,0.0,0.0,0.0,0.0,0.0,0.0,0.0,0.0,1.0,0.0,0.0,0.029045557704657998,0.9079512247945811,0.0,0.0,0.0,1.0,0.30983775504800537,0.03837953091684435,0.09523809523809523,0.0
0.30939226519337015,0.0,0.0,,0.0,1.0,0.0,0.0,0.0,0.0,0.0,0.0,0.0,1.0,0.0,0.0,0.07866056601243786,0.0010324501455907032,1.0,0.0,0.0,0.0,0.13839905822161935,0.0042643923240938165,0.0,0.0
0.2541436464088398,0.0,1.0,,0.0,0.0,1.0,0.0,0.0,0.0,0.0,0.0,0.0,0.0,0.0,0.0,0.02920067805275394,0.9080894207239708,0.0,0.0,0.0,1.0,0.3001592713437857,0.02025586353944563,0.047619047619047616,0.0
0.30662983425414364,1.0,0.0,,0.0,0.0,0.0,0.0,0.0,0.0,0.0,0.0,0.0,1.0,0.0,0.0,0.020339344228168438,0.9078914512585284,0.0,0.0,0.0,1.0,0.13998973494152583,0.0010660980810234541,0.047619047619047616,0.0
0.2513812154696133,1.0,0.0,,0.0,0.0,1.0,0.0,0.0,0.0,0.0,0.0,0.0,0.0,0.0,0.0,0.8636648827453574,0.9989373796075535,0.0,0.0,1.0,0.0,0.20260862835192855,0.21321961620469082,0.14285714285714285,0.0
0.9088397790055248,0.0,0.0,,1.0,0.0,0.0,0.0,0.0,1.0,0.0,0.0,0.0,0.0,0.0,0.0,0.01987532621719725,0.9075523700814498,0.0,0.0,0.0,1.0,0.24081949383485474,0.0255863539445629,0.047619047619047616,0.0
0.46685082872928174,0.0,0.0,,0.0,1.0,0.0,0.0,0.0,1.0,0.0,0.0,0.0,0.0,0.0,0.0,0.08332111546079765,0.0005863962073447963,1.0,0.0,0.0,0.0,0.11038807623842635,0.028784648187633263,0.14285714285714285,0.05
0.5193370165745856,0.0,0.0,,0.0,1.0,0.0,0.0,1.0,0.0,0.0,0.0,0.0,0.0,0.0,0.0,0.08355972771342526,0.00044244970741336154,1.0,0.0,0.0,0.0,0.1210380744053802,0.05223880597014925,0.19047619047619047,0.15
0.6546961325966851,0.0,0.0,,1.0,0.0,0.0,0.0,0.0,1.0,0.0,0.0,0.0,0.0,0.0,0.0,4.4767777274396954e-07,0.907879869123494,0.0,0.0,0.0,1.0,0.6943497370597125,0.03091684434968017,0.047619047619047616,0.0
0.7486187845303868,0.0,0.0,,1.0,0.0,0.0,0.0,0.0,1.0,0.0,0.0,0.0,0.0,0.0,0.0,0.026149306356867456,0.9081077861024262,0.0,0.0,0.0,1.0,0.20177968414578012,0.042643923240938165,0.23809523809523808,0.0
0.7458563535911602,0.0,0.0,,0.0,1.0,0.0,0.0,0.0,0.0,0.0,0.0,0.0,1.0,0.0,0.0,0.07424041952779345,0.0017465940626088272,1.0,0.0,0.0,0.0,0.3899072478645012,0.026652452025586353,0.047619047619047616,0.0
0.15193370165745856,0.0,0.0,,1.0,0.0,0.0,1.0,0.0,0.0,0.0,0.0,0.0,0.0,0.0,0.0,0.007933745480412693,0.9082128757542259,0.0,0.0,0.0,1.0,0.4134048628677803,0.01812366737739872,0.047619047619047616,0.0
0.5939226519337016,0.0,0.0,,0.0,1.0,0.0,0.0,0.0,1.0,0.0,0.0,0.0,0.0,0.0,0.0,0.07666459466471137,0.001575939807239086,1.0,0.0,0.0,0.0,0.3111779154599112,0.0511727078891258,0.0,0.0
0.0,0.0,0.0,,0.0,1.0,0.0,0.0,0.0,0.0,0.0,0.0,0.0,0.0,0.0,0.0,0.07859117595773411,0.000400879561913324,1.0,0.0,0.0,0.0,0.04648808723670328,0.0021321961620469083,0.14285714285714285,0.0
0.058011049723756904,1.0,0.0,,0.0,0.0,0.0,0.0,0.0,0.0,0.0,0.0,0.0,1.0,0.0,0.0,0.8635487103634488,0.9989323984795493,0.0,0.0,1.0,0.0,0.20282452045475838,0.013859275053304905,0.047619047619047616,0.0
0.049723756906077346,0.0,0.0,,0.0,1.0,0.0,0.0,1.0,0.0,0.0,0.0,0.0,0.0,0.0,0.0,0.07877629071657369,0.00017302332844476847,1.0,0.0,0.0,0.0,0.1029235049471879,0.007462686567164179,0.047619047619047616,0.05
0.24033149171270718,0.0,1.0,,0.0,0.0,0.0,1.0,0.0,0.0,0.0,0.0,0.0,0.0,0.0,0.0,0.0828215070669291,0.0020495114404361758,1.0,0.0,0.0,0.0,0.445157295727373,0.021321961620469083,0.0,0.0
0.06629834254143646,0.0,0.0,,0.0,1.0,0.0,0.0,0.0,1.0,0.0,0.0,0.0,0.0,0.0,0.0,0.0813105945854721,0.001766680562528857,1.0,0.0,0.0,0.0,0.353790128435434,0.024520255863539446,0.09523809523809523,0.0
0.1270718232044199,0.0,1.0,,0.0,0.0,0.0,0.0,0.0,0.0,0.0,0.0,0.0,0.0,0.0,0.0,0.08540438397412015,0.0002631493477435838,1.0,0.0,0.0,0.0,0.1968854509089872,0.0021321961620469083,0.09523809523809523,0.0
0.8287292817679558,0.0,0.0,,0.0,1.0,0.0,0.0,0.0,0.0,0.0,0.0,0.0,1.0,0.0,0.0,0.014737999941354985,0.9088578913338172,0.0,0.0,0.0,1.0,0.22318966324905393,0.06183368869936034,0.19047619047619047,0.1
0.39779005524861877,0.0,0.0,,1.0,0.0,0.0,0.0,0.0,0.0,0.0,0.0,0.0,0.0,1.0,0.0,0.0143261363908536,0.9088908761204806,0.0,0.0,0.0,1.0,0.2401616339366092,0.011727078891257996,0.047619047619047616,0.0
0.35082872928176795,0.0,0.0,,0.0,1.0,0.0,0.0,0.0,0.0,0.0,0.0,0.0,1.0,0.0,0.0,0.07136990965191103,0.002009115707229766,1.0,0.0,0.0,0.0,0.5057761321096731,0.02025586353944563,0.09523809523809523,0.0
0.281767955801105,0.0,0.0,,0.0,1.0,0.0,0.0,0.0,0.0,0.0,0.0,1.0,0.0,0.0,0.0,0.8622412674294948,0.9999302237109631,0.0,0.0,1.0,0.0,0.06513016664426276,0.14712153518123666,0.38095238095238093,0.1
0.1685082872928177,0.0,1.0,,0.0,0.0,0.0,1.0,0.0,0.0,0.0,0.0,0.0,0.0,0.0,0.0,0.08005418691755682,0.0004593976917210304,1.0,0.0,0.0,0.0,0.01572957273730819,0.02771855010660981,0.0,0.0
0.3011049723756906,0.0,0.0,,0.0,1.0,0.0,0.0,0.0,0.0,0.0,0.0,0.0,1.0,0.0,0.0,0.0763870344458948,0.0,1.0,0.0,0.0,0.0,0.18525375468954305,0.024520255863539446,0.047619047619047616,0.0
0.027624309392265192,0.0,0.0,,0.0,1.0,0.0,1.0,0.0,0.0,0.0,0.0,0.0,0.0,0.0,0.0,0.01997045774380753,0.9076524583567573,0.0,0.0,0.0,1.0,0.21108748518287687,0.01279317697228145,0.047619047619047616,0.0
0.212707182320442,0.0,0.0,,1.0,0.0,0.0,1.0,0.0,0.0,0.0,0.0,0.0,0.0,0.0,0.0,0.0,0.9078074402825521,0.0,0.0,0.0,1.0,0.6993559897838227,0.0010660980810234541,0.047619047619047616,0.0
0.4861878453038674,0.0,0.0,,1.0,0.0,0.0,0.0,1.0,0.0,0.0,0.0,0.0,0.0,0.0,0.0,0.020486630215250108,0.9077534983109926,0.0,0.0,0.0,1.0,0.1807729751968488,0.021321961620469083,0.19047619047619047,0.1
0.4198895027624309,0.0,0.0,,0.0,1.0,1.0,0.0,0.0,0.0,0.0,0.0,0.0,0.0,0.0,0.0,0.018706215714877975,0.9079544240556571,0.0,0.0,0.0,1.0,0.13318098683058172,0.008528784648187633,0.047619047619047616,0.0
0.1712707182320442,0.0,0.0,,0.0,1.0,0.0,0.0,1.0,0.0,0.0,0.0,0.0,0.0,0.0,0.0,1.0,0.6990379781447541,0.0,1.0,0.0,0.0,0.8821229118549204,0.006396588486140725,0.09523809523809523,0.05
0.32044198895027626,0.0,0.0,,1.0,0.0,0.0,0.0,0.0,0.0,0.0,0.0,0.0,1.0,0.0,0.0,0.012407165619959552,0.907222906936087,0.0,0.0,0.0,1.0,0.4297535978622608,0.026652452025586353,0.047619047619047616,0.0
0.40607734806629836,0.0,0.0,,0.0,0.0,1.0,0.0,0.0,0.0,0.0,0.0,0.0,0.0,0.0,0.0,0.8644805516464571,0.9985796293247022,0.0,0.0,1.0,0.0,0.3064445829412651,0.0767590618336887,0.09523809523809523,0.0
0.2513812154696133,0.0,0.0,,0.0,1.0,0.0,0.0,0.0,1.0,0.0,0.0,0.0,0.0,0.0,0.0,0.07752704589301594,0.0006326842505074046,1.0,0.0,0.0,0.0,0.0690284448029068,0.0255863539445629,0.09523809523809523,0.0
0.6988950276243094,0.0,1.0,,0.0,0.0,0.0,0.0,0.0,0.0,0.0,0.0,0.0,1.0,0.0,0.0,0.07787981597757557,9.510714730299189e-05,1.0,0.0,0.0,0.0,0.1353663851922458,0.02025586353944563,0.09523809523809523,0.0
0.32320441988950277,1.0,0.0,,0.0,0.0,1.0,0.0,0.0,0.0,0.0,0.0,0.0,0.0,0.0,0.0,0.02803201522820741,0.9083266317588137,0.0,0.0,0.0,1.0,0.24772804112540886,0.017057569296375266,0.047619047619047616,0.0
0.3425414364640884,1.0,0.0,,0.0,0.0,0.0,1.0,0.0,0.0,0.0,0.0,0.0,0.0,0.0,0.0,0.8607290119147195,0.9996263951511838,0.0,0.0,1.0,0.0,0.02691522772543412,0.15458422174840086,0.047619047619047616,0.0
0.1270718232044199,0.0,0.0,,0.0,1.0,0.0,0.0,0.0,0.0,1.0,0.0,0.0,0.0,0.0,0.0,0.07921165735011948,0.0004476940657594316,1.0,0.0,0.0,0.0,0.02260756925859393,0.0042643923240938165,0.0,0.0
0.8204419889502762,0.0,1.0,,0.0,0.0,1.0,0.0,0.0,0.0,0.0,0.0,0.0,0.0,0.0,0.0,0.08522150760414271,0.0011693299232720237,1.0,0.0,0.0,0.0,0.2503594807183911,0.07356076759061833,0.047619047619047616,0.0
0.5828729281767956,0.0,0.0,,0.0,1.0,0.0,0.0,0.0,1.0,0.0,0.0,0.0,0.0,0.0,0.0,0.08547489322325495,0.0006579543633101896,1.0,0.0,0.0,0.0,0.18531281951012857,0.05650319829424307,0.047619047619047616,0.0
0.1270718232044199,0.0,0.0,,0.0,1.0,0.0,1.0,0.0,0.0,0.0,0.0,0.0,0.0,0.0,0.0,0.07235771065645509,0.0009403397744853834,1.0,0.0,0.0,0.0,0.26497904217228185,0.0255863539445629,0.0,0.0
0.49171270718232046,0.0,0.0,,0.0,1.0,0.0,0.0,0.0,0.0,0.0,0.0,0.0,1.0,0.0,0.0,0.07446537760836748,0.00035633288870338595,1.0,0.0,0.0,0.0,0.17588485211390956,0.03411513859275053,0.09523809523809523,0.05
0.7651933701657458,0.0,0.0,,0.0,1.0,0.0,0.0,0.0,0.0,0.0,0.0,0.0,1.0,0.0,0.0,0.0795711426012639,0.00029832097109140724,1.0,0.0,0.0,0.0,0.06139686263966793,0.04157782515991471,0.19047619047619047,0.0
0.9972375690607734,0.0,0.0,,0.0,1.0,0.0,0.0,0.0,0.0,0.0,0.0,0.0,1.0,0.0,0.0,0.07420169540049165,0.0007739984470219185,1.0,0.0,0.0,0.0,0.1886489635142346,0.07036247334754797,0.09523809523809523,0.1
0.013812154696132596,0.0,0.0,,0.0,1.0,1.0,0.0,0.0,0.0,0.0,0.0,0.0,0.0,0.0,0.0,0.08343102035389417,0.0005579470819538196,1.0,0.0,0.0,0.0,0.11347777737043419,0.006396588486140725,0.047619047619047616,0.0
0.30386740331491713,1.0,0.0,,0.0,0.0,0.0,1.0,0.0,0.0,0.0,0.0,0.0,0.0,0.0,0.0,0.01160224098539294,0.9091958385955777,0.0,0.0,0.0,1.0,0.3677884909142012,0.006396588486140725,0.047619047619047616,0.0
0.6961325966850829,0.0,0.0,,0.0,1.0,0.0,0.0,0.0,0.0,0.0,0.0,0.0,1.0,0.0,0.0,0.0770534028099395,0.0001462548275431474,1.0,0.0,0.0,0.0,0.13727071647664088,0.04797441364605544,0.14285714285714285,0.0
0.7651933701657458,0.0,0.0,,0.0,1.0,0.0,0.0,0.0,0.0,0.0,0.0,0.0,0.0,0.0,0.0,0.0823812159778879,0.0004421257316081533,1.0,0.0,0.0,0.0,0.08274370348645378,0.12473347547974413,0.2857142857142857,0.2
0.03038674033149171,1.0,0.0,,0.0,0.0,0.0,1.0,0.0,0.0,0.0,0.0,0.0,0.0,0.0,0.0,0.014282711646941967,0.9090350858507537,0.0,0.0,0.0,1.0,0.268044302688875,0.04157782515991471,0.047619047619047616,0.0
0.47513812154696133,0.0,0.0,,1.0,0.0,0.0,0.0,0.0,0.0,0.0,0.0,0.0,1.0,0.0,0.0,0.01871584078698163,0.9086926434246964,0.0,0.0,0.0,1.0,0.09253624339594205,0.008528784648187633,0.047619047619047616,0.0
0.9419889502762431,0.0,0.0,,1.0,0.0,0.0,0.0,0.0,0.0,0.0,0.0,0.0,1.0,0.0,0.0,0.016454396520289943,0.9088637431467979,0.0,0.0,0.0,1.0,0.18013140904221303,0.04584221748400853,0.047619047619047616,0.0
0.43646408839779005,0.0,0.0,,1.0,0.0,0.0,0.0,0.0,0.0,0.0,0.0,0.0,0.0,0.0,0.0,0.016370680776872704,0.9088029571863543,0.0,0.0,0.0,1.0,0.16980932246540634,0.18017057569296374,0.09523809523809523,0.0
0.643646408839779,0.0,1.0,,0.0,0.0,0.0,0.0,0.0,0.0,1.0,0.0,0.0,0.0,0.0,0.0,0.07957718625118877,0.0007448811215330417,1.0,0.0,0.0,0.0,0.04937207985563743,0.03411513859275053,0.047619047619047616,0.0
0.1464088397790055,0.0,0.0,,1.0,0.0,0.0,0.0,0.0,1.0,0.0,0.0,0.0,0.0,0.0,0.0,0.02212065408408606,0.90737558053427,0.0,0.0,0.0,1.0,0.29794535893080454,0.0031982942430703624,0.09523809523809523,0.0
0.7762430939226519,0.0,0.0,,0.0,1.0,0.0,0.0,0.0,0.0,0.0,0.0,0.0,1.0,0.0,0.0,0.0768703026010749,0.0009417369201450738,1.0,0.0,0.0,0.0,0.14202237945684806,0.09381663113006397,0.09523809523809523,0.0
0.3839779005524862,0.0,0.0,,1.0,0.0,0.0,0.0,0.0,0.0,0.0,1.0,0.0,0.0,0.0,0.0,0.014297932691199357,0.9088883450595024,0.0,0.0,0.0,1.0,0.2405099127062686,0.01279317697228145,0.047619047619047616,0.0
0.3867403314917127,0.0,0.0,,0.0,1.0,0.0,0.0,1.0,0.0,0.0,0.0,0.0,0.0,0.0,0.0,0.08422587223858438,0.00043127254213526194,1.0,0.0,0.0,0.0,0.14368434130504737,0.02771855010660981,0.19047619047619047,0.05
0.1712707182320442,0.0,0.0,,0.0,1.0,0.0,0.0,1.0,0.0,0.0,0.0,0.0,0.0,0.0,0.0,0.06989637826443919,0.0017709934904351333,1.0,0.0,0.0,0.0,0.4808487411046343,0.1300639658848614,0.09523809523809523,0.0
0.2955801104972376,0.0,0.0,,0.0,1.0,0.0,0.0,0.0,0.0,0.0,0.0,0.0,1.0,0.0,0.0,0.08353353856374757,0.0005572788818559195,1.0,0.0,0.0,0.0,0.11692594086185756,0.09914712153518124,0.42857142857142855,0.45
0.36187845303867405,0.0,0.0,,0.0,0.0,0.0,0.0,0.0,0.0,0.0,0.0,0.0,0.0,0.0,0.0,0.8602166447043413,0.9994557813927898,0.0,0.0,1.0,0.0,0.06852130203305186,0.17590618336886993,0.09523809523809523,0.1
1.0,0.0,0.0,,0.0,1.0,0.0,0.0,0.0,0.0,0.0,0.0,0.0,1.0,0.0,0.0,0.08010992280020698,0.00025197218246548423,1.0,0.0,0.0,0.0,0.07562741096487477,0.039445628997867806,0.14285714285714285,0.05
0.18232044198895028,0.0,0.0,,0.0,1.0,0.0,0.0,0.0,0.0,0.0,0.0,0.0,1.0,0.0,0.0,0.07921680564450047,0.00029119350337797827,1.0,0.0,0.0,0.0,0.06541734387538545,0.03837953091684435,0.047619047619047616,0.05
0.011049723756906077,1.0,0.0,,0.0,0.0,0.0,0.0,0.0,0.0,0.0,0.0,0.0,1.0,0.0,0.0,0.00977795406333643,0.9077623266516832,0.0,0.0,0.0,1.0,0.3942760078698781,0.031982942430703626,0.047619047619047616,0.0
0.1464088397790055,0.0,0.0,,0.0,1.0,0.0,1.0,0.0,0.0,0.0,0.0,0.0,0.0,0.0,0.0,0.06865250557414801,0.0017760961093665146,1.0,0.0,0.0,0.0,0.511195838577882,0.006396588486140725,0.047619047619047616,0.0
0.5082872928176796,0.0,0.0,,0.0,1.0,0.0,0.0,0.0,0.0,0.0,0.0,0.0,1.0,0.0,0.0,0.0824031521887301,0.0006984918359312879,1.0,0.0,0.0,0.0,0.08989462021320363,0.028784648187633263,0.19047619047619047,0.0
0.6270718232044199,0.0,0.0,,1.0,0.0,0.0,0.0,0.0,0.0,0.0,0.0,0.0,1.0,0.0,0.0,0.011887859404109356,0.9077266893131155,0.0,0.0,0.0,1.0,0.3388324718016399,0.019189765458422176,0.09523809523809523,0.0
0.3674033149171271,0.0,0.0,,0.0,1.0,0.0,0.0,0.0,0.0,0.0,0.0,0.0,1.0,0.0,0.0,0.08058983337209547,0.000183410802697763,1.0,0.0,0.0,0.0,0.09867898473683567,0.015991471215351813,0.0,0.0
0.31215469613259667,0.0,0.0,,0.0,1.0,0.0,0.0,0.0,1.0,0.0,0.0,0.0,0.0,0.0,0.0,0.012613992750754144,0.9087879935538534,0.0,0.0,0.0,1.0,0.2757268028008945,0.005330490405117271,0.047619047619047616,0.0
0.09944751381215469,0.0,0.0,,1.0,0.0,0.0,1.0,0.0,0.0,0.0,0.0,0.0,0.0,0.0,0.0,0.0128799133474905,0.9080094189485833,0.0,0.0,0.0,1.0,0.26810947766331417,0.0,0.047619047619047616,0.0
0.856353591160221,0.0,0.0,,1.0,0.0,0.0,0.0,0.0,0.0,0.0,0.0,0.0,0.0,1.0,0.0,0.0143261363908536,0.9088908761204806,0.0,0.0,0.0,1.0,0.2401616339366092,0.01279317697228145,0.047619047619047616,0.0
0.0055248618784530384,0.0,1.0,,0.0,0.0,0.0,0.0,0.0,0.0,0.0,0.0,0.0,1.0,0.0,0.0,0.07994405818557632,0.00023115673698366425,1.0,0.0,0.0,0.0,0.08114080645883996,0.006396588486140725,0.23809523809523808,0.0
0.04419889502762431,0.0,1.0,,0.0,0.0,0.0,1.0,0.0,0.0,0.0,0.0,0.0,0.0,0.0,0.0,0.08414036578407776,0.0005823060128045826,1.0,0.0,0.0,0.0,0.13778600611830072,0.02025586353944563,0.047619047619047616,0.0
0.292817679558011,0.0,1.0,,0.0,0.0,0.0,0.0,0.0,0.0,0.0,0.0,0.0,0.0,1.0,0.0,0.07836554636050336,0.00015856590813933172,1.0,0.0,0.0,0.0,0.11161010700916114,0.022388059701492536,0.09523809523809523,0.0
0.049723756906077346,0.0,0.0,,0.0,1.0,0.0,0.0,1.0,0.0,0.0,0.0,0.0,0.0,0.0,0.0,0.9701620526383995,0.7008826761308639,0.0,1.0,0.0,0.0,0.6953701327532761,0.010660980810234541,0.047619047619047616,0.05
0.26519337016574585,1.0,0.0,,0.0,0.0,0.0,0.0,0.0,0.0,0.0,0.0,0.0,1.0,0.0,0.0,0.009823169518337447,0.9082338936845857,0.0,0.0,0.0,1.0,0.34942340514800824,0.0042643923240938165,0.047619047619047616,0.0
0.3756906077348066,0.0,0.0,,0.0,1.0,0.0,0.0,0.0,0.0,0.0,0.0,0.0,1.0,0.0,0.0,0.06871831420667457,0.001814689727156364,1.0,0.0,0.0,0.0,0.5176115001242398,0.07356076759061833,0.14285714285714285,0.05
0.8204419889502762,0.0,1.0,,0.0,0.0,0.0,0.0,0.0,0.0,0.0,0.0,0.0,1.0,0.0,0.0,0.07802754964242839,3.3207520028802783e-06,1.0,0.0,0.0,0.0,0.1583588941436212,0.04904051172707889,0.47619047619047616,0.1
0.3314917127071823,0.0,0.0,,1.0,0.0,0.0,0.0,0.0,1.0,0.0,0.0,0.0,0.0,0.0,0.0,0.016333523521773127,0.9087519107485533,0.0,0.0,0.0,1.0,0.16125103363436025,0.07036247334754797,0.047619047619047616,0.0
0.19613259668508287,0.0,0.0,,0.0,1.0,0.0,0.0,0.0,0.0,0.0,0.0,0.0,0.0,0.0,0.0,0.08367858616196712,0.0007650081184286145,1.0,0.0,0.0,0.0,0.13712203606620146,0.021321961620469083,0.09523809523809523,0.05
0.30386740331491713,0.0,0.0,,0.0,1.0,0.0,0.0,0.0,0.0,0.0,0.0,0.0,1.0,0.0,0.0,0.07811775671354325,0.0009009564656701414,1.0,0.0,0.0,0.0,0.10857336054388515,0.01812366737739872,0.0,0.0
0.1878453038674033,1.0,0.0,,0.0,0.0,1.0,0.0,0.0,0.0,0.0,0.0,0.0,0.0,0.0,0.0,0.8610934216213594,0.9996408525714892,0.0,0.0,1.0,0.0,0.013982068735157418,0.019189765458422176,0.047619047619047616,0.0
0.024861878453038673,0.0,0.0,,0.0,1.0,0.0,0.0,0.0,0.0,0.0,0.0,0.0,1.0,0.0,0.0,0.07214349684241737,0.0011923524539264106,1.0,0.0,0.0,0.0,0.30959538561180966,0.0021321961620469083,0.0,0.0
0.8204419889502762,0.0,1.0,,0.0,0.0,0.0,0.0,0.0,1.0,0.0,0.0,0.0,0.0,0.0,0.0,0.0848660514529498,0.000936148337506024,1.0,0.0,0.0,0.0,0.19719503203757335,0.08315565031982942,0.09523809523809523,0.05
0.6464088397790055,0.0,0.0,,1.0,0.0,0.0,0.0,0.0,0.0,0.0,0.0,0.0,0.0,1.0,0.0,0.00945853597281204,0.9076523368658304,0.0,0.0,0.0,1.0,0.4196270362087717,0.011727078891257996,0.047619047619047616,0.0
0.10497237569060773,0.0,0.0,,0.0,1.0,0.0,0.0,0.0,0.0,0.0,0.0,0.0,0.0,0.0,0.0,0.8602970028644653,0.9996859662023582,0.0,0.0,1.0,0.0,0.04023943656234597,1.0,1.0,1.0
0.39502762430939226,0.0,0.0,,1.0,0.0,0.0,0.0,0.0,0.0,0.0,0.0,0.0,1.0,0.0,0.0,0.011418693098757178,0.9076250216557578,0.0,0.0,0.0,1.0,0.3692976989160586,0.04051172707889126,0.047619047619047616,0.0
0.6187845303867403,0.0,0.0,,1.0,0.0,0.0,0.0,0.0,1.0,0.0,0.0,0.0,0.0,0.0,0.0,0.012096477245993331,0.9089450205769184,0.0,0.0,0.0,1.0,0.3122370087945481,0.03304904051172708,0.047619047619047616,0.0
0.06906077348066299,0.0,1.0,,0.0,0.0,0.0,0.0,0.0,1.0,0.0,0.0,0.0,0.0,0.0,0.0,0.07858334159671984,0.0007160472748735423,1.0,0.0,0.0,0.0,0.05401579678442969,0.017057569296375266,0.0,0.0
0.14917127071823205,0.0,0.0,,0.0,1.0,0.0,0.0,0.0,0.0,0.0,0.0,0.0,1.0,0.0,0.0,0.06771417296344207,0.0015728012916267253,1.0,0.0,0.0,0.0,0.4963644584570639,0.021321961620469083,0.0,0.0
0.11049723756906077,1.0,0.0,,0.0,0.0,0.0,1.0,0.0,0.0,0.0,0.0,0.0,0.0,0.0,0.0,0.016034698608774284,0.9066521223128534,0.0,0.0,0.0,1.0,0.5268785668023122,0.007462686567164179,0.047619047619047616,0.0
0.16574585635359115,0.0,0.0,,0.0,1.0,0.0,0.0,0.0,0.0,0.0,0.0,0.0,1.0,0.0,0.0,0.0781913997070841,0.00019835418671086813,1.0,0.0,0.0,0.0,0.10346323520426244,0.005330490405117271,0.0,0.0
0.36464088397790057,0.0,0.0,,0.0,1.0,0.0,0.0,0.0,0.0,0.0,0.0,0.0,1.0,0.0,0.0,0.06869346809031193,0.0017960003728960247,1.0,0.0,0.0,0.0,0.514314053761207,0.035181236673773986,0.047619047619047616,0.0
0.6519337016574586,0.0,1.0,,0.0,0.0,0.0,0.0,0.0,0.0,0.0,0.0,0.0,1.0,0.0,0.0,0.08009761166146845,0.00025575864968826133,1.0,0.0,0.0,0.0,0.0744664817326767,0.04051172707889126,0.19047619047619047,0.0
0.9779005524861878,0.0,0.0,,1.0,0.0,0.0,1.0,0.0,0.0,0.0,0.0,0.0,0.0,0.0,0.0,0.023780643263714124,0.9066071909183749,0.0,0.0,0.0,1.0,0.5316281930645681,0.015991471215351813,0.047619047619047616,0.0
0.1464088397790055,0.0,0.0,,0.0,1.0,0.0,0.0,0.0,0.0,0.0,0.0,0.0,1.0,0.0,0.0,0.0772962680014026,0.0007780076476107584,1.0,0.0,0.0,0.0,0.09748954145332046,0.0,0.0,0.0
0.1298342541436464,1.0,0.0,,0.0,0.0,0.0,0.0,0.0,0.0,0.0,0.0,0.0,1.0,0.0,0.0,0.8631408759128989,0.9992328860388376,0.0,0.0,1.0,0.0,0.1185634620946422,0.009594882729211088,0.047619047619047616,0.0
0.23756906077348067,0.0,0.0,,0.0,1.0,0.0,0.0,0.0,0.0,0.0,0.0,0.0,1.0,0.0,0.0,0.08249179238764275,0.000638455069536974,1.0,0.0,0.0,0.0,0.08597597487504735,0.023454157782515993,0.047619047619047616,0.0
0.3011049723756906,0.0,0.0,,0.0,1.0,0.0,0.0,0.0,0.0,0.0,0.0,0.0,1.0,0.0,0.0,0.07807052670856728,7.674176884786095e-05,1.0,0.0,0.0,0.0,0.13768213350278827,0.03837953091684435,0.09523809523809523,0.0
0.7044198895027625,0.0,0.0,,0.0,1.0,0.0,0.0,0.0,1.0,0.0,0.0,0.0,0.0,0.0,0.0,0.08575043889209656,0.0006854518097733133,1.0,0.0,0.0,0.0,0.19597300126683856,0.054371002132196165,0.047619047619047616,0.0
0.03591160220994475,0.0,1.0,,0.0,0.0,0.0,0.0,0.0,1.0,0.0,0.0,0.0,0.0,0.0,0.0,0.07716979903073365,0.000606097985996303,1.0,0.0,0.0,0.0,0.07849103640429667,0.011727078891257996,0.0,0.0
0.6988950276243094,0.0,0.0,,0.0,1.0,0.0,0.0,0.0,0.0,0.0,0.0,0.0,1.0,0.0,0.0,0.07705049290441905,0.0008490393428926524,1.0,0.0,0.0,0.0,0.11773248117054255,0.12260127931769722,0.09523809523809523,0.05
0.13812154696132597,0.0,0.0,,0.0,1.0,0.0,0.0,1.0,0.0,0.0,0.0,0.0,0.0,0.0,0.0,0.07948944140782162,0.00022512268761248918,1.0,0.0,0.0,0.0,0.08311642287152791,0.028784648187633263,0.09523809523809523,0.05
0.7044198895027625,0.0,0.0,,0.0,1.0,0.0,0.0,0.0,0.0,1.0,0.0,0.0,0.0,0.0,0.0,0.08349750050307747,0.001730618005716783,1.0,0.0,0.0,0.0,0.3614257840345753,0.1417910447761194,0.0,0.0
0.03867403314917127,0.0,0.0,,1.0,0.0,1.0,0.0,0.0,0.0,0.0,0.0,0.0,0.0,0.0,0.0,0.012519532740802185,0.90661848957458,0.0,0.0,0.0,1.0,0.5795399461491774,0.0031982942430703624,0.047619047619047616,0.0
0.11602209944751381,0.0,0.0,,1.0,0.0,0.0,1.0,0.0,0.0,0.0,0.0,0.0,0.0,0.0,0.0,0.022733748793228304,0.907299547462496,0.0,0.0,0.0,1.0,0.3242862321939933,0.0010660980810234541,0.047619047619047616,0.0
0.1878453038674033,0.0,0.0,,0.0,1.0,0.0,0.0,0.0,0.0,1.0,0.0,0.0,0.0,0.0,0.0,0.08490276103027664,0.0008123288344701621,1.0,0.0,0.0,0.0,0.18038803550406732,0.0255863539445629,0.047619047619047616,0.0
0.5552486187845304,0.0,0.0,,0.0,1.0,0.0,0.0,1.0,0.0,0.0,0.0,0.0,0.0,0.0,0.0,0.07441501385898547,0.0004865509138911743,1.0,0.0,0.0,0.0,0.17012297702989496,0.06183368869936034,0.14285714285714285,0.0
