[
{
  "ts": "2018-02-07T10:15:18.597657",
  "type": "SETTINGS",
  "values": {
    "date": "2018/02/07 11:15:18",
    "date_iso": "2018-02-07T11:15:18.596733",
    "params": null,
    "system": {
      "nodename": "gibson",
      "machine": "x86_64",
      "platform": "Linux-4.4.0-112-generic-x86_64-with-debian-stretch-sid",
      "processor": "x86_64",
      "version": "#135-Ubuntu SMP Fri Jan 19 11:48:36 UTC 2018",
      "system": "Linux",
      "cpu_count": 8,
      "cpu_times": {
        "user": 377245.25,
        "system": 22349.59,
        "idle": 8577338.9,
        "nice": 898.04
      },
      "cpu_percent": 99.4,
      "virtual_memory": {
        "total": 33618501632,
        "available": 26372501504,
        "percent": 21.6,
        "used": 6377254912,
        "free": 12205838336
      }
    },
    "process": {
      "username": "evgeniya",
      "cwd": "/cw/dtailocal/mercs_python/src/core",
      "create_time": 1517998486.06,
      "cpu_times": {
        "user": 1.46,
        "system": 0.28
      }
    },
    "logfile": "/cw/dtailocal/mercs_python/out/708/enb/logs/mercspython_Log_F09",
    "command": "python /cw/dtailocal/mercs_python/bin/mercspython.py /cw/dtailocal/mercs_python/out/708/enb/settings/mercspython_Settings_F09.s"
  }
},
{
  "ts": "2018-02-07T10:15:18.597825",
  "type": "INFO",
  "values": {
    "cmd": "python /cw/dtailocal/mercs_python/bin/mercspython.py /cw/dtailocal/mercs_python/out/708/enb/settings/mercspython_Settings_F09.s",
    "cwd": null
  }
},
{
  "ts": "2018-02-07T10:15:18.617139",
  "type": "INFO",
  "values": "Start: Run process"
},
{
  "ts": "2018-02-07T10:15:18.635479",
  "type": "INFO",
  "values": "Write log to /cw/dtailocal/mercs_python/out/708/enb/logs/mercspython_Log_F09.running.log"
},
{
  "ts": "2018-02-07T10:15:21.639717",
  "type": "INFO",
  "values": "Process ended (returncode 0)"
},
{
  "ts": "2018-02-07T10:15:21.639793",
  "type": "INFO",
  "values": "Finished: Run process 3.023 seconds"
},
{
  "ts": "2018-02-07T10:15:21.639870",
  "type": "WARNING",
  "values": {
    "Exit": "finished",
    "Returncode": 0,
    "Time": 3.022700071334839
  }
}
]
