[
{
  "ts": "2018-02-07T10:17:04.441158",
  "type": "SETTINGS",
  "values": {
    "date": "2018/02/07 11:17:04",
    "date_iso": "2018-02-07T11:17:04.440302",
    "params": null,
    "system": {
      "nodename": "gibson",
      "machine": "x86_64",
      "platform": "Linux-4.4.0-112-generic-x86_64-with-debian-stretch-sid",
      "processor": "x86_64",
      "version": "#135-Ubuntu SMP Fri Jan 19 11:48:36 UTC 2018",
      "system": "Linux",
      "cpu_count": 8,
      "cpu_times": {
        "user": 378058.86,
        "system": 22376.51,
        "idle": 8577342.43,
        "nice": 898.04
      },
      "cpu_percent": 99.9,
      "virtual_memory": {
        "total": 33618501632,
        "available": 24231571456,
        "percent": 27.9,
        "used": 8518320128,
        "free": 10150293504
      }
    },
    "process": {
      "username": "evgeniya",
      "cwd": "/cw/dtailocal/mercs_python/src/core",
      "create_time": 1517998597.52,
      "cpu_times": {
        "user": 1.31,
        "system": 0.2
      }
    },
    "logfile": "/cw/dtailocal/mercs_python/out/723/jura/logs/mercspython_Log_F08",
    "command": "python /cw/dtailocal/mercs_python/bin/mercspython.py /cw/dtailocal/mercs_python/out/723/jura/settings/mercspython_Settings_F08.s"
  }
},
{
  "ts": "2018-02-07T10:17:04.441306",
  "type": "INFO",
  "values": {
    "cmd": "python /cw/dtailocal/mercs_python/bin/mercspython.py /cw/dtailocal/mercs_python/out/723/jura/settings/mercspython_Settings_F08.s",
    "cwd": null
  }
},
{
  "ts": "2018-02-07T10:17:04.457173",
  "type": "INFO",
  "values": "Start: Run process"
},
{
  "ts": "2018-02-07T10:17:04.479239",
  "type": "INFO",
  "values": "Write log to /cw/dtailocal/mercs_python/out/723/jura/logs/mercspython_Log_F08.running.log"
},
{
  "ts": "2018-02-07T10:17:07.082387",
  "type": "INFO",
  "values": "Process ended (returncode 0)"
},
{
  "ts": "2018-02-07T10:17:07.082462",
  "type": "INFO",
  "values": "Finished: Run process 2.625 seconds"
},
{
  "ts": "2018-02-07T10:17:07.082546",
  "type": "WARNING",
  "values": {
    "Exit": "finished",
    "Returncode": 0,
    "Time": 2.625312328338623
  }
}
]
