[
{
  "ts": "2018-02-07T10:27:53.277316",
  "type": "SETTINGS",
  "values": {
    "date": "2018/02/07 11:27:53",
    "date_iso": "2018-02-07T11:27:53.276713",
    "params": null,
    "system": {
      "nodename": "gibson",
      "machine": "x86_64",
      "platform": "Linux-4.4.0-112-generic-x86_64-with-debian-stretch-sid",
      "processor": "x86_64",
      "version": "#135-Ubuntu SMP Fri Jan 19 11:48:36 UTC 2018",
      "system": "Linux",
      "cpu_count": 8,
      "cpu_times": {
        "user": 382527.34,
        "system": 22419.4,
        "idle": 8578012.82,
        "nice": 901.26
      },
      "cpu_percent": 57.3,
      "virtual_memory": {
        "total": 33618501632,
        "available": 26861019136,
        "percent": 20.1,
        "used": 5888335872,
        "free": 12679008256
      }
    },
    "process": {
      "username": "evgeniya",
      "cwd": "/cw/dtailocal/mercs_python/src/core",
      "create_time": 1517998486.06,
      "cpu_times": {
        "user": 1.43,
        "system": 0.32
      }
    },
    "logfile": "/cw/dtailocal/mercs_python/out/704/rf1/logs/mercspython_Log_F06",
    "command": "python /cw/dtailocal/mercs_python/bin/mercspython.py /cw/dtailocal/mercs_python/out/704/rf1/settings/mercspython_Settings_F06.s"
  }
},
{
  "ts": "2018-02-07T10:27:53.277407",
  "type": "INFO",
  "values": {
    "cmd": "python /cw/dtailocal/mercs_python/bin/mercspython.py /cw/dtailocal/mercs_python/out/704/rf1/settings/mercspython_Settings_F06.s",
    "cwd": null
  }
},
{
  "ts": "2018-02-07T10:27:53.284604",
  "type": "INFO",
  "values": "Start: Run process"
},
{
  "ts": "2018-02-07T10:27:53.285077",
  "type": "INFO",
  "values": "Write log to /cw/dtailocal/mercs_python/out/704/rf1/logs/mercspython_Log_F06.running.log"
},
{
  "ts": "2018-02-07T10:29:16.394751",
  "type": "INFO",
  "values": "Process ended (returncode 0)"
},
{
  "ts": "2018-02-07T10:29:16.394813",
  "type": "INFO",
  "values": "Finished: Run process 83.110 seconds"
},
{
  "ts": "2018-02-07T10:29:16.394871",
  "type": "WARNING",
  "values": {
    "Exit": "finished",
    "Returncode": 0,
    "Time": 83.11024069786072
  }
},
{
  "ts": "2018-02-07T10:29:16.395159",
  "type": "INFO",
  "values": "Closing /cw/dtailocal/mercs_python/out/704/rf1/logs/mercspython_Log_F06.running.log"
}
]
