[
{
  "ts": "2018-02-07T10:31:57.229128",
  "type": "SETTINGS",
  "values": {
    "date": "2018/02/07 11:31:57",
    "date_iso": "2018-02-07T11:31:57.228543",
    "params": null,
    "system": {
      "nodename": "gibson",
      "machine": "x86_64",
      "platform": "Linux-4.4.0-112-generic-x86_64-with-debian-stretch-sid",
      "processor": "x86_64",
      "version": "#135-Ubuntu SMP Fri Jan 19 11:48:36 UTC 2018",
      "system": "Linux",
      "cpu_count": 8,
      "cpu_times": {
        "user": 382902.82,
        "system": 22423.55,
        "idle": 8579580.54,
        "nice": 901.26
      },
      "cpu_percent": 12.5,
      "virtual_memory": {
        "total": 33618501632,
        "available": 27296776192,
        "percent": 18.8,
        "used": 5454487552,
        "free": 13104295936
      }
    },
    "process": {
      "username": "evgeniya",
      "cwd": "/cw/dtailocal/mercs_python/src/core",
      "create_time": 1517998486.06,
      "cpu_times": {
        "user": 1.7,
        "system": 0.61
      }
    },
    "logfile": "/cw/dtailocal/mercs_python/out/704/rf1/logs/mercspython_Log_F09",
    "command": "python /cw/dtailocal/mercs_python/bin/mercspython.py /cw/dtailocal/mercs_python/out/704/rf1/settings/mercspython_Settings_F09.s"
  }
},
{
  "ts": "2018-02-07T10:31:57.229216",
  "type": "INFO",
  "values": {
    "cmd": "python /cw/dtailocal/mercs_python/bin/mercspython.py /cw/dtailocal/mercs_python/out/704/rf1/settings/mercspython_Settings_F09.s",
    "cwd": null
  }
},
{
  "ts": "2018-02-07T10:31:57.233045",
  "type": "INFO",
  "values": "Start: Run process"
},
{
  "ts": "2018-02-07T10:31:57.233428",
  "type": "INFO",
  "values": "Write log to /cw/dtailocal/mercs_python/out/704/rf1/logs/mercspython_Log_F09.running.log"
},
{
  "ts": "2018-02-07T10:33:18.144476",
  "type": "INFO",
  "values": "Process ended (returncode 0)"
},
{
  "ts": "2018-02-07T10:33:18.144572",
  "type": "INFO",
  "values": "Finished: Run process 80.912 seconds"
},
{
  "ts": "2018-02-07T10:33:18.144647",
  "type": "WARNING",
  "values": {
    "Exit": "finished",
    "Returncode": 0,
    "Time": 80.9115514755249
  }
},
{
  "ts": "2018-02-07T10:33:18.145018",
  "type": "INFO",
  "values": "Closing /cw/dtailocal/mercs_python/out/704/rf1/logs/mercspython_Log_F09.running.log"
}
]
