[
{
  "ts": "2018-02-07T10:14:47.838604",
  "type": "SETTINGS",
  "values": {
    "date": "2018/02/07 11:14:47",
    "date_iso": "2018-02-07T11:14:47.836301",
    "params": null,
    "system": {
      "nodename": "gibson",
      "machine": "x86_64",
      "platform": "Linux-4.4.0-112-generic-x86_64-with-debian-stretch-sid",
      "processor": "x86_64",
      "version": "#135-Ubuntu SMP Fri Jan 19 11:48:36 UTC 2018",
      "system": "Linux",
      "cpu_count": 8,
      "cpu_times": {
        "user": 377015.89,
        "system": 22337.62,
        "idle": 8577335.56,
        "nice": 898.04
      },
      "cpu_percent": 89.0,
      "virtual_memory": {
        "total": 33618501632,
        "available": 26835333120,
        "percent": 20.2,
        "used": 5894029312,
        "free": 12676435968
      }
    },
    "process": {
      "username": "evgeniya",
      "cwd": "/cw/dtailocal/mercs_python/src/core",
      "create_time": 1517998486.06,
      "cpu_times": {
        "user": 0.84,
        "system": 0.08
      }
    },
    "logfile": "/cw/dtailocal/mercs_python/out/704/rf1/logs/mercspython_Log_F00",
    "command": "python /cw/dtailocal/mercs_python/bin/mercspython.py /cw/dtailocal/mercs_python/out/704/rf1/settings/mercspython_Settings_F00.s"
  }
},
{
  "ts": "2018-02-07T10:14:47.838731",
  "type": "INFO",
  "values": {
    "cmd": "python /cw/dtailocal/mercs_python/bin/mercspython.py /cw/dtailocal/mercs_python/out/704/rf1/settings/mercspython_Settings_F00.s",
    "cwd": null
  }
},
{
  "ts": "2018-02-07T10:14:47.853423",
  "type": "INFO",
  "values": "Start: Run process"
},
{
  "ts": "2018-02-07T10:14:47.859715",
  "type": "INFO",
  "values": "Write log to /cw/dtailocal/mercs_python/out/704/rf1/logs/mercspython_Log_F00.running.log"
},
{
  "ts": "2018-02-07T10:17:20.679960",
  "type": "INFO",
  "values": "Process ended (returncode 0)"
},
{
  "ts": "2018-02-07T10:17:20.680050",
  "type": "INFO",
  "values": "Finished: Run process 152.827 seconds"
},
{
  "ts": "2018-02-07T10:17:20.680136",
  "type": "WARNING",
  "values": {
    "Exit": "finished",
    "Returncode": 0,
    "Time": 152.8266704082489
  }
}
]
