[
{
  "ts": "2018-02-05T16:09:01.409054",
  "type": "SETTINGS",
  "values": {
    "date": "2018/02/05 17:09:01",
    "date_iso": "2018-02-05T17:09:01.408207",
    "params": null,
    "system": {
      "nodename": "gibson",
      "machine": "x86_64",
      "platform": "Linux-4.4.0-112-generic-x86_64-with-debian-stretch-sid",
      "processor": "x86_64",
      "version": "#135-Ubuntu SMP Fri Jan 19 11:48:36 UTC 2018",
      "system": "Linux",
      "cpu_count": 8,
      "cpu_times": {
        "user": 111832.95,
        "system": 18387.14,
        "idle": 7637229.96,
        "nice": 749.46
      },
      "cpu_percent": 100.0,
      "virtual_memory": {
        "total": 33618501632,
        "available": 23318589440,
        "percent": 30.6,
        "used": 9405337600,
        "free": 6855294976
      }
    },
    "process": {
      "username": "evgeniya",
      "cwd": "/cw/dtailocal/mercs_python/src/core",
      "create_time": 1517846914.43,
      "cpu_times": {
        "user": 0.83,
        "system": 0.1
      }
    },
    "logfile": "/cw/dtailocal/mercs_python/out/262/enb/logs/mercspython_Log_F05",
    "command": "python /cw/dtailocal/mercs_python/bin/mercspython.py /cw/dtailocal/mercs_python/out/262/enb/settings/mercspython_Settings_F05.s"
  }
},
{
  "ts": "2018-02-05T16:09:01.409203",
  "type": "INFO",
  "values": {
    "cmd": "python /cw/dtailocal/mercs_python/bin/mercspython.py /cw/dtailocal/mercs_python/out/262/enb/settings/mercspython_Settings_F05.s",
    "cwd": null
  }
},
{
  "ts": "2018-02-05T16:09:01.425338",
  "type": "INFO",
  "values": "Start: Run process"
},
{
  "ts": "2018-02-05T16:09:01.471773",
  "type": "INFO",
  "values": "Write log to /cw/dtailocal/mercs_python/out/262/enb/logs/mercspython_Log_F05.running.log"
},
{
  "ts": "2018-02-05T16:09:06.481144",
  "type": "INFO",
  "values": "Process ended (returncode 0)"
},
{
  "ts": "2018-02-05T16:09:06.481230",
  "type": "INFO",
  "values": "Finished: Run process 5.056 seconds"
},
{
  "ts": "2018-02-05T16:09:06.481309",
  "type": "WARNING",
  "values": {
    "Exit": "finished",
    "Returncode": 0,
    "Time": 5.055914640426636
  }
},
{
  "ts": "2018-02-05T16:09:06.485790",
  "type": "INFO",
  "values": "Closing /cw/dtailocal/mercs_python/out/262/enb/logs/mercspython_Log_F05.running.log"
}
]
