[
{
  "ts": "2018-02-06T12:07:45.133891",
  "type": "SETTINGS",
  "values": {
    "date": "2018/02/06 13:07:45",
    "date_iso": "2018-02-06T13:07:45.132845",
    "params": null,
    "system": {
      "nodename": "gibson",
      "machine": "x86_64",
      "platform": "Linux-4.4.0-112-generic-x86_64-with-debian-stretch-sid",
      "processor": "x86_64",
      "version": "#135-Ubuntu SMP Fri Jan 19 11:48:36 UTC 2018",
      "system": "Linux",
      "cpu_count": 8,
      "cpu_times": {
        "user": 342427.96,
        "system": 20896.26,
        "idle": 7978168.43,
        "nice": 821.4
      },
      "cpu_percent": 86.5,
      "virtual_memory": {
        "total": 33618501632,
        "available": 22738542592,
        "percent": 32.4,
        "used": 9903968256,
        "free": 10613071872
      }
    },
    "process": {
      "username": "evgeniya",
      "cwd": "/cw/dtailocal/mercs_python/src/core",
      "create_time": 1517918841.82,
      "cpu_times": {
        "user": 1.21,
        "system": 0.54
      }
    },
    "logfile": "/cw/dtailocal/mercs_python/out/610/jura/logs/mercspython_Log_F09",
    "command": "python /cw/dtailocal/mercs_python/bin/mercspython.py /cw/dtailocal/mercs_python/out/610/jura/settings/mercspython_Settings_F09.s"
  }
},
{
  "ts": "2018-02-06T12:07:45.134051",
  "type": "INFO",
  "values": {
    "cmd": "python /cw/dtailocal/mercs_python/bin/mercspython.py /cw/dtailocal/mercs_python/out/610/jura/settings/mercspython_Settings_F09.s",
    "cwd": null
  }
},
{
  "ts": "2018-02-06T12:07:45.137221",
  "type": "INFO",
  "values": "Start: Run process"
},
{
  "ts": "2018-02-06T12:07:45.137731",
  "type": "INFO",
  "values": "Write log to /cw/dtailocal/mercs_python/out/610/jura/logs/mercspython_Log_F09.running.log"
},
{
  "ts": "2018-02-06T12:07:47.343698",
  "type": "INFO",
  "values": "Process ended (returncode 0)"
},
{
  "ts": "2018-02-06T12:07:47.343788",
  "type": "INFO",
  "values": "Finished: Run process 2.207 seconds"
},
{
  "ts": "2018-02-06T12:07:47.343881",
  "type": "WARNING",
  "values": {
    "Exit": "finished",
    "Returncode": 0,
    "Time": 2.2065892219543457
  }
}
]
