[
{
  "ts": "2018-02-07T10:23:58.017222",
  "type": "SETTINGS",
  "values": {
    "date": "2018/02/07 11:23:58",
    "date_iso": "2018-02-07T11:23:58.016390",
    "params": null,
    "system": {
      "nodename": "gibson",
      "machine": "x86_64",
      "platform": "Linux-4.4.0-112-generic-x86_64-with-debian-stretch-sid",
      "processor": "x86_64",
      "version": "#135-Ubuntu SMP Fri Jan 19 11:48:36 UTC 2018",
      "system": "Linux",
      "cpu_count": 8,
      "cpu_times": {
        "user": 381328.49,
        "system": 22407.81,
        "idle": 8577345.0,
        "nice": 901.26
      },
      "cpu_percent": 95.6,
      "virtual_memory": {
        "total": 33618501632,
        "available": 25066844160,
        "percent": 25.4,
        "used": 7682879488,
        "free": 10923495424
      }
    },
    "process": {
      "username": "evgeniya",
      "cwd": "/cw/dtailocal/mercs_python/src/core",
      "create_time": 1517999019.83,
      "cpu_times": {
        "user": 0.99,
        "system": 0.2
      }
    },
    "logfile": "/cw/dtailocal/mercs_python/out/734/wq/logs/mercspython_Log_F05",
    "command": "python /cw/dtailocal/mercs_python/bin/mercspython.py /cw/dtailocal/mercs_python/out/734/wq/settings/mercspython_Settings_F05.s"
  }
},
{
  "ts": "2018-02-07T10:23:58.017371",
  "type": "INFO",
  "values": {
    "cmd": "python /cw/dtailocal/mercs_python/bin/mercspython.py /cw/dtailocal/mercs_python/out/734/wq/settings/mercspython_Settings_F05.s",
    "cwd": null
  }
},
{
  "ts": "2018-02-07T10:23:58.021091",
  "type": "INFO",
  "values": "Start: Run process"
},
{
  "ts": "2018-02-07T10:23:58.021580",
  "type": "INFO",
  "values": "Write log to /cw/dtailocal/mercs_python/out/734/wq/logs/mercspython_Log_F05.running.log"
},
{
  "ts": "2018-02-07T10:24:00.830551",
  "type": "INFO",
  "values": "Process ended (returncode 0)"
},
{
  "ts": "2018-02-07T10:24:00.830635",
  "type": "INFO",
  "values": "Finished: Run process 2.810 seconds"
},
{
  "ts": "2018-02-07T10:24:00.830713",
  "type": "WARNING",
  "values": {
    "Exit": "finished",
    "Returncode": 0,
    "Time": 2.809568166732788
  }
}
]
