[
{
  "ts": "2018-02-05T16:21:50.397030",
  "type": "SETTINGS",
  "values": {
    "date": "2018/02/05 17:21:50",
    "date_iso": "2018-02-05T17:21:50.396330",
    "params": null,
    "system": {
      "nodename": "gibson",
      "machine": "x86_64",
      "platform": "Linux-4.4.0-112-generic-x86_64-with-debian-stretch-sid",
      "processor": "x86_64",
      "version": "#135-Ubuntu SMP Fri Jan 19 11:48:36 UTC 2018",
      "system": "Linux",
      "cpu_count": 8,
      "cpu_times": {
        "user": 117913.96,
        "system": 18453.01,
        "idle": 7637231.48,
        "nice": 749.46
      },
      "cpu_percent": 99.9,
      "virtual_memory": {
        "total": 33618501632,
        "available": 23334273024,
        "percent": 30.6,
        "used": 9389834240,
        "free": 6766919680
      }
    },
    "process": {
      "username": "evgeniya",
      "cwd": "/cw/dtailocal/mercs_python/src/core",
      "create_time": 1517847691.81,
      "cpu_times": {
        "user": 0.88,
        "system": 0.14
      }
    },
    "logfile": "/cw/dtailocal/mercs_python/out/292/enb/logs/mercspython_Log_F04",
    "command": "python /cw/dtailocal/mercs_python/bin/mercspython.py /cw/dtailocal/mercs_python/out/292/enb/settings/mercspython_Settings_F04.s"
  }
},
{
  "ts": "2018-02-05T16:21:50.397150",
  "type": "INFO",
  "values": {
    "cmd": "python /cw/dtailocal/mercs_python/bin/mercspython.py /cw/dtailocal/mercs_python/out/292/enb/settings/mercspython_Settings_F04.s",
    "cwd": null
  }
},
{
  "ts": "2018-02-05T16:21:50.405432",
  "type": "INFO",
  "values": "Start: Run process"
},
{
  "ts": "2018-02-05T16:21:50.459779",
  "type": "INFO",
  "values": "Write log to /cw/dtailocal/mercs_python/out/292/enb/logs/mercspython_Log_F04.running.log"
},
{
  "ts": "2018-02-05T16:21:54.665844",
  "type": "INFO",
  "values": "Process ended (returncode 0)"
},
{
  "ts": "2018-02-05T16:21:54.665939",
  "type": "INFO",
  "values": "Finished: Run process 4.261 seconds"
},
{
  "ts": "2018-02-05T16:21:54.666023",
  "type": "WARNING",
  "values": {
    "Exit": "finished",
    "Returncode": 0,
    "Time": 4.260526895523071
  }
}
]
