[
{
  "ts": "2018-02-05T16:21:41.461076",
  "type": "SETTINGS",
  "values": {
    "date": "2018/02/05 17:21:41",
    "date_iso": "2018-02-05T17:21:41.460225",
    "params": null,
    "system": {
      "nodename": "gibson",
      "machine": "x86_64",
      "platform": "Linux-4.4.0-112-generic-x86_64-with-debian-stretch-sid",
      "processor": "x86_64",
      "version": "#135-Ubuntu SMP Fri Jan 19 11:48:36 UTC 2018",
      "system": "Linux",
      "cpu_count": 8,
      "cpu_times": {
        "user": 117843.1,
        "system": 18452.45,
        "idle": 7637231.46,
        "nice": 749.46
      },
      "cpu_percent": 99.9,
      "virtual_memory": {
        "total": 33618501632,
        "available": 23479996416,
        "percent": 30.2,
        "used": 9234751488,
        "free": 6914371584
      }
    },
    "process": {
      "username": "evgeniya",
      "cwd": "/cw/dtailocal/mercs_python/src/core",
      "create_time": 1517847691.81,
      "cpu_times": {
        "user": 0.67,
        "system": 0.12
      }
    },
    "logfile": "/cw/dtailocal/mercs_python/out/292/enb/logs/mercspython_Log_F02",
    "command": "python /cw/dtailocal/mercs_python/bin/mercspython.py /cw/dtailocal/mercs_python/out/292/enb/settings/mercspython_Settings_F02.s"
  }
},
{
  "ts": "2018-02-05T16:21:41.461329",
  "type": "INFO",
  "values": {
    "cmd": "python /cw/dtailocal/mercs_python/bin/mercspython.py /cw/dtailocal/mercs_python/out/292/enb/settings/mercspython_Settings_F02.s",
    "cwd": null
  }
},
{
  "ts": "2018-02-05T16:21:41.489214",
  "type": "INFO",
  "values": "Start: Run process"
},
{
  "ts": "2018-02-05T16:21:41.511773",
  "type": "INFO",
  "values": "Write log to /cw/dtailocal/mercs_python/out/292/enb/logs/mercspython_Log_F02.running.log"
},
{
  "ts": "2018-02-05T16:21:45.516427",
  "type": "INFO",
  "values": "Process ended (returncode 0)"
},
{
  "ts": "2018-02-05T16:21:45.516506",
  "type": "INFO",
  "values": "Finished: Run process 4.027 seconds"
},
{
  "ts": "2018-02-05T16:21:45.516585",
  "type": "WARNING",
  "values": {
    "Exit": "finished",
    "Returncode": 0,
    "Time": 4.027317047119141
  }
}
]
