[
{
  "ts": "2018-02-05T16:21:54.673072",
  "type": "SETTINGS",
  "values": {
    "date": "2018/02/05 17:21:54",
    "date_iso": "2018-02-05T17:21:54.672197",
    "params": null,
    "system": {
      "nodename": "gibson",
      "machine": "x86_64",
      "platform": "Linux-4.4.0-112-generic-x86_64-with-debian-stretch-sid",
      "processor": "x86_64",
      "version": "#135-Ubuntu SMP Fri Jan 19 11:48:36 UTC 2018",
      "system": "Linux",
      "cpu_count": 8,
      "cpu_times": {
        "user": 117947.75,
        "system": 18453.36,
        "idle": 7637231.51,
        "nice": 749.46
      },
      "cpu_percent": 99.9,
      "virtual_memory": {
        "total": 33618501632,
        "available": 23483666432,
        "percent": 30.1,
        "used": 9230708736,
        "free": 6913736704
      }
    },
    "process": {
      "username": "evgeniya",
      "cwd": "/cw/dtailocal/mercs_python/src/core",
      "create_time": 1517847691.81,
      "cpu_times": {
        "user": 0.94,
        "system": 0.15
      }
    },
    "logfile": "/cw/dtailocal/mercs_python/out/292/enb/logs/mercspython_Log_F05",
    "command": "python /cw/dtailocal/mercs_python/bin/mercspython.py /cw/dtailocal/mercs_python/out/292/enb/settings/mercspython_Settings_F05.s"
  }
},
{
  "ts": "2018-02-05T16:21:54.673225",
  "type": "INFO",
  "values": {
    "cmd": "python /cw/dtailocal/mercs_python/bin/mercspython.py /cw/dtailocal/mercs_python/out/292/enb/settings/mercspython_Settings_F05.s",
    "cwd": null
  }
},
{
  "ts": "2018-02-05T16:21:54.689326",
  "type": "INFO",
  "values": "Start: Run process"
},
{
  "ts": "2018-02-05T16:21:54.723791",
  "type": "INFO",
  "values": "Write log to /cw/dtailocal/mercs_python/out/292/enb/logs/mercspython_Log_F05.running.log"
},
{
  "ts": "2018-02-05T16:21:58.734409",
  "type": "INFO",
  "values": "Process ended (returncode 0)"
},
{
  "ts": "2018-02-05T16:21:58.734486",
  "type": "INFO",
  "values": "Finished: Run process 4.045 seconds"
},
{
  "ts": "2018-02-05T16:21:58.734561",
  "type": "WARNING",
  "values": {
    "Exit": "finished",
    "Returncode": 0,
    "Time": 4.045185565948486
  }
},
{
  "ts": "2018-02-05T16:21:58.739792",
  "type": "INFO",
  "values": "Closing /cw/dtailocal/mercs_python/out/292/enb/logs/mercspython_Log_F05.running.log"
}
]
