[
{
  "ts": "2018-02-06T12:17:00.118172",
  "type": "SETTINGS",
  "values": {
    "date": "2018/02/06 13:17:00",
    "date_iso": "2018-02-06T13:17:00.117407",
    "params": null,
    "system": {
      "nodename": "gibson",
      "machine": "x86_64",
      "platform": "Linux-4.4.0-112-generic-x86_64-with-debian-stretch-sid",
      "processor": "x86_64",
      "version": "#135-Ubuntu SMP Fri Jan 19 11:48:36 UTC 2018",
      "system": "Linux",
      "cpu_count": 8,
      "cpu_times": {
        "user": 346227.54,
        "system": 20953.78,
        "idle": 7978743.73,
        "nice": 821.4
      },
      "cpu_percent": 87.2,
      "virtual_memory": {
        "total": 33618501632,
        "available": 23000711168,
        "percent": 31.6,
        "used": 9627340800,
        "free": 10699948032
      }
    },
    "process": {
      "username": "evgeniya",
      "cwd": "/cw/dtailocal/mercs_python/src/core",
      "create_time": 1517919048.6,
      "cpu_times": {
        "user": 1.3,
        "system": 0.4
      }
    },
    "logfile": "/cw/dtailocal/mercs_python/out/613/rf1/logs/mercspython_Log_F04",
    "command": "python /cw/dtailocal/mercs_python/bin/mercspython.py /cw/dtailocal/mercs_python/out/613/rf1/settings/mercspython_Settings_F04.s"
  }
},
{
  "ts": "2018-02-06T12:17:00.118308",
  "type": "INFO",
  "values": {
    "cmd": "python /cw/dtailocal/mercs_python/bin/mercspython.py /cw/dtailocal/mercs_python/out/613/rf1/settings/mercspython_Settings_F04.s",
    "cwd": null
  }
},
{
  "ts": "2018-02-06T12:17:00.122024",
  "type": "INFO",
  "values": "Start: Run process"
},
{
  "ts": "2018-02-06T12:17:00.122434",
  "type": "INFO",
  "values": "Write log to /cw/dtailocal/mercs_python/out/613/rf1/logs/mercspython_Log_F04.running.log"
},
{
  "ts": "2018-02-06T12:18:31.831099",
  "type": "INFO",
  "values": "Process ended (returncode 0)"
},
{
  "ts": "2018-02-06T12:18:31.831178",
  "type": "INFO",
  "values": "Finished: Run process 91.709 seconds"
},
{
  "ts": "2018-02-06T12:18:31.831257",
  "type": "WARNING",
  "values": {
    "Exit": "finished",
    "Returncode": 0,
    "Time": 91.70918941497803
  }
}
]
