[
{
  "ts": "2018-02-05T14:52:14.227856",
  "type": "SETTINGS",
  "values": {
    "date": "2018/02/05 15:52:14",
    "date_iso": "2018-02-05T15:52:14.226991",
    "params": null,
    "system": {
      "nodename": "gibson",
      "machine": "x86_64",
      "platform": "Linux-4.4.0-112-generic-x86_64-with-debian-stretch-sid",
      "processor": "x86_64",
      "version": "#135-Ubuntu SMP Fri Jan 19 11:48:36 UTC 2018",
      "system": "Linux",
      "cpu_count": 8,
      "cpu_times": {
        "user": 82080.24,
        "system": 18042.03,
        "idle": 7630552.06,
        "nice": 732.25
      },
      "cpu_percent": 99.9,
      "virtual_memory": {
        "total": 33618501632,
        "available": 23698235392,
        "percent": 29.5,
        "used": 8843313152,
        "free": 8297156608
      }
    },
    "process": {
      "username": "evgeniya",
      "cwd": "/cw/dtailocal/mercs_python/src/core",
      "create_time": 1517842202.83,
      "cpu_times": {
        "user": 2.28,
        "system": 0.14
      }
    },
    "logfile": "/cw/dtailocal/mercs_python/out/323/oes97/logs/mercspython_Log_F06",
    "command": "python /cw/dtailocal/mercs_python/bin/mercspython.py /cw/dtailocal/mercs_python/out/323/oes97/settings/mercspython_Settings_F06.s"
  }
},
{
  "ts": "2018-02-05T14:52:14.228001",
  "type": "INFO",
  "values": {
    "cmd": "python /cw/dtailocal/mercs_python/bin/mercspython.py /cw/dtailocal/mercs_python/out/323/oes97/settings/mercspython_Settings_F06.s",
    "cwd": null
  }
},
{
  "ts": "2018-02-05T14:52:14.249154",
  "type": "INFO",
  "values": "Start: Run process"
},
{
  "ts": "2018-02-05T14:52:14.287781",
  "type": "INFO",
  "values": "Write log to /cw/dtailocal/mercs_python/out/323/oes97/logs/mercspython_Log_F06.running.log"
},
{
  "ts": "2018-02-05T14:52:36.119736",
  "type": "INFO",
  "values": "Process ended (returncode 0)"
},
{
  "ts": "2018-02-05T14:52:36.119815",
  "type": "INFO",
  "values": "Finished: Run process 21.871 seconds"
},
{
  "ts": "2018-02-05T14:52:36.135729",
  "type": "WARNING",
  "values": {
    "Exit": "finished",
    "Returncode": 0,
    "Time": 21.870688915252686
  }
},
{
  "ts": "2018-02-05T14:52:36.151816",
  "type": "INFO",
  "values": "Closing /cw/dtailocal/mercs_python/out/323/oes97/logs/mercspython_Log_F06.running.log"
}
]
