[
{
  "ts": "2018-02-05T14:51:09.989211",
  "type": "SETTINGS",
  "values": {
    "date": "2018/02/05 15:51:09",
    "date_iso": "2018-02-05T15:51:09.988315",
    "params": null,
    "system": {
      "nodename": "gibson",
      "machine": "x86_64",
      "platform": "Linux-4.4.0-112-generic-x86_64-with-debian-stretch-sid",
      "processor": "x86_64",
      "version": "#135-Ubuntu SMP Fri Jan 19 11:48:36 UTC 2018",
      "system": "Linux",
      "cpu_count": 8,
      "cpu_times": {
        "user": 81574.06,
        "system": 18035.33,
        "idle": 7630551.7,
        "nice": 732.25
      },
      "cpu_percent": 99.8,
      "virtual_memory": {
        "total": 33618501632,
        "available": 25646063616,
        "percent": 23.7,
        "used": 6904832000,
        "free": 10316906496
      }
    },
    "process": {
      "username": "evgeniya",
      "cwd": "/cw/dtailocal/mercs_python/src/core",
      "create_time": 1517842202.83,
      "cpu_times": {
        "user": 1.98,
        "system": 0.09
      }
    },
    "logfile": "/cw/dtailocal/mercs_python/out/323/oes97/logs/mercspython_Log_F03",
    "command": "python /cw/dtailocal/mercs_python/bin/mercspython.py /cw/dtailocal/mercs_python/out/323/oes97/settings/mercspython_Settings_F03.s"
  }
},
{
  "ts": "2018-02-05T14:51:09.989392",
  "type": "INFO",
  "values": {
    "cmd": "python /cw/dtailocal/mercs_python/bin/mercspython.py /cw/dtailocal/mercs_python/out/323/oes97/settings/mercspython_Settings_F03.s",
    "cwd": null
  }
},
{
  "ts": "2018-02-05T14:51:10.013053",
  "type": "INFO",
  "values": "Start: Run process"
},
{
  "ts": "2018-02-05T14:51:10.014871",
  "type": "INFO",
  "values": "Write log to /cw/dtailocal/mercs_python/out/323/oes97/logs/mercspython_Log_F03.running.log"
},
{
  "ts": "2018-02-05T14:51:31.442410",
  "type": "INFO",
  "values": "Process ended (returncode 0)"
},
{
  "ts": "2018-02-05T14:51:31.442505",
  "type": "INFO",
  "values": "Finished: Run process 21.429 seconds"
},
{
  "ts": "2018-02-05T14:51:31.442585",
  "type": "WARNING",
  "values": {
    "Exit": "finished",
    "Returncode": 0,
    "Time": 21.429479122161865
  }
}
]
