[
{
  "ts": "2018-02-05T17:05:06.697237",
  "type": "SETTINGS",
  "values": {
    "date": "2018/02/05 18:05:06",
    "date_iso": "2018-02-05T18:05:06.696391",
    "params": null,
    "system": {
      "nodename": "gibson",
      "machine": "x86_64",
      "platform": "Linux-4.4.0-112-generic-x86_64-with-debian-stretch-sid",
      "processor": "x86_64",
      "version": "#135-Ubuntu SMP Fri Jan 19 11:48:36 UTC 2018",
      "system": "Linux",
      "cpu_count": 8,
      "cpu_times": {
        "user": 138488.5,
        "system": 18630.03,
        "idle": 7637234.62,
        "nice": 751.58
      },
      "cpu_percent": 100.0,
      "virtual_memory": {
        "total": 33618501632,
        "available": 22093058048,
        "percent": 34.3,
        "used": 10552881152,
        "free": 4910063616
      }
    },
    "process": {
      "username": "evgeniya",
      "cwd": "/cw/dtailocal/mercs_python/src/core",
      "create_time": 1517850300.8,
      "cpu_times": {
        "user": 0.56,
        "system": 0.06
      }
    },
    "logfile": "/cw/dtailocal/mercs_python/out/309/slump/logs/mercspython_Log_F01",
    "command": "python /cw/dtailocal/mercs_python/bin/mercspython.py /cw/dtailocal/mercs_python/out/309/slump/settings/mercspython_Settings_F01.s"
  }
},
{
  "ts": "2018-02-05T17:05:06.697393",
  "type": "INFO",
  "values": {
    "cmd": "python /cw/dtailocal/mercs_python/bin/mercspython.py /cw/dtailocal/mercs_python/out/309/slump/settings/mercspython_Settings_F01.s",
    "cwd": null
  }
},
{
  "ts": "2018-02-05T17:05:06.713940",
  "type": "INFO",
  "values": "Start: Run process"
},
{
  "ts": "2018-02-05T17:05:06.743798",
  "type": "INFO",
  "values": "Write log to /cw/dtailocal/mercs_python/out/309/slump/logs/mercspython_Log_F01.running.log"
},
{
  "ts": "2018-02-05T17:05:10.751285",
  "type": "INFO",
  "values": "Process ended (returncode 0)"
},
{
  "ts": "2018-02-05T17:05:10.751360",
  "type": "INFO",
  "values": "Finished: Run process 4.037 seconds"
},
{
  "ts": "2018-02-05T17:05:10.751443",
  "type": "WARNING",
  "values": {
    "Exit": "finished",
    "Returncode": 0,
    "Time": 4.037451267242432
  }
},
{
  "ts": "2018-02-05T17:05:10.755826",
  "type": "INFO",
  "values": "Closing /cw/dtailocal/mercs_python/out/309/slump/logs/mercspython_Log_F01.running.log"
}
]
