[
{
  "ts": "2018-02-05T15:59:02.252997",
  "type": "SETTINGS",
  "values": {
    "date": "2018/02/05 16:59:02",
    "date_iso": "2018-02-05T16:59:02.252160",
    "params": null,
    "system": {
      "nodename": "gibson",
      "machine": "x86_64",
      "platform": "Linux-4.4.0-112-generic-x86_64-with-debian-stretch-sid",
      "processor": "x86_64",
      "version": "#135-Ubuntu SMP Fri Jan 19 11:48:36 UTC 2018",
      "system": "Linux",
      "cpu_count": 8,
      "cpu_times": {
        "user": 107119.88,
        "system": 18309.65,
        "idle": 7637229.07,
        "nice": 749.46
      },
      "cpu_percent": 100.0,
      "virtual_memory": {
        "total": 33618501632,
        "available": 23719178240,
        "percent": 29.4,
        "used": 8975507456,
        "free": 7333728256
      }
    },
    "process": {
      "username": "evgeniya",
      "cwd": "/cw/dtailocal/mercs_python/src/core",
      "create_time": 1517845397.28,
      "cpu_times": {
        "user": 1.4,
        "system": 0.15
      }
    },
    "logfile": "/cw/dtailocal/mercs_python/out/238/scm20d/logs/mercspython_Log_F05",
    "command": "python /cw/dtailocal/mercs_python/bin/mercspython.py /cw/dtailocal/mercs_python/out/238/scm20d/settings/mercspython_Settings_F05.s"
  }
},
{
  "ts": "2018-02-05T15:59:02.253150",
  "type": "INFO",
  "values": {
    "cmd": "python /cw/dtailocal/mercs_python/bin/mercspython.py /cw/dtailocal/mercs_python/out/238/scm20d/settings/mercspython_Settings_F05.s",
    "cwd": null
  }
},
{
  "ts": "2018-02-05T15:59:02.281337",
  "type": "INFO",
  "values": "Start: Run process"
},
{
  "ts": "2018-02-05T15:59:02.311777",
  "type": "INFO",
  "values": "Write log to /cw/dtailocal/mercs_python/out/238/scm20d/logs/mercspython_Log_F05.running.log"
},
{
  "ts": "2018-02-05T16:02:07.351734",
  "type": "INFO",
  "values": "Process ended (returncode 0)"
},
{
  "ts": "2018-02-05T16:02:07.351818",
  "type": "INFO",
  "values": "Finished: Run process 185.071 seconds"
},
{
  "ts": "2018-02-05T16:02:07.352081",
  "type": "WARNING",
  "values": {
    "Exit": "finished",
    "Returncode": 0,
    "Time": 185.0705235004425
  }
},
{
  "ts": "2018-02-05T16:02:07.359816",
  "type": "INFO",
  "values": "Closing /cw/dtailocal/mercs_python/out/238/scm20d/logs/mercspython_Log_F05.running.log"
}
]
