[
{
  "ts": "2018-02-05T16:08:12.161337",
  "type": "SETTINGS",
  "values": {
    "date": "2018/02/05 17:08:12",
    "date_iso": "2018-02-05T17:08:12.160495",
    "params": null,
    "system": {
      "nodename": "gibson",
      "machine": "x86_64",
      "platform": "Linux-4.4.0-112-generic-x86_64-with-debian-stretch-sid",
      "processor": "x86_64",
      "version": "#135-Ubuntu SMP Fri Jan 19 11:48:36 UTC 2018",
      "system": "Linux",
      "cpu_count": 8,
      "cpu_times": {
        "user": 111443.39,
        "system": 18382.98,
        "idle": 7637229.88,
        "nice": 749.46
      },
      "cpu_percent": 100.0,
      "virtual_memory": {
        "total": 33618501632,
        "available": 24648257536,
        "percent": 26.7,
        "used": 8075415552,
        "free": 8193114112
      }
    },
    "process": {
      "username": "evgeniya",
      "cwd": "/cw/dtailocal/mercs_python/src/core",
      "create_time": 1517845397.28,
      "cpu_times": {
        "user": 1.86,
        "system": 0.24
      }
    },
    "logfile": "/cw/dtailocal/mercs_python/out/238/scm20d/logs/mercspython_Log_F08",
    "command": "python /cw/dtailocal/mercs_python/bin/mercspython.py /cw/dtailocal/mercs_python/out/238/scm20d/settings/mercspython_Settings_F08.s"
  }
},
{
  "ts": "2018-02-05T16:08:12.161492",
  "type": "INFO",
  "values": {
    "cmd": "python /cw/dtailocal/mercs_python/bin/mercspython.py /cw/dtailocal/mercs_python/out/238/scm20d/settings/mercspython_Settings_F08.s",
    "cwd": null
  }
},
{
  "ts": "2018-02-05T16:08:12.177377",
  "type": "INFO",
  "values": "Start: Run process"
},
{
  "ts": "2018-02-05T16:08:12.208341",
  "type": "INFO",
  "values": "Write log to /cw/dtailocal/mercs_python/out/238/scm20d/logs/mercspython_Log_F08.running.log"
},
{
  "ts": "2018-02-05T16:11:15.851762",
  "type": "INFO",
  "values": "Process ended (returncode 0)"
},
{
  "ts": "2018-02-05T16:11:15.851845",
  "type": "INFO",
  "values": "Finished: Run process 183.674 seconds"
},
{
  "ts": "2018-02-05T16:11:15.851928",
  "type": "WARNING",
  "values": {
    "Exit": "finished",
    "Returncode": 0,
    "Time": 183.67449593544006
  }
},
{
  "ts": "2018-02-05T16:11:15.867804",
  "type": "INFO",
  "values": "Closing /cw/dtailocal/mercs_python/out/238/scm20d/logs/mercspython_Log_F08.running.log"
}
]
