[
{
  "ts": "2018-02-07T10:15:59.393671",
  "type": "SETTINGS",
  "values": {
    "date": "2018/02/07 11:15:59",
    "date_iso": "2018-02-07T11:15:59.392944",
    "params": null,
    "system": {
      "nodename": "gibson",
      "machine": "x86_64",
      "platform": "Linux-4.4.0-112-generic-x86_64-with-debian-stretch-sid",
      "processor": "x86_64",
      "version": "#135-Ubuntu SMP Fri Jan 19 11:48:36 UTC 2018",
      "system": "Linux",
      "cpu_count": 8,
      "cpu_times": {
        "user": 377556.03,
        "system": 22361.52,
        "idle": 8577341.14,
        "nice": 898.04
      },
      "cpu_percent": 99.4,
      "virtual_memory": {
        "total": 33618501632,
        "available": 26140921856,
        "percent": 22.2,
        "used": 6608777216,
        "free": 12002967552
      }
    },
    "process": {
      "username": "evgeniya",
      "cwd": "/cw/dtailocal/mercs_python/src/core",
      "create_time": 1517998486.06,
      "cpu_times": {
        "user": 1.69,
        "system": 0.18
      }
    },
    "logfile": "/cw/dtailocal/mercs_python/out/706/wq/logs/mercspython_Log_F09",
    "command": "python /cw/dtailocal/mercs_python/bin/mercspython.py /cw/dtailocal/mercs_python/out/706/wq/settings/mercspython_Settings_F09.s"
  }
},
{
  "ts": "2018-02-07T10:15:59.393765",
  "type": "INFO",
  "values": {
    "cmd": "python /cw/dtailocal/mercs_python/bin/mercspython.py /cw/dtailocal/mercs_python/out/706/wq/settings/mercspython_Settings_F09.s",
    "cwd": null
  }
},
{
  "ts": "2018-02-07T10:15:59.400451",
  "type": "INFO",
  "values": "Start: Run process"
},
{
  "ts": "2018-02-07T10:15:59.400848",
  "type": "INFO",
  "values": "Write log to /cw/dtailocal/mercs_python/out/706/wq/logs/mercspython_Log_F09.running.log"
},
{
  "ts": "2018-02-07T10:16:07.212677",
  "type": "INFO",
  "values": "Process ended (returncode 0)"
},
{
  "ts": "2018-02-07T10:16:07.212757",
  "type": "INFO",
  "values": "Finished: Run process 7.812 seconds"
},
{
  "ts": "2018-02-07T10:16:07.212838",
  "type": "WARNING",
  "values": {
    "Exit": "finished",
    "Returncode": 0,
    "Time": 7.8123393058776855
  }
},
{
  "ts": "2018-02-07T10:16:07.220180",
  "type": "INFO",
  "values": "Closing /cw/dtailocal/mercs_python/out/706/wq/logs/mercspython_Log_F09.running.log"
}
]
