[SETTINGS] {
  "date": "2018/02/05 15:54:09",
  "date_iso": "2018-02-05T15:54:09.992403",
  "params": null,
  "system": {
    "nodename": "gibson",
    "machine": "x86_64",
    "platform": "Linux-4.4.0-112-generic-x86_64-with-debian-stretch-sid",
    "processor": "x86_64",
    "version": "#135-Ubuntu SMP Fri Jan 19 11:48:36 UTC 2018",
    "system": "Linux",
    "cpu_count": 8,
    "cpu_times": {
      "user": 82997.14,
      "system": 18050.28,
      "idle": 7630552.52,
      "nice": 732.25
    },
    "cpu_percent": 100.0,
    "virtual_memory": {
      "total": 33618501632,
      "available": 24325136384,
      "percent": 27.6,
      "used": 8225771520,
      "free": 8875741184
    }
  },
  "process": {
    "username": "evgeniya",
    "cwd": "/cw/dtailocal/mercs_python/src/core",
    "create_time": 1517842332.09,
    "cpu_times": {
      "user": 2.25,
      "system": 0.16
    }
  },
  "logfile": "/cw/dtailocal/mercs_python/out/331/oes97/logs/mercspython_Log_F06",
  "command": "python /cw/dtailocal/mercs_python/bin/mercspython.py /cw/dtailocal/mercs_python/out/331/oes97/settings/mercspython_Settings_F06.s"
}
[INFO] cmd:python /cw/dtailocal/mercs_python/bin/mercspython.py /cw/dtailocal/mercs_python/out/331/oes97/settings/mercspython_Settings_F06.s; cwd:None
[INFO] Start: Run process
[INFO] Write log to /cw/dtailocal/mercs_python/out/331/oes97/logs/mercspython_Log_F06.running.log
[STDERR] /cw/dtailocal/mercs_python/bin/mercspython.py:80: VisibleDeprecationWarning: converting an array with ndim > 0 to an index will result in an error in the future
[STDERR]   while((np.sum(codes[partition * nb_models_it + model]) >= nb_out_atts) | (random() > 0.5)):
[STDERR] /cw/dtailocal/mercs_python/bin/mercspython.py:83: VisibleDeprecationWarning: converting an array with ndim > 0 to an index will result in an error in the future
[STDERR]   codes[partition * nb_models_it + model][attribute] = 1
[[0 0 0 ..., 1 0 1]
 [0 1 1 ..., 0 0 0]
 [1 0 0 ..., 0 0 0]
 [0 0 0 ..., 0 1 0]]
====================================================
Total induction time of the MDEModel was: 12069 ms
====================================================
====================================================
Total inference time of the MDEModel was: 4040 ms
====================================================
====================================================
This was for: 279 queries.
====================================================
[INFO] Process ended (returncode 0)
[INFO] Finished: Run process 19.460 seconds
[WARNING] Exit:finished; Returncode:0; Time:19.45968
