[
{
  "ts": "2018-02-05T14:54:49.183055",
  "type": "SETTINGS",
  "values": {
    "date": "2018/02/05 15:54:49",
    "date_iso": "2018-02-05T15:54:49.182204",
    "params": null,
    "system": {
      "nodename": "gibson",
      "machine": "x86_64",
      "platform": "Linux-4.4.0-112-generic-x86_64-with-debian-stretch-sid",
      "processor": "x86_64",
      "version": "#135-Ubuntu SMP Fri Jan 19 11:48:36 UTC 2018",
      "system": "Linux",
      "cpu_count": 8,
      "cpu_times": {
        "user": 83306.92,
        "system": 18053.54,
        "idle": 7630552.7,
        "nice": 732.25
      },
      "cpu_percent": 99.9,
      "virtual_memory": {
        "total": 33618501632,
        "available": 24513781760,
        "percent": 27.1,
        "used": 8037130240,
        "free": 9053835264
      }
    },
    "process": {
      "username": "evgeniya",
      "cwd": "/cw/dtailocal/mercs_python/src/core",
      "create_time": 1517842332.09,
      "cpu_times": {
        "user": 2.39,
        "system": 0.17
      }
    },
    "logfile": "/cw/dtailocal/mercs_python/out/331/oes97/logs/mercspython_Log_F08",
    "command": "python /cw/dtailocal/mercs_python/bin/mercspython.py /cw/dtailocal/mercs_python/out/331/oes97/settings/mercspython_Settings_F08.s"
  }
},
{
  "ts": "2018-02-05T14:54:49.183206",
  "type": "INFO",
  "values": {
    "cmd": "python /cw/dtailocal/mercs_python/bin/mercspython.py /cw/dtailocal/mercs_python/out/331/oes97/settings/mercspython_Settings_F08.s",
    "cwd": null
  }
},
{
  "ts": "2018-02-05T14:54:49.206515",
  "type": "INFO",
  "values": "Start: Run process"
},
{
  "ts": "2018-02-05T14:54:49.235787",
  "type": "INFO",
  "values": "Write log to /cw/dtailocal/mercs_python/out/331/oes97/logs/mercspython_Log_F08.running.log"
},
{
  "ts": "2018-02-05T14:55:08.258131",
  "type": "INFO",
  "values": "Process ended (returncode 0)"
},
{
  "ts": "2018-02-05T14:55:08.258209",
  "type": "INFO",
  "values": "Finished: Run process 19.052 seconds"
},
{
  "ts": "2018-02-05T14:55:08.258289",
  "type": "WARNING",
  "values": {
    "Exit": "finished",
    "Returncode": 0,
    "Time": 19.051721334457397
  }
}
]
