[
{
  "ts": "2018-02-05T14:52:54.201282",
  "type": "SETTINGS",
  "values": {
    "date": "2018/02/05 15:52:54",
    "date_iso": "2018-02-05T15:52:54.200366",
    "params": null,
    "system": {
      "nodename": "gibson",
      "machine": "x86_64",
      "platform": "Linux-4.4.0-112-generic-x86_64-with-debian-stretch-sid",
      "processor": "x86_64",
      "version": "#135-Ubuntu SMP Fri Jan 19 11:48:36 UTC 2018",
      "system": "Linux",
      "cpu_count": 8,
      "cpu_times": {
        "user": 82397.48,
        "system": 18044.33,
        "idle": 7630552.2,
        "nice": 732.25
      },
      "cpu_percent": 100.0,
      "virtual_memory": {
        "total": 33618501632,
        "available": 24441470976,
        "percent": 27.3,
        "used": 8109449216,
        "free": 9015644160
      }
    },
    "process": {
      "username": "evgeniya",
      "cwd": "/cw/dtailocal/mercs_python/src/core",
      "create_time": 1517842332.09,
      "cpu_times": {
        "user": 2.0,
        "system": 0.12
      }
    },
    "logfile": "/cw/dtailocal/mercs_python/out/331/oes97/logs/mercspython_Log_F02",
    "command": "python /cw/dtailocal/mercs_python/bin/mercspython.py /cw/dtailocal/mercs_python/out/331/oes97/settings/mercspython_Settings_F02.s"
  }
},
{
  "ts": "2018-02-05T14:52:54.201446",
  "type": "INFO",
  "values": {
    "cmd": "python /cw/dtailocal/mercs_python/bin/mercspython.py /cw/dtailocal/mercs_python/out/331/oes97/settings/mercspython_Settings_F02.s",
    "cwd": null
  }
},
{
  "ts": "2018-02-05T14:52:54.244875",
  "type": "INFO",
  "values": "Start: Run process"
},
{
  "ts": "2018-02-05T14:52:54.287797",
  "type": "INFO",
  "values": "Write log to /cw/dtailocal/mercs_python/out/331/oes97/logs/mercspython_Log_F02.running.log"
},
{
  "ts": "2018-02-05T14:53:12.313105",
  "type": "INFO",
  "values": "Process ended (returncode 0)"
},
{
  "ts": "2018-02-05T14:53:12.313180",
  "type": "INFO",
  "values": "Finished: Run process 18.068 seconds"
},
{
  "ts": "2018-02-05T14:53:12.313260",
  "type": "WARNING",
  "values": {
    "Exit": "finished",
    "Returncode": 0,
    "Time": 18.068334102630615
  }
}
]
