[
{
  "ts": "2018-02-05T15:13:07.401562",
  "type": "SETTINGS",
  "values": {
    "date": "2018/02/05 16:13:07",
    "date_iso": "2018-02-05T16:13:07.400747",
    "params": null,
    "system": {
      "nodename": "gibson",
      "machine": "x86_64",
      "platform": "Linux-4.4.0-112-generic-x86_64-with-debian-stretch-sid",
      "processor": "x86_64",
      "version": "#135-Ubuntu SMP Fri Jan 19 11:48:36 UTC 2018",
      "system": "Linux",
      "cpu_count": 8,
      "cpu_times": {
        "user": 91716.57,
        "system": 18136.84,
        "idle": 7630837.61,
        "nice": 732.25
      },
      "cpu_percent": 75.4,
      "virtual_memory": {
        "total": 33618501632,
        "available": 26119073792,
        "percent": 22.3,
        "used": 6382637056,
        "free": 10349645824
      }
    },
    "process": {
      "username": "evgeniya",
      "cwd": "/cw/dtailocal/mercs_python/src/core",
      "create_time": 1517843419.32,
      "cpu_times": {
        "user": 2.71,
        "system": 0.64
      }
    },
    "logfile": "/cw/dtailocal/mercs_python/out/330/oes10/logs/mercspython_Log_F09",
    "command": "python /cw/dtailocal/mercs_python/bin/mercspython.py /cw/dtailocal/mercs_python/out/330/oes10/settings/mercspython_Settings_F09.s"
  }
},
{
  "ts": "2018-02-05T15:13:07.401712",
  "type": "INFO",
  "values": {
    "cmd": "python /cw/dtailocal/mercs_python/bin/mercspython.py /cw/dtailocal/mercs_python/out/330/oes10/settings/mercspython_Settings_F09.s",
    "cwd": null
  }
},
{
  "ts": "2018-02-05T15:13:07.406251",
  "type": "INFO",
  "values": "Start: Run process"
},
{
  "ts": "2018-02-05T15:13:07.406656",
  "type": "INFO",
  "values": "Write log to /cw/dtailocal/mercs_python/out/330/oes10/logs/mercspython_Log_F09.running.log"
},
{
  "ts": "2018-02-05T15:13:27.231688",
  "type": "INFO",
  "values": "Process ended (returncode 0)"
},
{
  "ts": "2018-02-05T15:13:27.231751",
  "type": "INFO",
  "values": "Finished: Run process 19.826 seconds"
},
{
  "ts": "2018-02-05T15:13:27.231807",
  "type": "WARNING",
  "values": {
    "Exit": "finished",
    "Returncode": 0,
    "Time": 19.825525760650635
  }
},
{
  "ts": "2018-02-05T15:13:27.232067",
  "type": "INFO",
  "values": "Closing /cw/dtailocal/mercs_python/out/330/oes10/logs/mercspython_Log_F09.running.log"
}
]
