[
{
  "ts": "2018-02-05T17:00:30.411230",
  "type": "SETTINGS",
  "values": {
    "date": "2018/02/05 18:00:30",
    "date_iso": "2018-02-05T18:00:30.394791",
    "params": null,
    "system": {
      "nodename": "gibson",
      "machine": "x86_64",
      "platform": "Linux-4.4.0-112-generic-x86_64-with-debian-stretch-sid",
      "processor": "x86_64",
      "version": "#135-Ubuntu SMP Fri Jan 19 11:48:36 UTC 2018",
      "system": "Linux",
      "cpu_count": 8,
      "cpu_times": {
        "user": 136304.4,
        "system": 18605.6,
        "idle": 7637234.5,
        "nice": 751.58
      },
      "cpu_percent": 100.0,
      "virtual_memory": {
        "total": 33618501632,
        "available": 24053399552,
        "percent": 28.5,
        "used": 8545677312,
        "free": 6861656064
      }
    },
    "process": {
      "username": "evgeniya",
      "cwd": "/cw/dtailocal/mercs_python/src/core",
      "create_time": 1517850028.58,
      "cpu_times": {
        "user": 0.56,
        "system": 0.06
      }
    },
    "logfile": "/cw/dtailocal/mercs_python/out/321/jura/logs/mercspython_Log_F00",
    "command": "python /cw/dtailocal/mercs_python/bin/mercspython.py /cw/dtailocal/mercs_python/out/321/jura/settings/mercspython_Settings_F00.s"
  }
},
{
  "ts": "2018-02-05T17:00:30.411399",
  "type": "INFO",
  "values": {
    "cmd": "python /cw/dtailocal/mercs_python/bin/mercspython.py /cw/dtailocal/mercs_python/out/321/jura/settings/mercspython_Settings_F00.s",
    "cwd": null
  }
},
{
  "ts": "2018-02-05T17:00:30.449242",
  "type": "INFO",
  "values": "Start: Run process"
},
{
  "ts": "2018-02-05T17:00:30.491814",
  "type": "INFO",
  "values": "Write log to /cw/dtailocal/mercs_python/out/321/jura/logs/mercspython_Log_F00.running.log"
},
{
  "ts": "2018-02-05T17:00:34.898169",
  "type": "INFO",
  "values": "Process ended (returncode 0)"
},
{
  "ts": "2018-02-05T17:00:34.898249",
  "type": "INFO",
  "values": "Finished: Run process 4.449 seconds"
},
{
  "ts": "2018-02-05T17:00:34.898331",
  "type": "WARNING",
  "values": {
    "Exit": "finished",
    "Returncode": 0,
    "Time": 4.449048757553101
  }
}
]
