[
{
  "ts": "2018-02-05T17:01:08.381058",
  "type": "SETTINGS",
  "values": {
    "date": "2018/02/05 18:01:08",
    "date_iso": "2018-02-05T18:01:08.380212",
    "params": null,
    "system": {
      "nodename": "gibson",
      "machine": "x86_64",
      "platform": "Linux-4.4.0-112-generic-x86_64-with-debian-stretch-sid",
      "processor": "x86_64",
      "version": "#135-Ubuntu SMP Fri Jan 19 11:48:36 UTC 2018",
      "system": "Linux",
      "cpu_count": 8,
      "cpu_times": {
        "user": 136604.27,
        "system": 18609.22,
        "idle": 7637234.51,
        "nice": 751.58
      },
      "cpu_percent": 100.0,
      "virtual_memory": {
        "total": 33618501632,
        "available": 23186153472,
        "percent": 31.0,
        "used": 9413062656,
        "free": 6002393088
      }
    },
    "process": {
      "username": "evgeniya",
      "cwd": "/cw/dtailocal/mercs_python/src/core",
      "create_time": 1517850028.58,
      "cpu_times": {
        "user": 1.01,
        "system": 0.12
      }
    },
    "logfile": "/cw/dtailocal/mercs_python/out/321/jura/logs/mercspython_Log_F08",
    "command": "python /cw/dtailocal/mercs_python/bin/mercspython.py /cw/dtailocal/mercs_python/out/321/jura/settings/mercspython_Settings_F08.s"
  }
},
{
  "ts": "2018-02-05T17:01:08.381213",
  "type": "INFO",
  "values": {
    "cmd": "python /cw/dtailocal/mercs_python/bin/mercspython.py /cw/dtailocal/mercs_python/out/321/jura/settings/mercspython_Settings_F08.s",
    "cwd": null
  }
},
{
  "ts": "2018-02-05T17:01:08.397296",
  "type": "INFO",
  "values": "Start: Run process"
},
{
  "ts": "2018-02-05T17:01:08.425741",
  "type": "INFO",
  "values": "Write log to /cw/dtailocal/mercs_python/out/321/jura/logs/mercspython_Log_F08.running.log"
},
{
  "ts": "2018-02-05T17:01:12.439707",
  "type": "INFO",
  "values": "Process ended (returncode 0)"
},
{
  "ts": "2018-02-05T17:01:12.439793",
  "type": "INFO",
  "values": "Finished: Run process 4.043 seconds"
},
{
  "ts": "2018-02-05T17:01:12.439881",
  "type": "WARNING",
  "values": {
    "Exit": "finished",
    "Returncode": 0,
    "Time": 4.042525768280029
  }
},
{
  "ts": "2018-02-05T17:01:12.447864",
  "type": "INFO",
  "values": "Closing /cw/dtailocal/mercs_python/out/321/jura/logs/mercspython_Log_F08.running.log"
}
]
