[
{
  "ts": "2018-02-05T16:53:56.245241",
  "type": "SETTINGS",
  "values": {
    "date": "2018/02/05 17:53:56",
    "date_iso": "2018-02-05T17:53:56.244375",
    "params": null,
    "system": {
      "nodename": "gibson",
      "machine": "x86_64",
      "platform": "Linux-4.4.0-112-generic-x86_64-with-debian-stretch-sid",
      "processor": "x86_64",
      "version": "#135-Ubuntu SMP Fri Jan 19 11:48:36 UTC 2018",
      "system": "Linux",
      "cpu_count": 8,
      "cpu_times": {
        "user": 133176.03,
        "system": 18581.91,
        "idle": 7637234.41,
        "nice": 751.58
      },
      "cpu_percent": 100.0,
      "virtual_memory": {
        "total": 33618501632,
        "available": 24996868096,
        "percent": 25.6,
        "used": 7629070336,
        "free": 7824764928
      }
    },
    "process": {
      "username": "evgeniya",
      "cwd": "/cw/dtailocal/mercs_python/src/core",
      "create_time": 1517848738.9,
      "cpu_times": {
        "user": 1.29,
        "system": 0.22
      }
    },
    "logfile": "/cw/dtailocal/mercs_python/out/286/rf1/logs/mercspython_Log_F05",
    "command": "python /cw/dtailocal/mercs_python/bin/mercspython.py /cw/dtailocal/mercs_python/out/286/rf1/settings/mercspython_Settings_F05.s"
  }
},
{
  "ts": "2018-02-05T16:53:56.245392",
  "type": "INFO",
  "values": {
    "cmd": "python /cw/dtailocal/mercs_python/bin/mercspython.py /cw/dtailocal/mercs_python/out/286/rf1/settings/mercspython_Settings_F05.s",
    "cwd": null
  }
},
{
  "ts": "2018-02-05T16:53:56.257822",
  "type": "INFO",
  "values": "Start: Run process"
},
{
  "ts": "2018-02-05T16:53:56.299787",
  "type": "INFO",
  "values": "Write log to /cw/dtailocal/mercs_python/out/286/rf1/logs/mercspython_Log_F05.running.log"
},
{
  "ts": "2018-02-05T16:56:49.505586",
  "type": "INFO",
  "values": "Process ended (returncode 0)"
},
{
  "ts": "2018-02-05T16:56:49.505852",
  "type": "INFO",
  "values": "Finished: Run process 173.248 seconds"
},
{
  "ts": "2018-02-05T16:56:49.505935",
  "type": "WARNING",
  "values": {
    "Exit": "finished",
    "Returncode": 0,
    "Time": 173.24805617332458
  }
},
{
  "ts": "2018-02-05T16:56:49.511790",
  "type": "INFO",
  "values": "Closing /cw/dtailocal/mercs_python/out/286/rf1/logs/mercspython_Log_F05.running.log"
}
]
