[
{
  "ts": "2018-02-05T16:42:02.085235",
  "type": "SETTINGS",
  "values": {
    "date": "2018/02/05 17:42:02",
    "date_iso": "2018-02-05T17:42:02.084418",
    "params": null,
    "system": {
      "nodename": "gibson",
      "machine": "x86_64",
      "platform": "Linux-4.4.0-112-generic-x86_64-with-debian-stretch-sid",
      "processor": "x86_64",
      "version": "#135-Ubuntu SMP Fri Jan 19 11:48:36 UTC 2018",
      "system": "Linux",
      "cpu_count": 8,
      "cpu_times": {
        "user": 127507.52,
        "system": 18539.55,
        "idle": 7637234.08,
        "nice": 751.58
      },
      "cpu_percent": 100.0,
      "virtual_memory": {
        "total": 33618501632,
        "available": 23520817152,
        "percent": 30.0,
        "used": 9062764544,
        "free": 6433394688
      }
    },
    "process": {
      "username": "evgeniya",
      "cwd": "/cw/dtailocal/mercs_python/src/core",
      "create_time": 1517848738.9,
      "cpu_times": {
        "user": 0.9,
        "system": 0.12
      }
    },
    "logfile": "/cw/dtailocal/mercs_python/out/286/rf1/logs/mercspython_Log_F01",
    "command": "python /cw/dtailocal/mercs_python/bin/mercspython.py /cw/dtailocal/mercs_python/out/286/rf1/settings/mercspython_Settings_F01.s"
  }
},
{
  "ts": "2018-02-05T16:42:02.085380",
  "type": "INFO",
  "values": {
    "cmd": "python /cw/dtailocal/mercs_python/bin/mercspython.py /cw/dtailocal/mercs_python/out/286/rf1/settings/mercspython_Settings_F01.s",
    "cwd": null
  }
},
{
  "ts": "2018-02-05T16:42:02.109596",
  "type": "INFO",
  "values": "Start: Run process"
},
{
  "ts": "2018-02-05T16:42:02.147919",
  "type": "INFO",
  "values": "Write log to /cw/dtailocal/mercs_python/out/286/rf1/logs/mercspython_Log_F01.running.log"
},
{
  "ts": "2018-02-05T16:44:55.752922",
  "type": "INFO",
  "values": "Process ended (returncode 0)"
},
{
  "ts": "2018-02-05T16:44:55.753020",
  "type": "INFO",
  "values": "Finished: Run process 173.643 seconds"
},
{
  "ts": "2018-02-05T16:44:55.753101",
  "type": "WARNING",
  "values": {
    "Exit": "finished",
    "Returncode": 0,
    "Time": 173.64344763755798
  }
},
{
  "ts": "2018-02-05T16:44:55.759810",
  "type": "INFO",
  "values": "Closing /cw/dtailocal/mercs_python/out/286/rf1/logs/mercspython_Log_F01.running.log"
}
]
