[
{
  "ts": "2018-02-07T10:27:46.047595",
  "type": "SETTINGS",
  "values": {
    "date": "2018/02/07 11:27:46",
    "date_iso": "2018-02-07T11:27:46.047000",
    "params": null,
    "system": {
      "nodename": "gibson",
      "machine": "x86_64",
      "platform": "Linux-4.4.0-112-generic-x86_64-with-debian-stretch-sid",
      "processor": "x86_64",
      "version": "#135-Ubuntu SMP Fri Jan 19 11:48:36 UTC 2018",
      "system": "Linux",
      "cpu_count": 8,
      "cpu_times": {
        "user": 382506.2,
        "system": 22419.16,
        "idle": 8577976.43,
        "nice": 901.26
      },
      "cpu_percent": 57.7,
      "virtual_memory": {
        "total": 33618501632,
        "available": 26073800704,
        "percent": 22.4,
        "used": 6675615744,
        "free": 11893243904
      }
    },
    "process": {
      "username": "evgeniya",
      "cwd": "/cw/dtailocal/mercs_python/src/core",
      "create_time": 1517998523.5,
      "cpu_times": {
        "user": 1.84,
        "system": 0.59
      }
    },
    "logfile": "/cw/dtailocal/mercs_python/out/711/rf1/logs/mercspython_Log_F08",
    "command": "python /cw/dtailocal/mercs_python/bin/mercspython.py /cw/dtailocal/mercs_python/out/711/rf1/settings/mercspython_Settings_F08.s"
  }
},
{
  "ts": "2018-02-07T10:27:46.047693",
  "type": "INFO",
  "values": {
    "cmd": "python /cw/dtailocal/mercs_python/bin/mercspython.py /cw/dtailocal/mercs_python/out/711/rf1/settings/mercspython_Settings_F08.s",
    "cwd": null
  }
},
{
  "ts": "2018-02-07T10:27:46.050520",
  "type": "INFO",
  "values": "Start: Run process"
},
{
  "ts": "2018-02-07T10:27:46.050906",
  "type": "INFO",
  "values": "Write log to /cw/dtailocal/mercs_python/out/711/rf1/logs/mercspython_Log_F08.running.log"
},
{
  "ts": "2018-02-07T10:28:43.329905",
  "type": "INFO",
  "values": "Process ended (returncode 0)"
},
{
  "ts": "2018-02-07T10:28:43.329973",
  "type": "INFO",
  "values": "Finished: Run process 57.279 seconds"
},
{
  "ts": "2018-02-07T10:28:43.330038",
  "type": "WARNING",
  "values": {
    "Exit": "finished",
    "Returncode": 0,
    "Time": 57.27948617935181
  }
},
{
  "ts": "2018-02-07T10:28:43.330371",
  "type": "INFO",
  "values": "Closing /cw/dtailocal/mercs_python/out/711/rf1/logs/mercspython_Log_F08.running.log"
}
]
