[
{
  "ts": "2018-02-07T10:24:18.160336",
  "type": "SETTINGS",
  "values": {
    "date": "2018/02/07 11:24:18",
    "date_iso": "2018-02-07T11:24:18.159726",
    "params": null,
    "system": {
      "nodename": "gibson",
      "machine": "x86_64",
      "platform": "Linux-4.4.0-112-generic-x86_64-with-debian-stretch-sid",
      "processor": "x86_64",
      "version": "#135-Ubuntu SMP Fri Jan 19 11:48:36 UTC 2018",
      "system": "Linux",
      "cpu_count": 8,
      "cpu_times": {
        "user": 381460.42,
        "system": 22409.53,
        "idle": 8577372.18,
        "nice": 901.26
      },
      "cpu_percent": 96.2,
      "virtual_memory": {
        "total": 33618501632,
        "available": 25319006208,
        "percent": 24.7,
        "used": 7430717440,
        "free": 11171688448
      }
    },
    "process": {
      "username": "evgeniya",
      "cwd": "/cw/dtailocal/mercs_python/src/core",
      "create_time": 1517998523.5,
      "cpu_times": {
        "user": 1.33,
        "system": 0.22
      }
    },
    "logfile": "/cw/dtailocal/mercs_python/out/711/rf1/logs/mercspython_Log_F05",
    "command": "python /cw/dtailocal/mercs_python/bin/mercspython.py /cw/dtailocal/mercs_python/out/711/rf1/settings/mercspython_Settings_F05.s"
  }
},
{
  "ts": "2018-02-07T10:24:18.160429",
  "type": "INFO",
  "values": {
    "cmd": "python /cw/dtailocal/mercs_python/bin/mercspython.py /cw/dtailocal/mercs_python/out/711/rf1/settings/mercspython_Settings_F05.s",
    "cwd": null
  }
},
{
  "ts": "2018-02-07T10:24:18.163291",
  "type": "INFO",
  "values": "Start: Run process"
},
{
  "ts": "2018-02-07T10:24:18.163722",
  "type": "INFO",
  "values": "Write log to /cw/dtailocal/mercs_python/out/711/rf1/logs/mercspython_Log_F05.running.log"
},
{
  "ts": "2018-02-07T10:25:32.254432",
  "type": "INFO",
  "values": "Process ended (returncode 0)"
},
{
  "ts": "2018-02-07T10:25:32.254700",
  "type": "INFO",
  "values": "Finished: Run process 74.091 seconds"
},
{
  "ts": "2018-02-07T10:25:32.254777",
  "type": "WARNING",
  "values": {
    "Exit": "finished",
    "Returncode": 0,
    "Time": 74.09142684936523
  }
}
]
