[
{
  "ts": "2018-02-07T10:15:14.653347",
  "type": "SETTINGS",
  "values": {
    "date": "2018/02/07 11:15:14",
    "date_iso": "2018-02-07T11:15:14.652422",
    "params": null,
    "system": {
      "nodename": "gibson",
      "machine": "x86_64",
      "platform": "Linux-4.4.0-112-generic-x86_64-with-debian-stretch-sid",
      "processor": "x86_64",
      "version": "#135-Ubuntu SMP Fri Jan 19 11:48:36 UTC 2018",
      "system": "Linux",
      "cpu_count": 8,
      "cpu_times": {
        "user": 377215.28,
        "system": 22348.28,
        "idle": 8577338.72,
        "nice": 898.04
      },
      "cpu_percent": 99.4,
      "virtual_memory": {
        "total": 33618501632,
        "available": 26384654336,
        "percent": 21.5,
        "used": 6364884992,
        "free": 12218630144
      }
    },
    "process": {
      "username": "evgeniya",
      "cwd": "/cw/dtailocal/mercs_python/src/core",
      "create_time": 1517998486.06,
      "cpu_times": {
        "user": 1.21,
        "system": 0.16
      }
    },
    "logfile": "/cw/dtailocal/mercs_python/out/705/slump/logs/mercspython_Log_F07",
    "command": "python /cw/dtailocal/mercs_python/bin/mercspython.py /cw/dtailocal/mercs_python/out/705/slump/settings/mercspython_Settings_F07.s"
  }
},
{
  "ts": "2018-02-07T10:15:14.653525",
  "type": "INFO",
  "values": {
    "cmd": "python /cw/dtailocal/mercs_python/bin/mercspython.py /cw/dtailocal/mercs_python/out/705/slump/settings/mercspython_Settings_F07.s",
    "cwd": null
  }
},
{
  "ts": "2018-02-07T10:15:14.665533",
  "type": "INFO",
  "values": "Start: Run process"
},
{
  "ts": "2018-02-07T10:15:14.672837",
  "type": "INFO",
  "values": "Write log to /cw/dtailocal/mercs_python/out/705/slump/logs/mercspython_Log_F07.running.log"
},
{
  "ts": "2018-02-07T10:15:18.283723",
  "type": "INFO",
  "values": "Process ended (returncode 0)"
},
{
  "ts": "2018-02-07T10:15:18.283799",
  "type": "INFO",
  "values": "Finished: Run process 3.618 seconds"
},
{
  "ts": "2018-02-07T10:15:18.283887",
  "type": "WARNING",
  "values": {
    "Exit": "finished",
    "Returncode": 0,
    "Time": 3.6182913780212402
  }
}
]
