[
{
  "ts": "2018-02-07T10:14:51.369431",
  "type": "SETTINGS",
  "values": {
    "date": "2018/02/07 11:14:51",
    "date_iso": "2018-02-07T11:14:51.368530",
    "params": null,
    "system": {
      "nodename": "gibson",
      "machine": "x86_64",
      "platform": "Linux-4.4.0-112-generic-x86_64-with-debian-stretch-sid",
      "processor": "x86_64",
      "version": "#135-Ubuntu SMP Fri Jan 19 11:48:36 UTC 2018",
      "system": "Linux",
      "cpu_count": 8,
      "cpu_times": {
        "user": 377041.24,
        "system": 22338.96,
        "idle": 8577336.87,
        "nice": 898.04
      },
      "cpu_percent": 95.0,
      "virtual_memory": {
        "total": 33618501632,
        "available": 26419703808,
        "percent": 21.4,
        "used": 6310252544,
        "free": 12257853440
      }
    },
    "process": {
      "username": "evgeniya",
      "cwd": "/cw/dtailocal/mercs_python/src/core",
      "create_time": 1517998486.06,
      "cpu_times": {
        "user": 0.67,
        "system": 0.05
      }
    },
    "logfile": "/cw/dtailocal/mercs_python/out/705/slump/logs/mercspython_Log_F01",
    "command": "python /cw/dtailocal/mercs_python/bin/mercspython.py /cw/dtailocal/mercs_python/out/705/slump/settings/mercspython_Settings_F01.s"
  }
},
{
  "ts": "2018-02-07T10:14:51.369599",
  "type": "INFO",
  "values": {
    "cmd": "python /cw/dtailocal/mercs_python/bin/mercspython.py /cw/dtailocal/mercs_python/out/705/slump/settings/mercspython_Settings_F01.s",
    "cwd": null
  }
},
{
  "ts": "2018-02-07T10:14:51.394067",
  "type": "INFO",
  "values": "Start: Run process"
},
{
  "ts": "2018-02-07T10:14:51.419799",
  "type": "INFO",
  "values": "Write log to /cw/dtailocal/mercs_python/out/705/slump/logs/mercspython_Log_F01.running.log"
},
{
  "ts": "2018-02-07T10:14:55.425237",
  "type": "INFO",
  "values": "Process ended (returncode 0)"
},
{
  "ts": "2018-02-07T10:14:55.425316",
  "type": "INFO",
  "values": "Finished: Run process 4.031 seconds"
},
{
  "ts": "2018-02-07T10:14:55.425405",
  "type": "WARNING",
  "values": {
    "Exit": "finished",
    "Returncode": 0,
    "Time": 4.0312793254852295
  }
}
]
