[
{
  "ts": "2018-02-05T16:25:41.849951",
  "type": "SETTINGS",
  "values": {
    "date": "2018/02/05 17:25:41",
    "date_iso": "2018-02-05T17:25:41.849172",
    "params": null,
    "system": {
      "nodename": "gibson",
      "machine": "x86_64",
      "platform": "Linux-4.4.0-112-generic-x86_64-with-debian-stretch-sid",
      "processor": "x86_64",
      "version": "#135-Ubuntu SMP Fri Jan 19 11:48:36 UTC 2018",
      "system": "Linux",
      "cpu_count": 8,
      "cpu_times": {
        "user": 119744.08,
        "system": 18470.86,
        "idle": 7637231.88,
        "nice": 751.58
      },
      "cpu_percent": 100.0,
      "virtual_memory": {
        "total": 33618501632,
        "available": 24979943424,
        "percent": 25.7,
        "used": 7697088512,
        "free": 8382771200
      }
    },
    "process": {
      "username": "evgeniya",
      "cwd": "/cw/dtailocal/mercs_python/src/core",
      "create_time": 1517847933.86,
      "cpu_times": {
        "user": 0.67,
        "system": 0.08
      }
    },
    "logfile": "/cw/dtailocal/mercs_python/out/301/andro/logs/mercspython_Log_F01",
    "command": "python /cw/dtailocal/mercs_python/bin/mercspython.py /cw/dtailocal/mercs_python/out/301/andro/settings/mercspython_Settings_F01.s"
  }
},
{
  "ts": "2018-02-05T16:25:41.850104",
  "type": "INFO",
  "values": {
    "cmd": "python /cw/dtailocal/mercs_python/bin/mercspython.py /cw/dtailocal/mercs_python/out/301/andro/settings/mercspython_Settings_F01.s",
    "cwd": null
  }
},
{
  "ts": "2018-02-05T16:25:41.873306",
  "type": "INFO",
  "values": "Start: Run process"
},
{
  "ts": "2018-02-05T16:25:41.895751",
  "type": "INFO",
  "values": "Write log to /cw/dtailocal/mercs_python/out/301/andro/logs/mercspython_Log_F01.running.log"
},
{
  "ts": "2018-02-05T16:25:47.102110",
  "type": "INFO",
  "values": "Process ended (returncode 0)"
},
{
  "ts": "2018-02-05T16:25:47.102189",
  "type": "INFO",
  "values": "Finished: Run process 5.229 seconds"
},
{
  "ts": "2018-02-05T16:25:47.102284",
  "type": "WARNING",
  "values": {
    "Exit": "finished",
    "Returncode": 0,
    "Time": 5.228907585144043
  }
},
{
  "ts": "2018-02-05T16:25:47.107782",
  "type": "INFO",
  "values": "Closing /cw/dtailocal/mercs_python/out/301/andro/logs/mercspython_Log_F01.running.log"
}
]
