[
{
  "ts": "2018-02-06T12:07:34.961918",
  "type": "SETTINGS",
  "values": {
    "date": "2018/02/06 13:07:34",
    "date_iso": "2018-02-06T13:07:34.961069",
    "params": null,
    "system": {
      "nodename": "gibson",
      "machine": "x86_64",
      "platform": "Linux-4.4.0-112-generic-x86_64-with-debian-stretch-sid",
      "processor": "x86_64",
      "version": "#135-Ubuntu SMP Fri Jan 19 11:48:36 UTC 2018",
      "system": "Linux",
      "cpu_count": 8,
      "cpu_times": {
        "user": 342360.93,
        "system": 20894.2,
        "idle": 7978156.47,
        "nice": 821.4
      },
      "cpu_percent": 85.0,
      "virtual_memory": {
        "total": 33618501632,
        "available": 22983098368,
        "percent": 31.6,
        "used": 9597902848,
        "free": 10865074176
      }
    },
    "process": {
      "username": "evgeniya",
      "cwd": "/cw/dtailocal/mercs_python/src/core",
      "create_time": 1517918838.28,
      "cpu_times": {
        "user": 1.19,
        "system": 0.56
      }
    },
    "logfile": "/cw/dtailocal/mercs_python/out/618/jura/logs/mercspython_Log_F07",
    "command": "python /cw/dtailocal/mercs_python/bin/mercspython.py /cw/dtailocal/mercs_python/out/618/jura/settings/mercspython_Settings_F07.s"
  }
},
{
  "ts": "2018-02-06T12:07:34.962069",
  "type": "INFO",
  "values": {
    "cmd": "python /cw/dtailocal/mercs_python/bin/mercspython.py /cw/dtailocal/mercs_python/out/618/jura/settings/mercspython_Settings_F07.s",
    "cwd": null
  }
},
{
  "ts": "2018-02-06T12:07:34.965395",
  "type": "INFO",
  "values": "Start: Run process"
},
{
  "ts": "2018-02-06T12:07:34.968476",
  "type": "INFO",
  "values": "Write log to /cw/dtailocal/mercs_python/out/618/jura/logs/mercspython_Log_F07.running.log"
},
{
  "ts": "2018-02-06T12:07:37.171565",
  "type": "INFO",
  "values": "Process ended (returncode 0)"
},
{
  "ts": "2018-02-06T12:07:37.171654",
  "type": "INFO",
  "values": "Finished: Run process 2.206 seconds"
},
{
  "ts": "2018-02-06T12:07:37.171741",
  "type": "WARNING",
  "values": {
    "Exit": "finished",
    "Returncode": 0,
    "Time": 2.2062716484069824
  }
}
]
