[
{
  "ts": "2018-02-06T12:07:39.181623",
  "type": "SETTINGS",
  "values": {
    "date": "2018/02/06 13:07:39",
    "date_iso": "2018-02-06T13:07:39.180730",
    "params": null,
    "system": {
      "nodename": "gibson",
      "machine": "x86_64",
      "platform": "Linux-4.4.0-112-generic-x86_64-with-debian-stretch-sid",
      "processor": "x86_64",
      "version": "#135-Ubuntu SMP Fri Jan 19 11:48:36 UTC 2018",
      "system": "Linux",
      "cpu_count": 8,
      "cpu_times": {
        "user": 342388.86,
        "system": 20895.08,
        "idle": 7978161.28,
        "nice": 821.4
      },
      "cpu_percent": 85.4,
      "virtual_memory": {
        "total": 33618501632,
        "available": 22786375680,
        "percent": 32.2,
        "used": 9793478656,
        "free": 10667634688
      }
    },
    "process": {
      "username": "evgeniya",
      "cwd": "/cw/dtailocal/mercs_python/src/core",
      "create_time": 1517918838.28,
      "cpu_times": {
        "user": 1.36,
        "system": 0.65
      }
    },
    "logfile": "/cw/dtailocal/mercs_python/out/618/jura/logs/mercspython_Log_F09",
    "command": "python /cw/dtailocal/mercs_python/bin/mercspython.py /cw/dtailocal/mercs_python/out/618/jura/settings/mercspython_Settings_F09.s"
  }
},
{
  "ts": "2018-02-06T12:07:39.181785",
  "type": "INFO",
  "values": {
    "cmd": "python /cw/dtailocal/mercs_python/bin/mercspython.py /cw/dtailocal/mercs_python/out/618/jura/settings/mercspython_Settings_F09.s",
    "cwd": null
  }
},
{
  "ts": "2018-02-06T12:07:39.189154",
  "type": "INFO",
  "values": "Start: Run process"
},
{
  "ts": "2018-02-06T12:07:39.203919",
  "type": "INFO",
  "values": "Write log to /cw/dtailocal/mercs_python/out/618/jura/logs/mercspython_Log_F09.running.log"
},
{
  "ts": "2018-02-06T12:07:41.606948",
  "type": "INFO",
  "values": "Process ended (returncode 0)"
},
{
  "ts": "2018-02-06T12:07:41.607028",
  "type": "INFO",
  "values": "Finished: Run process 2.418 seconds"
},
{
  "ts": "2018-02-06T12:07:41.607109",
  "type": "WARNING",
  "values": {
    "Exit": "finished",
    "Returncode": 0,
    "Time": 2.417898178100586
  }
}
]
