[
{
  "ts": "2018-02-07T13:06:00.629307",
  "type": "SETTINGS",
  "values": {
    "date": "2018/02/07 14:06:00",
    "date_iso": "2018-02-07T14:06:00.628396",
    "params": null,
    "system": {
      "nodename": "gibson",
      "machine": "x86_64",
      "platform": "Linux-4.4.0-112-generic-x86_64-with-debian-stretch-sid",
      "processor": "x86_64",
      "version": "#135-Ubuntu SMP Fri Jan 19 11:48:36 UTC 2018",
      "system": "Linux",
      "cpu_count": 8,
      "cpu_times": {
        "user": 400900.34,
        "system": 23565.86,
        "idle": 8633960.95,
        "nice": 906.12
      },
      "cpu_percent": 99.8,
      "virtual_memory": {
        "total": 33618501632,
        "available": 24734302208,
        "percent": 26.4,
        "used": 7941259264,
        "free": 10399281152
      }
    },
    "process": {
      "username": "evgeniya",
      "cwd": "/cw/dtailocal/mercs_python/src/core",
      "create_time": 1518008744.3,
      "cpu_times": {
        "user": 0.86,
        "system": 0.1
      }
    },
    "logfile": "/cw/dtailocal/mercs_python/out/823/jura/logs/mercspython_Log_F04",
    "command": "python /cw/dtailocal/mercs_python/bin/mercspython.py /cw/dtailocal/mercs_python/out/823/jura/settings/mercspython_Settings_F04.s"
  }
},
{
  "ts": "2018-02-07T13:06:00.629590",
  "type": "INFO",
  "values": {
    "cmd": "python /cw/dtailocal/mercs_python/bin/mercspython.py /cw/dtailocal/mercs_python/out/823/jura/settings/mercspython_Settings_F04.s",
    "cwd": null
  }
},
{
  "ts": "2018-02-07T13:06:00.645470",
  "type": "INFO",
  "values": "Start: Run process"
},
{
  "ts": "2018-02-07T13:06:00.675784",
  "type": "INFO",
  "values": "Write log to /cw/dtailocal/mercs_python/out/823/jura/logs/mercspython_Log_F04.running.log"
},
{
  "ts": "2018-02-07T13:06:04.079961",
  "type": "INFO",
  "values": "Process ended (returncode 0)"
},
{
  "ts": "2018-02-07T13:06:04.080058",
  "type": "INFO",
  "values": "Finished: Run process 3.435 seconds"
},
{
  "ts": "2018-02-07T13:06:04.080149",
  "type": "WARNING",
  "values": {
    "Exit": "finished",
    "Returncode": 0,
    "Time": 3.434603214263916
  }
},
{
  "ts": "2018-02-07T13:06:04.095795",
  "type": "INFO",
  "values": "Closing /cw/dtailocal/mercs_python/out/823/jura/logs/mercspython_Log_F04.running.log"
}
]
