[
{
  "ts": "2018-02-07T13:05:56.969195",
  "type": "SETTINGS",
  "values": {
    "date": "2018/02/07 14:05:56",
    "date_iso": "2018-02-07T14:05:56.968263",
    "params": null,
    "system": {
      "nodename": "gibson",
      "machine": "x86_64",
      "platform": "Linux-4.4.0-112-generic-x86_64-with-debian-stretch-sid",
      "processor": "x86_64",
      "version": "#135-Ubuntu SMP Fri Jan 19 11:48:36 UTC 2018",
      "system": "Linux",
      "cpu_count": 8,
      "cpu_times": {
        "user": 400872.01,
        "system": 23565.01,
        "idle": 8633960.9,
        "nice": 906.12
      },
      "cpu_percent": 100.0,
      "virtual_memory": {
        "total": 33618501632,
        "available": 24825421824,
        "percent": 26.2,
        "used": 7848820736,
        "free": 10490982400
      }
    },
    "process": {
      "username": "evgeniya",
      "cwd": "/cw/dtailocal/mercs_python/src/core",
      "create_time": 1518008744.3,
      "cpu_times": {
        "user": 0.81,
        "system": 0.1
      }
    },
    "logfile": "/cw/dtailocal/mercs_python/out/823/jura/logs/mercspython_Log_F03",
    "command": "python /cw/dtailocal/mercs_python/bin/mercspython.py /cw/dtailocal/mercs_python/out/823/jura/settings/mercspython_Settings_F03.s"
  }
},
{
  "ts": "2018-02-07T13:05:56.969360",
  "type": "INFO",
  "values": {
    "cmd": "python /cw/dtailocal/mercs_python/bin/mercspython.py /cw/dtailocal/mercs_python/out/823/jura/settings/mercspython_Settings_F03.s",
    "cwd": null
  }
},
{
  "ts": "2018-02-07T13:05:56.981708",
  "type": "INFO",
  "values": "Start: Run process"
},
{
  "ts": "2018-02-07T13:05:57.015794",
  "type": "INFO",
  "values": "Write log to /cw/dtailocal/mercs_python/out/823/jura/logs/mercspython_Log_F03.running.log"
},
{
  "ts": "2018-02-07T13:06:00.621167",
  "type": "INFO",
  "values": "Process ended (returncode 0)"
},
{
  "ts": "2018-02-07T13:06:00.621248",
  "type": "INFO",
  "values": "Finished: Run process 3.640 seconds"
},
{
  "ts": "2018-02-07T13:06:00.621345",
  "type": "WARNING",
  "values": {
    "Exit": "finished",
    "Returncode": 0,
    "Time": 3.639577627182007
  }
},
{
  "ts": "2018-02-07T13:06:00.627826",
  "type": "INFO",
  "values": "Closing /cw/dtailocal/mercs_python/out/823/jura/logs/mercspython_Log_F03.running.log"
}
]
