[
{
  "ts": "2018-02-05T16:11:54.293044",
  "type": "SETTINGS",
  "values": {
    "date": "2018/02/05 17:11:54",
    "date_iso": "2018-02-05T17:11:54.270670",
    "params": null,
    "system": {
      "nodename": "gibson",
      "machine": "x86_64",
      "platform": "Linux-4.4.0-112-generic-x86_64-with-debian-stretch-sid",
      "processor": "x86_64",
      "version": "#135-Ubuntu SMP Fri Jan 19 11:48:36 UTC 2018",
      "system": "Linux",
      "cpu_count": 8,
      "cpu_times": {
        "user": 113194.66,
        "system": 18407.4,
        "idle": 7637230.28,
        "nice": 749.46
      },
      "cpu_percent": 100.0,
      "virtual_memory": {
        "total": 33618501632,
        "available": 23526129664,
        "percent": 30.0,
        "used": 9196261376,
        "free": 7036325888
      }
    },
    "process": {
      "username": "evgeniya",
      "cwd": "/cw/dtailocal/mercs_python/src/core",
      "create_time": 1517847112.67,
      "cpu_times": {
        "user": 0.52,
        "system": 0.08
      }
    },
    "logfile": "/cw/dtailocal/mercs_python/out/271/andro/logs/mercspython_Log_F00",
    "command": "python /cw/dtailocal/mercs_python/bin/mercspython.py /cw/dtailocal/mercs_python/out/271/andro/settings/mercspython_Settings_F00.s"
  }
},
{
  "ts": "2018-02-05T16:11:54.293283",
  "type": "INFO",
  "values": {
    "cmd": "python /cw/dtailocal/mercs_python/bin/mercspython.py /cw/dtailocal/mercs_python/out/271/andro/settings/mercspython_Settings_F00.s",
    "cwd": null
  }
},
{
  "ts": "2018-02-05T16:11:54.309538",
  "type": "INFO",
  "values": "Start: Run process"
},
{
  "ts": "2018-02-05T16:11:54.352330",
  "type": "INFO",
  "values": "Write log to /cw/dtailocal/mercs_python/out/271/andro/logs/mercspython_Log_F00.running.log"
},
{
  "ts": "2018-02-05T16:12:00.159255",
  "type": "INFO",
  "values": "Process ended (returncode 0)"
},
{
  "ts": "2018-02-05T16:12:00.159335",
  "type": "INFO",
  "values": "Finished: Run process 5.850 seconds"
},
{
  "ts": "2018-02-05T16:12:00.159418",
  "type": "WARNING",
  "values": {
    "Exit": "finished",
    "Returncode": 0,
    "Time": 5.849842071533203
  }
},
{
  "ts": "2018-02-05T16:12:00.171818",
  "type": "INFO",
  "values": "Closing /cw/dtailocal/mercs_python/out/271/andro/logs/mercspython_Log_F00.running.log"
}
]
