[
{
  "ts": "2018-02-05T14:54:14.907984",
  "type": "SETTINGS",
  "values": {
    "date": "2018/02/05 15:54:14",
    "date_iso": "2018-02-05T15:54:14.891079",
    "params": null,
    "system": {
      "nodename": "gibson",
      "machine": "x86_64",
      "platform": "Linux-4.4.0-112-generic-x86_64-with-debian-stretch-sid",
      "processor": "x86_64",
      "version": "#135-Ubuntu SMP Fri Jan 19 11:48:36 UTC 2018",
      "system": "Linux",
      "cpu_count": 8,
      "cpu_times": {
        "user": 83035.8,
        "system": 18050.74,
        "idle": 7630552.56,
        "nice": 732.25
      },
      "cpu_percent": 100.0,
      "virtual_memory": {
        "total": 33618501632,
        "available": 24259264512,
        "percent": 27.8,
        "used": 8290385920,
        "free": 8808296448
      }
    },
    "process": {
      "username": "evgeniya",
      "cwd": "/cw/dtailocal/mercs_python/src/core",
      "create_time": 1517842453.32,
      "cpu_times": {
        "user": 0.56,
        "system": 0.05
      }
    },
    "logfile": "/cw/dtailocal/mercs_python/out/334/wq/logs/mercspython_Log_F00",
    "command": "python /cw/dtailocal/mercs_python/bin/mercspython.py /cw/dtailocal/mercs_python/out/334/wq/settings/mercspython_Settings_F00.s"
  }
},
{
  "ts": "2018-02-05T14:54:14.908144",
  "type": "INFO",
  "values": {
    "cmd": "python /cw/dtailocal/mercs_python/bin/mercspython.py /cw/dtailocal/mercs_python/out/334/wq/settings/mercspython_Settings_F00.s",
    "cwd": null
  }
},
{
  "ts": "2018-02-05T14:54:14.925373",
  "type": "INFO",
  "values": "Start: Run process"
},
{
  "ts": "2018-02-05T14:54:14.963838",
  "type": "INFO",
  "values": "Write log to /cw/dtailocal/mercs_python/out/334/wq/logs/mercspython_Log_F00.running.log"
},
{
  "ts": "2018-02-05T14:54:19.379713",
  "type": "INFO",
  "values": "Process ended (returncode 0)"
},
{
  "ts": "2018-02-05T14:54:19.379815",
  "type": "INFO",
  "values": "Finished: Run process 4.454 seconds"
},
{
  "ts": "2018-02-05T14:54:19.379900",
  "type": "WARNING",
  "values": {
    "Exit": "finished",
    "Returncode": 0,
    "Time": 4.454482316970825
  }
}
]
