[
{
  "ts": "2018-02-05T14:54:55.989182",
  "type": "SETTINGS",
  "values": {
    "date": "2018/02/05 15:54:55",
    "date_iso": "2018-02-05T15:54:55.988339",
    "params": null,
    "system": {
      "nodename": "gibson",
      "machine": "x86_64",
      "platform": "Linux-4.4.0-112-generic-x86_64-with-debian-stretch-sid",
      "processor": "x86_64",
      "version": "#135-Ubuntu SMP Fri Jan 19 11:48:36 UTC 2018",
      "system": "Linux",
      "cpu_count": 8,
      "cpu_times": {
        "user": 83360.65,
        "system": 18054.2,
        "idle": 7630552.72,
        "nice": 732.25
      },
      "cpu_percent": 99.9,
      "virtual_memory": {
        "total": 33618501632,
        "available": 24112553984,
        "percent": 28.3,
        "used": 8437850112,
        "free": 8650579968
      }
    },
    "process": {
      "username": "evgeniya",
      "cwd": "/cw/dtailocal/mercs_python/src/core",
      "create_time": 1517842453.32,
      "cpu_times": {
        "user": 1.77,
        "system": 0.22
      }
    },
    "logfile": "/cw/dtailocal/mercs_python/out/334/wq/logs/mercspython_Log_F09",
    "command": "python /cw/dtailocal/mercs_python/bin/mercspython.py /cw/dtailocal/mercs_python/out/334/wq/settings/mercspython_Settings_F09.s"
  }
},
{
  "ts": "2018-02-05T14:54:55.989333",
  "type": "INFO",
  "values": {
    "cmd": "python /cw/dtailocal/mercs_python/bin/mercspython.py /cw/dtailocal/mercs_python/out/334/wq/settings/mercspython_Settings_F09.s",
    "cwd": null
  }
},
{
  "ts": "2018-02-05T14:54:56.001446",
  "type": "INFO",
  "values": "Start: Run process"
},
{
  "ts": "2018-02-05T14:54:56.027804",
  "type": "INFO",
  "values": "Write log to /cw/dtailocal/mercs_python/out/334/wq/logs/mercspython_Log_F09.running.log"
},
{
  "ts": "2018-02-05T14:55:00.641838",
  "type": "INFO",
  "values": "Process ended (returncode 0)"
},
{
  "ts": "2018-02-05T14:55:00.641921",
  "type": "INFO",
  "values": "Finished: Run process 4.641 seconds"
},
{
  "ts": "2018-02-05T14:55:00.642010",
  "type": "WARNING",
  "values": {
    "Exit": "finished",
    "Returncode": 0,
    "Time": 4.640509605407715
  }
}
]
