[
{
  "ts": "2018-02-05T14:54:19.389080",
  "type": "SETTINGS",
  "values": {
    "date": "2018/02/05 15:54:19",
    "date_iso": "2018-02-05T15:54:19.388227",
    "params": null,
    "system": {
      "nodename": "gibson",
      "machine": "x86_64",
      "platform": "Linux-4.4.0-112-generic-x86_64-with-debian-stretch-sid",
      "processor": "x86_64",
      "version": "#135-Ubuntu SMP Fri Jan 19 11:48:36 UTC 2018",
      "system": "Linux",
      "cpu_count": 8,
      "cpu_times": {
        "user": 83071.41,
        "system": 18051.05,
        "idle": 7630552.58,
        "nice": 732.25
      },
      "cpu_percent": 99.9,
      "virtual_memory": {
        "total": 33618501632,
        "available": 24049971200,
        "percent": 28.5,
        "used": 8491560960,
        "free": 8598552576
      }
    },
    "process": {
      "username": "evgeniya",
      "cwd": "/cw/dtailocal/mercs_python/src/core",
      "create_time": 1517842453.32,
      "cpu_times": {
        "user": 0.69,
        "system": 0.09
      }
    },
    "logfile": "/cw/dtailocal/mercs_python/out/334/wq/logs/mercspython_Log_F01",
    "command": "python /cw/dtailocal/mercs_python/bin/mercspython.py /cw/dtailocal/mercs_python/out/334/wq/settings/mercspython_Settings_F01.s"
  }
},
{
  "ts": "2018-02-05T14:54:19.389233",
  "type": "INFO",
  "values": {
    "cmd": "python /cw/dtailocal/mercs_python/bin/mercspython.py /cw/dtailocal/mercs_python/out/334/wq/settings/mercspython_Settings_F01.s",
    "cwd": null
  }
},
{
  "ts": "2018-02-05T14:54:19.398784",
  "type": "INFO",
  "values": "Start: Run process"
},
{
  "ts": "2018-02-05T14:54:19.429911",
  "type": "INFO",
  "values": "Write log to /cw/dtailocal/mercs_python/out/334/wq/logs/mercspython_Log_F01.running.log"
},
{
  "ts": "2018-02-05T14:54:23.667713",
  "type": "INFO",
  "values": "Process ended (returncode 0)"
},
{
  "ts": "2018-02-05T14:54:23.667793",
  "type": "INFO",
  "values": "Finished: Run process 4.269 seconds"
},
{
  "ts": "2018-02-05T14:54:23.667873",
  "type": "WARNING",
  "values": {
    "Exit": "finished",
    "Returncode": 0,
    "Time": 4.269031763076782
  }
},
{
  "ts": "2018-02-05T14:54:23.679798",
  "type": "INFO",
  "values": "Closing /cw/dtailocal/mercs_python/out/334/wq/logs/mercspython_Log_F01.running.log"
}
]
