[
{
  "ts": "2018-02-06T12:13:15.927806",
  "type": "SETTINGS",
  "values": {
    "date": "2018/02/06 13:13:15",
    "date_iso": "2018-02-06T13:13:15.926956",
    "params": null,
    "system": {
      "nodename": "gibson",
      "machine": "x86_64",
      "platform": "Linux-4.4.0-112-generic-x86_64-with-debian-stretch-sid",
      "processor": "x86_64",
      "version": "#135-Ubuntu SMP Fri Jan 19 11:48:36 UTC 2018",
      "system": "Linux",
      "cpu_count": 8,
      "cpu_times": {
        "user": 344700.1,
        "system": 20928.68,
        "idle": 7978505.69,
        "nice": 821.4
      },
      "cpu_percent": 87.0,
      "virtual_memory": {
        "total": 33618501632,
        "available": 24074465280,
        "percent": 28.4,
        "used": 8545398784,
        "free": 11840376832
      }
    },
    "process": {
      "username": "evgeniya",
      "cwd": "/cw/dtailocal/mercs_python/src/core",
      "create_time": 1517918868.18,
      "cpu_times": {
        "user": 2.88,
        "system": 0.73
      }
    },
    "logfile": "/cw/dtailocal/mercs_python/out/611/oes10/logs/mercspython_Log_F09",
    "command": "python /cw/dtailocal/mercs_python/bin/mercspython.py /cw/dtailocal/mercs_python/out/611/oes10/settings/mercspython_Settings_F09.s"
  }
},
{
  "ts": "2018-02-06T12:13:15.927961",
  "type": "INFO",
  "values": {
    "cmd": "python /cw/dtailocal/mercs_python/bin/mercspython.py /cw/dtailocal/mercs_python/out/611/oes10/settings/mercspython_Settings_F09.s",
    "cwd": null
  }
},
{
  "ts": "2018-02-06T12:13:15.941083",
  "type": "INFO",
  "values": "Start: Run process"
},
{
  "ts": "2018-02-06T12:13:15.941499",
  "type": "INFO",
  "values": "Write log to /cw/dtailocal/mercs_python/out/611/oes10/logs/mercspython_Log_F09.running.log"
},
{
  "ts": "2018-02-06T12:13:51.383956",
  "type": "INFO",
  "values": "Process ended (returncode 0)"
},
{
  "ts": "2018-02-06T12:13:51.384036",
  "type": "INFO",
  "values": "Finished: Run process 35.443 seconds"
},
{
  "ts": "2018-02-06T12:13:51.384118",
  "type": "WARNING",
  "values": {
    "Exit": "finished",
    "Returncode": 0,
    "Time": 35.442994117736816
  }
}
]
