[
{
  "ts": "2018-02-05T17:10:16.677926",
  "type": "SETTINGS",
  "values": {
    "date": "2018/02/05 18:10:16",
    "date_iso": "2018-02-05T18:10:16.677060",
    "params": null,
    "system": {
      "nodename": "gibson",
      "machine": "x86_64",
      "platform": "Linux-4.4.0-112-generic-x86_64-with-debian-stretch-sid",
      "processor": "x86_64",
      "version": "#135-Ubuntu SMP Fri Jan 19 11:48:36 UTC 2018",
      "system": "Linux",
      "cpu_count": 8,
      "cpu_times": {
        "user": 140940.73,
        "system": 18655.78,
        "idle": 7637234.64,
        "nice": 751.58
      },
      "cpu_percent": 100.0,
      "virtual_memory": {
        "total": 33618501632,
        "available": 22847434752,
        "percent": 32.0,
        "used": 9792278528,
        "free": 5631897600
      }
    },
    "process": {
      "username": "evgeniya",
      "cwd": "/cw/dtailocal/mercs_python/src/core",
      "create_time": 1517850590.87,
      "cpu_times": {
        "user": 0.84,
        "system": 0.1
      }
    },
    "logfile": "/cw/dtailocal/mercs_python/out/289/slump/logs/mercspython_Log_F05",
    "command": "python /cw/dtailocal/mercs_python/bin/mercspython.py /cw/dtailocal/mercs_python/out/289/slump/settings/mercspython_Settings_F05.s"
  }
},
{
  "ts": "2018-02-05T17:10:16.678075",
  "type": "INFO",
  "values": {
    "cmd": "python /cw/dtailocal/mercs_python/bin/mercspython.py /cw/dtailocal/mercs_python/out/289/slump/settings/mercspython_Settings_F05.s",
    "cwd": null
  }
},
{
  "ts": "2018-02-05T17:10:16.686884",
  "type": "INFO",
  "values": "Start: Run process"
},
{
  "ts": "2018-02-05T17:10:16.744420",
  "type": "INFO",
  "values": "Write log to /cw/dtailocal/mercs_python/out/289/slump/logs/mercspython_Log_F05.running.log"
},
{
  "ts": "2018-02-05T17:10:22.352204",
  "type": "INFO",
  "values": "Process ended (returncode 0)"
},
{
  "ts": "2018-02-05T17:10:22.352303",
  "type": "INFO",
  "values": "Finished: Run process 5.665 seconds"
},
{
  "ts": "2018-02-05T17:10:22.352384",
  "type": "WARNING",
  "values": {
    "Exit": "finished",
    "Returncode": 0,
    "Time": 5.665425777435303
  }
}
]
