[
{
  "ts": "2018-02-05T17:10:22.361096",
  "type": "SETTINGS",
  "values": {
    "date": "2018/02/05 18:10:22",
    "date_iso": "2018-02-05T18:10:22.360234",
    "params": null,
    "system": {
      "nodename": "gibson",
      "machine": "x86_64",
      "platform": "Linux-4.4.0-112-generic-x86_64-with-debian-stretch-sid",
      "processor": "x86_64",
      "version": "#135-Ubuntu SMP Fri Jan 19 11:48:36 UTC 2018",
      "system": "Linux",
      "cpu_count": 8,
      "cpu_times": {
        "user": 140985.67,
        "system": 18656.28,
        "idle": 7637234.65,
        "nice": 751.58
      },
      "cpu_percent": 100.0,
      "virtual_memory": {
        "total": 33618501632,
        "available": 22561480704,
        "percent": 32.9,
        "used": 10077085696,
        "free": 5345607680
      }
    },
    "process": {
      "username": "evgeniya",
      "cwd": "/cw/dtailocal/mercs_python/src/core",
      "create_time": 1517850590.87,
      "cpu_times": {
        "user": 0.95,
        "system": 0.13
      }
    },
    "logfile": "/cw/dtailocal/mercs_python/out/289/slump/logs/mercspython_Log_F06",
    "command": "python /cw/dtailocal/mercs_python/bin/mercspython.py /cw/dtailocal/mercs_python/out/289/slump/settings/mercspython_Settings_F06.s"
  }
},
{
  "ts": "2018-02-05T17:10:22.361250",
  "type": "INFO",
  "values": {
    "cmd": "python /cw/dtailocal/mercs_python/bin/mercspython.py /cw/dtailocal/mercs_python/out/289/slump/settings/mercspython_Settings_F06.s",
    "cwd": null
  }
},
{
  "ts": "2018-02-05T17:10:22.373858",
  "type": "INFO",
  "values": "Start: Run process"
},
{
  "ts": "2018-02-05T17:10:22.427781",
  "type": "INFO",
  "values": "Write log to /cw/dtailocal/mercs_python/out/289/slump/logs/mercspython_Log_F06.running.log"
},
{
  "ts": "2018-02-05T17:10:27.634132",
  "type": "INFO",
  "values": "Process ended (returncode 0)"
},
{
  "ts": "2018-02-05T17:10:27.634394",
  "type": "INFO",
  "values": "Finished: Run process 5.261 seconds"
},
{
  "ts": "2018-02-05T17:10:27.634473",
  "type": "WARNING",
  "values": {
    "Exit": "finished",
    "Returncode": 0,
    "Time": 5.2605626583099365
  }
}
]
