[
{
  "ts": "2018-02-07T13:05:22.493289",
  "type": "SETTINGS",
  "values": {
    "date": "2018/02/07 14:05:22",
    "date_iso": "2018-02-07T14:05:22.492326",
    "params": null,
    "system": {
      "nodename": "gibson",
      "machine": "x86_64",
      "platform": "Linux-4.4.0-112-generic-x86_64-with-debian-stretch-sid",
      "processor": "x86_64",
      "version": "#135-Ubuntu SMP Fri Jan 19 11:48:36 UTC 2018",
      "system": "Linux",
      "cpu_count": 8,
      "cpu_times": {
        "user": 400605.14,
        "system": 23557.1,
        "idle": 8633960.42,
        "nice": 906.12
      },
      "cpu_percent": 99.8,
      "virtual_memory": {
        "total": 33618501632,
        "available": 24720277504,
        "percent": 26.5,
        "used": 7953969152,
        "free": 10400980992
      }
    },
    "process": {
      "username": "evgeniya",
      "cwd": "/cw/dtailocal/mercs_python/src/core",
      "create_time": 1518008708.19,
      "cpu_times": {
        "user": 0.71,
        "system": 0.09
      }
    },
    "logfile": "/cw/dtailocal/mercs_python/out/820/wq/logs/mercspython_Log_F02",
    "command": "python /cw/dtailocal/mercs_python/bin/mercspython.py /cw/dtailocal/mercs_python/out/820/wq/settings/mercspython_Settings_F02.s"
  }
},
{
  "ts": "2018-02-07T13:05:22.493443",
  "type": "INFO",
  "values": {
    "cmd": "python /cw/dtailocal/mercs_python/bin/mercspython.py /cw/dtailocal/mercs_python/out/820/wq/settings/mercspython_Settings_F02.s",
    "cwd": null
  }
},
{
  "ts": "2018-02-07T13:05:22.517365",
  "type": "INFO",
  "values": "Start: Run process"
},
{
  "ts": "2018-02-07T13:05:22.548379",
  "type": "INFO",
  "values": "Write log to /cw/dtailocal/mercs_python/out/820/wq/logs/mercspython_Log_F02.running.log"
},
{
  "ts": "2018-02-07T13:05:29.163715",
  "type": "INFO",
  "values": "Process ended (returncode 0)"
},
{
  "ts": "2018-02-07T13:05:29.163814",
  "type": "INFO",
  "values": "Finished: Run process 6.646 seconds"
},
{
  "ts": "2018-02-07T13:05:29.163894",
  "type": "WARNING",
  "values": {
    "Exit": "finished",
    "Returncode": 0,
    "Time": 6.646475791931152
  }
}
]
