[
{
  "ts": "2018-02-07T13:05:54.435333",
  "type": "SETTINGS",
  "values": {
    "date": "2018/02/07 14:05:54",
    "date_iso": "2018-02-07T14:05:54.434376",
    "params": null,
    "system": {
      "nodename": "gibson",
      "machine": "x86_64",
      "platform": "Linux-4.4.0-112-generic-x86_64-with-debian-stretch-sid",
      "processor": "x86_64",
      "version": "#135-Ubuntu SMP Fri Jan 19 11:48:36 UTC 2018",
      "system": "Linux",
      "cpu_count": 8,
      "cpu_times": {
        "user": 400852.4,
        "system": 23564.39,
        "idle": 8633960.89,
        "nice": 906.12
      },
      "cpu_percent": 99.5,
      "virtual_memory": {
        "total": 33618501632,
        "available": 25022902272,
        "percent": 25.6,
        "used": 7651328000,
        "free": 10689331200
      }
    },
    "process": {
      "username": "evgeniya",
      "cwd": "/cw/dtailocal/mercs_python/src/core",
      "create_time": 1518008708.19,
      "cpu_times": {
        "user": 1.14,
        "system": 0.16
      }
    },
    "logfile": "/cw/dtailocal/mercs_python/out/820/wq/logs/mercspython_Log_F07",
    "command": "python /cw/dtailocal/mercs_python/bin/mercspython.py /cw/dtailocal/mercs_python/out/820/wq/settings/mercspython_Settings_F07.s"
  }
},
{
  "ts": "2018-02-07T13:05:54.435492",
  "type": "INFO",
  "values": {
    "cmd": "python /cw/dtailocal/mercs_python/bin/mercspython.py /cw/dtailocal/mercs_python/out/820/wq/settings/mercspython_Settings_F07.s",
    "cwd": null
  }
},
{
  "ts": "2018-02-07T13:05:54.457736",
  "type": "INFO",
  "values": "Start: Run process"
},
{
  "ts": "2018-02-07T13:05:54.503781",
  "type": "INFO",
  "values": "Write log to /cw/dtailocal/mercs_python/out/820/wq/logs/mercspython_Log_F07.running.log"
},
{
  "ts": "2018-02-07T13:06:00.712214",
  "type": "INFO",
  "values": "Process ended (returncode 0)"
},
{
  "ts": "2018-02-07T13:06:00.712292",
  "type": "INFO",
  "values": "Finished: Run process 6.255 seconds"
},
{
  "ts": "2018-02-07T13:06:00.712372",
  "type": "WARNING",
  "values": {
    "Exit": "finished",
    "Returncode": 0,
    "Time": 6.254585266113281
  }
}
]
