[
{
  "ts": "2018-02-05T15:01:27.513164",
  "type": "SETTINGS",
  "values": {
    "date": "2018/02/05 16:01:27",
    "date_iso": "2018-02-05T16:01:27.512333",
    "params": null,
    "system": {
      "nodename": "gibson",
      "machine": "x86_64",
      "platform": "Linux-4.4.0-112-generic-x86_64-with-debian-stretch-sid",
      "processor": "x86_64",
      "version": "#135-Ubuntu SMP Fri Jan 19 11:48:36 UTC 2018",
      "system": "Linux",
      "cpu_count": 8,
      "cpu_times": {
        "user": 86452.08,
        "system": 18090.22,
        "idle": 7630554.67,
        "nice": 732.25
      },
      "cpu_percent": 99.9,
      "virtual_memory": {
        "total": 33618501632,
        "available": 24575889408,
        "percent": 26.9,
        "used": 7916150784,
        "free": 9000693760
      }
    },
    "process": {
      "username": "evgeniya",
      "cwd": "/cw/dtailocal/mercs_python/src/core",
      "create_time": 1517842709.6,
      "cpu_times": {
        "user": 1.07,
        "system": 0.12
      }
    },
    "logfile": "/cw/dtailocal/mercs_python/out/340/rf1/logs/mercspython_Log_F04",
    "command": "python /cw/dtailocal/mercs_python/bin/mercspython.py /cw/dtailocal/mercs_python/out/340/rf1/settings/mercspython_Settings_F04.s"
  }
},
{
  "ts": "2018-02-05T15:01:27.513314",
  "type": "INFO",
  "values": {
    "cmd": "python /cw/dtailocal/mercs_python/bin/mercspython.py /cw/dtailocal/mercs_python/out/340/rf1/settings/mercspython_Settings_F04.s",
    "cwd": null
  }
},
{
  "ts": "2018-02-05T15:01:27.524109",
  "type": "INFO",
  "values": "Start: Run process"
},
{
  "ts": "2018-02-05T15:01:27.555775",
  "type": "INFO",
  "values": "Write log to /cw/dtailocal/mercs_python/out/340/rf1/logs/mercspython_Log_F04.running.log"
},
{
  "ts": "2018-02-05T15:02:12.219758",
  "type": "INFO",
  "values": "Process ended (returncode 0)"
},
{
  "ts": "2018-02-05T15:02:12.219843",
  "type": "INFO",
  "values": "Finished: Run process 44.696 seconds"
},
{
  "ts": "2018-02-05T15:02:12.219930",
  "type": "WARNING",
  "values": {
    "Exit": "finished",
    "Returncode": 0,
    "Time": 44.69575500488281
  }
}
]
