[
{
  "ts": "2018-02-05T17:14:24.105245",
  "type": "SETTINGS",
  "values": {
    "date": "2018/02/05 18:14:24",
    "date_iso": "2018-02-05T18:14:24.104383",
    "params": null,
    "system": {
      "nodename": "gibson",
      "machine": "x86_64",
      "platform": "Linux-4.4.0-112-generic-x86_64-with-debian-stretch-sid",
      "processor": "x86_64",
      "version": "#135-Ubuntu SMP Fri Jan 19 11:48:36 UTC 2018",
      "system": "Linux",
      "cpu_count": 8,
      "cpu_times": {
        "user": 142894.63,
        "system": 18679.76,
        "idle": 7637234.7,
        "nice": 751.59
      },
      "cpu_percent": 100.0,
      "virtual_memory": {
        "total": 33618501632,
        "available": 22378496000,
        "percent": 33.4,
        "used": 10268741632,
        "free": 5126443008
      }
    },
    "process": {
      "username": "evgeniya",
      "cwd": "/cw/dtailocal/mercs_python/src/core",
      "create_time": 1517850825.08,
      "cpu_times": {
        "user": 1.1,
        "system": 0.18
      }
    },
    "logfile": "/cw/dtailocal/mercs_python/out/279/slump/logs/mercspython_Log_F08",
    "command": "python /cw/dtailocal/mercs_python/bin/mercspython.py /cw/dtailocal/mercs_python/out/279/slump/settings/mercspython_Settings_F08.s"
  }
},
{
  "ts": "2018-02-05T17:14:24.105399",
  "type": "INFO",
  "values": {
    "cmd": "python /cw/dtailocal/mercs_python/bin/mercspython.py /cw/dtailocal/mercs_python/out/279/slump/settings/mercspython_Settings_F08.s",
    "cwd": null
  }
},
{
  "ts": "2018-02-05T17:14:24.119781",
  "type": "INFO",
  "values": "Start: Run process"
},
{
  "ts": "2018-02-05T17:14:24.151774",
  "type": "INFO",
  "values": "Write log to /cw/dtailocal/mercs_python/out/279/slump/logs/mercspython_Log_F08.running.log"
},
{
  "ts": "2018-02-05T17:14:29.376963",
  "type": "INFO",
  "values": "Process ended (returncode 0)"
},
{
  "ts": "2018-02-05T17:14:29.377051",
  "type": "INFO",
  "values": "Finished: Run process 5.257 seconds"
},
{
  "ts": "2018-02-05T17:14:29.377141",
  "type": "WARNING",
  "values": {
    "Exit": "finished",
    "Returncode": 0,
    "Time": 5.257302522659302
  }
}
]
