[
{
  "ts": "2018-02-07T13:11:23.989321",
  "type": "SETTINGS",
  "values": {
    "date": "2018/02/07 14:11:23",
    "date_iso": "2018-02-07T14:11:23.988444",
    "params": null,
    "system": {
      "nodename": "gibson",
      "machine": "x86_64",
      "platform": "Linux-4.4.0-112-generic-x86_64-with-debian-stretch-sid",
      "processor": "x86_64",
      "version": "#135-Ubuntu SMP Fri Jan 19 11:48:36 UTC 2018",
      "system": "Linux",
      "cpu_count": 8,
      "cpu_times": {
        "user": 403417.78,
        "system": 23632.2,
        "idle": 8633961.85,
        "nice": 906.12
      },
      "cpu_percent": 100.0,
      "virtual_memory": {
        "total": 33618501632,
        "available": 23395905536,
        "percent": 30.4,
        "used": 9237753856,
        "free": 8966213632
      }
    },
    "process": {
      "username": "evgeniya",
      "cwd": "/cw/dtailocal/mercs_python/src/core",
      "create_time": 1518008869.26,
      "cpu_times": {
        "user": 2.44,
        "system": 0.18
      }
    },
    "logfile": "/cw/dtailocal/mercs_python/out/831/oes97/logs/mercspython_Log_F06",
    "command": "python /cw/dtailocal/mercs_python/bin/mercspython.py /cw/dtailocal/mercs_python/out/831/oes97/settings/mercspython_Settings_F06.s"
  }
},
{
  "ts": "2018-02-07T13:11:23.989474",
  "type": "INFO",
  "values": {
    "cmd": "python /cw/dtailocal/mercs_python/bin/mercspython.py /cw/dtailocal/mercs_python/out/831/oes97/settings/mercspython_Settings_F06.s",
    "cwd": null
  }
},
{
  "ts": "2018-02-07T13:11:24.001430",
  "type": "INFO",
  "values": "Start: Run process"
},
{
  "ts": "2018-02-07T13:11:24.040880",
  "type": "INFO",
  "values": "Write log to /cw/dtailocal/mercs_python/out/831/oes97/logs/mercspython_Log_F06.running.log"
},
{
  "ts": "2018-02-07T13:12:00.085980",
  "type": "INFO",
  "values": "Process ended (returncode 0)"
},
{
  "ts": "2018-02-07T13:12:00.086065",
  "type": "INFO",
  "values": "Finished: Run process 36.085 seconds"
},
{
  "ts": "2018-02-07T13:12:00.086161",
  "type": "WARNING",
  "values": {
    "Exit": "finished",
    "Returncode": 0,
    "Time": 36.08467936515808
  }
}
]
