[
{
  "ts": "2018-02-05T17:19:08.337097",
  "type": "SETTINGS",
  "values": {
    "date": "2018/02/05 18:19:08",
    "date_iso": "2018-02-05T18:19:08.336229",
    "params": null,
    "system": {
      "nodename": "gibson",
      "machine": "x86_64",
      "platform": "Linux-4.4.0-112-generic-x86_64-with-debian-stretch-sid",
      "processor": "x86_64",
      "version": "#135-Ubuntu SMP Fri Jan 19 11:48:36 UTC 2018",
      "system": "Linux",
      "cpu_count": 8,
      "cpu_times": {
        "user": 145136.34,
        "system": 18709.72,
        "idle": 7637235.43,
        "nice": 751.59
      },
      "cpu_percent": 99.9,
      "virtual_memory": {
        "total": 33618501632,
        "available": 25160110080,
        "percent": 25.2,
        "used": 7465205760,
        "free": 7878250496
      }
    },
    "process": {
      "username": "evgeniya",
      "cwd": "/cw/dtailocal/mercs_python/src/core",
      "create_time": 1517850828.3,
      "cpu_times": {
        "user": 1.48,
        "system": 0.18
      }
    },
    "logfile": "/cw/dtailocal/mercs_python/out/340/rf1/logs/mercspython_Log_F07",
    "command": "python /cw/dtailocal/mercs_python/bin/mercspython.py /cw/dtailocal/mercs_python/out/340/rf1/settings/mercspython_Settings_F07.s"
  }
},
{
  "ts": "2018-02-05T17:19:08.337246",
  "type": "INFO",
  "values": {
    "cmd": "python /cw/dtailocal/mercs_python/bin/mercspython.py /cw/dtailocal/mercs_python/out/340/rf1/settings/mercspython_Settings_F07.s",
    "cwd": null
  }
},
{
  "ts": "2018-02-05T17:19:08.352984",
  "type": "INFO",
  "values": "Start: Run process"
},
{
  "ts": "2018-02-05T17:19:08.379779",
  "type": "INFO",
  "values": "Write log to /cw/dtailocal/mercs_python/out/340/rf1/logs/mercspython_Log_F07.running.log"
},
{
  "ts": "2018-02-05T17:19:49.430105",
  "type": "INFO",
  "values": "Process ended (returncode 0)"
},
{
  "ts": "2018-02-05T17:19:49.430192",
  "type": "INFO",
  "values": "Finished: Run process 41.077 seconds"
},
{
  "ts": "2018-02-05T17:19:49.430272",
  "type": "WARNING",
  "values": {
    "Exit": "finished",
    "Returncode": 0,
    "Time": 41.07723808288574
  }
},
{
  "ts": "2018-02-05T17:19:49.435842",
  "type": "INFO",
  "values": "Closing /cw/dtailocal/mercs_python/out/340/rf1/logs/mercspython_Log_F07.running.log"
}
]
