[
{
  "ts": "2018-02-06T10:01:56.342299",
  "type": "SETTINGS",
  "values": {
    "date": "2018/02/06 11:01:56",
    "date_iso": "2018-02-06T11:01:56.341409",
    "params": null,
    "system": {
      "nodename": "gibson",
      "machine": "x86_64",
      "platform": "Linux-4.4.0-112-generic-x86_64-with-debian-stretch-sid",
      "processor": "x86_64",
      "version": "#135-Ubuntu SMP Fri Jan 19 11:48:36 UTC 2018",
      "system": "Linux",
      "cpu_count": 8,
      "cpu_times": {
        "user": 315252.78,
        "system": 20447.62,
        "idle": 7945620.84,
        "nice": 819.07
      },
      "cpu_percent": 77.5,
      "virtual_memory": {
        "total": 33618501632,
        "available": 25817481216,
        "percent": 23.2,
        "used": 6847651840,
        "free": 14657077248
      }
    },
    "process": {
      "username": "evgeniya",
      "cwd": "/cw/dtailocal/mercs_python/src/core",
      "create_time": 1517911181.3,
      "cpu_times": {
        "user": 1.3,
        "system": 0.29
      }
    },
    "logfile": "/cw/dtailocal/mercs_python/out/543/rf1/logs/mercspython_Log_F06",
    "command": "python /cw/dtailocal/mercs_python/bin/mercspython.py /cw/dtailocal/mercs_python/out/543/rf1/settings/mercspython_Settings_F06.s"
  }
},
{
  "ts": "2018-02-06T10:01:56.342455",
  "type": "INFO",
  "values": {
    "cmd": "python /cw/dtailocal/mercs_python/bin/mercspython.py /cw/dtailocal/mercs_python/out/543/rf1/settings/mercspython_Settings_F06.s",
    "cwd": null
  }
},
{
  "ts": "2018-02-06T10:01:56.346183",
  "type": "INFO",
  "values": "Start: Run process"
},
{
  "ts": "2018-02-06T10:01:56.346699",
  "type": "INFO",
  "values": "Write log to /cw/dtailocal/mercs_python/out/543/rf1/logs/mercspython_Log_F06.running.log"
},
{
  "ts": "2018-02-06T10:02:17.589235",
  "type": "INFO",
  "values": "Process ended (returncode 0)"
},
{
  "ts": "2018-02-06T10:02:17.589319",
  "type": "INFO",
  "values": "Finished: Run process 21.243 seconds"
},
{
  "ts": "2018-02-06T10:02:17.589401",
  "type": "WARNING",
  "values": {
    "Exit": "finished",
    "Returncode": 0,
    "Time": 21.243164777755737
  }
}
]
