[
{
  "ts": "2018-02-06T10:00:26.664914",
  "type": "SETTINGS",
  "values": {
    "date": "2018/02/06 11:00:26",
    "date_iso": "2018-02-06T11:00:26.664071",
    "params": null,
    "system": {
      "nodename": "gibson",
      "machine": "x86_64",
      "platform": "Linux-4.4.0-112-generic-x86_64-with-debian-stretch-sid",
      "processor": "x86_64",
      "version": "#135-Ubuntu SMP Fri Jan 19 11:48:36 UTC 2018",
      "system": "Linux",
      "cpu_count": 8,
      "cpu_times": {
        "user": 314705.7,
        "system": 20427.45,
        "idle": 7945477.83,
        "nice": 819.07
      },
      "cpu_percent": 76.9,
      "virtual_memory": {
        "total": 33618501632,
        "available": 25589370880,
        "percent": 23.9,
        "used": 7121133568,
        "free": 14472884224
      }
    },
    "process": {
      "username": "evgeniya",
      "cwd": "/cw/dtailocal/mercs_python/src/core",
      "create_time": 1517911181.3,
      "cpu_times": {
        "user": 0.94,
        "system": 0.11
      }
    },
    "logfile": "/cw/dtailocal/mercs_python/out/543/rf1/logs/mercspython_Log_F02",
    "command": "python /cw/dtailocal/mercs_python/bin/mercspython.py /cw/dtailocal/mercs_python/out/543/rf1/settings/mercspython_Settings_F02.s"
  }
},
{
  "ts": "2018-02-06T10:00:26.665065",
  "type": "INFO",
  "values": {
    "cmd": "python /cw/dtailocal/mercs_python/bin/mercspython.py /cw/dtailocal/mercs_python/out/543/rf1/settings/mercspython_Settings_F02.s",
    "cwd": null
  }
},
{
  "ts": "2018-02-06T10:00:26.667780",
  "type": "INFO",
  "values": "Start: Run process"
},
{
  "ts": "2018-02-06T10:00:26.668294",
  "type": "INFO",
  "values": "Write log to /cw/dtailocal/mercs_python/out/543/rf1/logs/mercspython_Log_F02.running.log"
},
{
  "ts": "2018-02-06T10:00:48.294564",
  "type": "INFO",
  "values": "Process ended (returncode 0)"
},
{
  "ts": "2018-02-06T10:00:48.294649",
  "type": "INFO",
  "values": "Finished: Run process 21.627 seconds"
},
{
  "ts": "2018-02-06T10:00:48.294733",
  "type": "WARNING",
  "values": {
    "Exit": "finished",
    "Returncode": 0,
    "Time": 21.626903533935547
  }
}
]
