[
{
  "ts": "2018-02-07T10:15:40.705280",
  "type": "SETTINGS",
  "values": {
    "date": "2018/02/07 11:15:40",
    "date_iso": "2018-02-07T11:15:40.704399",
    "params": null,
    "system": {
      "nodename": "gibson",
      "machine": "x86_64",
      "platform": "Linux-4.4.0-112-generic-x86_64-with-debian-stretch-sid",
      "processor": "x86_64",
      "version": "#135-Ubuntu SMP Fri Jan 19 11:48:36 UTC 2018",
      "system": "Linux",
      "cpu_count": 8,
      "cpu_times": {
        "user": 377412.57,
        "system": 22356.92,
        "idle": 8577340.31,
        "nice": 898.04
      },
      "cpu_percent": 99.0,
      "virtual_memory": {
        "total": 33618501632,
        "available": 26274033664,
        "percent": 21.8,
        "used": 6475702272,
        "free": 12138934272
      }
    },
    "process": {
      "username": "evgeniya",
      "cwd": "/cw/dtailocal/mercs_python/src/core",
      "create_time": 1517998486.06,
      "cpu_times": {
        "user": 1.87,
        "system": 0.15
      }
    },
    "logfile": "/cw/dtailocal/mercs_python/out/703/oes97/logs/mercspython_Log_F01",
    "command": "python /cw/dtailocal/mercs_python/bin/mercspython.py /cw/dtailocal/mercs_python/out/703/oes97/settings/mercspython_Settings_F01.s"
  }
},
{
  "ts": "2018-02-07T10:15:40.705425",
  "type": "INFO",
  "values": {
    "cmd": "python /cw/dtailocal/mercs_python/bin/mercspython.py /cw/dtailocal/mercs_python/out/703/oes97/settings/mercspython_Settings_F01.s",
    "cwd": null
  }
},
{
  "ts": "2018-02-07T10:15:40.721348",
  "type": "INFO",
  "values": "Start: Run process"
},
{
  "ts": "2018-02-07T10:15:40.735670",
  "type": "INFO",
  "values": "Write log to /cw/dtailocal/mercs_python/out/703/oes97/logs/mercspython_Log_F01.running.log"
},
{
  "ts": "2018-02-07T10:16:33.801924",
  "type": "INFO",
  "values": "Process ended (returncode 0)"
},
{
  "ts": "2018-02-07T10:16:33.802002",
  "type": "INFO",
  "values": "Finished: Run process 53.081 seconds"
},
{
  "ts": "2018-02-07T10:16:33.802084",
  "type": "WARNING",
  "values": {
    "Exit": "finished",
    "Returncode": 0,
    "Time": 53.0806839466095
  }
}
]
