[SETTINGS] {
  "date": "2018/02/07 11:22:02",
  "date_iso": "2018-02-07T11:22:02.588192",
  "params": null,
  "system": {
    "nodename": "gibson",
    "machine": "x86_64",
    "platform": "Linux-4.4.0-112-generic-x86_64-with-debian-stretch-sid",
    "processor": "x86_64",
    "version": "#135-Ubuntu SMP Fri Jan 19 11:48:36 UTC 2018",
    "system": "Linux",
    "cpu_count": 8,
    "cpu_times": {
      "user": 380418.1,
      "system": 22400.22,
      "idle": 8577343.24,
      "nice": 898.04
    },
    "cpu_percent": 100.0,
    "virtual_memory": {
      "total": 33618501632,
      "available": 24452358144,
      "percent": 27.3,
      "used": 8298876928,
      "free": 10337812480
    }
  },
  "process": {
    "username": "evgeniya",
    "cwd": "/cw/dtailocal/mercs_python/src/core",
    "create_time": 1517998486.06,
    "cpu_times": {
      "user": 2.68,
      "system": 0.23
    }
  },
  "logfile": "/cw/dtailocal/mercs_python/out/703/oes97/logs/mercspython_Log_F08",
  "command": "python /cw/dtailocal/mercs_python/bin/mercspython.py /cw/dtailocal/mercs_python/out/703/oes97/settings/mercspython_Settings_F08.s"
}
[INFO] cmd:python /cw/dtailocal/mercs_python/bin/mercspython.py /cw/dtailocal/mercs_python/out/703/oes97/settings/mercspython_Settings_F08.s; cwd:None
[INFO] Start: Run process
[INFO] Write log to /cw/dtailocal/mercs_python/out/703/oes97/logs/mercspython_Log_F08.running.log
[STDERR] /cw/dtailocal/mercs_python/bin/mercspython.py:78: VisibleDeprecationWarning: converting an array with ndim > 0 to an index will result in an error in the future
[STDERR]   while((np.sum(codes[partition * nb_models_it + model]) >= nb_out_atts)):
[STDERR] /cw/dtailocal/mercs_python/bin/mercspython.py:81: VisibleDeprecationWarning: converting an array with ndim > 0 to an index will result in an error in the future
[STDERR]   codes[partition * nb_models_it + model][attribute] = 1
[[0 0 0 ..., 0 0 0]
 [0 0 0 ..., 1 1 1]
 [0 0 0 ..., 0 0 0]
 ..., 
 [0 0 0 ..., 0 0 0]
 [0 0 0 ..., 0 0 0]
 [1 1 1 ..., 0 0 0]]
====================================================
Total induction time of the MDEModel was: 20046 ms
====================================================
====================================================
Total inference time of the MDEModel was: 5835 ms
====================================================
====================================================
This was for: 279 queries.
====================================================
[INFO] Process ended (returncode 0)
[INFO] Finished: Run process 54.109 seconds
[WARNING] Exit:finished; Returncode:0; Time:54.10927
