[
{
  "ts": "2018-02-07T10:20:12.113090",
  "type": "SETTINGS",
  "values": {
    "date": "2018/02/07 11:20:12",
    "date_iso": "2018-02-07T11:20:12.112237",
    "params": null,
    "system": {
      "nodename": "gibson",
      "machine": "x86_64",
      "platform": "Linux-4.4.0-112-generic-x86_64-with-debian-stretch-sid",
      "processor": "x86_64",
      "version": "#135-Ubuntu SMP Fri Jan 19 11:48:36 UTC 2018",
      "system": "Linux",
      "cpu_count": 8,
      "cpu_times": {
        "user": 379539.87,
        "system": 22394.96,
        "idle": 8577343.15,
        "nice": 898.04
      },
      "cpu_percent": 100.0,
      "virtual_memory": {
        "total": 33618501632,
        "available": 25405448192,
        "percent": 24.4,
        "used": 7345803264,
        "free": 11318292480
      }
    },
    "process": {
      "username": "evgeniya",
      "cwd": "/cw/dtailocal/mercs_python/src/core",
      "create_time": 1517998486.06,
      "cpu_times": {
        "user": 2.39,
        "system": 0.2
      }
    },
    "logfile": "/cw/dtailocal/mercs_python/out/703/oes97/logs/mercspython_Log_F06",
    "command": "python /cw/dtailocal/mercs_python/bin/mercspython.py /cw/dtailocal/mercs_python/out/703/oes97/settings/mercspython_Settings_F06.s"
  }
},
{
  "ts": "2018-02-07T10:20:12.113240",
  "type": "INFO",
  "values": {
    "cmd": "python /cw/dtailocal/mercs_python/bin/mercspython.py /cw/dtailocal/mercs_python/out/703/oes97/settings/mercspython_Settings_F06.s",
    "cwd": null
  }
},
{
  "ts": "2018-02-07T10:20:12.129255",
  "type": "INFO",
  "values": "Start: Run process"
},
{
  "ts": "2018-02-07T10:20:12.156060",
  "type": "INFO",
  "values": "Write log to /cw/dtailocal/mercs_python/out/703/oes97/logs/mercspython_Log_F06.running.log"
},
{
  "ts": "2018-02-07T10:21:07.020676",
  "type": "INFO",
  "values": "Process ended (returncode 0)"
},
{
  "ts": "2018-02-07T10:21:07.020735",
  "type": "INFO",
  "values": "Finished: Run process 54.892 seconds"
},
{
  "ts": "2018-02-07T10:21:07.020801",
  "type": "WARNING",
  "values": {
    "Exit": "finished",
    "Returncode": 0,
    "Time": 54.89150881767273
  }
}
]
