[
{
  "ts": "2018-02-06T09:52:37.687183",
  "type": "SETTINGS",
  "values": {
    "date": "2018/02/06 10:52:37",
    "date_iso": "2018-02-06T10:52:37.686293",
    "params": null,
    "system": {
      "nodename": "gibson",
      "machine": "x86_64",
      "platform": "Linux-4.4.0-112-generic-x86_64-with-debian-stretch-sid",
      "processor": "x86_64",
      "version": "#135-Ubuntu SMP Fri Jan 19 11:48:36 UTC 2018",
      "system": "Linux",
      "cpu_count": 8,
      "cpu_times": {
        "user": 312115.37,
        "system": 20333.16,
        "idle": 7944453.22,
        "nice": 819.07
      },
      "cpu_percent": 62.9,
      "virtual_memory": {
        "total": 33618501632,
        "available": 26652778496,
        "percent": 20.7,
        "used": 5867556864,
        "free": 16083124224
      }
    },
    "process": {
      "username": "evgeniya",
      "cwd": "/cw/dtailocal/mercs_python/src/core",
      "create_time": 1517910748.57,
      "cpu_times": {
        "user": 0.87,
        "system": 0.29
      }
    },
    "logfile": "/cw/dtailocal/mercs_python/out/511/andro/logs/mercspython_Log_F04",
    "command": "python /cw/dtailocal/mercs_python/bin/mercspython.py /cw/dtailocal/mercs_python/out/511/andro/settings/mercspython_Settings_F04.s"
  }
},
{
  "ts": "2018-02-06T09:52:37.687351",
  "type": "INFO",
  "values": {
    "cmd": "python /cw/dtailocal/mercs_python/bin/mercspython.py /cw/dtailocal/mercs_python/out/511/andro/settings/mercspython_Settings_F04.s",
    "cwd": null
  }
},
{
  "ts": "2018-02-06T09:52:37.690407",
  "type": "INFO",
  "values": "Start: Run process"
},
{
  "ts": "2018-02-06T09:52:37.690854",
  "type": "INFO",
  "values": "Write log to /cw/dtailocal/mercs_python/out/511/andro/logs/mercspython_Log_F04.running.log"
},
{
  "ts": "2018-02-06T09:52:39.738893",
  "type": "INFO",
  "values": "Process ended (returncode 0)"
},
{
  "ts": "2018-02-06T09:52:39.738973",
  "type": "INFO",
  "values": "Finished: Run process 2.049 seconds"
},
{
  "ts": "2018-02-06T09:52:39.739057",
  "type": "WARNING",
  "values": {
    "Exit": "finished",
    "Returncode": 0,
    "Time": 2.048586130142212
  }
},
{
  "ts": "2018-02-06T09:52:39.739369",
  "type": "INFO",
  "values": "Closing /cw/dtailocal/mercs_python/out/511/andro/logs/mercspython_Log_F04.running.log"
}
]
