[SETTINGS] {
  "date": "2018/02/06 10:52:29",
  "date_iso": "2018-02-06T10:52:29.639056",
  "params": null,
  "system": {
    "nodename": "gibson",
    "machine": "x86_64",
    "platform": "Linux-4.4.0-112-generic-x86_64-with-debian-stretch-sid",
    "processor": "x86_64",
    "version": "#135-Ubuntu SMP Fri Jan 19 11:48:36 UTC 2018",
    "system": "Linux",
    "cpu_count": 8,
    "cpu_times": {
      "user": 312079.05,
      "system": 20329.63,
      "idle": 7944429.64,
      "nice": 819.07
    },
    "cpu_percent": 48.2,
    "virtual_memory": {
      "total": 33618501632,
      "available": 27033563136,
      "percent": 19.6,
      "used": 5491453952,
      "free": 16481976320
    }
  },
  "process": {
    "username": "evgeniya",
    "cwd": "/cw/dtailocal/mercs_python/src/core",
    "create_time": 1517910748.57,
    "cpu_times": {
      "user": 0.46,
      "system": 0.06
    }
  },
  "logfile": "/cw/dtailocal/mercs_python/out/511/andro/logs/mercspython_Log_F00",
  "command": "python /cw/dtailocal/mercs_python/bin/mercspython.py /cw/dtailocal/mercs_python/out/511/andro/settings/mercspython_Settings_F00.s"
}
[INFO] cmd:python /cw/dtailocal/mercs_python/bin/mercspython.py /cw/dtailocal/mercs_python/out/511/andro/settings/mercspython_Settings_F00.s; cwd:None
[INFO] Start: Run process
[INFO] Write log to /cw/dtailocal/mercs_python/out/511/andro/logs/mercspython_Log_F00.running.log
[STDERR] /cw/dtailocal/mercs_python/bin/mercspython.py:78: VisibleDeprecationWarning: converting an array with ndim > 0 to an index will result in an error in the future
[STDERR]   while((np.sum(codes[partition * nb_models_it + model]) >= nb_out_atts)):
[STDERR] /cw/dtailocal/mercs_python/bin/mercspython.py:81: VisibleDeprecationWarning: converting an array with ndim > 0 to an index will result in an error in the future
[STDERR]   codes[partition * nb_models_it + model][attribute] = 1
[[0 0 0 0 0 0 0 0 0 0 1 0 0 0 0 0 0 0 0 0 0 0 0 0 0 0 0 0 0 0 0 0 0 1 1 1]
 [0 0 0 0 0 0 0 1 0 0 0 0 0 0 0 0 0 0 0 0 0 1 1 1 0 0 0 0 0 0 0 0 0 0 0 0]
 [0 0 0 0 0 1 0 0 1 0 0 1 0 0 0 1 0 0 0 0 0 0 0 0 0 0 0 0 0 0 0 0 0 0 0 0]
 [0 0 0 0 1 0 0 0 0 1 0 0 1 0 1 0 0 0 0 0 0 0 0 0 0 0 0 0 0 0 0 0 0 0 0 0]
 [0 0 0 0 0 0 0 0 0 0 0 0 0 1 0 0 0 0 0 0 0 0 0 0 0 0 1 1 1 0 0 0 0 0 0 0]
 [0 0 1 0 0 0 1 0 0 0 0 0 0 0 0 0 1 1 0 0 0 0 0 0 0 0 0 0 0 0 0 0 0 0 0 0]
 [0 1 0 0 0 0 0 0 0 0 0 0 0 0 0 0 0 0 0 0 0 0 0 0 1 1 0 0 0 1 0 0 0 0 0 0]
 [1 0 0 0 0 0 0 0 0 0 0 0 0 0 0 0 0 0 0 0 0 0 0 0 0 0 0 0 0 0 1 1 1 0 0 0]
 [0 0 0 1 0 0 0 0 0 0 0 0 0 0 0 0 0 0 1 1 1 0 0 0 0 0 0 0 0 0 0 0 0 0 0 0]]
====================================================
Total induction time of the MDEModel was: 635 ms
====================================================
====================================================
Total inference time of the MDEModel was: 246 ms
====================================================
====================================================
This was for: 36 queries.
====================================================
[INFO] Process ended (returncode 0)
[INFO] Finished: Run process 2.007 seconds
[WARNING] Exit:finished; Returncode:0; Time:2.00697
