[
{
  "ts": "2018-02-06T12:35:19.836262",
  "type": "SETTINGS",
  "values": {
    "date": "2018/02/06 13:35:19",
    "date_iso": "2018-02-06T13:35:19.835233",
    "params": null,
    "system": {
      "nodename": "gibson",
      "machine": "x86_64",
      "platform": "Linux-4.4.0-112-generic-x86_64-with-debian-stretch-sid",
      "processor": "x86_64",
      "version": "#135-Ubuntu SMP Fri Jan 19 11:48:36 UTC 2018",
      "system": "Linux",
      "cpu_count": 8,
      "cpu_times": {
        "user": 353160.3,
        "system": 21097.8,
        "idle": 7980427.97,
        "nice": 823.14
      },
      "cpu_percent": 72.3,
      "virtual_memory": {
        "total": 33618501632,
        "available": 23940046848,
        "percent": 28.8,
        "used": 8717856768,
        "free": 11366264832
      }
    },
    "process": {
      "username": "evgeniya",
      "cwd": "/cw/dtailocal/mercs_python/src/core",
      "create_time": 1517920509.8,
      "cpu_times": {
        "user": 1.15,
        "system": 0.52
      }
    },
    "logfile": "/cw/dtailocal/mercs_python/out/638/slump/logs/mercspython_Log_F06",
    "command": "python /cw/dtailocal/mercs_python/bin/mercspython.py /cw/dtailocal/mercs_python/out/638/slump/settings/mercspython_Settings_F06.s"
  }
},
{
  "ts": "2018-02-06T12:35:19.836401",
  "type": "INFO",
  "values": {
    "cmd": "python /cw/dtailocal/mercs_python/bin/mercspython.py /cw/dtailocal/mercs_python/out/638/slump/settings/mercspython_Settings_F06.s",
    "cwd": null
  }
},
{
  "ts": "2018-02-06T12:35:19.840083",
  "type": "INFO",
  "values": "Start: Run process"
},
{
  "ts": "2018-02-06T12:35:19.840457",
  "type": "INFO",
  "values": "Write log to /cw/dtailocal/mercs_python/out/638/slump/logs/mercspython_Log_F06.running.log"
},
{
  "ts": "2018-02-06T12:35:21.442569",
  "type": "INFO",
  "values": "Process ended (returncode 0)"
},
{
  "ts": "2018-02-06T12:35:21.442665",
  "type": "INFO",
  "values": "Finished: Run process 1.603 seconds"
},
{
  "ts": "2018-02-06T12:35:21.442754",
  "type": "WARNING",
  "values": {
    "Exit": "finished",
    "Returncode": 0,
    "Time": 1.6025958061218262
  }
},
{
  "ts": "2018-02-06T12:35:21.443060",
  "type": "INFO",
  "values": "Closing /cw/dtailocal/mercs_python/out/638/slump/logs/mercspython_Log_F06.running.log"
}
]
