[
{
  "ts": "2018-02-06T10:10:59.546119",
  "type": "SETTINGS",
  "values": {
    "date": "2018/02/06 11:10:59",
    "date_iso": "2018-02-06T11:10:59.544821",
    "params": null,
    "system": {
      "nodename": "gibson",
      "machine": "x86_64",
      "platform": "Linux-4.4.0-112-generic-x86_64-with-debian-stretch-sid",
      "processor": "x86_64",
      "version": "#135-Ubuntu SMP Fri Jan 19 11:48:36 UTC 2018",
      "system": "Linux",
      "cpu_count": 8,
      "cpu_times": {
        "user": 318515.79,
        "system": 20541.58,
        "idle": 7946578.62,
        "nice": 819.07
      },
      "cpu_percent": 78.5,
      "virtual_memory": {
        "total": 33618501632,
        "available": 21987307520,
        "percent": 34.6,
        "used": 10667937792,
        "free": 10671398912
      }
    },
    "process": {
      "username": "evgeniya",
      "cwd": "/cw/dtailocal/mercs_python/src/core",
      "create_time": 1517911734.98,
      "cpu_times": {
        "user": 2.18,
        "system": 0.37
      }
    },
    "logfile": "/cw/dtailocal/mercs_python/out/549/oes10/logs/mercspython_Log_F07",
    "command": "python /cw/dtailocal/mercs_python/bin/mercspython.py /cw/dtailocal/mercs_python/out/549/oes10/settings/mercspython_Settings_F07.s"
  }
},
{
  "ts": "2018-02-06T10:10:59.546255",
  "type": "INFO",
  "values": {
    "cmd": "python /cw/dtailocal/mercs_python/bin/mercspython.py /cw/dtailocal/mercs_python/out/549/oes10/settings/mercspython_Settings_F07.s",
    "cwd": null
  }
},
{
  "ts": "2018-02-06T10:10:59.550584",
  "type": "INFO",
  "values": "Start: Run process"
},
{
  "ts": "2018-02-06T10:10:59.551125",
  "type": "INFO",
  "values": "Write log to /cw/dtailocal/mercs_python/out/549/oes10/logs/mercspython_Log_F07.running.log"
},
{
  "ts": "2018-02-06T10:11:15.570398",
  "type": "INFO",
  "values": "Process ended (returncode 0)"
},
{
  "ts": "2018-02-06T10:11:15.570480",
  "type": "INFO",
  "values": "Finished: Run process 16.020 seconds"
},
{
  "ts": "2018-02-06T10:11:15.570537",
  "type": "WARNING",
  "values": {
    "Exit": "finished",
    "Returncode": 0,
    "Time": 16.01994299888611
  }
},
{
  "ts": "2018-02-06T10:11:15.570917",
  "type": "INFO",
  "values": "Closing /cw/dtailocal/mercs_python/out/549/oes10/logs/mercspython_Log_F07.running.log"
}
]
