[
{
  "ts": "2018-02-06T10:09:53.213509",
  "type": "SETTINGS",
  "values": {
    "date": "2018/02/06 11:09:53",
    "date_iso": "2018-02-06T11:09:53.212677",
    "params": null,
    "system": {
      "nodename": "gibson",
      "machine": "x86_64",
      "platform": "Linux-4.4.0-112-generic-x86_64-with-debian-stretch-sid",
      "processor": "x86_64",
      "version": "#135-Ubuntu SMP Fri Jan 19 11:48:36 UTC 2018",
      "system": "Linux",
      "cpu_count": 8,
      "cpu_times": {
        "user": 318108.31,
        "system": 20531.63,
        "idle": 7946469.15,
        "nice": 819.07
      },
      "cpu_percent": 67.5,
      "virtual_memory": {
        "total": 33618501632,
        "available": 23137484800,
        "percent": 31.2,
        "used": 9516015616,
        "free": 11836329984
      }
    },
    "process": {
      "username": "evgeniya",
      "cwd": "/cw/dtailocal/mercs_python/src/core",
      "create_time": 1517911734.98,
      "cpu_times": {
        "user": 1.94,
        "system": 0.25
      }
    },
    "logfile": "/cw/dtailocal/mercs_python/out/549/oes10/logs/mercspython_Log_F03",
    "command": "python /cw/dtailocal/mercs_python/bin/mercspython.py /cw/dtailocal/mercs_python/out/549/oes10/settings/mercspython_Settings_F03.s"
  }
},
{
  "ts": "2018-02-06T10:09:53.213659",
  "type": "INFO",
  "values": {
    "cmd": "python /cw/dtailocal/mercs_python/bin/mercspython.py /cw/dtailocal/mercs_python/out/549/oes10/settings/mercspython_Settings_F03.s",
    "cwd": null
  }
},
{
  "ts": "2018-02-06T10:09:53.217482",
  "type": "INFO",
  "values": "Start: Run process"
},
{
  "ts": "2018-02-06T10:09:53.226651",
  "type": "INFO",
  "values": "Write log to /cw/dtailocal/mercs_python/out/549/oes10/logs/mercspython_Log_F03.running.log"
},
{
  "ts": "2018-02-06T10:10:10.459718",
  "type": "INFO",
  "values": "Process ended (returncode 0)"
},
{
  "ts": "2018-02-06T10:10:10.459785",
  "type": "INFO",
  "values": "Finished: Run process 17.242 seconds"
},
{
  "ts": "2018-02-06T10:10:10.459984",
  "type": "WARNING",
  "values": {
    "Exit": "finished",
    "Returncode": 0,
    "Time": 17.242324590682983
  }
},
{
  "ts": "2018-02-06T10:10:10.460237",
  "type": "INFO",
  "values": "Closing /cw/dtailocal/mercs_python/out/549/oes10/logs/mercspython_Log_F03.running.log"
}
]
