[
{
  "ts": "2018-02-06T10:11:15.572007",
  "type": "SETTINGS",
  "values": {
    "date": "2018/02/06 11:11:15",
    "date_iso": "2018-02-06T11:11:15.571382",
    "params": null,
    "system": {
      "nodename": "gibson",
      "machine": "x86_64",
      "platform": "Linux-4.4.0-112-generic-x86_64-with-debian-stretch-sid",
      "processor": "x86_64",
      "version": "#135-Ubuntu SMP Fri Jan 19 11:48:36 UTC 2018",
      "system": "Linux",
      "cpu_count": 8,
      "cpu_times": {
        "user": 318611.48,
        "system": 20544.16,
        "idle": 7946607.38,
        "nice": 819.07
      },
      "cpu_percent": 77.2,
      "virtual_memory": {
        "total": 33618501632,
        "available": 22429401088,
        "percent": 33.3,
        "used": 10219683840,
        "free": 11109822464
      }
    },
    "process": {
      "username": "evgeniya",
      "cwd": "/cw/dtailocal/mercs_python/src/core",
      "create_time": 1517911734.98,
      "cpu_times": {
        "user": 2.32,
        "system": 0.44
      }
    },
    "logfile": "/cw/dtailocal/mercs_python/out/549/oes10/logs/mercspython_Log_F08",
    "command": "python /cw/dtailocal/mercs_python/bin/mercspython.py /cw/dtailocal/mercs_python/out/549/oes10/settings/mercspython_Settings_F08.s"
  }
},
{
  "ts": "2018-02-06T10:11:15.572096",
  "type": "INFO",
  "values": {
    "cmd": "python /cw/dtailocal/mercs_python/bin/mercspython.py /cw/dtailocal/mercs_python/out/549/oes10/settings/mercspython_Settings_F08.s",
    "cwd": null
  }
},
{
  "ts": "2018-02-06T10:11:15.574497",
  "type": "INFO",
  "values": "Start: Run process"
},
{
  "ts": "2018-02-06T10:11:15.574958",
  "type": "INFO",
  "values": "Write log to /cw/dtailocal/mercs_python/out/549/oes10/logs/mercspython_Log_F08.running.log"
},
{
  "ts": "2018-02-06T10:11:31.795403",
  "type": "INFO",
  "values": "Process ended (returncode 0)"
},
{
  "ts": "2018-02-06T10:11:31.795486",
  "type": "INFO",
  "values": "Finished: Run process 16.221 seconds"
},
{
  "ts": "2018-02-06T10:11:31.795567",
  "type": "WARNING",
  "values": {
    "Exit": "finished",
    "Returncode": 0,
    "Time": 16.22101640701294
  }
},
{
  "ts": "2018-02-06T10:11:31.795946",
  "type": "INFO",
  "values": "Closing /cw/dtailocal/mercs_python/out/549/oes10/logs/mercspython_Log_F08.running.log"
}
]
