[
{
  "ts": "2018-02-05T17:00:02.160977",
  "type": "SETTINGS",
  "values": {
    "date": "2018/02/05 18:00:02",
    "date_iso": "2018-02-05T18:00:02.160119",
    "params": null,
    "system": {
      "nodename": "gibson",
      "machine": "x86_64",
      "platform": "Linux-4.4.0-112-generic-x86_64-with-debian-stretch-sid",
      "processor": "x86_64",
      "version": "#135-Ubuntu SMP Fri Jan 19 11:48:36 UTC 2018",
      "system": "Linux",
      "cpu_count": 8,
      "cpu_times": {
        "user": 136082.19,
        "system": 18602.2,
        "idle": 7637234.48,
        "nice": 751.58
      },
      "cpu_percent": 100.0,
      "virtual_memory": {
        "total": 33618501632,
        "available": 24208687104,
        "percent": 28.0,
        "used": 8389910528,
        "free": 7019941888
      }
    },
    "process": {
      "username": "evgeniya",
      "cwd": "/cw/dtailocal/mercs_python/src/core",
      "create_time": 1517849980.39,
      "cpu_times": {
        "user": 0.72,
        "system": 0.11
      }
    },
    "logfile": "/cw/dtailocal/mercs_python/out/311/andro/logs/mercspython_Log_F03",
    "command": "python /cw/dtailocal/mercs_python/bin/mercspython.py /cw/dtailocal/mercs_python/out/311/andro/settings/mercspython_Settings_F03.s"
  }
},
{
  "ts": "2018-02-05T17:00:02.161125",
  "type": "INFO",
  "values": {
    "cmd": "python /cw/dtailocal/mercs_python/bin/mercspython.py /cw/dtailocal/mercs_python/out/311/andro/settings/mercspython_Settings_F03.s",
    "cwd": null
  }
},
{
  "ts": "2018-02-05T17:00:02.180985",
  "type": "INFO",
  "values": "Start: Run process"
},
{
  "ts": "2018-02-05T17:00:02.203795",
  "type": "INFO",
  "values": "Write log to /cw/dtailocal/mercs_python/out/311/andro/logs/mercspython_Log_F03.running.log"
},
{
  "ts": "2018-02-05T17:00:07.611225",
  "type": "INFO",
  "values": "Process ended (returncode 0)"
},
{
  "ts": "2018-02-05T17:00:07.611303",
  "type": "INFO",
  "values": "Finished: Run process 5.430 seconds"
},
{
  "ts": "2018-02-05T17:00:07.611382",
  "type": "WARNING",
  "values": {
    "Exit": "finished",
    "Returncode": 0,
    "Time": 5.430366516113281
  }
},
{
  "ts": "2018-02-05T17:00:07.612113",
  "type": "INFO",
  "values": "Closing /cw/dtailocal/mercs_python/out/311/andro/logs/mercspython_Log_F03.running.log"
}
]
