[
{
  "ts": "2018-02-05T17:16:40.589198",
  "type": "SETTINGS",
  "values": {
    "date": "2018/02/05 18:16:40",
    "date_iso": "2018-02-05T18:16:40.588344",
    "params": null,
    "system": {
      "nodename": "gibson",
      "machine": "x86_64",
      "platform": "Linux-4.4.0-112-generic-x86_64-with-debian-stretch-sid",
      "processor": "x86_64",
      "version": "#135-Ubuntu SMP Fri Jan 19 11:48:36 UTC 2018",
      "system": "Linux",
      "cpu_count": 8,
      "cpu_times": {
        "user": 143972.47,
        "system": 18692.71,
        "idle": 7637234.94,
        "nice": 751.59
      },
      "cpu_percent": 100.0,
      "virtual_memory": {
        "total": 33618501632,
        "available": 23483285504,
        "percent": 30.1,
        "used": 9145200640,
        "free": 6215606272
      }
    },
    "process": {
      "username": "evgeniya",
      "cwd": "/cw/dtailocal/mercs_python/src/core",
      "create_time": 1517850984.17,
      "cpu_times": {
        "user": 1.04,
        "system": 0.15
      }
    },
    "logfile": "/cw/dtailocal/mercs_python/out/333/slump/logs/mercspython_Log_F05",
    "command": "python /cw/dtailocal/mercs_python/bin/mercspython.py /cw/dtailocal/mercs_python/out/333/slump/settings/mercspython_Settings_F05.s"
  }
},
{
  "ts": "2018-02-05T17:16:40.589350",
  "type": "INFO",
  "values": {
    "cmd": "python /cw/dtailocal/mercs_python/bin/mercspython.py /cw/dtailocal/mercs_python/out/333/slump/settings/mercspython_Settings_F05.s",
    "cwd": null
  }
},
{
  "ts": "2018-02-05T17:16:40.613804",
  "type": "INFO",
  "values": "Start: Run process"
},
{
  "ts": "2018-02-05T17:16:40.651932",
  "type": "INFO",
  "values": "Write log to /cw/dtailocal/mercs_python/out/333/slump/logs/mercspython_Log_F05.running.log"
},
{
  "ts": "2018-02-05T17:16:43.255683",
  "type": "INFO",
  "values": "Process ended (returncode 0)"
},
{
  "ts": "2018-02-05T17:16:43.255761",
  "type": "INFO",
  "values": "Finished: Run process 2.642 seconds"
},
{
  "ts": "2018-02-05T17:16:43.255852",
  "type": "WARNING",
  "values": {
    "Exit": "finished",
    "Returncode": 0,
    "Time": 2.6419811248779297
  }
},
{
  "ts": "2018-02-05T17:16:43.263878",
  "type": "INFO",
  "values": "Closing /cw/dtailocal/mercs_python/out/333/slump/logs/mercspython_Log_F05.running.log"
}
]
