[
{
  "ts": "2018-02-05T17:15:54.093174",
  "type": "SETTINGS",
  "values": {
    "date": "2018/02/05 18:15:54",
    "date_iso": "2018-02-05T18:15:54.092332",
    "params": null,
    "system": {
      "nodename": "gibson",
      "machine": "x86_64",
      "platform": "Linux-4.4.0-112-generic-x86_64-with-debian-stretch-sid",
      "processor": "x86_64",
      "version": "#135-Ubuntu SMP Fri Jan 19 11:48:36 UTC 2018",
      "system": "Linux",
      "cpu_count": 8,
      "cpu_times": {
        "user": 143604.98,
        "system": 18688.58,
        "idle": 7637234.88,
        "nice": 751.59
      },
      "cpu_percent": 100.0,
      "virtual_memory": {
        "total": 33618501632,
        "available": 24186875904,
        "percent": 28.1,
        "used": 8442089472,
        "free": 6912757760
      }
    },
    "process": {
      "username": "evgeniya",
      "cwd": "/cw/dtailocal/mercs_python/src/core",
      "create_time": 1517850874.78,
      "cpu_times": {
        "user": 1.38,
        "system": 0.22
      }
    },
    "logfile": "/cw/dtailocal/mercs_python/out/280/wq/logs/mercspython_Log_F07",
    "command": "python /cw/dtailocal/mercs_python/bin/mercspython.py /cw/dtailocal/mercs_python/out/280/wq/settings/mercspython_Settings_F07.s"
  }
},
{
  "ts": "2018-02-05T17:15:54.093324",
  "type": "INFO",
  "values": {
    "cmd": "python /cw/dtailocal/mercs_python/bin/mercspython.py /cw/dtailocal/mercs_python/out/280/wq/settings/mercspython_Settings_F07.s",
    "cwd": null
  }
},
{
  "ts": "2018-02-05T17:15:54.111113",
  "type": "INFO",
  "values": "Start: Run process"
},
{
  "ts": "2018-02-05T17:15:54.159806",
  "type": "INFO",
  "values": "Write log to /cw/dtailocal/mercs_python/out/280/wq/logs/mercspython_Log_F07.running.log"
},
{
  "ts": "2018-02-05T17:16:05.174128",
  "type": "INFO",
  "values": "Process ended (returncode 0)"
},
{
  "ts": "2018-02-05T17:16:05.174202",
  "type": "INFO",
  "values": "Finished: Run process 11.063 seconds"
},
{
  "ts": "2018-02-05T17:16:05.174302",
  "type": "WARNING",
  "values": {
    "Exit": "finished",
    "Returncode": 0,
    "Time": 11.063117742538452
  }
}
]
