[
{
  "ts": "2018-02-05T17:14:47.778867",
  "type": "SETTINGS",
  "values": {
    "date": "2018/02/05 18:14:47",
    "date_iso": "2018-02-05T18:14:47.777574",
    "params": null,
    "system": {
      "nodename": "gibson",
      "machine": "x86_64",
      "platform": "Linux-4.4.0-112-generic-x86_64-with-debian-stretch-sid",
      "processor": "x86_64",
      "version": "#135-Ubuntu SMP Fri Jan 19 11:48:36 UTC 2018",
      "system": "Linux",
      "cpu_count": 8,
      "cpu_times": {
        "user": 143081.5,
        "system": 18682.09,
        "idle": 7637234.73,
        "nice": 751.59
      },
      "cpu_percent": 100.0,
      "virtual_memory": {
        "total": 33618501632,
        "available": 25098088448,
        "percent": 25.3,
        "used": 7551279104,
        "free": 7838740480
      }
    },
    "process": {
      "username": "evgeniya",
      "cwd": "/cw/dtailocal/mercs_python/src/core",
      "create_time": 1517850874.78,
      "cpu_times": {
        "user": 0.73,
        "system": 0.1
      }
    },
    "logfile": "/cw/dtailocal/mercs_python/out/280/wq/logs/mercspython_Log_F01",
    "command": "python /cw/dtailocal/mercs_python/bin/mercspython.py /cw/dtailocal/mercs_python/out/280/wq/settings/mercspython_Settings_F01.s"
  }
},
{
  "ts": "2018-02-05T17:14:47.779038",
  "type": "INFO",
  "values": {
    "cmd": "python /cw/dtailocal/mercs_python/bin/mercspython.py /cw/dtailocal/mercs_python/out/280/wq/settings/mercspython_Settings_F01.s",
    "cwd": null
  }
},
{
  "ts": "2018-02-05T17:14:47.805706",
  "type": "INFO",
  "values": "Start: Run process"
},
{
  "ts": "2018-02-05T17:14:47.839790",
  "type": "INFO",
  "values": "Write log to /cw/dtailocal/mercs_python/out/280/wq/logs/mercspython_Log_F01.running.log"
},
{
  "ts": "2018-02-05T17:14:58.852936",
  "type": "INFO",
  "values": "Process ended (returncode 0)"
},
{
  "ts": "2018-02-05T17:14:58.853013",
  "type": "INFO",
  "values": "Finished: Run process 11.047 seconds"
},
{
  "ts": "2018-02-05T17:14:58.853090",
  "type": "WARNING",
  "values": {
    "Exit": "finished",
    "Returncode": 0,
    "Time": 11.0473473072052
  }
},
{
  "ts": "2018-02-05T17:14:58.863812",
  "type": "INFO",
  "values": "Closing /cw/dtailocal/mercs_python/out/280/wq/logs/mercspython_Log_F01.running.log"
}
]
