[
{
  "ts": "2018-02-05T17:15:32.488354",
  "type": "SETTINGS",
  "values": {
    "date": "2018/02/05 18:15:32",
    "date_iso": "2018-02-05T18:15:32.487483",
    "params": null,
    "system": {
      "nodename": "gibson",
      "machine": "x86_64",
      "platform": "Linux-4.4.0-112-generic-x86_64-with-debian-stretch-sid",
      "processor": "x86_64",
      "version": "#135-Ubuntu SMP Fri Jan 19 11:48:36 UTC 2018",
      "system": "Linux",
      "cpu_count": 8,
      "cpu_times": {
        "user": 143433.94,
        "system": 18686.85,
        "idle": 7637234.87,
        "nice": 751.59
      },
      "cpu_percent": 99.9,
      "virtual_memory": {
        "total": 33618501632,
        "available": 25348587520,
        "percent": 24.6,
        "used": 7279595520,
        "free": 8078417920
      }
    },
    "process": {
      "username": "evgeniya",
      "cwd": "/cw/dtailocal/mercs_python/src/core",
      "create_time": 1517850874.78,
      "cpu_times": {
        "user": 1.12,
        "system": 0.18
      }
    },
    "logfile": "/cw/dtailocal/mercs_python/out/280/wq/logs/mercspython_Log_F05",
    "command": "python /cw/dtailocal/mercs_python/bin/mercspython.py /cw/dtailocal/mercs_python/out/280/wq/settings/mercspython_Settings_F05.s"
  }
},
{
  "ts": "2018-02-05T17:15:32.488507",
  "type": "INFO",
  "values": {
    "cmd": "python /cw/dtailocal/mercs_python/bin/mercspython.py /cw/dtailocal/mercs_python/out/280/wq/settings/mercspython_Settings_F05.s",
    "cwd": null
  }
},
{
  "ts": "2018-02-05T17:15:32.505653",
  "type": "INFO",
  "values": "Start: Run process"
},
{
  "ts": "2018-02-05T17:15:32.569149",
  "type": "INFO",
  "values": "Write log to /cw/dtailocal/mercs_python/out/280/wq/logs/mercspython_Log_F05.running.log"
},
{
  "ts": "2018-02-05T17:15:43.785945",
  "type": "INFO",
  "values": "Process ended (returncode 0)"
},
{
  "ts": "2018-02-05T17:15:43.786039",
  "type": "INFO",
  "values": "Finished: Run process 11.280 seconds"
},
{
  "ts": "2018-02-05T17:15:43.786117",
  "type": "WARNING",
  "values": {
    "Exit": "finished",
    "Returncode": 0,
    "Time": 11.280415296554565
  }
}
]
