[
{
  "ts": "2018-02-05T17:14:36.532004",
  "type": "SETTINGS",
  "values": {
    "date": "2018/02/05 18:14:36",
    "date_iso": "2018-02-05T18:14:36.516747",
    "params": null,
    "system": {
      "nodename": "gibson",
      "machine": "x86_64",
      "platform": "Linux-4.4.0-112-generic-x86_64-with-debian-stretch-sid",
      "processor": "x86_64",
      "version": "#135-Ubuntu SMP Fri Jan 19 11:48:36 UTC 2018",
      "system": "Linux",
      "cpu_count": 8,
      "cpu_times": {
        "user": 142992.62,
        "system": 18680.96,
        "idle": 7637234.7,
        "nice": 751.59
      },
      "cpu_percent": 100.0,
      "virtual_memory": {
        "total": 33618501632,
        "available": 22547013632,
        "percent": 32.9,
        "used": 10102046720,
        "free": 5292437504
      }
    },
    "process": {
      "username": "evgeniya",
      "cwd": "/cw/dtailocal/mercs_python/src/core",
      "create_time": 1517850874.78,
      "cpu_times": {
        "user": 0.58,
        "system": 0.08
      }
    },
    "logfile": "/cw/dtailocal/mercs_python/out/280/wq/logs/mercspython_Log_F00",
    "command": "python /cw/dtailocal/mercs_python/bin/mercspython.py /cw/dtailocal/mercs_python/out/280/wq/settings/mercspython_Settings_F00.s"
  }
},
{
  "ts": "2018-02-05T17:14:36.532165",
  "type": "INFO",
  "values": {
    "cmd": "python /cw/dtailocal/mercs_python/bin/mercspython.py /cw/dtailocal/mercs_python/out/280/wq/settings/mercspython_Settings_F00.s",
    "cwd": null
  }
},
{
  "ts": "2018-02-05T17:14:36.547334",
  "type": "INFO",
  "values": "Start: Run process"
},
{
  "ts": "2018-02-05T17:14:36.561847",
  "type": "INFO",
  "values": "Write log to /cw/dtailocal/mercs_python/out/280/wq/logs/mercspython_Log_F00.running.log"
},
{
  "ts": "2018-02-05T17:14:47.776224",
  "type": "INFO",
  "values": "Process ended (returncode 0)"
},
{
  "ts": "2018-02-05T17:14:47.776313",
  "type": "INFO",
  "values": "Finished: Run process 11.229 seconds"
},
{
  "ts": "2018-02-05T17:14:47.776378",
  "type": "WARNING",
  "values": {
    "Exit": "finished",
    "Returncode": 0,
    "Time": 11.22901177406311
  }
}
]
