[
{
  "ts": "2018-02-06T09:59:11.392552",
  "type": "SETTINGS",
  "values": {
    "date": "2018/02/06 10:59:11",
    "date_iso": "2018-02-06T10:59:11.391666",
    "params": null,
    "system": {
      "nodename": "gibson",
      "machine": "x86_64",
      "platform": "Linux-4.4.0-112-generic-x86_64-with-debian-stretch-sid",
      "processor": "x86_64",
      "version": "#135-Ubuntu SMP Fri Jan 19 11:48:36 UTC 2018",
      "system": "Linux",
      "cpu_count": 8,
      "cpu_times": {
        "user": 314261.72,
        "system": 20409.4,
        "idle": 7945342.68,
        "nice": 819.07
      },
      "cpu_percent": 78.4,
      "virtual_memory": {
        "total": 33618501632,
        "available": 25125167104,
        "percent": 25.3,
        "used": 7529357312,
        "free": 14030073856
      }
    },
    "process": {
      "username": "evgeniya",
      "cwd": "/cw/dtailocal/mercs_python/src/core",
      "create_time": 1517911065.81,
      "cpu_times": {
        "user": 2.4,
        "system": 0.52
      }
    },
    "logfile": "/cw/dtailocal/mercs_python/out/542/oes97/logs/mercspython_Log_F07",
    "command": "python /cw/dtailocal/mercs_python/bin/mercspython.py /cw/dtailocal/mercs_python/out/542/oes97/settings/mercspython_Settings_F07.s"
  }
},
{
  "ts": "2018-02-06T09:59:11.392843",
  "type": "INFO",
  "values": {
    "cmd": "python /cw/dtailocal/mercs_python/bin/mercspython.py /cw/dtailocal/mercs_python/out/542/oes97/settings/mercspython_Settings_F07.s",
    "cwd": null
  }
},
{
  "ts": "2018-02-06T09:59:11.396051",
  "type": "INFO",
  "values": "Start: Run process"
},
{
  "ts": "2018-02-06T09:59:11.398698",
  "type": "INFO",
  "values": "Write log to /cw/dtailocal/mercs_python/out/542/oes97/logs/mercspython_Log_F07.running.log"
},
{
  "ts": "2018-02-06T09:59:21.620713",
  "type": "INFO",
  "values": "Process ended (returncode 0)"
},
{
  "ts": "2018-02-06T09:59:21.620793",
  "type": "INFO",
  "values": "Finished: Run process 10.225 seconds"
},
{
  "ts": "2018-02-06T09:59:21.620878",
  "type": "WARNING",
  "values": {
    "Exit": "finished",
    "Returncode": 0,
    "Time": 10.224778175354004
  }
},
{
  "ts": "2018-02-06T09:59:21.621239",
  "type": "INFO",
  "values": "Closing /cw/dtailocal/mercs_python/out/542/oes97/logs/mercspython_Log_F07.running.log"
}
]
