[
{
  "ts": "2018-02-06T09:59:21.622786",
  "type": "SETTINGS",
  "values": {
    "date": "2018/02/06 10:59:21",
    "date_iso": "2018-02-06T10:59:21.621909",
    "params": null,
    "system": {
      "nodename": "gibson",
      "machine": "x86_64",
      "platform": "Linux-4.4.0-112-generic-x86_64-with-debian-stretch-sid",
      "processor": "x86_64",
      "version": "#135-Ubuntu SMP Fri Jan 19 11:48:36 UTC 2018",
      "system": "Linux",
      "cpu_count": 8,
      "cpu_times": {
        "user": 314322.94,
        "system": 20411.59,
        "idle": 7945360.61,
        "nice": 819.07
      },
      "cpu_percent": 77.8,
      "virtual_memory": {
        "total": 33618501632,
        "available": 25375961088,
        "percent": 24.5,
        "used": 7295528960,
        "free": 14277246976
      }
    },
    "process": {
      "username": "evgeniya",
      "cwd": "/cw/dtailocal/mercs_python/src/core",
      "create_time": 1517911065.81,
      "cpu_times": {
        "user": 2.48,
        "system": 0.6
      }
    },
    "logfile": "/cw/dtailocal/mercs_python/out/542/oes97/logs/mercspython_Log_F08",
    "command": "python /cw/dtailocal/mercs_python/bin/mercspython.py /cw/dtailocal/mercs_python/out/542/oes97/settings/mercspython_Settings_F08.s"
  }
},
{
  "ts": "2018-02-06T09:59:21.622949",
  "type": "INFO",
  "values": {
    "cmd": "python /cw/dtailocal/mercs_python/bin/mercspython.py /cw/dtailocal/mercs_python/out/542/oes97/settings/mercspython_Settings_F08.s",
    "cwd": null
  }
},
{
  "ts": "2018-02-06T09:59:21.626136",
  "type": "INFO",
  "values": "Start: Run process"
},
{
  "ts": "2018-02-06T09:59:21.627387",
  "type": "INFO",
  "values": "Write log to /cw/dtailocal/mercs_python/out/542/oes97/logs/mercspython_Log_F08.running.log"
},
{
  "ts": "2018-02-06T09:59:31.039294",
  "type": "INFO",
  "values": "Process ended (returncode 0)"
},
{
  "ts": "2018-02-06T09:59:31.039380",
  "type": "INFO",
  "values": "Finished: Run process 9.413 seconds"
},
{
  "ts": "2018-02-06T09:59:31.039474",
  "type": "WARNING",
  "values": {
    "Exit": "finished",
    "Returncode": 0,
    "Time": 9.413277626037598
  }
},
{
  "ts": "2018-02-06T09:59:31.039819",
  "type": "INFO",
  "values": "Closing /cw/dtailocal/mercs_python/out/542/oes97/logs/mercspython_Log_F08.running.log"
}
]
