[
{
  "ts": "2018-02-06T09:58:01.593719",
  "type": "SETTINGS",
  "values": {
    "date": "2018/02/06 10:58:01",
    "date_iso": "2018-02-06T10:58:01.592885",
    "params": null,
    "system": {
      "nodename": "gibson",
      "machine": "x86_64",
      "platform": "Linux-4.4.0-112-generic-x86_64-with-debian-stretch-sid",
      "processor": "x86_64",
      "version": "#135-Ubuntu SMP Fri Jan 19 11:48:36 UTC 2018",
      "system": "Linux",
      "cpu_count": 8,
      "cpu_times": {
        "user": 313850.72,
        "system": 20398.86,
        "idle": 7945211.22,
        "nice": 819.07
      },
      "cpu_percent": 80.1,
      "virtual_memory": {
        "total": 33618501632,
        "available": 25185599488,
        "percent": 25.1,
        "used": 7414009856,
        "free": 14115143680
      }
    },
    "process": {
      "username": "evgeniya",
      "cwd": "/cw/dtailocal/mercs_python/src/core",
      "create_time": 1517911065.81,
      "cpu_times": {
        "user": 1.76,
        "system": 0.1
      }
    },
    "logfile": "/cw/dtailocal/mercs_python/out/542/oes97/logs/mercspython_Log_F01",
    "command": "python /cw/dtailocal/mercs_python/bin/mercspython.py /cw/dtailocal/mercs_python/out/542/oes97/settings/mercspython_Settings_F01.s"
  }
},
{
  "ts": "2018-02-06T09:58:01.593873",
  "type": "INFO",
  "values": {
    "cmd": "python /cw/dtailocal/mercs_python/bin/mercspython.py /cw/dtailocal/mercs_python/out/542/oes97/settings/mercspython_Settings_F01.s",
    "cwd": null
  }
},
{
  "ts": "2018-02-06T09:58:01.597413",
  "type": "INFO",
  "values": "Start: Run process"
},
{
  "ts": "2018-02-06T09:58:01.599837",
  "type": "INFO",
  "values": "Write log to /cw/dtailocal/mercs_python/out/542/oes97/logs/mercspython_Log_F01.running.log"
},
{
  "ts": "2018-02-06T09:58:11.637806",
  "type": "INFO",
  "values": "Process ended (returncode 0)"
},
{
  "ts": "2018-02-06T09:58:11.637871",
  "type": "INFO",
  "values": "Finished: Run process 10.040 seconds"
},
{
  "ts": "2018-02-06T09:58:11.637930",
  "type": "WARNING",
  "values": {
    "Exit": "finished",
    "Returncode": 0,
    "Time": 10.040481328964233
  }
}
]
