[
{
  "ts": "2018-02-06T09:59:31.041418",
  "type": "SETTINGS",
  "values": {
    "date": "2018/02/06 10:59:31",
    "date_iso": "2018-02-06T10:59:31.040397",
    "params": null,
    "system": {
      "nodename": "gibson",
      "machine": "x86_64",
      "platform": "Linux-4.4.0-112-generic-x86_64-with-debian-stretch-sid",
      "processor": "x86_64",
      "version": "#135-Ubuntu SMP Fri Jan 19 11:48:36 UTC 2018",
      "system": "Linux",
      "cpu_count": 8,
      "cpu_times": {
        "user": 314378.46,
        "system": 20413.33,
        "idle": 7945378.53,
        "nice": 819.07
      },
      "cpu_percent": 76.0,
      "virtual_memory": {
        "total": 33618501632,
        "available": 25443434496,
        "percent": 24.3,
        "used": 7259123712,
        "free": 14341718016
      }
    },
    "process": {
      "username": "evgeniya",
      "cwd": "/cw/dtailocal/mercs_python/src/core",
      "create_time": 1517911065.81,
      "cpu_times": {
        "user": 2.65,
        "system": 0.69
      }
    },
    "logfile": "/cw/dtailocal/mercs_python/out/542/oes97/logs/mercspython_Log_F09",
    "command": "python /cw/dtailocal/mercs_python/bin/mercspython.py /cw/dtailocal/mercs_python/out/542/oes97/settings/mercspython_Settings_F09.s"
  }
},
{
  "ts": "2018-02-06T09:59:31.041576",
  "type": "INFO",
  "values": {
    "cmd": "python /cw/dtailocal/mercs_python/bin/mercspython.py /cw/dtailocal/mercs_python/out/542/oes97/settings/mercspython_Settings_F09.s",
    "cwd": null
  }
},
{
  "ts": "2018-02-06T09:59:31.044530",
  "type": "INFO",
  "values": "Start: Run process"
},
{
  "ts": "2018-02-06T09:59:31.045084",
  "type": "INFO",
  "values": "Write log to /cw/dtailocal/mercs_python/out/542/oes97/logs/mercspython_Log_F09.running.log"
},
{
  "ts": "2018-02-06T09:59:40.479686",
  "type": "INFO",
  "values": "Process ended (returncode 0)"
},
{
  "ts": "2018-02-06T09:59:40.479768",
  "type": "INFO",
  "values": "Finished: Run process 9.435 seconds"
},
{
  "ts": "2018-02-06T09:59:40.479860",
  "type": "WARNING",
  "values": {
    "Exit": "finished",
    "Returncode": 0,
    "Time": 9.435272455215454
  }
},
{
  "ts": "2018-02-06T09:59:40.480243",
  "type": "INFO",
  "values": "Closing /cw/dtailocal/mercs_python/out/542/oes97/logs/mercspython_Log_F09.running.log"
}
]
