[
{
  "ts": "2018-02-05T17:09:48.953190",
  "type": "SETTINGS",
  "values": {
    "date": "2018/02/05 18:09:48",
    "date_iso": "2018-02-05T18:09:48.952343",
    "params": null,
    "system": {
      "nodename": "gibson",
      "machine": "x86_64",
      "platform": "Linux-4.4.0-112-generic-x86_64-with-debian-stretch-sid",
      "processor": "x86_64",
      "version": "#135-Ubuntu SMP Fri Jan 19 11:48:36 UTC 2018",
      "system": "Linux",
      "cpu_count": 8,
      "cpu_times": {
        "user": 140721.92,
        "system": 18653.12,
        "idle": 7637234.63,
        "nice": 751.58
      },
      "cpu_percent": 100.0,
      "virtual_memory": {
        "total": 33618501632,
        "available": 23189065728,
        "percent": 31.0,
        "used": 9440620544,
        "free": 5976682496
      }
    },
    "process": {
      "username": "evgeniya",
      "cwd": "/cw/dtailocal/mercs_python/src/core",
      "create_time": 1517850583.37,
      "cpu_times": {
        "user": 0.65,
        "system": 0.06
      }
    },
    "logfile": "/cw/dtailocal/mercs_python/out/337/jura/logs/mercspython_Log_F01",
    "command": "python /cw/dtailocal/mercs_python/bin/mercspython.py /cw/dtailocal/mercs_python/out/337/jura/settings/mercspython_Settings_F01.s"
  }
},
{
  "ts": "2018-02-05T17:09:48.953345",
  "type": "INFO",
  "values": {
    "cmd": "python /cw/dtailocal/mercs_python/bin/mercspython.py /cw/dtailocal/mercs_python/out/337/jura/settings/mercspython_Settings_F01.s",
    "cwd": null
  }
},
{
  "ts": "2018-02-05T17:09:48.965627",
  "type": "INFO",
  "values": "Start: Run process"
},
{
  "ts": "2018-02-05T17:09:48.995777",
  "type": "INFO",
  "values": "Write log to /cw/dtailocal/mercs_python/out/337/jura/logs/mercspython_Log_F01.running.log"
},
{
  "ts": "2018-02-05T17:09:52.600778",
  "type": "INFO",
  "values": "Process ended (returncode 0)"
},
{
  "ts": "2018-02-05T17:09:52.600859",
  "type": "INFO",
  "values": "Finished: Run process 3.635 seconds"
},
{
  "ts": "2018-02-05T17:09:52.600978",
  "type": "WARNING",
  "values": {
    "Exit": "finished",
    "Returncode": 0,
    "Time": 3.63525652885437
  }
}
]
