[
{
  "ts": "2018-02-05T17:38:00.754997",
  "type": "SETTINGS",
  "values": {
    "date": "2018/02/05 18:38:00",
    "date_iso": "2018-02-05T18:38:00.754196",
    "params": null,
    "system": {
      "nodename": "gibson",
      "machine": "x86_64",
      "platform": "Linux-4.4.0-112-generic-x86_64-with-debian-stretch-sid",
      "processor": "x86_64",
      "version": "#135-Ubuntu SMP Fri Jan 19 11:48:36 UTC 2018",
      "system": "Linux",
      "cpu_count": 8,
      "cpu_times": {
        "user": 151436.42,
        "system": 18813.48,
        "idle": 7639825.14,
        "nice": 753.62
      },
      "cpu_percent": 78.5,
      "virtual_memory": {
        "total": 33618501632,
        "available": 24439824384,
        "percent": 27.3,
        "used": 8158908416,
        "free": 7070584832
      }
    },
    "process": {
      "username": "evgeniya",
      "cwd": "/cw/dtailocal/mercs_python/src/core",
      "create_time": 1517850740.91,
      "cpu_times": {
        "user": 3.12,
        "system": 0.26
      }
    },
    "logfile": "/cw/dtailocal/mercs_python/out/227/scm1d/logs/mercspython_Log_F01",
    "command": "python /cw/dtailocal/mercs_python/bin/mercspython.py /cw/dtailocal/mercs_python/out/227/scm1d/settings/mercspython_Settings_F01.s"
  }
},
{
  "ts": "2018-02-05T17:38:00.755145",
  "type": "INFO",
  "values": {
    "cmd": "python /cw/dtailocal/mercs_python/bin/mercspython.py /cw/dtailocal/mercs_python/out/227/scm1d/settings/mercspython_Settings_F01.s",
    "cwd": null
  }
},
{
  "ts": "2018-02-05T17:38:00.758622",
  "type": "INFO",
  "values": "Start: Run process"
},
{
  "ts": "2018-02-05T17:38:00.759221",
  "type": "INFO",
  "values": "Write log to /cw/dtailocal/mercs_python/out/227/scm1d/logs/mercspython_Log_F01.running.log"
},
{
  "ts": "2018-02-05T17:58:35.876709",
  "type": "INFO",
  "values": "Process ended (returncode 0)"
},
{
  "ts": "2018-02-05T17:58:35.876803",
  "type": "INFO",
  "values": "Finished: Run process 1235.118 seconds"
},
{
  "ts": "2018-02-05T17:58:35.876885",
  "type": "WARNING",
  "values": {
    "Exit": "finished",
    "Returncode": 0,
    "Time": 1235.1182177066803
  }
},
{
  "ts": "2018-02-05T17:58:35.883826",
  "type": "INFO",
  "values": "Closing /cw/dtailocal/mercs_python/out/227/scm1d/logs/mercspython_Log_F01.running.log"
}
]
