[
{
  "ts": "2018-02-05T18:28:53.933177",
  "type": "SETTINGS",
  "values": {
    "date": "2018/02/05 19:28:53",
    "date_iso": "2018-02-05T19:28:53.932372",
    "params": null,
    "system": {
      "nodename": "gibson",
      "machine": "x86_64",
      "platform": "Linux-4.4.0-112-generic-x86_64-with-debian-stretch-sid",
      "processor": "x86_64",
      "version": "#135-Ubuntu SMP Fri Jan 19 11:48:36 UTC 2018",
      "system": "Linux",
      "cpu_count": 8,
      "cpu_times": {
        "user": 171975.62,
        "system": 18978.45,
        "idle": 7643520.1,
        "nice": 755.49
      },
      "cpu_percent": 100.0,
      "virtual_memory": {
        "total": 33618501632,
        "available": 17184460800,
        "percent": 48.9,
        "used": 15410040832,
        "free": 5026537472
      }
    },
    "process": {
      "username": "evgeniya",
      "cwd": "/cw/dtailocal/mercs_python/src/core",
      "create_time": 1517850740.91,
      "cpu_times": {
        "user": 3.86,
        "system": 0.44
      }
    },
    "logfile": "/cw/dtailocal/mercs_python/out/227/scm1d/logs/mercspython_Log_F03",
    "command": "python /cw/dtailocal/mercs_python/bin/mercspython.py /cw/dtailocal/mercs_python/out/227/scm1d/settings/mercspython_Settings_F03.s"
  }
},
{
  "ts": "2018-02-05T18:28:53.933312",
  "type": "INFO",
  "values": {
    "cmd": "python /cw/dtailocal/mercs_python/bin/mercspython.py /cw/dtailocal/mercs_python/out/227/scm1d/settings/mercspython_Settings_F03.s",
    "cwd": null
  }
},
{
  "ts": "2018-02-05T18:28:53.941826",
  "type": "INFO",
  "values": "Start: Run process"
},
{
  "ts": "2018-02-05T18:28:53.979801",
  "type": "INFO",
  "values": "Write log to /cw/dtailocal/mercs_python/out/227/scm1d/logs/mercspython_Log_F03.running.log"
},
{
  "ts": "2018-02-05T19:00:29.849966",
  "type": "INFO",
  "values": "Process ended (returncode 0)"
},
{
  "ts": "2018-02-05T19:00:29.850051",
  "type": "INFO",
  "values": "Finished: Run process 1895.908 seconds"
},
{
  "ts": "2018-02-05T19:00:29.850129",
  "type": "WARNING",
  "values": {
    "Exit": "finished",
    "Returncode": 0,
    "Time": 1895.9082524776459
  }
},
{
  "ts": "2018-02-05T19:00:29.855823",
  "type": "INFO",
  "values": "Closing /cw/dtailocal/mercs_python/out/227/scm1d/logs/mercspython_Log_F03.running.log"
}
]
