[
{
  "ts": "2018-02-05T19:00:29.857201",
  "type": "SETTINGS",
  "values": {
    "date": "2018/02/05 20:00:29",
    "date_iso": "2018-02-05T20:00:29.856373",
    "params": null,
    "system": {
      "nodename": "gibson",
      "machine": "x86_64",
      "platform": "Linux-4.4.0-112-generic-x86_64-with-debian-stretch-sid",
      "processor": "x86_64",
      "version": "#135-Ubuntu SMP Fri Jan 19 11:48:36 UTC 2018",
      "system": "Linux",
      "cpu_count": 8,
      "cpu_times": {
        "user": 187050.98,
        "system": 19068.45,
        "idle": 7643520.88,
        "nice": 755.49
      },
      "cpu_percent": 100.0,
      "virtual_memory": {
        "total": 33618501632,
        "available": 18204037120,
        "percent": 45.9,
        "used": 14391439360,
        "free": 7924572160
      }
    },
    "process": {
      "username": "evgeniya",
      "cwd": "/cw/dtailocal/mercs_python/src/core",
      "create_time": 1517850740.91,
      "cpu_times": {
        "user": 4.3,
        "system": 0.53
      }
    },
    "logfile": "/cw/dtailocal/mercs_python/out/227/scm1d/logs/mercspython_Log_F04",
    "command": "python /cw/dtailocal/mercs_python/bin/mercspython.py /cw/dtailocal/mercs_python/out/227/scm1d/settings/mercspython_Settings_F04.s"
  }
},
{
  "ts": "2018-02-05T19:00:29.857356",
  "type": "INFO",
  "values": {
    "cmd": "python /cw/dtailocal/mercs_python/bin/mercspython.py /cw/dtailocal/mercs_python/out/227/scm1d/settings/mercspython_Settings_F04.s",
    "cwd": null
  }
},
{
  "ts": "2018-02-05T19:00:29.890791",
  "type": "INFO",
  "values": "Start: Run process"
},
{
  "ts": "2018-02-05T19:00:29.943782",
  "type": "INFO",
  "values": "Write log to /cw/dtailocal/mercs_python/out/227/scm1d/logs/mercspython_Log_F04.running.log"
},
{
  "ts": "2018-02-05T19:32:13.928688",
  "type": "INFO",
  "values": "Process ended (returncode 0)"
},
{
  "ts": "2018-02-05T19:32:13.928771",
  "type": "INFO",
  "values": "Finished: Run process 1904.038 seconds"
},
{
  "ts": "2018-02-05T19:32:13.928845",
  "type": "WARNING",
  "values": {
    "Exit": "finished",
    "Returncode": 0,
    "Time": 1904.0380098819733
  }
}
]
