[
{
  "ts": "2018-02-05T20:27:44.713160",
  "type": "SETTINGS",
  "values": {
    "date": "2018/02/05 21:27:44",
    "date_iso": "2018-02-05T21:27:44.712572",
    "params": null,
    "system": {
      "nodename": "gibson",
      "machine": "x86_64",
      "platform": "Linux-4.4.0-112-generic-x86_64-with-debian-stretch-sid",
      "processor": "x86_64",
      "version": "#135-Ubuntu SMP Fri Jan 19 11:48:36 UTC 2018",
      "system": "Linux",
      "cpu_count": 8,
      "cpu_times": {
        "user": 226298.5,
        "system": 19327.74,
        "idle": 7645876.02,
        "nice": 759.22
      },
      "cpu_percent": 80.2,
      "virtual_memory": {
        "total": 33618501632,
        "available": 21140901888,
        "percent": 37.1,
        "used": 11456851968,
        "free": 12319637504
      }
    },
    "process": {
      "username": "evgeniya",
      "cwd": "/cw/dtailocal/mercs_python/src/core",
      "create_time": 1517850740.91,
      "cpu_times": {
        "user": 5.81,
        "system": 0.89
      }
    },
    "logfile": "/cw/dtailocal/mercs_python/out/227/scm1d/logs/mercspython_Log_F07",
    "command": "python /cw/dtailocal/mercs_python/bin/mercspython.py /cw/dtailocal/mercs_python/out/227/scm1d/settings/mercspython_Settings_F07.s"
  }
},
{
  "ts": "2018-02-05T20:27:44.713250",
  "type": "INFO",
  "values": {
    "cmd": "python /cw/dtailocal/mercs_python/bin/mercspython.py /cw/dtailocal/mercs_python/out/227/scm1d/settings/mercspython_Settings_F07.s",
    "cwd": null
  }
},
{
  "ts": "2018-02-05T20:27:44.716625",
  "type": "INFO",
  "values": "Start: Run process"
},
{
  "ts": "2018-02-05T20:27:44.717004",
  "type": "INFO",
  "values": "Write log to /cw/dtailocal/mercs_python/out/227/scm1d/logs/mercspython_Log_F07.running.log"
},
{
  "ts": "2018-02-05T20:49:23.110410",
  "type": "INFO",
  "values": "Process ended (returncode 0)"
},
{
  "ts": "2018-02-05T20:49:23.110491",
  "type": "INFO",
  "values": "Finished: Run process 1298.394 seconds"
},
{
  "ts": "2018-02-05T20:49:23.110567",
  "type": "WARNING",
  "values": {
    "Exit": "finished",
    "Returncode": 0,
    "Time": 1298.3939032554626
  }
},
{
  "ts": "2018-02-05T20:49:23.111001",
  "type": "INFO",
  "values": "Closing /cw/dtailocal/mercs_python/out/227/scm1d/logs/mercspython_Log_F07.running.log"
}
]
