[
{
  "ts": "2018-02-05T14:49:37.429074",
  "type": "SETTINGS",
  "values": {
    "date": "2018/02/05 15:49:37",
    "date_iso": "2018-02-05T15:49:37.428236",
    "params": null,
    "system": {
      "nodename": "gibson",
      "machine": "x86_64",
      "platform": "Linux-4.4.0-112-generic-x86_64-with-debian-stretch-sid",
      "processor": "x86_64",
      "version": "#135-Ubuntu SMP Fri Jan 19 11:48:36 UTC 2018",
      "system": "Linux",
      "cpu_count": 8,
      "cpu_times": {
        "user": 80848.5,
        "system": 18023.74,
        "idle": 7630549.56,
        "nice": 732.25
      },
      "cpu_percent": 97.5,
      "virtual_memory": {
        "total": 33618501632,
        "available": 24964681728,
        "percent": 25.7,
        "used": 7576834048,
        "free": 9682337792
      }
    },
    "process": {
      "username": "evgeniya",
      "cwd": "/cw/dtailocal/mercs_python/src/core",
      "create_time": 1517842165.7,
      "cpu_times": {
        "user": 0.89,
        "system": 0.16
      }
    },
    "logfile": "/cw/dtailocal/mercs_python/out/321/jura/logs/mercspython_Log_F03",
    "command": "python /cw/dtailocal/mercs_python/bin/mercspython.py /cw/dtailocal/mercs_python/out/321/jura/settings/mercspython_Settings_F03.s"
  }
},
{
  "ts": "2018-02-05T14:49:37.429228",
  "type": "INFO",
  "values": {
    "cmd": "python /cw/dtailocal/mercs_python/bin/mercspython.py /cw/dtailocal/mercs_python/out/321/jura/settings/mercspython_Settings_F03.s",
    "cwd": null
  }
},
{
  "ts": "2018-02-05T14:49:37.444991",
  "type": "INFO",
  "values": "Start: Run process"
},
{
  "ts": "2018-02-05T14:49:37.479790",
  "type": "INFO",
  "values": "Write log to /cw/dtailocal/mercs_python/out/321/jura/logs/mercspython_Log_F03.running.log"
},
{
  "ts": "2018-02-05T14:49:41.284448",
  "type": "INFO",
  "values": "Process ended (returncode 0)"
},
{
  "ts": "2018-02-05T14:49:41.284534",
  "type": "INFO",
  "values": "Finished: Run process 3.840 seconds"
},
{
  "ts": "2018-02-05T14:49:41.284616",
  "type": "WARNING",
  "values": {
    "Exit": "finished",
    "Returncode": 0,
    "Time": 3.839564323425293
  }
}
]
