[
{
  "ts": "2018-02-05T14:49:55.361513",
  "type": "SETTINGS",
  "values": {
    "date": "2018/02/05 15:49:55",
    "date_iso": "2018-02-05T15:49:55.360783",
    "params": null,
    "system": {
      "nodename": "gibson",
      "machine": "x86_64",
      "platform": "Linux-4.4.0-112-generic-x86_64-with-debian-stretch-sid",
      "processor": "x86_64",
      "version": "#135-Ubuntu SMP Fri Jan 19 11:48:36 UTC 2018",
      "system": "Linux",
      "cpu_count": 8,
      "cpu_times": {
        "user": 80987.66,
        "system": 18026.63,
        "idle": 7630550.67,
        "nice": 732.25
      },
      "cpu_percent": 99.9,
      "virtual_memory": {
        "total": 33618501632,
        "available": 25124954112,
        "percent": 25.3,
        "used": 7425957888,
        "free": 9826115584
      }
    },
    "process": {
      "username": "evgeniya",
      "cwd": "/cw/dtailocal/mercs_python/src/core",
      "create_time": 1517842165.7,
      "cpu_times": {
        "user": 1.47,
        "system": 0.29
      }
    },
    "logfile": "/cw/dtailocal/mercs_python/out/321/jura/logs/mercspython_Log_F08",
    "command": "python /cw/dtailocal/mercs_python/bin/mercspython.py /cw/dtailocal/mercs_python/out/321/jura/settings/mercspython_Settings_F08.s"
  }
},
{
  "ts": "2018-02-05T14:49:55.361630",
  "type": "INFO",
  "values": {
    "cmd": "python /cw/dtailocal/mercs_python/bin/mercspython.py /cw/dtailocal/mercs_python/out/321/jura/settings/mercspython_Settings_F08.s",
    "cwd": null
  }
},
{
  "ts": "2018-02-05T14:49:55.385247",
  "type": "INFO",
  "values": "Start: Run process"
},
{
  "ts": "2018-02-05T14:49:55.431769",
  "type": "INFO",
  "values": "Write log to /cw/dtailocal/mercs_python/out/321/jura/logs/mercspython_Log_F08.running.log"
},
{
  "ts": "2018-02-05T14:49:58.835981",
  "type": "INFO",
  "values": "Process ended (returncode 0)"
},
{
  "ts": "2018-02-05T14:49:58.836250",
  "type": "INFO",
  "values": "Finished: Run process 3.451 seconds"
},
{
  "ts": "2018-02-05T14:49:58.836332",
  "type": "WARNING",
  "values": {
    "Exit": "finished",
    "Returncode": 0,
    "Time": 3.4510250091552734
  }
}
]
