[
{
  "ts": "2018-02-05T15:50:45.989236",
  "type": "SETTINGS",
  "values": {
    "date": "2018/02/05 16:50:45",
    "date_iso": "2018-02-05T16:50:45.988370",
    "params": null,
    "system": {
      "nodename": "gibson",
      "machine": "x86_64",
      "platform": "Linux-4.4.0-112-generic-x86_64-with-debian-stretch-sid",
      "processor": "x86_64",
      "version": "#135-Ubuntu SMP Fri Jan 19 11:48:36 UTC 2018",
      "system": "Linux",
      "cpu_count": 8,
      "cpu_times": {
        "user": 103190.52,
        "system": 18271.0,
        "idle": 7637228.43,
        "nice": 749.46
      },
      "cpu_percent": 100.0,
      "virtual_memory": {
        "total": 33618501632,
        "available": 23801495552,
        "percent": 29.2,
        "used": 8883884032,
        "free": 7515852800
      }
    },
    "process": {
      "username": "evgeniya",
      "cwd": "/cw/dtailocal/mercs_python/src/core",
      "create_time": 1517845538.97,
      "cpu_times": {
        "user": 2.73,
        "system": 0.24
      }
    },
    "logfile": "/cw/dtailocal/mercs_python/out/254/oes10/logs/mercspython_Log_F08",
    "command": "python /cw/dtailocal/mercs_python/bin/mercspython.py /cw/dtailocal/mercs_python/out/254/oes10/settings/mercspython_Settings_F08.s"
  }
},
{
  "ts": "2018-02-05T15:50:45.989385",
  "type": "INFO",
  "values": {
    "cmd": "python /cw/dtailocal/mercs_python/bin/mercspython.py /cw/dtailocal/mercs_python/out/254/oes10/settings/mercspython_Settings_F08.s",
    "cwd": null
  }
},
{
  "ts": "2018-02-05T15:50:46.002064",
  "type": "INFO",
  "values": "Start: Run process"
},
{
  "ts": "2018-02-05T15:50:46.039790",
  "type": "INFO",
  "values": "Write log to /cw/dtailocal/mercs_python/out/254/oes10/logs/mercspython_Log_F08.running.log"
},
{
  "ts": "2018-02-05T15:51:25.086820",
  "type": "INFO",
  "values": "Process ended (returncode 0)"
},
{
  "ts": "2018-02-05T15:51:25.086902",
  "type": "INFO",
  "values": "Finished: Run process 39.085 seconds"
},
{
  "ts": "2018-02-05T15:51:25.086985",
  "type": "WARNING",
  "values": {
    "Exit": "finished",
    "Returncode": 0,
    "Time": 39.08486533164978
  }
}
]
