[
{
  "ts": "2018-02-07T10:15:03.925226",
  "type": "SETTINGS",
  "values": {
    "date": "2018/02/07 11:15:03",
    "date_iso": "2018-02-07T11:15:03.924281",
    "params": null,
    "system": {
      "nodename": "gibson",
      "machine": "x86_64",
      "platform": "Linux-4.4.0-112-generic-x86_64-with-debian-stretch-sid",
      "processor": "x86_64",
      "version": "#135-Ubuntu SMP Fri Jan 19 11:48:36 UTC 2018",
      "system": "Linux",
      "cpu_count": 8,
      "cpu_times": {
        "user": 377135.18,
        "system": 22343.92,
        "idle": 8577337.88,
        "nice": 898.04
      },
      "cpu_percent": 99.3,
      "virtual_memory": {
        "total": 33618501632,
        "available": 26412212224,
        "percent": 21.4,
        "used": 6336839680,
        "free": 12248174592
      }
    },
    "process": {
      "username": "evgeniya",
      "cwd": "/cw/dtailocal/mercs_python/src/core",
      "create_time": 1517998486.05,
      "cpu_times": {
        "user": 0.75,
        "system": 0.12
      }
    },
    "logfile": "/cw/dtailocal/mercs_python/out/701/enb/logs/mercspython_Log_F04",
    "command": "python /cw/dtailocal/mercs_python/bin/mercspython.py /cw/dtailocal/mercs_python/out/701/enb/settings/mercspython_Settings_F04.s"
  }
},
{
  "ts": "2018-02-07T10:15:03.925391",
  "type": "INFO",
  "values": {
    "cmd": "python /cw/dtailocal/mercs_python/bin/mercspython.py /cw/dtailocal/mercs_python/out/701/enb/settings/mercspython_Settings_F04.s",
    "cwd": null
  }
},
{
  "ts": "2018-02-07T10:15:03.948912",
  "type": "INFO",
  "values": "Start: Run process"
},
{
  "ts": "2018-02-07T10:15:03.987868",
  "type": "INFO",
  "values": "Write log to /cw/dtailocal/mercs_python/out/701/enb/logs/mercspython_Log_F04.running.log"
},
{
  "ts": "2018-02-07T10:15:07.993197",
  "type": "INFO",
  "values": "Process ended (returncode 0)"
},
{
  "ts": "2018-02-07T10:15:07.993298",
  "type": "INFO",
  "values": "Finished: Run process 4.044 seconds"
},
{
  "ts": "2018-02-07T10:15:07.993392",
  "type": "WARNING",
  "values": {
    "Exit": "finished",
    "Returncode": 0,
    "Time": 4.0444114208221436
  }
},
{
  "ts": "2018-02-07T10:15:08.003854",
  "type": "INFO",
  "values": "Closing /cw/dtailocal/mercs_python/out/701/enb/logs/mercspython_Log_F04.running.log"
}
]
