[
{
  "ts": "2018-02-07T10:15:12.278458",
  "type": "SETTINGS",
  "values": {
    "date": "2018/02/07 11:15:12",
    "date_iso": "2018-02-07T11:15:12.277614",
    "params": null,
    "system": {
      "nodename": "gibson",
      "machine": "x86_64",
      "platform": "Linux-4.4.0-112-generic-x86_64-with-debian-stretch-sid",
      "processor": "x86_64",
      "version": "#135-Ubuntu SMP Fri Jan 19 11:48:36 UTC 2018",
      "system": "Linux",
      "cpu_count": 8,
      "cpu_times": {
        "user": 377197.5,
        "system": 22347.4,
        "idle": 8577338.56,
        "nice": 898.04
      },
      "cpu_percent": 99.2,
      "virtual_memory": {
        "total": 33618501632,
        "available": 26503462912,
        "percent": 21.2,
        "used": 6245781504,
        "free": 12337860608
      }
    },
    "process": {
      "username": "evgeniya",
      "cwd": "/cw/dtailocal/mercs_python/src/core",
      "create_time": 1517998486.05,
      "cpu_times": {
        "user": 0.89,
        "system": 0.14
      }
    },
    "logfile": "/cw/dtailocal/mercs_python/out/701/enb/logs/mercspython_Log_F06",
    "command": "python /cw/dtailocal/mercs_python/bin/mercspython.py /cw/dtailocal/mercs_python/out/701/enb/settings/mercspython_Settings_F06.s"
  }
},
{
  "ts": "2018-02-07T10:15:12.278617",
  "type": "INFO",
  "values": {
    "cmd": "python /cw/dtailocal/mercs_python/bin/mercspython.py /cw/dtailocal/mercs_python/out/701/enb/settings/mercspython_Settings_F06.s",
    "cwd": null
  }
},
{
  "ts": "2018-02-07T10:15:12.297339",
  "type": "INFO",
  "values": "Start: Run process"
},
{
  "ts": "2018-02-07T10:15:12.319920",
  "type": "INFO",
  "values": "Write log to /cw/dtailocal/mercs_python/out/701/enb/logs/mercspython_Log_F06.running.log"
},
{
  "ts": "2018-02-07T10:15:16.536458",
  "type": "INFO",
  "values": "Process ended (returncode 0)"
},
{
  "ts": "2018-02-07T10:15:16.536544",
  "type": "INFO",
  "values": "Finished: Run process 4.239 seconds"
},
{
  "ts": "2018-02-07T10:15:16.536637",
  "type": "WARNING",
  "values": {
    "Exit": "finished",
    "Returncode": 0,
    "Time": 4.239226579666138
  }
}
]
