[
{
  "ts": "2018-02-05T15:55:15.981001",
  "type": "SETTINGS",
  "values": {
    "date": "2018/02/05 16:55:15",
    "date_iso": "2018-02-05T16:55:15.980182",
    "params": null,
    "system": {
      "nodename": "gibson",
      "machine": "x86_64",
      "platform": "Linux-4.4.0-112-generic-x86_64-with-debian-stretch-sid",
      "processor": "x86_64",
      "version": "#135-Ubuntu SMP Fri Jan 19 11:48:36 UTC 2018",
      "system": "Linux",
      "cpu_count": 8,
      "cpu_times": {
        "user": 105330.79,
        "system": 18289.42,
        "idle": 7637228.81,
        "nice": 749.46
      },
      "cpu_percent": 100.0,
      "virtual_memory": {
        "total": 33618501632,
        "available": 23874527232,
        "percent": 29.0,
        "used": 8821747712,
        "free": 7541911552
      }
    },
    "process": {
      "username": "evgeniya",
      "cwd": "/cw/dtailocal/mercs_python/src/core",
      "create_time": 1517845956.76,
      "cpu_times": {
        "user": 2.09,
        "system": 0.1
      }
    },
    "logfile": "/cw/dtailocal/mercs_python/out/245/oes97/logs/mercspython_Log_F05",
    "command": "python /cw/dtailocal/mercs_python/bin/mercspython.py /cw/dtailocal/mercs_python/out/245/oes97/settings/mercspython_Settings_F05.s"
  }
},
{
  "ts": "2018-02-05T15:55:15.981159",
  "type": "INFO",
  "values": {
    "cmd": "python /cw/dtailocal/mercs_python/bin/mercspython.py /cw/dtailocal/mercs_python/out/245/oes97/settings/mercspython_Settings_F05.s",
    "cwd": null
  }
},
{
  "ts": "2018-02-05T15:55:16.005409",
  "type": "INFO",
  "values": "Start: Run process"
},
{
  "ts": "2018-02-05T15:55:16.039795",
  "type": "INFO",
  "values": "Write log to /cw/dtailocal/mercs_python/out/245/oes97/logs/mercspython_Log_F05.running.log"
},
{
  "ts": "2018-02-05T15:55:47.279749",
  "type": "INFO",
  "values": "Process ended (returncode 0)"
},
{
  "ts": "2018-02-05T15:55:47.279844",
  "type": "INFO",
  "values": "Finished: Run process 31.274 seconds"
},
{
  "ts": "2018-02-05T15:55:47.279921",
  "type": "WARNING",
  "values": {
    "Exit": "finished",
    "Returncode": 0,
    "Time": 31.274463891983032
  }
},
{
  "ts": "2018-02-05T15:55:47.295801",
  "type": "INFO",
  "values": "Closing /cw/dtailocal/mercs_python/out/245/oes97/logs/mercspython_Log_F05.running.log"
}
]
