[
{
  "ts": "2018-02-05T15:53:42.343891",
  "type": "SETTINGS",
  "values": {
    "date": "2018/02/05 16:53:42",
    "date_iso": "2018-02-05T16:53:42.343038",
    "params": null,
    "system": {
      "nodename": "gibson",
      "machine": "x86_64",
      "platform": "Linux-4.4.0-112-generic-x86_64-with-debian-stretch-sid",
      "processor": "x86_64",
      "version": "#135-Ubuntu SMP Fri Jan 19 11:48:36 UTC 2018",
      "system": "Linux",
      "cpu_count": 8,
      "cpu_times": {
        "user": 104589.01,
        "system": 18282.43,
        "idle": 7637228.72,
        "nice": 749.46
      },
      "cpu_percent": 100.0,
      "virtual_memory": {
        "total": 33618501632,
        "available": 25099145216,
        "percent": 25.3,
        "used": 7596863488,
        "free": 8791343104
      }
    },
    "process": {
      "username": "evgeniya",
      "cwd": "/cw/dtailocal/mercs_python/src/core",
      "create_time": 1517845956.76,
      "cpu_times": {
        "user": 1.77,
        "system": 0.06
      }
    },
    "logfile": "/cw/dtailocal/mercs_python/out/245/oes97/logs/mercspython_Log_F02",
    "command": "python /cw/dtailocal/mercs_python/bin/mercspython.py /cw/dtailocal/mercs_python/out/245/oes97/settings/mercspython_Settings_F02.s"
  }
},
{
  "ts": "2018-02-05T15:53:42.344045",
  "type": "INFO",
  "values": {
    "cmd": "python /cw/dtailocal/mercs_python/bin/mercspython.py /cw/dtailocal/mercs_python/out/245/oes97/settings/mercspython_Settings_F02.s",
    "cwd": null
  }
},
{
  "ts": "2018-02-05T15:53:42.358025",
  "type": "INFO",
  "values": "Start: Run process"
},
{
  "ts": "2018-02-05T15:53:42.384292",
  "type": "INFO",
  "values": "Write log to /cw/dtailocal/mercs_python/out/245/oes97/logs/mercspython_Log_F02.running.log"
},
{
  "ts": "2018-02-05T15:54:14.622392",
  "type": "INFO",
  "values": "Process ended (returncode 0)"
},
{
  "ts": "2018-02-05T15:54:14.622468",
  "type": "INFO",
  "values": "Finished: Run process 32.264 seconds"
},
{
  "ts": "2018-02-05T15:54:14.622724",
  "type": "WARNING",
  "values": {
    "Exit": "finished",
    "Returncode": 0,
    "Time": 32.264463663101196
  }
},
{
  "ts": "2018-02-05T15:54:14.623813",
  "type": "INFO",
  "values": "Closing /cw/dtailocal/mercs_python/out/245/oes97/logs/mercspython_Log_F02.running.log"
}
]
