[
{
  "ts": "2018-02-05T17:25:29.985191",
  "type": "SETTINGS",
  "values": {
    "date": "2018/02/05 18:25:29",
    "date_iso": "2018-02-05T18:25:29.984361",
    "params": null,
    "system": {
      "nodename": "gibson",
      "machine": "x86_64",
      "platform": "Linux-4.4.0-112-generic-x86_64-with-debian-stretch-sid",
      "processor": "x86_64",
      "version": "#135-Ubuntu SMP Fri Jan 19 11:48:36 UTC 2018",
      "system": "Linux",
      "cpu_count": 8,
      "cpu_times": {
        "user": 147987.85,
        "system": 18742.54,
        "idle": 7637396.42,
        "nice": 753.62
      },
      "cpu_percent": 76.4,
      "virtual_memory": {
        "total": 33618501632,
        "available": 26656403456,
        "percent": 20.7,
        "used": 5971148800,
        "free": 9339707392
      }
    },
    "process": {
      "username": "evgeniya",
      "cwd": "/cw/dtailocal/mercs_python/src/core",
      "create_time": 1517851508.94,
      "cpu_times": {
        "user": 1.77,
        "system": 0.2
      }
    },
    "logfile": "/cw/dtailocal/mercs_python/out/330/oes10/logs/mercspython_Log_F01",
    "command": "python /cw/dtailocal/mercs_python/bin/mercspython.py /cw/dtailocal/mercs_python/out/330/oes10/settings/mercspython_Settings_F01.s"
  }
},
{
  "ts": "2018-02-05T17:25:29.985349",
  "type": "INFO",
  "values": {
    "cmd": "python /cw/dtailocal/mercs_python/bin/mercspython.py /cw/dtailocal/mercs_python/out/330/oes10/settings/mercspython_Settings_F01.s",
    "cwd": null
  }
},
{
  "ts": "2018-02-05T17:25:29.989976",
  "type": "INFO",
  "values": "Start: Run process"
},
{
  "ts": "2018-02-05T17:25:29.990458",
  "type": "INFO",
  "values": "Write log to /cw/dtailocal/mercs_python/out/330/oes10/logs/mercspython_Log_F01.running.log"
},
{
  "ts": "2018-02-05T17:25:47.014627",
  "type": "INFO",
  "values": "Process ended (returncode 0)"
},
{
  "ts": "2018-02-05T17:25:47.014762",
  "type": "INFO",
  "values": "Finished: Run process 17.025 seconds"
},
{
  "ts": "2018-02-05T17:25:47.014817",
  "type": "WARNING",
  "values": {
    "Exit": "finished",
    "Returncode": 0,
    "Time": 17.024818658828735
  }
},
{
  "ts": "2018-02-05T17:25:47.015088",
  "type": "INFO",
  "values": "Closing /cw/dtailocal/mercs_python/out/330/oes10/logs/mercspython_Log_F01.running.log"
}
]
