[
{
  "ts": "2018-02-05T17:27:16.961399",
  "type": "SETTINGS",
  "values": {
    "date": "2018/02/05 18:27:16",
    "date_iso": "2018-02-05T18:27:16.960571",
    "params": null,
    "system": {
      "nodename": "gibson",
      "machine": "x86_64",
      "platform": "Linux-4.4.0-112-generic-x86_64-with-debian-stretch-sid",
      "processor": "x86_64",
      "version": "#135-Ubuntu SMP Fri Jan 19 11:48:36 UTC 2018",
      "system": "Linux",
      "cpu_count": 8,
      "cpu_times": {
        "user": 148623.36,
        "system": 18751.76,
        "idle": 7637603.44,
        "nice": 753.62
      },
      "cpu_percent": 72.6,
      "virtual_memory": {
        "total": 33618501632,
        "available": 26880122880,
        "percent": 20.0,
        "used": 5744992256,
        "free": 9537859584
      }
    },
    "process": {
      "username": "evgeniya",
      "cwd": "/cw/dtailocal/mercs_python/src/core",
      "create_time": 1517851508.94,
      "cpu_times": {
        "user": 2.3,
        "system": 0.62
      }
    },
    "logfile": "/cw/dtailocal/mercs_python/out/330/oes10/logs/mercspython_Log_F07",
    "command": "python /cw/dtailocal/mercs_python/bin/mercspython.py /cw/dtailocal/mercs_python/out/330/oes10/settings/mercspython_Settings_F07.s"
  }
},
{
  "ts": "2018-02-05T17:27:16.961547",
  "type": "INFO",
  "values": {
    "cmd": "python /cw/dtailocal/mercs_python/bin/mercspython.py /cw/dtailocal/mercs_python/out/330/oes10/settings/mercspython_Settings_F07.s",
    "cwd": null
  }
},
{
  "ts": "2018-02-05T17:27:16.966678",
  "type": "INFO",
  "values": "Start: Run process"
},
{
  "ts": "2018-02-05T17:27:16.967088",
  "type": "INFO",
  "values": "Write log to /cw/dtailocal/mercs_python/out/330/oes10/logs/mercspython_Log_F07.running.log"
},
{
  "ts": "2018-02-05T17:27:33.996048",
  "type": "INFO",
  "values": "Process ended (returncode 0)"
},
{
  "ts": "2018-02-05T17:27:33.996113",
  "type": "INFO",
  "values": "Finished: Run process 17.029 seconds"
},
{
  "ts": "2018-02-05T17:27:33.996314",
  "type": "WARNING",
  "values": {
    "Exit": "finished",
    "Returncode": 0,
    "Time": 17.02945637702942
  }
},
{
  "ts": "2018-02-05T17:27:33.996579",
  "type": "INFO",
  "values": "Closing /cw/dtailocal/mercs_python/out/330/oes10/logs/mercspython_Log_F07.running.log"
}
]
