[
{
  "ts": "2018-02-05T17:25:11.151840",
  "type": "SETTINGS",
  "values": {
    "date": "2018/02/05 18:25:11",
    "date_iso": "2018-02-05T18:25:11.149426",
    "params": null,
    "system": {
      "nodename": "gibson",
      "machine": "x86_64",
      "platform": "Linux-4.4.0-112-generic-x86_64-with-debian-stretch-sid",
      "processor": "x86_64",
      "version": "#135-Ubuntu SMP Fri Jan 19 11:48:36 UTC 2018",
      "system": "Linux",
      "cpu_count": 8,
      "cpu_times": {
        "user": 147874.61,
        "system": 18740.88,
        "idle": 7637361.51,
        "nice": 753.62
      },
      "cpu_percent": 77.9,
      "virtual_memory": {
        "total": 33618501632,
        "available": 26721730560,
        "percent": 20.5,
        "used": 5905195008,
        "free": 9407913984
      }
    },
    "process": {
      "username": "evgeniya",
      "cwd": "/cw/dtailocal/mercs_python/src/core",
      "create_time": 1517851508.94,
      "cpu_times": {
        "user": 1.62,
        "system": 0.11
      }
    },
    "logfile": "/cw/dtailocal/mercs_python/out/330/oes10/logs/mercspython_Log_F00",
    "command": "python /cw/dtailocal/mercs_python/bin/mercspython.py /cw/dtailocal/mercs_python/out/330/oes10/settings/mercspython_Settings_F00.s"
  }
},
{
  "ts": "2018-02-05T17:25:11.151994",
  "type": "INFO",
  "values": {
    "cmd": "python /cw/dtailocal/mercs_python/bin/mercspython.py /cw/dtailocal/mercs_python/out/330/oes10/settings/mercspython_Settings_F00.s",
    "cwd": null
  }
},
{
  "ts": "2018-02-05T17:25:11.159096",
  "type": "INFO",
  "values": "Start: Run process"
},
{
  "ts": "2018-02-05T17:25:11.159775",
  "type": "INFO",
  "values": "Write log to /cw/dtailocal/mercs_python/out/330/oes10/logs/mercspython_Log_F00.running.log"
},
{
  "ts": "2018-02-05T17:25:29.983372",
  "type": "INFO",
  "values": "Process ended (returncode 0)"
},
{
  "ts": "2018-02-05T17:25:29.983455",
  "type": "INFO",
  "values": "Finished: Run process 18.824 seconds"
},
{
  "ts": "2018-02-05T17:25:29.983534",
  "type": "WARNING",
  "values": {
    "Exit": "finished",
    "Returncode": 0,
    "Time": 18.824408531188965
  }
}
]
