[
{
  "ts": "2018-02-05T17:01:51.881065",
  "type": "SETTINGS",
  "values": {
    "date": "2018/02/05 18:01:51",
    "date_iso": "2018-02-05T18:01:51.880220",
    "params": null,
    "system": {
      "nodename": "gibson",
      "machine": "x86_64",
      "platform": "Linux-4.4.0-112-generic-x86_64-with-debian-stretch-sid",
      "processor": "x86_64",
      "version": "#135-Ubuntu SMP Fri Jan 19 11:48:36 UTC 2018",
      "system": "Linux",
      "cpu_count": 8,
      "cpu_times": {
        "user": 136948.01,
        "system": 18613.17,
        "idle": 7637234.53,
        "nice": 751.58
      },
      "cpu_percent": 100.0,
      "virtual_memory": {
        "total": 33618501632,
        "available": 23082242048,
        "percent": 31.3,
        "used": 9516953600,
        "free": 5905457152
      }
    },
    "process": {
      "username": "evgeniya",
      "cwd": "/cw/dtailocal/mercs_python/src/core",
      "create_time": 1517850097.3,
      "cpu_times": {
        "user": 0.89,
        "system": 0.13
      }
    },
    "logfile": "/cw/dtailocal/mercs_python/out/319/andro/logs/mercspython_Log_F03",
    "command": "python /cw/dtailocal/mercs_python/bin/mercspython.py /cw/dtailocal/mercs_python/out/319/andro/settings/mercspython_Settings_F03.s"
  }
},
{
  "ts": "2018-02-05T17:01:51.881218",
  "type": "INFO",
  "values": {
    "cmd": "python /cw/dtailocal/mercs_python/bin/mercspython.py /cw/dtailocal/mercs_python/out/319/andro/settings/mercspython_Settings_F03.s",
    "cwd": null
  }
},
{
  "ts": "2018-02-05T17:01:51.894682",
  "type": "INFO",
  "values": "Start: Run process"
},
{
  "ts": "2018-02-05T17:01:51.933271",
  "type": "INFO",
  "values": "Write log to /cw/dtailocal/mercs_python/out/319/andro/logs/mercspython_Log_F03.running.log"
},
{
  "ts": "2018-02-05T17:01:56.554898",
  "type": "INFO",
  "values": "Process ended (returncode 0)"
},
{
  "ts": "2018-02-05T17:01:56.554977",
  "type": "INFO",
  "values": "Finished: Run process 4.660 seconds"
},
{
  "ts": "2018-02-05T17:01:56.555061",
  "type": "WARNING",
  "values": {
    "Exit": "finished",
    "Returncode": 0,
    "Time": 4.660320520401001
  }
}
]
