[
{
  "ts": "2018-02-05T17:02:14.256423",
  "type": "SETTINGS",
  "values": {
    "date": "2018/02/05 18:02:14",
    "date_iso": "2018-02-05T18:02:14.255489",
    "params": null,
    "system": {
      "nodename": "gibson",
      "machine": "x86_64",
      "platform": "Linux-4.4.0-112-generic-x86_64-with-debian-stretch-sid",
      "processor": "x86_64",
      "version": "#135-Ubuntu SMP Fri Jan 19 11:48:36 UTC 2018",
      "system": "Linux",
      "cpu_count": 8,
      "cpu_times": {
        "user": 137124.31,
        "system": 18615.61,
        "idle": 7637234.57,
        "nice": 751.58
      },
      "cpu_percent": 100.0,
      "virtual_memory": {
        "total": 33618501632,
        "available": 23107411968,
        "percent": 31.3,
        "used": 9491824640,
        "free": 5926031360
      }
    },
    "process": {
      "username": "evgeniya",
      "cwd": "/cw/dtailocal/mercs_python/src/core",
      "create_time": 1517850097.3,
      "cpu_times": {
        "user": 1.25,
        "system": 0.16
      }
    },
    "logfile": "/cw/dtailocal/mercs_python/out/319/andro/logs/mercspython_Log_F08",
    "command": "python /cw/dtailocal/mercs_python/bin/mercspython.py /cw/dtailocal/mercs_python/out/319/andro/settings/mercspython_Settings_F08.s"
  }
},
{
  "ts": "2018-02-05T17:02:14.256578",
  "type": "INFO",
  "values": {
    "cmd": "python /cw/dtailocal/mercs_python/bin/mercspython.py /cw/dtailocal/mercs_python/out/319/andro/settings/mercspython_Settings_F08.s",
    "cwd": null
  }
},
{
  "ts": "2018-02-05T17:02:14.265770",
  "type": "INFO",
  "values": "Start: Run process"
},
{
  "ts": "2018-02-05T17:02:14.307774",
  "type": "INFO",
  "values": "Write log to /cw/dtailocal/mercs_python/out/319/andro/logs/mercspython_Log_F08.running.log"
},
{
  "ts": "2018-02-05T17:02:18.512679",
  "type": "INFO",
  "values": "Process ended (returncode 0)"
},
{
  "ts": "2018-02-05T17:02:18.512970",
  "type": "INFO",
  "values": "Finished: Run process 4.247 seconds"
},
{
  "ts": "2018-02-05T17:02:18.513053",
  "type": "WARNING",
  "values": {
    "Exit": "finished",
    "Returncode": 0,
    "Time": 4.247219800949097
  }
},
{
  "ts": "2018-02-05T17:02:18.521261",
  "type": "INFO",
  "values": "Closing /cw/dtailocal/mercs_python/out/319/andro/logs/mercspython_Log_F08.running.log"
}
]
