[
{
  "ts": "2018-02-05T21:02:14.900611",
  "type": "SETTINGS",
  "values": {
    "date": "2018/02/05 22:02:14",
    "date_iso": "2018-02-05T22:02:14.900028",
    "params": null,
    "system": {
      "nodename": "gibson",
      "machine": "x86_64",
      "platform": "Linux-4.4.0-112-generic-x86_64-with-debian-stretch-sid",
      "processor": "x86_64",
      "version": "#135-Ubuntu SMP Fri Jan 19 11:48:36 UTC 2018",
      "system": "Linux",
      "cpu_count": 8,
      "cpu_times": {
        "user": 236287.42,
        "system": 19383.29,
        "idle": 7652371.26,
        "nice": 759.22
      },
      "cpu_percent": 59.5,
      "virtual_memory": {
        "total": 33618501632,
        "available": 26060341248,
        "percent": 22.5,
        "used": 6537199616,
        "free": 17167659008
      }
    },
    "process": {
      "username": "evgeniya",
      "cwd": "/cw/dtailocal/mercs_python/src/core",
      "create_time": 1517850444.31,
      "cpu_times": {
        "user": 6.71,
        "system": 1.47
      }
    },
    "logfile": "/cw/dtailocal/mercs_python/out/217/scm1d/logs/mercspython_Log_F08",
    "command": "python /cw/dtailocal/mercs_python/bin/mercspython.py /cw/dtailocal/mercs_python/out/217/scm1d/settings/mercspython_Settings_F08.s"
  }
},
{
  "ts": "2018-02-05T21:02:14.900699",
  "type": "INFO",
  "values": {
    "cmd": "python /cw/dtailocal/mercs_python/bin/mercspython.py /cw/dtailocal/mercs_python/out/217/scm1d/settings/mercspython_Settings_F08.s",
    "cwd": null
  }
},
{
  "ts": "2018-02-05T21:02:14.904003",
  "type": "INFO",
  "values": "Start: Run process"
},
{
  "ts": "2018-02-05T21:02:14.906019",
  "type": "INFO",
  "values": "Write log to /cw/dtailocal/mercs_python/out/217/scm1d/logs/mercspython_Log_F08.running.log"
},
{
  "ts": "2018-02-05T21:23:01.664099",
  "type": "INFO",
  "values": "Process ended (returncode 0)"
},
{
  "ts": "2018-02-05T21:23:01.664167",
  "type": "INFO",
  "values": "Finished: Run process 1246.760 seconds"
},
{
  "ts": "2018-02-05T21:23:01.664222",
  "type": "WARNING",
  "values": {
    "Exit": "finished",
    "Returncode": 0,
    "Time": 1246.760202884674
  }
},
{
  "ts": "2018-02-05T21:23:01.664458",
  "type": "INFO",
  "values": "Closing /cw/dtailocal/mercs_python/out/217/scm1d/logs/mercspython_Log_F08.running.log"
}
]
