[
{
  "ts": "2018-02-05T19:44:02.605106",
  "type": "SETTINGS",
  "values": {
    "date": "2018/02/05 20:44:02",
    "date_iso": "2018-02-05T20:44:02.604322",
    "params": null,
    "system": {
      "nodename": "gibson",
      "machine": "x86_64",
      "platform": "Linux-4.4.0-112-generic-x86_64-with-debian-stretch-sid",
      "processor": "x86_64",
      "version": "#135-Ubuntu SMP Fri Jan 19 11:48:36 UTC 2018",
      "system": "Linux",
      "cpu_count": 8,
      "cpu_times": {
        "user": 207796.91,
        "system": 19220.36,
        "idle": 7643521.56,
        "nice": 757.38
      },
      "cpu_percent": 100.0,
      "virtual_memory": {
        "total": 33618501632,
        "available": 16731787264,
        "percent": 50.2,
        "used": 15865966592,
        "free": 8125919232
      }
    },
    "process": {
      "username": "evgeniya",
      "cwd": "/cw/dtailocal/mercs_python/src/core",
      "create_time": 1517850444.31,
      "cpu_times": {
        "user": 5.28,
        "system": 0.73
      }
    },
    "logfile": "/cw/dtailocal/mercs_python/out/217/scm1d/logs/mercspython_Log_F05",
    "command": "python /cw/dtailocal/mercs_python/bin/mercspython.py /cw/dtailocal/mercs_python/out/217/scm1d/settings/mercspython_Settings_F05.s"
  }
},
{
  "ts": "2018-02-05T19:44:02.605247",
  "type": "INFO",
  "values": {
    "cmd": "python /cw/dtailocal/mercs_python/bin/mercspython.py /cw/dtailocal/mercs_python/out/217/scm1d/settings/mercspython_Settings_F05.s",
    "cwd": null
  }
},
{
  "ts": "2018-02-05T19:44:02.646377",
  "type": "INFO",
  "values": "Start: Run process"
},
{
  "ts": "2018-02-05T19:44:02.679804",
  "type": "INFO",
  "values": "Write log to /cw/dtailocal/mercs_python/out/217/scm1d/logs/mercspython_Log_F05.running.log"
},
{
  "ts": "2018-02-05T20:14:42.890391",
  "type": "INFO",
  "values": "Process ended (returncode 0)"
},
{
  "ts": "2018-02-05T20:14:42.890459",
  "type": "INFO",
  "values": "Finished: Run process 1840.244 seconds"
},
{
  "ts": "2018-02-05T20:14:42.890516",
  "type": "WARNING",
  "values": {
    "Exit": "finished",
    "Returncode": 0,
    "Time": 1840.2441091537476
  }
},
{
  "ts": "2018-02-05T20:14:42.890772",
  "type": "INFO",
  "values": "Closing /cw/dtailocal/mercs_python/out/217/scm1d/logs/mercspython_Log_F05.running.log"
}
]
