[
{
  "ts": "2018-02-07T13:11:41.664664",
  "type": "SETTINGS",
  "values": {
    "date": "2018/02/07 14:11:41",
    "date_iso": "2018-02-07T14:11:41.663816",
    "params": null,
    "system": {
      "nodename": "gibson",
      "machine": "x86_64",
      "platform": "Linux-4.4.0-112-generic-x86_64-with-debian-stretch-sid",
      "processor": "x86_64",
      "version": "#135-Ubuntu SMP Fri Jan 19 11:48:36 UTC 2018",
      "system": "Linux",
      "cpu_count": 8,
      "cpu_times": {
        "user": 403556.04,
        "system": 23635.27,
        "idle": 8633961.86,
        "nice": 906.12
      },
      "cpu_percent": 100.0,
      "virtual_memory": {
        "total": 33618501632,
        "available": 23315644416,
        "percent": 30.6,
        "used": 9392910336,
        "free": 8881582080
      }
    },
    "process": {
      "username": "evgeniya",
      "cwd": "/cw/dtailocal/mercs_python/src/core",
      "create_time": 1518009097.14,
      "cpu_times": {
        "user": 0.63,
        "system": 0.04
      }
    },
    "logfile": "/cw/dtailocal/mercs_python/out/833/slump/logs/mercspython_Log_F01",
    "command": "python /cw/dtailocal/mercs_python/bin/mercspython.py /cw/dtailocal/mercs_python/out/833/slump/settings/mercspython_Settings_F01.s"
  }
},
{
  "ts": "2018-02-07T13:11:41.664816",
  "type": "INFO",
  "values": {
    "cmd": "python /cw/dtailocal/mercs_python/bin/mercspython.py /cw/dtailocal/mercs_python/out/833/slump/settings/mercspython_Settings_F01.s",
    "cwd": null
  }
},
{
  "ts": "2018-02-07T13:11:41.689379",
  "type": "INFO",
  "values": "Start: Run process"
},
{
  "ts": "2018-02-07T13:11:41.727812",
  "type": "INFO",
  "values": "Write log to /cw/dtailocal/mercs_python/out/833/slump/logs/mercspython_Log_F01.running.log"
},
{
  "ts": "2018-02-07T13:11:44.536990",
  "type": "INFO",
  "values": "Process ended (returncode 0)"
},
{
  "ts": "2018-02-07T13:11:44.537069",
  "type": "INFO",
  "values": "Finished: Run process 2.848 seconds"
},
{
  "ts": "2018-02-07T13:11:44.537153",
  "type": "WARNING",
  "values": {
    "Exit": "finished",
    "Returncode": 0,
    "Time": 2.8477160930633545
  }
},
{
  "ts": "2018-02-07T13:11:44.559815",
  "type": "INFO",
  "values": "Closing /cw/dtailocal/mercs_python/out/833/slump/logs/mercspython_Log_F01.running.log"
}
]
