[
{
  "ts": "2018-02-06T09:55:58.250610",
  "type": "SETTINGS",
  "values": {
    "date": "2018/02/06 10:55:58",
    "date_iso": "2018-02-06T10:55:58.249810",
    "params": null,
    "system": {
      "nodename": "gibson",
      "machine": "x86_64",
      "platform": "Linux-4.4.0-112-generic-x86_64-with-debian-stretch-sid",
      "processor": "x86_64",
      "version": "#135-Ubuntu SMP Fri Jan 19 11:48:36 UTC 2018",
      "system": "Linux",
      "cpu_count": 8,
      "cpu_times": {
        "user": 313063.4,
        "system": 20374.26,
        "idle": 7945051.41,
        "nice": 819.07
      },
      "cpu_percent": 63.1,
      "virtual_memory": {
        "total": 33618501632,
        "available": 25196199936,
        "percent": 25.1,
        "used": 7398363136,
        "free": 14526488576
      }
    },
    "process": {
      "username": "evgeniya",
      "cwd": "/cw/dtailocal/mercs_python/src/core",
      "create_time": 1517910853.43,
      "cpu_times": {
        "user": 2.18,
        "system": 0.59
      }
    },
    "logfile": "/cw/dtailocal/mercs_python/out/528/oes97/logs/mercspython_Log_F09",
    "command": "python /cw/dtailocal/mercs_python/bin/mercspython.py /cw/dtailocal/mercs_python/out/528/oes97/settings/mercspython_Settings_F09.s"
  }
},
{
  "ts": "2018-02-06T09:55:58.250750",
  "type": "INFO",
  "values": {
    "cmd": "python /cw/dtailocal/mercs_python/bin/mercspython.py /cw/dtailocal/mercs_python/out/528/oes97/settings/mercspython_Settings_F09.s",
    "cwd": null
  }
},
{
  "ts": "2018-02-06T09:55:58.257298",
  "type": "INFO",
  "values": "Start: Run process"
},
{
  "ts": "2018-02-06T09:55:58.263380",
  "type": "INFO",
  "values": "Write log to /cw/dtailocal/mercs_python/out/528/oes97/logs/mercspython_Log_F09.running.log"
},
{
  "ts": "2018-02-06T09:56:10.688803",
  "type": "INFO",
  "values": "Process ended (returncode 0)"
},
{
  "ts": "2018-02-06T09:56:10.688865",
  "type": "INFO",
  "values": "Finished: Run process 12.432 seconds"
},
{
  "ts": "2018-02-06T09:56:10.688919",
  "type": "WARNING",
  "values": {
    "Exit": "finished",
    "Returncode": 0,
    "Time": 12.43163251876831
  }
},
{
  "ts": "2018-02-06T09:56:10.689179",
  "type": "INFO",
  "values": "Closing /cw/dtailocal/mercs_python/out/528/oes97/logs/mercspython_Log_F09.running.log"
}
]
