[
{
  "ts": "2018-02-06T09:54:15.198538",
  "type": "SETTINGS",
  "values": {
    "date": "2018/02/06 10:54:15",
    "date_iso": "2018-02-06T10:54:15.196876",
    "params": null,
    "system": {
      "nodename": "gibson",
      "machine": "x86_64",
      "platform": "Linux-4.4.0-112-generic-x86_64-with-debian-stretch-sid",
      "processor": "x86_64",
      "version": "#135-Ubuntu SMP Fri Jan 19 11:48:36 UTC 2018",
      "system": "Linux",
      "cpu_count": 8,
      "cpu_times": {
        "user": 312559.67,
        "system": 20360.6,
        "idle": 7944752.36,
        "nice": 819.07
      },
      "cpu_percent": 64.4,
      "virtual_memory": {
        "total": 33618501632,
        "available": 26506678272,
        "percent": 21.2,
        "used": 6026625024,
        "free": 15887650816
      }
    },
    "process": {
      "username": "evgeniya",
      "cwd": "/cw/dtailocal/mercs_python/src/core",
      "create_time": 1517910853.43,
      "cpu_times": {
        "user": 1.32,
        "system": 0.07
      }
    },
    "logfile": "/cw/dtailocal/mercs_python/out/528/oes97/logs/mercspython_Log_F00",
    "command": "python /cw/dtailocal/mercs_python/bin/mercspython.py /cw/dtailocal/mercs_python/out/528/oes97/settings/mercspython_Settings_F00.s"
  }
},
{
  "ts": "2018-02-06T09:54:15.198635",
  "type": "INFO",
  "values": {
    "cmd": "python /cw/dtailocal/mercs_python/bin/mercspython.py /cw/dtailocal/mercs_python/out/528/oes97/settings/mercspython_Settings_F00.s",
    "cwd": null
  }
},
{
  "ts": "2018-02-06T09:54:15.202836",
  "type": "INFO",
  "values": "Start: Run process"
},
{
  "ts": "2018-02-06T09:54:15.208748",
  "type": "INFO",
  "values": "Write log to /cw/dtailocal/mercs_python/out/528/oes97/logs/mercspython_Log_F00.running.log"
},
{
  "ts": "2018-02-06T09:54:26.227687",
  "type": "INFO",
  "values": "Process ended (returncode 0)"
},
{
  "ts": "2018-02-06T09:54:26.227767",
  "type": "INFO",
  "values": "Finished: Run process 11.025 seconds"
},
{
  "ts": "2018-02-06T09:54:26.227851",
  "type": "WARNING",
  "values": {
    "Exit": "finished",
    "Returncode": 0,
    "Time": 11.024961948394775
  }
},
{
  "ts": "2018-02-06T09:54:26.228335",
  "type": "INFO",
  "values": "Closing /cw/dtailocal/mercs_python/out/528/oes97/logs/mercspython_Log_F00.running.log"
}
]
