[
{
  "ts": "2018-02-05T17:26:13.217101",
  "type": "SETTINGS",
  "values": {
    "date": "2018/02/05 18:26:13",
    "date_iso": "2018-02-05T18:26:13.216320",
    "params": null,
    "system": {
      "nodename": "gibson",
      "machine": "x86_64",
      "platform": "Linux-4.4.0-112-generic-x86_64-with-debian-stretch-sid",
      "processor": "x86_64",
      "version": "#135-Ubuntu SMP Fri Jan 19 11:48:36 UTC 2018",
      "system": "Linux",
      "cpu_count": 8,
      "cpu_times": {
        "user": 148245.9,
        "system": 18746.07,
        "idle": 7637479.45,
        "nice": 753.62
      },
      "cpu_percent": 75.9,
      "virtual_memory": {
        "total": 33618501632,
        "available": 26707931136,
        "percent": 20.6,
        "used": 5917872128,
        "free": 9380003840
      }
    },
    "process": {
      "username": "evgeniya",
      "cwd": "/cw/dtailocal/mercs_python/src/core",
      "create_time": 1517851489.89,
      "cpu_times": {
        "user": 1.86,
        "system": 0.38
      }
    },
    "logfile": "/cw/dtailocal/mercs_python/out/346/oes10/logs/mercspython_Log_F06",
    "command": "python /cw/dtailocal/mercs_python/bin/mercspython.py /cw/dtailocal/mercs_python/out/346/oes10/settings/mercspython_Settings_F06.s"
  }
},
{
  "ts": "2018-02-05T17:26:13.217238",
  "type": "INFO",
  "values": {
    "cmd": "python /cw/dtailocal/mercs_python/bin/mercspython.py /cw/dtailocal/mercs_python/out/346/oes10/settings/mercspython_Settings_F06.s",
    "cwd": null
  }
},
{
  "ts": "2018-02-05T17:26:13.221419",
  "type": "INFO",
  "values": "Start: Run process"
},
{
  "ts": "2018-02-05T17:26:13.221935",
  "type": "INFO",
  "values": "Write log to /cw/dtailocal/mercs_python/out/346/oes10/logs/mercspython_Log_F06.running.log"
},
{
  "ts": "2018-02-05T17:26:27.043692",
  "type": "INFO",
  "values": "Process ended (returncode 0)"
},
{
  "ts": "2018-02-05T17:26:27.043760",
  "type": "INFO",
  "values": "Finished: Run process 13.822 seconds"
},
{
  "ts": "2018-02-05T17:26:27.043817",
  "type": "WARNING",
  "values": {
    "Exit": "finished",
    "Returncode": 0,
    "Time": 13.822376012802124
  }
},
{
  "ts": "2018-02-05T17:26:27.044058",
  "type": "INFO",
  "values": "Closing /cw/dtailocal/mercs_python/out/346/oes10/logs/mercspython_Log_F06.running.log"
}
]
