[
{
  "ts": "2018-02-05T17:03:33.081293",
  "type": "SETTINGS",
  "values": {
    "date": "2018/02/05 18:03:33",
    "date_iso": "2018-02-05T18:03:33.080383",
    "params": null,
    "system": {
      "nodename": "gibson",
      "machine": "x86_64",
      "platform": "Linux-4.4.0-112-generic-x86_64-with-debian-stretch-sid",
      "processor": "x86_64",
      "version": "#135-Ubuntu SMP Fri Jan 19 11:48:36 UTC 2018",
      "system": "Linux",
      "cpu_count": 8,
      "cpu_times": {
        "user": 137746.94,
        "system": 18623.08,
        "idle": 7637234.58,
        "nice": 751.58
      },
      "cpu_percent": 100.0,
      "virtual_memory": {
        "total": 33618501632,
        "available": 23450771456,
        "percent": 30.2,
        "used": 9226514432,
        "free": 6256754688
      }
    },
    "process": {
      "username": "evgeniya",
      "cwd": "/cw/dtailocal/mercs_python/src/core",
      "create_time": 1517850078.03,
      "cpu_times": {
        "user": 2.09,
        "system": 0.16
      }
    },
    "logfile": "/cw/dtailocal/mercs_python/out/323/oes97/logs/mercspython_Log_F04",
    "command": "python /cw/dtailocal/mercs_python/bin/mercspython.py /cw/dtailocal/mercs_python/out/323/oes97/settings/mercspython_Settings_F04.s"
  }
},
{
  "ts": "2018-02-05T17:03:33.081471",
  "type": "INFO",
  "values": {
    "cmd": "python /cw/dtailocal/mercs_python/bin/mercspython.py /cw/dtailocal/mercs_python/out/323/oes97/settings/mercspython_Settings_F04.s",
    "cwd": null
  }
},
{
  "ts": "2018-02-05T17:03:33.093483",
  "type": "INFO",
  "values": "Start: Run process"
},
{
  "ts": "2018-02-05T17:03:33.115778",
  "type": "INFO",
  "values": "Write log to /cw/dtailocal/mercs_python/out/323/oes97/logs/mercspython_Log_F04.running.log"
},
{
  "ts": "2018-02-05T17:04:05.554604",
  "type": "INFO",
  "values": "Process ended (returncode 0)"
},
{
  "ts": "2018-02-05T17:04:05.554688",
  "type": "INFO",
  "values": "Finished: Run process 32.461 seconds"
},
{
  "ts": "2018-02-05T17:04:05.554767",
  "type": "WARNING",
  "values": {
    "Exit": "finished",
    "Returncode": 0,
    "Time": 32.46123027801514
  }
}
]
