[
{
  "ts": "2018-02-05T14:55:12.157120",
  "type": "SETTINGS",
  "values": {
    "date": "2018/02/05 15:55:12",
    "date_iso": "2018-02-05T15:55:12.156238",
    "params": null,
    "system": {
      "nodename": "gibson",
      "machine": "x86_64",
      "platform": "Linux-4.4.0-112-generic-x86_64-with-debian-stretch-sid",
      "processor": "x86_64",
      "version": "#135-Ubuntu SMP Fri Jan 19 11:48:36 UTC 2018",
      "system": "Linux",
      "cpu_count": 8,
      "cpu_times": {
        "user": 83487.82,
        "system": 18056.06,
        "idle": 7630552.86,
        "nice": 732.25
      },
      "cpu_percent": 99.7,
      "virtual_memory": {
        "total": 33618501632,
        "available": 24746176512,
        "percent": 26.4,
        "used": 7795359744,
        "free": 9278685184
      }
    },
    "process": {
      "username": "evgeniya",
      "cwd": "/cw/dtailocal/mercs_python/src/core",
      "create_time": 1517842501.54,
      "cpu_times": {
        "user": 0.76,
        "system": 0.09
      }
    },
    "logfile": "/cw/dtailocal/mercs_python/out/335/andro/logs/mercspython_Log_F03",
    "command": "python /cw/dtailocal/mercs_python/bin/mercspython.py /cw/dtailocal/mercs_python/out/335/andro/settings/mercspython_Settings_F03.s"
  }
},
{
  "ts": "2018-02-05T14:55:12.157286",
  "type": "INFO",
  "values": {
    "cmd": "python /cw/dtailocal/mercs_python/bin/mercspython.py /cw/dtailocal/mercs_python/out/335/andro/settings/mercspython_Settings_F03.s",
    "cwd": null
  }
},
{
  "ts": "2018-02-05T14:55:12.181258",
  "type": "INFO",
  "values": "Start: Run process"
},
{
  "ts": "2018-02-05T14:55:12.204524",
  "type": "INFO",
  "values": "Write log to /cw/dtailocal/mercs_python/out/335/andro/logs/mercspython_Log_F03.running.log"
},
{
  "ts": "2018-02-05T14:55:15.223739",
  "type": "INFO",
  "values": "Process ended (returncode 0)"
},
{
  "ts": "2018-02-05T14:55:15.223818",
  "type": "INFO",
  "values": "Finished: Run process 3.043 seconds"
},
{
  "ts": "2018-02-05T14:55:15.229415",
  "type": "WARNING",
  "values": {
    "Exit": "finished",
    "Returncode": 0,
    "Time": 3.0425891876220703
  }
},
{
  "ts": "2018-02-05T14:55:15.235805",
  "type": "INFO",
  "values": "Closing /cw/dtailocal/mercs_python/out/335/andro/logs/mercspython_Log_F03.running.log"
}
]
