[
{
  "ts": "2018-02-07T13:06:23.269414",
  "type": "SETTINGS",
  "values": {
    "date": "2018/02/07 14:06:23",
    "date_iso": "2018-02-07T14:06:23.250300",
    "params": null,
    "system": {
      "nodename": "gibson",
      "machine": "x86_64",
      "platform": "Linux-4.4.0-112-generic-x86_64-with-debian-stretch-sid",
      "processor": "x86_64",
      "version": "#135-Ubuntu SMP Fri Jan 19 11:48:36 UTC 2018",
      "system": "Linux",
      "cpu_count": 8,
      "cpu_times": {
        "user": 401075.81,
        "system": 23570.85,
        "idle": 8633961.18,
        "nice": 906.12
      },
      "cpu_percent": 100.0,
      "virtual_memory": {
        "total": 33618501632,
        "available": 25107771392,
        "percent": 25.3,
        "used": 7566471168,
        "free": 10768363520
      }
    },
    "process": {
      "username": "evgeniya",
      "cwd": "/cw/dtailocal/mercs_python/src/core",
      "create_time": 1518008781.65,
      "cpu_times": {
        "user": 0.53,
        "system": 0.08
      }
    },
    "logfile": "/cw/dtailocal/mercs_python/out/827/wq/logs/mercspython_Log_F00",
    "command": "python /cw/dtailocal/mercs_python/bin/mercspython.py /cw/dtailocal/mercs_python/out/827/wq/settings/mercspython_Settings_F00.s"
  }
},
{
  "ts": "2018-02-07T13:06:23.269572",
  "type": "INFO",
  "values": {
    "cmd": "python /cw/dtailocal/mercs_python/bin/mercspython.py /cw/dtailocal/mercs_python/out/827/wq/settings/mercspython_Settings_F00.s",
    "cwd": null
  }
},
{
  "ts": "2018-02-07T13:06:23.297289",
  "type": "INFO",
  "values": "Start: Run process"
},
{
  "ts": "2018-02-07T13:06:23.319839",
  "type": "INFO",
  "values": "Write log to /cw/dtailocal/mercs_python/out/827/wq/logs/mercspython_Log_F00.running.log"
},
{
  "ts": "2018-02-07T13:06:28.739120",
  "type": "INFO",
  "values": "Process ended (returncode 0)"
},
{
  "ts": "2018-02-07T13:06:28.739205",
  "type": "INFO",
  "values": "Finished: Run process 5.442 seconds"
},
{
  "ts": "2018-02-07T13:06:28.739287",
  "type": "WARNING",
  "values": {
    "Exit": "finished",
    "Returncode": 0,
    "Time": 5.441956281661987
  }
},
{
  "ts": "2018-02-07T13:06:28.743809",
  "type": "INFO",
  "values": "Closing /cw/dtailocal/mercs_python/out/827/wq/logs/mercspython_Log_F00.running.log"
}
]
