[
{
  "ts": "2018-02-07T13:06:59.693115",
  "type": "SETTINGS",
  "values": {
    "date": "2018/02/07 14:06:59",
    "date_iso": "2018-02-07T14:06:59.692243",
    "params": null,
    "system": {
      "nodename": "gibson",
      "machine": "x86_64",
      "platform": "Linux-4.4.0-112-generic-x86_64-with-debian-stretch-sid",
      "processor": "x86_64",
      "version": "#135-Ubuntu SMP Fri Jan 19 11:48:36 UTC 2018",
      "system": "Linux",
      "cpu_count": 8,
      "cpu_times": {
        "user": 401358.92,
        "system": 23578.7,
        "idle": 8633961.32,
        "nice": 906.12
      },
      "cpu_percent": 100.0,
      "virtual_memory": {
        "total": 33618501632,
        "available": 24673976320,
        "percent": 26.6,
        "used": 8000258048,
        "free": 10323963904
      }
    },
    "process": {
      "username": "evgeniya",
      "cwd": "/cw/dtailocal/mercs_python/src/core",
      "create_time": 1518008781.65,
      "cpu_times": {
        "user": 1.19,
        "system": 0.22
      }
    },
    "logfile": "/cw/dtailocal/mercs_python/out/827/wq/logs/mercspython_Log_F07",
    "command": "python /cw/dtailocal/mercs_python/bin/mercspython.py /cw/dtailocal/mercs_python/out/827/wq/settings/mercspython_Settings_F07.s"
  }
},
{
  "ts": "2018-02-07T13:06:59.693269",
  "type": "INFO",
  "values": {
    "cmd": "python /cw/dtailocal/mercs_python/bin/mercspython.py /cw/dtailocal/mercs_python/out/827/wq/settings/mercspython_Settings_F07.s",
    "cwd": null
  }
},
{
  "ts": "2018-02-07T13:06:59.698096",
  "type": "INFO",
  "values": "Start: Run process"
},
{
  "ts": "2018-02-07T13:06:59.709713",
  "type": "INFO",
  "values": "Write log to /cw/dtailocal/mercs_python/out/827/wq/logs/mercspython_Log_F07.running.log"
},
{
  "ts": "2018-02-07T13:07:05.516685",
  "type": "INFO",
  "values": "Process ended (returncode 0)"
},
{
  "ts": "2018-02-07T13:07:05.516769",
  "type": "INFO",
  "values": "Finished: Run process 5.819 seconds"
},
{
  "ts": "2018-02-07T13:07:05.516871",
  "type": "WARNING",
  "values": {
    "Exit": "finished",
    "Returncode": 0,
    "Time": 5.818692207336426
  }
}
]
