[
{
  "ts": "2018-02-05T15:46:51.435130",
  "type": "SETTINGS",
  "values": {
    "date": "2018/02/05 16:46:51",
    "date_iso": "2018-02-05T16:46:51.434446",
    "params": null,
    "system": {
      "nodename": "gibson",
      "machine": "x86_64",
      "platform": "Linux-4.4.0-112-generic-x86_64-with-debian-stretch-sid",
      "processor": "x86_64",
      "version": "#135-Ubuntu SMP Fri Jan 19 11:48:36 UTC 2018",
      "system": "Linux",
      "cpu_count": 8,
      "cpu_times": {
        "user": 101329.3,
        "system": 18256.69,
        "idle": 7637228.23,
        "nice": 749.46
      },
      "cpu_percent": 100.0,
      "virtual_memory": {
        "total": 33618501632,
        "available": 23560876032,
        "percent": 29.9,
        "used": 9120448512,
        "free": 7333175296
      }
    },
    "process": {
      "username": "evgeniya",
      "cwd": "/cw/dtailocal/mercs_python/src/core",
      "create_time": 1517845593.66,
      "cpu_times": {
        "user": 0.96,
        "system": 0.15
      }
    },
    "logfile": "/cw/dtailocal/mercs_python/out/253/jura/logs/mercspython_Log_F05",
    "command": "python /cw/dtailocal/mercs_python/bin/mercspython.py /cw/dtailocal/mercs_python/out/253/jura/settings/mercspython_Settings_F05.s"
  }
},
{
  "ts": "2018-02-05T15:46:51.435246",
  "type": "INFO",
  "values": {
    "cmd": "python /cw/dtailocal/mercs_python/bin/mercspython.py /cw/dtailocal/mercs_python/out/253/jura/settings/mercspython_Settings_F05.s",
    "cwd": null
  }
},
{
  "ts": "2018-02-05T15:46:51.440976",
  "type": "INFO",
  "values": "Start: Run process"
},
{
  "ts": "2018-02-05T15:46:51.447982",
  "type": "INFO",
  "values": "Write log to /cw/dtailocal/mercs_python/out/253/jura/logs/mercspython_Log_F05.running.log"
},
{
  "ts": "2018-02-05T15:46:54.262642",
  "type": "INFO",
  "values": "Process ended (returncode 0)"
},
{
  "ts": "2018-02-05T15:46:54.262730",
  "type": "INFO",
  "values": "Finished: Run process 2.822 seconds"
},
{
  "ts": "2018-02-05T15:46:54.262824",
  "type": "WARNING",
  "values": {
    "Exit": "finished",
    "Returncode": 0,
    "Time": 2.821770668029785
  }
}
]
