[
{
  "ts": "2018-02-06T11:51:32.554116",
  "type": "SETTINGS",
  "values": {
    "date": "2018/02/06 12:51:32",
    "date_iso": "2018-02-06T12:51:32.553536",
    "params": null,
    "system": {
      "nodename": "gibson",
      "machine": "x86_64",
      "platform": "Linux-4.4.0-112-generic-x86_64-with-debian-stretch-sid",
      "processor": "x86_64",
      "version": "#135-Ubuntu SMP Fri Jan 19 11:48:36 UTC 2018",
      "system": "Linux",
      "cpu_count": 8,
      "cpu_times": {
        "user": 339418.03,
        "system": 20803.92,
        "idle": 7973530.56,
        "nice": 821.4
      },
      "cpu_percent": 26.0,
      "virtual_memory": {
        "total": 33618501632,
        "available": 25219588096,
        "percent": 25.0,
        "used": 7426789376,
        "free": 13163708416
      }
    },
    "process": {
      "username": "evgeniya",
      "cwd": "/cw/dtailocal/mercs_python/src/core",
      "create_time": 1517911544.73,
      "cpu_times": {
        "user": 4.08,
        "system": 0.98
      }
    },
    "logfile": "/cw/dtailocal/mercs_python/out/551/scm1d/logs/mercspython_Log_F09",
    "command": "python /cw/dtailocal/mercs_python/bin/mercspython.py /cw/dtailocal/mercs_python/out/551/scm1d/settings/mercspython_Settings_F09.s"
  }
},
{
  "ts": "2018-02-06T11:51:32.554301",
  "type": "INFO",
  "values": {
    "cmd": "python /cw/dtailocal/mercs_python/bin/mercspython.py /cw/dtailocal/mercs_python/out/551/scm1d/settings/mercspython_Settings_F09.s",
    "cwd": null
  }
},
{
  "ts": "2018-02-06T11:51:32.557884",
  "type": "INFO",
  "values": "Start: Run process"
},
{
  "ts": "2018-02-06T11:51:32.558399",
  "type": "INFO",
  "values": "Write log to /cw/dtailocal/mercs_python/out/551/scm1d/logs/mercspython_Log_F09.running.log"
},
{
  "ts": "2018-02-06T12:02:55.117131",
  "type": "INFO",
  "values": "Process ended (returncode 0)"
},
{
  "ts": "2018-02-06T12:02:55.117207",
  "type": "INFO",
  "values": "Finished: Run process 682.559 seconds"
},
{
  "ts": "2018-02-06T12:02:55.117267",
  "type": "WARNING",
  "values": {
    "Exit": "finished",
    "Returncode": 0,
    "Time": 682.5593709945679
  }
},
{
  "ts": "2018-02-06T12:02:55.117544",
  "type": "INFO",
  "values": "Closing /cw/dtailocal/mercs_python/out/551/scm1d/logs/mercspython_Log_F09.running.log"
}
]
