[
{
  "ts": "2018-02-05T17:12:47.249187",
  "type": "SETTINGS",
  "values": {
    "date": "2018/02/05 18:12:47",
    "date_iso": "2018-02-05T18:12:47.248346",
    "params": null,
    "system": {
      "nodename": "gibson",
      "machine": "x86_64",
      "platform": "Linux-4.4.0-112-generic-x86_64-with-debian-stretch-sid",
      "processor": "x86_64",
      "version": "#135-Ubuntu SMP Fri Jan 19 11:48:36 UTC 2018",
      "system": "Linux",
      "cpu_count": 8,
      "cpu_times": {
        "user": 142128.99,
        "system": 18671.09,
        "idle": 7637234.67,
        "nice": 751.58
      },
      "cpu_percent": 100.0,
      "virtual_memory": {
        "total": 33618501632,
        "available": 22822338560,
        "percent": 32.1,
        "used": 9815945216,
        "free": 5563510784
      }
    },
    "process": {
      "username": "evgeniya",
      "cwd": "/cw/dtailocal/mercs_python/src/core",
      "create_time": 1517850644.25,
      "cpu_times": {
        "user": 1.39,
        "system": 0.19
      }
    },
    "logfile": "/cw/dtailocal/mercs_python/out/290/wq/logs/mercspython_Log_F09",
    "command": "python /cw/dtailocal/mercs_python/bin/mercspython.py /cw/dtailocal/mercs_python/out/290/wq/settings/mercspython_Settings_F09.s"
  }
},
{
  "ts": "2018-02-05T17:12:47.249340",
  "type": "INFO",
  "values": {
    "cmd": "python /cw/dtailocal/mercs_python/bin/mercspython.py /cw/dtailocal/mercs_python/out/290/wq/settings/mercspython_Settings_F09.s",
    "cwd": null
  }
},
{
  "ts": "2018-02-05T17:12:47.269447",
  "type": "INFO",
  "values": "Start: Run process"
},
{
  "ts": "2018-02-05T17:12:47.319654",
  "type": "INFO",
  "values": "Write log to /cw/dtailocal/mercs_python/out/290/wq/logs/mercspython_Log_F09.running.log"
},
{
  "ts": "2018-02-05T17:13:00.748112",
  "type": "INFO",
  "values": "Process ended (returncode 0)"
},
{
  "ts": "2018-02-05T17:13:00.748191",
  "type": "INFO",
  "values": "Finished: Run process 13.479 seconds"
},
{
  "ts": "2018-02-05T17:13:00.748276",
  "type": "WARNING",
  "values": {
    "Exit": "finished",
    "Returncode": 0,
    "Time": 13.478766679763794
  }
},
{
  "ts": "2018-02-05T17:13:00.755417",
  "type": "INFO",
  "values": "Closing /cw/dtailocal/mercs_python/out/290/wq/logs/mercspython_Log_F09.running.log"
}
]
