[
{
  "ts": "2018-02-06T12:26:24.366776",
  "type": "SETTINGS",
  "values": {
    "date": "2018/02/06 13:26:24",
    "date_iso": "2018-02-06T13:26:24.365757",
    "params": null,
    "system": {
      "nodename": "gibson",
      "machine": "x86_64",
      "platform": "Linux-4.4.0-112-generic-x86_64-with-debian-stretch-sid",
      "processor": "x86_64",
      "version": "#135-Ubuntu SMP Fri Jan 19 11:48:36 UTC 2018",
      "system": "Linux",
      "cpu_count": 8,
      "cpu_times": {
        "user": 349989.49,
        "system": 21009.67,
        "idle": 7979424.97,
        "nice": 822.94
      },
      "cpu_percent": 79.0,
      "virtual_memory": {
        "total": 33618501632,
        "available": 23263649792,
        "percent": 30.8,
        "used": 9290440704,
        "free": 10847768576
      }
    },
    "process": {
      "username": "evgeniya",
      "cwd": "/cw/dtailocal/mercs_python/src/core",
      "create_time": 1517919486.55,
      "cpu_times": {
        "user": 1.5,
        "system": 0.53
      }
    },
    "logfile": "/cw/dtailocal/mercs_python/out/629/rf1/logs/mercspython_Log_F08",
    "command": "python /cw/dtailocal/mercs_python/bin/mercspython.py /cw/dtailocal/mercs_python/out/629/rf1/settings/mercspython_Settings_F08.s"
  }
},
{
  "ts": "2018-02-06T12:26:24.366934",
  "type": "INFO",
  "values": {
    "cmd": "python /cw/dtailocal/mercs_python/bin/mercspython.py /cw/dtailocal/mercs_python/out/629/rf1/settings/mercspython_Settings_F08.s",
    "cwd": null
  }
},
{
  "ts": "2018-02-06T12:26:24.371301",
  "type": "INFO",
  "values": "Start: Run process"
},
{
  "ts": "2018-02-06T12:26:24.371934",
  "type": "INFO",
  "values": "Write log to /cw/dtailocal/mercs_python/out/629/rf1/logs/mercspython_Log_F08.running.log"
},
{
  "ts": "2018-02-06T12:27:21.041316",
  "type": "INFO",
  "values": "Process ended (returncode 0)"
},
{
  "ts": "2018-02-06T12:27:21.041398",
  "type": "INFO",
  "values": "Finished: Run process 56.670 seconds"
},
{
  "ts": "2018-02-06T12:27:21.041477",
  "type": "WARNING",
  "values": {
    "Exit": "finished",
    "Returncode": 0,
    "Time": 56.670119524002075
  }
},
{
  "ts": "2018-02-06T12:27:21.041811",
  "type": "INFO",
  "values": "Closing /cw/dtailocal/mercs_python/out/629/rf1/logs/mercspython_Log_F08.running.log"
}
]
