[
{
  "ts": "2018-02-06T12:21:17.308617",
  "type": "SETTINGS",
  "values": {
    "date": "2018/02/06 13:21:17",
    "date_iso": "2018-02-06T13:21:17.307787",
    "params": null,
    "system": {
      "nodename": "gibson",
      "machine": "x86_64",
      "platform": "Linux-4.4.0-112-generic-x86_64-with-debian-stretch-sid",
      "processor": "x86_64",
      "version": "#135-Ubuntu SMP Fri Jan 19 11:48:36 UTC 2018",
      "system": "Linux",
      "cpu_count": 8,
      "cpu_times": {
        "user": 347987.88,
        "system": 20979.02,
        "idle": 7979009.13,
        "nice": 821.4
      },
      "cpu_percent": 86.4,
      "virtual_memory": {
        "total": 33618501632,
        "available": 23350710272,
        "percent": 30.5,
        "used": 9192665088,
        "free": 10992992256
      }
    },
    "process": {
      "username": "evgeniya",
      "cwd": "/cw/dtailocal/mercs_python/src/core",
      "create_time": 1517919486.55,
      "cpu_times": {
        "user": 1.04,
        "system": 0.25
      }
    },
    "logfile": "/cw/dtailocal/mercs_python/out/629/rf1/logs/mercspython_Log_F03",
    "command": "python /cw/dtailocal/mercs_python/bin/mercspython.py /cw/dtailocal/mercs_python/out/629/rf1/settings/mercspython_Settings_F03.s"
  }
},
{
  "ts": "2018-02-06T12:21:17.308774",
  "type": "INFO",
  "values": {
    "cmd": "python /cw/dtailocal/mercs_python/bin/mercspython.py /cw/dtailocal/mercs_python/out/629/rf1/settings/mercspython_Settings_F03.s",
    "cwd": null
  }
},
{
  "ts": "2018-02-06T12:21:17.312622",
  "type": "INFO",
  "values": "Start: Run process"
},
{
  "ts": "2018-02-06T12:21:17.315386",
  "type": "INFO",
  "values": "Write log to /cw/dtailocal/mercs_python/out/629/rf1/logs/mercspython_Log_F03.running.log"
},
{
  "ts": "2018-02-06T12:22:21.397179",
  "type": "INFO",
  "values": "Process ended (returncode 0)"
},
{
  "ts": "2018-02-06T12:22:21.397259",
  "type": "INFO",
  "values": "Finished: Run process 64.085 seconds"
},
{
  "ts": "2018-02-06T12:22:21.397505",
  "type": "WARNING",
  "values": {
    "Exit": "finished",
    "Returncode": 0,
    "Time": 64.08466100692749
  }
}
]
