[
{
  "ts": "2018-02-06T09:54:18.047242",
  "type": "SETTINGS",
  "values": {
    "date": "2018/02/06 10:54:18",
    "date_iso": "2018-02-06T10:54:18.046646",
    "params": null,
    "system": {
      "nodename": "gibson",
      "machine": "x86_64",
      "platform": "Linux-4.4.0-112-generic-x86_64-with-debian-stretch-sid",
      "processor": "x86_64",
      "version": "#135-Ubuntu SMP Fri Jan 19 11:48:36 UTC 2018",
      "system": "Linux",
      "cpu_count": 8,
      "cpu_times": {
        "user": 312573.07,
        "system": 20361.32,
        "idle": 7944760.89,
        "nice": 819.07
      },
      "cpu_percent": 60.7,
      "virtual_memory": {
        "total": 33618501632,
        "available": 26591637504,
        "percent": 20.9,
        "used": 5942263808,
        "free": 15969943552
      }
    },
    "process": {
      "username": "evgeniya",
      "cwd": "/cw/dtailocal/mercs_python/src/core",
      "create_time": 1517910748.57,
      "cpu_times": {
        "user": 1.76,
        "system": 0.51
      }
    },
    "logfile": "/cw/dtailocal/mercs_python/out/514/oes97/logs/mercspython_Log_F07",
    "command": "python /cw/dtailocal/mercs_python/bin/mercspython.py /cw/dtailocal/mercs_python/out/514/oes97/settings/mercspython_Settings_F07.s"
  }
},
{
  "ts": "2018-02-06T09:54:18.047338",
  "type": "INFO",
  "values": {
    "cmd": "python /cw/dtailocal/mercs_python/bin/mercspython.py /cw/dtailocal/mercs_python/out/514/oes97/settings/mercspython_Settings_F07.s",
    "cwd": null
  }
},
{
  "ts": "2018-02-06T09:54:18.049743",
  "type": "INFO",
  "values": "Start: Run process"
},
{
  "ts": "2018-02-06T09:54:18.050221",
  "type": "INFO",
  "values": "Write log to /cw/dtailocal/mercs_python/out/514/oes97/logs/mercspython_Log_F07.running.log"
},
{
  "ts": "2018-02-06T09:54:33.669405",
  "type": "INFO",
  "values": "Process ended (returncode 0)"
},
{
  "ts": "2018-02-06T09:54:33.669481",
  "type": "INFO",
  "values": "Finished: Run process 15.620 seconds"
},
{
  "ts": "2018-02-06T09:54:33.669554",
  "type": "WARNING",
  "values": {
    "Exit": "finished",
    "Returncode": 0,
    "Time": 15.619769096374512
  }
},
{
  "ts": "2018-02-06T09:54:33.669862",
  "type": "INFO",
  "values": "Closing /cw/dtailocal/mercs_python/out/514/oes97/logs/mercspython_Log_F07.running.log"
}
]
