[
{
  "ts": "2018-02-05T14:49:29.145248",
  "type": "SETTINGS",
  "values": {
    "date": "2018/02/05 15:49:29",
    "date_iso": "2018-02-05T15:49:29.144301",
    "params": null,
    "system": {
      "nodename": "gibson",
      "machine": "x86_64",
      "platform": "Linux-4.4.0-112-generic-x86_64-with-debian-stretch-sid",
      "processor": "x86_64",
      "version": "#135-Ubuntu SMP Fri Jan 19 11:48:36 UTC 2018",
      "system": "Linux",
      "cpu_count": 8,
      "cpu_times": {
        "user": 80785.04,
        "system": 18022.09,
        "idle": 7630548.62,
        "nice": 732.25
      },
      "cpu_percent": 99.8,
      "virtual_memory": {
        "total": 33618501632,
        "available": 24396529664,
        "percent": 27.4,
        "used": 8144994304,
        "free": 9120964608
      }
    },
    "process": {
      "username": "evgeniya",
      "cwd": "/cw/dtailocal/mercs_python/src/core",
      "create_time": 1517842131.56,
      "cpu_times": {
        "user": 1.17,
        "system": 0.19
      }
    },
    "logfile": "/cw/dtailocal/mercs_python/out/318/wq/logs/mercspython_Log_F05",
    "command": "python /cw/dtailocal/mercs_python/bin/mercspython.py /cw/dtailocal/mercs_python/out/318/wq/settings/mercspython_Settings_F05.s"
  }
},
{
  "ts": "2018-02-05T14:49:29.145411",
  "type": "INFO",
  "values": {
    "cmd": "python /cw/dtailocal/mercs_python/bin/mercspython.py /cw/dtailocal/mercs_python/out/318/wq/settings/mercspython_Settings_F05.s",
    "cwd": null
  }
},
{
  "ts": "2018-02-05T14:49:29.169016",
  "type": "INFO",
  "values": "Start: Run process"
},
{
  "ts": "2018-02-05T14:49:29.194603",
  "type": "INFO",
  "values": "Write log to /cw/dtailocal/mercs_python/out/318/wq/logs/mercspython_Log_F05.running.log"
},
{
  "ts": "2018-02-05T14:49:36.205587",
  "type": "INFO",
  "values": "Process ended (returncode 0)"
},
{
  "ts": "2018-02-05T14:49:36.205672",
  "type": "INFO",
  "values": "Finished: Run process 7.037 seconds"
},
{
  "ts": "2018-02-05T14:49:36.205767",
  "type": "WARNING",
  "values": {
    "Exit": "finished",
    "Returncode": 0,
    "Time": 7.036694765090942
  }
},
{
  "ts": "2018-02-05T14:49:36.220088",
  "type": "INFO",
  "values": "Closing /cw/dtailocal/mercs_python/out/318/wq/logs/mercspython_Log_F05.running.log"
}
]
