[
{
  "ts": "2018-02-05T14:49:50.983785",
  "type": "SETTINGS",
  "values": {
    "date": "2018/02/05 15:49:50",
    "date_iso": "2018-02-05T15:49:50.982848",
    "params": null,
    "system": {
      "nodename": "gibson",
      "machine": "x86_64",
      "platform": "Linux-4.4.0-112-generic-x86_64-with-debian-stretch-sid",
      "processor": "x86_64",
      "version": "#135-Ubuntu SMP Fri Jan 19 11:48:36 UTC 2018",
      "system": "Linux",
      "cpu_count": 8,
      "cpu_times": {
        "user": 80953.35,
        "system": 18025.98,
        "idle": 7630550.63,
        "nice": 732.25
      },
      "cpu_percent": 100.0,
      "virtual_memory": {
        "total": 33618501632,
        "available": 25333989376,
        "percent": 24.6,
        "used": 7216922624,
        "free": 10035806208
      }
    },
    "process": {
      "username": "evgeniya",
      "cwd": "/cw/dtailocal/mercs_python/src/core",
      "create_time": 1517842131.56,
      "cpu_times": {
        "user": 1.55,
        "system": 0.25
      }
    },
    "logfile": "/cw/dtailocal/mercs_python/out/318/wq/logs/mercspython_Log_F08",
    "command": "python /cw/dtailocal/mercs_python/bin/mercspython.py /cw/dtailocal/mercs_python/out/318/wq/settings/mercspython_Settings_F08.s"
  }
},
{
  "ts": "2018-02-05T14:49:50.983965",
  "type": "INFO",
  "values": {
    "cmd": "python /cw/dtailocal/mercs_python/bin/mercspython.py /cw/dtailocal/mercs_python/out/318/wq/settings/mercspython_Settings_F08.s",
    "cwd": null
  }
},
{
  "ts": "2018-02-05T14:49:51.005016",
  "type": "INFO",
  "values": "Start: Run process"
},
{
  "ts": "2018-02-05T14:49:51.051785",
  "type": "INFO",
  "values": "Write log to /cw/dtailocal/mercs_python/out/318/wq/logs/mercspython_Log_F08.running.log"
},
{
  "ts": "2018-02-05T14:49:58.660929",
  "type": "INFO",
  "values": "Process ended (returncode 0)"
},
{
  "ts": "2018-02-05T14:49:58.661013",
  "type": "INFO",
  "values": "Finished: Run process 7.656 seconds"
},
{
  "ts": "2018-02-05T14:49:58.661095",
  "type": "WARNING",
  "values": {
    "Exit": "finished",
    "Returncode": 0,
    "Time": 7.6560211181640625
  }
}
]
