[
{
  "ts": "2018-02-05T14:49:58.669169",
  "type": "SETTINGS",
  "values": {
    "date": "2018/02/05 15:49:58",
    "date_iso": "2018-02-05T15:49:58.668281",
    "params": null,
    "system": {
      "nodename": "gibson",
      "machine": "x86_64",
      "platform": "Linux-4.4.0-112-generic-x86_64-with-debian-stretch-sid",
      "processor": "x86_64",
      "version": "#135-Ubuntu SMP Fri Jan 19 11:48:36 UTC 2018",
      "system": "Linux",
      "cpu_count": 8,
      "cpu_times": {
        "user": 81013.82,
        "system": 18026.92,
        "idle": 7630550.67,
        "nice": 732.25
      },
      "cpu_percent": 99.9,
      "virtual_memory": {
        "total": 33618501632,
        "available": 24936620032,
        "percent": 25.8,
        "used": 7614296064,
        "free": 9637748736
      }
    },
    "process": {
      "username": "evgeniya",
      "cwd": "/cw/dtailocal/mercs_python/src/core",
      "create_time": 1517842131.56,
      "cpu_times": {
        "user": 1.73,
        "system": 0.26
      }
    },
    "logfile": "/cw/dtailocal/mercs_python/out/318/wq/logs/mercspython_Log_F09",
    "command": "python /cw/dtailocal/mercs_python/bin/mercspython.py /cw/dtailocal/mercs_python/out/318/wq/settings/mercspython_Settings_F09.s"
  }
},
{
  "ts": "2018-02-05T14:49:58.669326",
  "type": "INFO",
  "values": {
    "cmd": "python /cw/dtailocal/mercs_python/bin/mercspython.py /cw/dtailocal/mercs_python/out/318/wq/settings/mercspython_Settings_F09.s",
    "cwd": null
  }
},
{
  "ts": "2018-02-05T14:49:58.685227",
  "type": "INFO",
  "values": "Start: Run process"
},
{
  "ts": "2018-02-05T14:49:58.723807",
  "type": "INFO",
  "values": "Write log to /cw/dtailocal/mercs_python/out/318/wq/logs/mercspython_Log_F09.running.log"
},
{
  "ts": "2018-02-05T14:50:05.733289",
  "type": "INFO",
  "values": "Process ended (returncode 0)"
},
{
  "ts": "2018-02-05T14:50:05.733367",
  "type": "INFO",
  "values": "Finished: Run process 7.048 seconds"
},
{
  "ts": "2018-02-05T14:50:05.733446",
  "type": "WARNING",
  "values": {
    "Exit": "finished",
    "Returncode": 0,
    "Time": 7.048168659210205
  }
}
]
