[
{
  "ts": "2018-02-06T09:52:29.645430",
  "type": "SETTINGS",
  "values": {
    "date": "2018/02/06 10:52:29",
    "date_iso": "2018-02-06T10:52:29.643676",
    "params": null,
    "system": {
      "nodename": "gibson",
      "machine": "x86_64",
      "platform": "Linux-4.4.0-112-generic-x86_64-with-debian-stretch-sid",
      "processor": "x86_64",
      "version": "#135-Ubuntu SMP Fri Jan 19 11:48:36 UTC 2018",
      "system": "Linux",
      "cpu_count": 8,
      "cpu_times": {
        "user": 312079.06,
        "system": 20329.64,
        "idle": 7944429.66,
        "nice": 819.07
      },
      "cpu_percent": 48.2,
      "virtual_memory": {
        "total": 33618501632,
        "available": 27028971520,
        "percent": 19.6,
        "used": 5496045568,
        "free": 16477384704
      }
    },
    "process": {
      "username": "evgeniya",
      "cwd": "/cw/dtailocal/mercs_python/src/core",
      "create_time": 1517910748.57,
      "cpu_times": {
        "user": 0.53,
        "system": 0.04
      }
    },
    "logfile": "/cw/dtailocal/mercs_python/out/523/slump/logs/mercspython_Log_F00",
    "command": "python /cw/dtailocal/mercs_python/bin/mercspython.py /cw/dtailocal/mercs_python/out/523/slump/settings/mercspython_Settings_F00.s"
  }
},
{
  "ts": "2018-02-06T09:52:29.645642",
  "type": "INFO",
  "values": {
    "cmd": "python /cw/dtailocal/mercs_python/bin/mercspython.py /cw/dtailocal/mercs_python/out/523/slump/settings/mercspython_Settings_F00.s",
    "cwd": null
  }
},
{
  "ts": "2018-02-06T09:52:29.648534",
  "type": "INFO",
  "values": "Start: Run process"
},
{
  "ts": "2018-02-06T09:52:29.649246",
  "type": "INFO",
  "values": "Write log to /cw/dtailocal/mercs_python/out/523/slump/logs/mercspython_Log_F00.running.log"
},
{
  "ts": "2018-02-06T09:52:31.255456",
  "type": "INFO",
  "values": "Process ended (returncode 0)"
},
{
  "ts": "2018-02-06T09:52:31.255539",
  "type": "INFO",
  "values": "Finished: Run process 1.607 seconds"
},
{
  "ts": "2018-02-06T09:52:31.255620",
  "type": "WARNING",
  "values": {
    "Exit": "finished",
    "Returncode": 0,
    "Time": 1.6070361137390137
  }
}
]
