[
{
  "ts": "2018-02-06T12:07:11.021625",
  "type": "SETTINGS",
  "values": {
    "date": "2018/02/06 13:07:11",
    "date_iso": "2018-02-06T13:07:11.020739",
    "params": null,
    "system": {
      "nodename": "gibson",
      "machine": "x86_64",
      "platform": "Linux-4.4.0-112-generic-x86_64-with-debian-stretch-sid",
      "processor": "x86_64",
      "version": "#135-Ubuntu SMP Fri Jan 19 11:48:36 UTC 2018",
      "system": "Linux",
      "cpu_count": 8,
      "cpu_times": {
        "user": 342208.14,
        "system": 20887.14,
        "idle": 7978125.56,
        "nice": 821.4
      },
      "cpu_percent": 85.9,
      "virtual_memory": {
        "total": 33618501632,
        "available": 23280672768,
        "percent": 30.8,
        "used": 9300844544,
        "free": 11168919552
      }
    },
    "process": {
      "username": "evgeniya",
      "cwd": "/cw/dtailocal/mercs_python/src/core",
      "create_time": 1517918814.87,
      "cpu_times": {
        "user": 1.24,
        "system": 0.43
      }
    },
    "logfile": "/cw/dtailocal/mercs_python/out/617/enb/logs/mercspython_Log_F07",
    "command": "python /cw/dtailocal/mercs_python/bin/mercspython.py /cw/dtailocal/mercs_python/out/617/enb/settings/mercspython_Settings_F07.s"
  }
},
{
  "ts": "2018-02-06T12:07:11.021792",
  "type": "INFO",
  "values": {
    "cmd": "python /cw/dtailocal/mercs_python/bin/mercspython.py /cw/dtailocal/mercs_python/out/617/enb/settings/mercspython_Settings_F07.s",
    "cwd": null
  }
},
{
  "ts": "2018-02-06T12:07:11.024750",
  "type": "INFO",
  "values": "Start: Run process"
},
{
  "ts": "2018-02-06T12:07:11.030523",
  "type": "INFO",
  "values": "Write log to /cw/dtailocal/mercs_python/out/617/enb/logs/mercspython_Log_F07.running.log"
},
{
  "ts": "2018-02-06T12:07:13.233412",
  "type": "INFO",
  "values": "Process ended (returncode 0)"
},
{
  "ts": "2018-02-06T12:07:13.233497",
  "type": "INFO",
  "values": "Finished: Run process 2.209 seconds"
},
{
  "ts": "2018-02-06T12:07:13.233588",
  "type": "WARNING",
  "values": {
    "Exit": "finished",
    "Returncode": 0,
    "Time": 2.208768129348755
  }
}
]
