[
{
  "ts": "2018-02-05T16:22:24.489201",
  "type": "SETTINGS",
  "values": {
    "date": "2018/02/05 17:22:24",
    "date_iso": "2018-02-05T17:22:24.488356",
    "params": null,
    "system": {
      "nodename": "gibson",
      "machine": "x86_64",
      "platform": "Linux-4.4.0-112-generic-x86_64-with-debian-stretch-sid",
      "processor": "x86_64",
      "version": "#135-Ubuntu SMP Fri Jan 19 11:48:36 UTC 2018",
      "system": "Linux",
      "cpu_count": 8,
      "cpu_times": {
        "user": 118183.46,
        "system": 18455.7,
        "idle": 7637231.65,
        "nice": 749.46
      },
      "cpu_percent": 99.9,
      "virtual_memory": {
        "total": 33618501632,
        "available": 25124573184,
        "percent": 25.3,
        "used": 7590170624,
        "free": 8546230272
      }
    },
    "process": {
      "username": "evgeniya",
      "cwd": "/cw/dtailocal/mercs_python/src/core",
      "create_time": 1517847675.18,
      "cpu_times": {
        "user": 1.49,
        "system": 0.29
      }
    },
    "logfile": "/cw/dtailocal/mercs_python/out/230/wq/logs/mercspython_Log_F09",
    "command": "python /cw/dtailocal/mercs_python/bin/mercspython.py /cw/dtailocal/mercs_python/out/230/wq/settings/mercspython_Settings_F09.s"
  }
},
{
  "ts": "2018-02-05T16:22:24.489355",
  "type": "INFO",
  "values": {
    "cmd": "python /cw/dtailocal/mercs_python/bin/mercspython.py /cw/dtailocal/mercs_python/out/230/wq/settings/mercspython_Settings_F09.s",
    "cwd": null
  }
},
{
  "ts": "2018-02-05T16:22:24.511972",
  "type": "INFO",
  "values": "Start: Run process"
},
{
  "ts": "2018-02-05T16:22:24.539773",
  "type": "INFO",
  "values": "Write log to /cw/dtailocal/mercs_python/out/230/wq/logs/mercspython_Log_F09.running.log"
},
{
  "ts": "2018-02-05T16:22:32.751599",
  "type": "INFO",
  "values": "Process ended (returncode 0)"
},
{
  "ts": "2018-02-05T16:22:32.751698",
  "type": "INFO",
  "values": "Finished: Run process 8.240 seconds"
},
{
  "ts": "2018-02-05T16:22:32.751789",
  "type": "WARNING",
  "values": {
    "Exit": "finished",
    "Returncode": 0,
    "Time": 8.239763259887695
  }
}
]
