[
{
  "ts": "2018-02-05T16:21:39.433133",
  "type": "SETTINGS",
  "values": {
    "date": "2018/02/05 17:21:39",
    "date_iso": "2018-02-05T17:21:39.432284",
    "params": null,
    "system": {
      "nodename": "gibson",
      "machine": "x86_64",
      "platform": "Linux-4.4.0-112-generic-x86_64-with-debian-stretch-sid",
      "processor": "x86_64",
      "version": "#135-Ubuntu SMP Fri Jan 19 11:48:36 UTC 2018",
      "system": "Linux",
      "cpu_count": 8,
      "cpu_times": {
        "user": 117827.02,
        "system": 18452.32,
        "idle": 7637231.45,
        "nice": 749.46
      },
      "cpu_percent": 99.9,
      "virtual_memory": {
        "total": 33618501632,
        "available": 23535452160,
        "percent": 30.0,
        "used": 9179291648,
        "free": 6969860096
      }
    },
    "process": {
      "username": "evgeniya",
      "cwd": "/cw/dtailocal/mercs_python/src/core",
      "create_time": 1517847675.18,
      "cpu_times": {
        "user": 0.93,
        "system": 0.17
      }
    },
    "logfile": "/cw/dtailocal/mercs_python/out/230/wq/logs/mercspython_Log_F03",
    "command": "python /cw/dtailocal/mercs_python/bin/mercspython.py /cw/dtailocal/mercs_python/out/230/wq/settings/mercspython_Settings_F03.s"
  }
},
{
  "ts": "2018-02-05T16:21:39.433294",
  "type": "INFO",
  "values": {
    "cmd": "python /cw/dtailocal/mercs_python/bin/mercspython.py /cw/dtailocal/mercs_python/out/230/wq/settings/mercspython_Settings_F03.s",
    "cwd": null
  }
},
{
  "ts": "2018-02-05T16:21:39.461219",
  "type": "INFO",
  "values": "Start: Run process"
},
{
  "ts": "2018-02-05T16:21:39.503783",
  "type": "INFO",
  "values": "Write log to /cw/dtailocal/mercs_python/out/230/wq/logs/mercspython_Log_F03.running.log"
},
{
  "ts": "2018-02-05T16:21:46.316678",
  "type": "INFO",
  "values": "Process ended (returncode 0)"
},
{
  "ts": "2018-02-05T16:21:46.316760",
  "type": "INFO",
  "values": "Finished: Run process 6.856 seconds"
},
{
  "ts": "2018-02-05T16:21:46.316839",
  "type": "WARNING",
  "values": {
    "Exit": "finished",
    "Returncode": 0,
    "Time": 6.855570316314697
  }
},
{
  "ts": "2018-02-05T16:21:46.328895",
  "type": "INFO",
  "values": "Closing /cw/dtailocal/mercs_python/out/230/wq/logs/mercspython_Log_F03.running.log"
}
]
