[
{
  "ts": "2018-02-06T10:00:38.953447",
  "type": "SETTINGS",
  "values": {
    "date": "2018/02/06 11:00:38",
    "date_iso": "2018-02-06T11:00:38.952612",
    "params": null,
    "system": {
      "nodename": "gibson",
      "machine": "x86_64",
      "platform": "Linux-4.4.0-112-generic-x86_64-with-debian-stretch-sid",
      "processor": "x86_64",
      "version": "#135-Ubuntu SMP Fri Jan 19 11:48:36 UTC 2018",
      "system": "Linux",
      "cpu_count": 8,
      "cpu_times": {
        "user": 314778.38,
        "system": 20430.68,
        "idle": 7945498.16,
        "nice": 819.07
      },
      "cpu_percent": 74.5,
      "virtual_memory": {
        "total": 33618501632,
        "available": 24108756992,
        "percent": 28.3,
        "used": 8550658048,
        "free": 12975874048
      }
    },
    "process": {
      "username": "evgeniya",
      "cwd": "/cw/dtailocal/mercs_python/src/core",
      "create_time": 1517911227.48,
      "cpu_times": {
        "user": 0.92,
        "system": 0.24
      }
    },
    "logfile": "/cw/dtailocal/mercs_python/out/544/slump/logs/mercspython_Log_F07",
    "command": "python /cw/dtailocal/mercs_python/bin/mercspython.py /cw/dtailocal/mercs_python/out/544/slump/settings/mercspython_Settings_F07.s"
  }
},
{
  "ts": "2018-02-06T10:00:38.953604",
  "type": "INFO",
  "values": {
    "cmd": "python /cw/dtailocal/mercs_python/bin/mercspython.py /cw/dtailocal/mercs_python/out/544/slump/settings/mercspython_Settings_F07.s",
    "cwd": null
  }
},
{
  "ts": "2018-02-06T10:00:38.956336",
  "type": "INFO",
  "values": "Start: Run process"
},
{
  "ts": "2018-02-06T10:00:38.956836",
  "type": "INFO",
  "values": "Write log to /cw/dtailocal/mercs_python/out/544/slump/logs/mercspython_Log_F07.running.log"
},
{
  "ts": "2018-02-06T10:00:40.364034",
  "type": "INFO",
  "values": "Process ended (returncode 0)"
},
{
  "ts": "2018-02-06T10:00:40.364140",
  "type": "INFO",
  "values": "Finished: Run process 1.408 seconds"
},
{
  "ts": "2018-02-06T10:00:40.364243",
  "type": "WARNING",
  "values": {
    "Exit": "finished",
    "Returncode": 0,
    "Time": 1.4078242778778076
  }
},
{
  "ts": "2018-02-06T10:00:40.364687",
  "type": "INFO",
  "values": "Closing /cw/dtailocal/mercs_python/out/544/slump/logs/mercspython_Log_F07.running.log"
}
]
