[
{
  "ts": "2018-02-06T10:00:35.733430",
  "type": "SETTINGS",
  "values": {
    "date": "2018/02/06 11:00:35",
    "date_iso": "2018-02-06T11:00:35.732508",
    "params": null,
    "system": {
      "nodename": "gibson",
      "machine": "x86_64",
      "platform": "Linux-4.4.0-112-generic-x86_64-with-debian-stretch-sid",
      "processor": "x86_64",
      "version": "#135-Ubuntu SMP Fri Jan 19 11:48:36 UTC 2018",
      "system": "Linux",
      "cpu_count": 8,
      "cpu_times": {
        "user": 314758.88,
        "system": 20429.99,
        "idle": 7945492.84,
        "nice": 819.07
      },
      "cpu_percent": 83.3,
      "virtual_memory": {
        "total": 33618501632,
        "available": 24452026368,
        "percent": 27.3,
        "used": 8224673792,
        "free": 13320667136
      }
    },
    "process": {
      "username": "evgeniya",
      "cwd": "/cw/dtailocal/mercs_python/src/core",
      "create_time": 1517911227.48,
      "cpu_times": {
        "user": 0.82,
        "system": 0.16
      }
    },
    "logfile": "/cw/dtailocal/mercs_python/out/544/slump/logs/mercspython_Log_F05",
    "command": "python /cw/dtailocal/mercs_python/bin/mercspython.py /cw/dtailocal/mercs_python/out/544/slump/settings/mercspython_Settings_F05.s"
  }
},
{
  "ts": "2018-02-06T10:00:35.733598",
  "type": "INFO",
  "values": {
    "cmd": "python /cw/dtailocal/mercs_python/bin/mercspython.py /cw/dtailocal/mercs_python/out/544/slump/settings/mercspython_Settings_F05.s",
    "cwd": null
  }
},
{
  "ts": "2018-02-06T10:00:35.737466",
  "type": "INFO",
  "values": "Start: Run process"
},
{
  "ts": "2018-02-06T10:00:35.738043",
  "type": "INFO",
  "values": "Write log to /cw/dtailocal/mercs_python/out/544/slump/logs/mercspython_Log_F05.running.log"
},
{
  "ts": "2018-02-06T10:00:37.340165",
  "type": "INFO",
  "values": "Process ended (returncode 0)"
},
{
  "ts": "2018-02-06T10:00:37.340252",
  "type": "INFO",
  "values": "Finished: Run process 1.603 seconds"
},
{
  "ts": "2018-02-06T10:00:37.340333",
  "type": "WARNING",
  "values": {
    "Exit": "finished",
    "Returncode": 0,
    "Time": 1.6028473377227783
  }
},
{
  "ts": "2018-02-06T10:00:37.340651",
  "type": "INFO",
  "values": "Closing /cw/dtailocal/mercs_python/out/544/slump/logs/mercspython_Log_F05.running.log"
}
]
