[
{
  "ts": "2018-02-05T15:01:12.721062",
  "type": "SETTINGS",
  "values": {
    "date": "2018/02/05 16:01:12",
    "date_iso": "2018-02-05T16:01:12.720212",
    "params": null,
    "system": {
      "nodename": "gibson",
      "machine": "x86_64",
      "platform": "Linux-4.4.0-112-generic-x86_64-with-debian-stretch-sid",
      "processor": "x86_64",
      "version": "#135-Ubuntu SMP Fri Jan 19 11:48:36 UTC 2018",
      "system": "Linux",
      "cpu_count": 8,
      "cpu_times": {
        "user": 86335.33,
        "system": 18088.72,
        "idle": 7630554.66,
        "nice": 732.25
      },
      "cpu_percent": 100.0,
      "virtual_memory": {
        "total": 33618501632,
        "available": 24643645440,
        "percent": 26.7,
        "used": 7857823744,
        "free": 9073455104
      }
    },
    "process": {
      "username": "evgeniya",
      "cwd": "/cw/dtailocal/mercs_python/src/core",
      "create_time": 1517842845.58,
      "cpu_times": {
        "user": 1.21,
        "system": 0.24
      }
    },
    "logfile": "/cw/dtailocal/mercs_python/out/333/slump/logs/mercspython_Log_F09",
    "command": "python /cw/dtailocal/mercs_python/bin/mercspython.py /cw/dtailocal/mercs_python/out/333/slump/settings/mercspython_Settings_F09.s"
  }
},
{
  "ts": "2018-02-05T15:01:12.721216",
  "type": "INFO",
  "values": {
    "cmd": "python /cw/dtailocal/mercs_python/bin/mercspython.py /cw/dtailocal/mercs_python/out/333/slump/settings/mercspython_Settings_F09.s",
    "cwd": null
  }
},
{
  "ts": "2018-02-05T15:01:12.737752",
  "type": "INFO",
  "values": "Start: Run process"
},
{
  "ts": "2018-02-05T15:01:12.783773",
  "type": "INFO",
  "values": "Write log to /cw/dtailocal/mercs_python/out/333/slump/logs/mercspython_Log_F09.running.log"
},
{
  "ts": "2018-02-05T15:01:15.387862",
  "type": "INFO",
  "values": "Process ended (returncode 0)"
},
{
  "ts": "2018-02-05T15:01:15.387945",
  "type": "INFO",
  "values": "Finished: Run process 2.650 seconds"
},
{
  "ts": "2018-02-05T15:01:15.388027",
  "type": "WARNING",
  "values": {
    "Exit": "finished",
    "Returncode": 0,
    "Time": 2.650216579437256
  }
},
{
  "ts": "2018-02-05T15:01:15.399832",
  "type": "INFO",
  "values": "Closing /cw/dtailocal/mercs_python/out/333/slump/logs/mercspython_Log_F09.running.log"
}
]
