[
{
  "ts": "2018-02-05T15:44:37.092175",
  "type": "SETTINGS",
  "values": {
    "date": "2018/02/05 16:44:37",
    "date_iso": "2018-02-05T16:44:37.091228",
    "params": null,
    "system": {
      "nodename": "gibson",
      "machine": "x86_64",
      "platform": "Linux-4.4.0-112-generic-x86_64-with-debian-stretch-sid",
      "processor": "x86_64",
      "version": "#135-Ubuntu SMP Fri Jan 19 11:48:36 UTC 2018",
      "system": "Linux",
      "cpu_count": 8,
      "cpu_times": {
        "user": 100273.16,
        "system": 18241.22,
        "idle": 7637226.66,
        "nice": 749.46
      },
      "cpu_percent": 99.6,
      "virtual_memory": {
        "total": 33618501632,
        "available": 24924856320,
        "percent": 25.9,
        "used": 7678742528,
        "free": 8737021952
      }
    },
    "process": {
      "username": "evgeniya",
      "cwd": "/cw/dtailocal/mercs_python/src/core",
      "create_time": 1517845440.0,
      "cpu_times": {
        "user": 1.3,
        "system": 0.2
      }
    },
    "logfile": "/cw/dtailocal/mercs_python/out/222/enb/logs/mercspython_Log_F09",
    "command": "python /cw/dtailocal/mercs_python/bin/mercspython.py /cw/dtailocal/mercs_python/out/222/enb/settings/mercspython_Settings_F09.s"
  }
},
{
  "ts": "2018-02-05T15:44:37.092342",
  "type": "INFO",
  "values": {
    "cmd": "python /cw/dtailocal/mercs_python/bin/mercspython.py /cw/dtailocal/mercs_python/out/222/enb/settings/mercspython_Settings_F09.s",
    "cwd": null
  }
},
{
  "ts": "2018-02-05T15:44:37.105234",
  "type": "INFO",
  "values": "Start: Run process"
},
{
  "ts": "2018-02-05T15:44:37.120415",
  "type": "INFO",
  "values": "Write log to /cw/dtailocal/mercs_python/out/222/enb/logs/mercspython_Log_F09.running.log"
},
{
  "ts": "2018-02-05T15:44:40.925383",
  "type": "INFO",
  "values": "Process ended (returncode 0)"
},
{
  "ts": "2018-02-05T15:44:40.925468",
  "type": "INFO",
  "values": "Finished: Run process 3.820 seconds"
},
{
  "ts": "2018-02-05T15:44:40.925557",
  "type": "WARNING",
  "values": {
    "Exit": "finished",
    "Returncode": 0,
    "Time": 3.8202614784240723
  }
}
]
