[
{
  "ts": "2018-02-05T15:44:01.612006",
  "type": "SETTINGS",
  "values": {
    "date": "2018/02/05 16:44:01",
    "date_iso": "2018-02-05T16:44:01.594815",
    "params": null,
    "system": {
      "nodename": "gibson",
      "machine": "x86_64",
      "platform": "Linux-4.4.0-112-generic-x86_64-with-debian-stretch-sid",
      "processor": "x86_64",
      "version": "#135-Ubuntu SMP Fri Jan 19 11:48:36 UTC 2018",
      "system": "Linux",
      "cpu_count": 8,
      "cpu_times": {
        "user": 99997.82,
        "system": 18235.08,
        "idle": 7637225.0,
        "nice": 749.46
      },
      "cpu_percent": 99.5,
      "virtual_memory": {
        "total": 33618501632,
        "available": 25957879808,
        "percent": 22.8,
        "used": 6643040256,
        "free": 9776816128
      }
    },
    "process": {
      "username": "evgeniya",
      "cwd": "/cw/dtailocal/mercs_python/src/core",
      "create_time": 1517845440.0,
      "cpu_times": {
        "user": 0.59,
        "system": 0.04
      }
    },
    "logfile": "/cw/dtailocal/mercs_python/out/222/enb/logs/mercspython_Log_F00",
    "command": "python /cw/dtailocal/mercs_python/bin/mercspython.py /cw/dtailocal/mercs_python/out/222/enb/settings/mercspython_Settings_F00.s"
  }
},
{
  "ts": "2018-02-05T15:44:01.612172",
  "type": "INFO",
  "values": {
    "cmd": "python /cw/dtailocal/mercs_python/bin/mercspython.py /cw/dtailocal/mercs_python/out/222/enb/settings/mercspython_Settings_F00.s",
    "cwd": null
  }
},
{
  "ts": "2018-02-05T15:44:01.637472",
  "type": "INFO",
  "values": "Start: Run process"
},
{
  "ts": "2018-02-05T15:44:01.661223",
  "type": "INFO",
  "values": "Write log to /cw/dtailocal/mercs_python/out/222/enb/logs/mercspython_Log_F00.running.log"
},
{
  "ts": "2018-02-05T15:44:05.666148",
  "type": "INFO",
  "values": "Process ended (returncode 0)"
},
{
  "ts": "2018-02-05T15:44:05.666230",
  "type": "INFO",
  "values": "Finished: Run process 4.029 seconds"
},
{
  "ts": "2018-02-05T15:44:05.666318",
  "type": "WARNING",
  "values": {
    "Exit": "finished",
    "Returncode": 0,
    "Time": 4.028797149658203
  }
}
]
