[
{
  "ts": "2018-02-06T09:52:52.796122",
  "type": "SETTINGS",
  "values": {
    "date": "2018/02/06 10:52:52",
    "date_iso": "2018-02-06T10:52:52.795391",
    "params": null,
    "system": {
      "nodename": "gibson",
      "machine": "x86_64",
      "platform": "Linux-4.4.0-112-generic-x86_64-with-debian-stretch-sid",
      "processor": "x86_64",
      "version": "#135-Ubuntu SMP Fri Jan 19 11:48:36 UTC 2018",
      "system": "Linux",
      "cpu_count": 8,
      "cpu_times": {
        "user": 312180.9,
        "system": 20338.05,
        "idle": 7944502.52,
        "nice": 819.07
      },
      "cpu_percent": 58.5,
      "virtual_memory": {
        "total": 33618501632,
        "available": 26654556160,
        "percent": 20.7,
        "used": 5862379520,
        "free": 16074960896
      }
    },
    "process": {
      "username": "evgeniya",
      "cwd": "/cw/dtailocal/mercs_python/src/core",
      "create_time": 1517910766.41,
      "cpu_times": {
        "user": 0.72,
        "system": 0.2
      }
    },
    "logfile": "/cw/dtailocal/mercs_python/out/524/wq/logs/mercspython_Log_F02",
    "command": "python /cw/dtailocal/mercs_python/bin/mercspython.py /cw/dtailocal/mercs_python/out/524/wq/settings/mercspython_Settings_F02.s"
  }
},
{
  "ts": "2018-02-06T09:52:52.796213",
  "type": "INFO",
  "values": {
    "cmd": "python /cw/dtailocal/mercs_python/bin/mercspython.py /cw/dtailocal/mercs_python/out/524/wq/settings/mercspython_Settings_F02.s",
    "cwd": null
  }
},
{
  "ts": "2018-02-06T09:52:52.798528",
  "type": "INFO",
  "values": "Start: Run process"
},
{
  "ts": "2018-02-06T09:52:52.798972",
  "type": "INFO",
  "values": "Write log to /cw/dtailocal/mercs_python/out/524/wq/logs/mercspython_Log_F02.running.log"
},
{
  "ts": "2018-02-06T09:52:55.602630",
  "type": "INFO",
  "values": "Process ended (returncode 0)"
},
{
  "ts": "2018-02-06T09:52:55.602712",
  "type": "INFO",
  "values": "Finished: Run process 2.804 seconds"
},
{
  "ts": "2018-02-06T09:52:55.602796",
  "type": "WARNING",
  "values": {
    "Exit": "finished",
    "Returncode": 0,
    "Time": 2.8042101860046387
  }
},
{
  "ts": "2018-02-06T09:52:55.603100",
  "type": "INFO",
  "values": "Closing /cw/dtailocal/mercs_python/out/524/wq/logs/mercspython_Log_F02.running.log"
}
]
