[
{
  "ts": "2018-02-05T17:00:10.987856",
  "type": "SETTINGS",
  "values": {
    "date": "2018/02/05 18:00:10",
    "date_iso": "2018-02-05T18:00:10.986992",
    "params": null,
    "system": {
      "nodename": "gibson",
      "machine": "x86_64",
      "platform": "Linux-4.4.0-112-generic-x86_64-with-debian-stretch-sid",
      "processor": "x86_64",
      "version": "#135-Ubuntu SMP Fri Jan 19 11:48:36 UTC 2018",
      "system": "Linux",
      "cpu_count": 8,
      "cpu_times": {
        "user": 136151.71,
        "system": 18603.19,
        "idle": 7637234.49,
        "nice": 751.58
      },
      "cpu_percent": 100.0,
      "virtual_memory": {
        "total": 33618501632,
        "available": 23845666816,
        "percent": 29.1,
        "used": 8753397760,
        "free": 6656282624
      }
    },
    "process": {
      "username": "evgeniya",
      "cwd": "/cw/dtailocal/mercs_python/src/core",
      "create_time": 1517849980.39,
      "cpu_times": {
        "user": 0.92,
        "system": 0.11
      }
    },
    "logfile": "/cw/dtailocal/mercs_python/out/320/enb/logs/mercspython_Log_F06",
    "command": "python /cw/dtailocal/mercs_python/bin/mercspython.py /cw/dtailocal/mercs_python/out/320/enb/settings/mercspython_Settings_F06.s"
  }
},
{
  "ts": "2018-02-05T17:00:10.988007",
  "type": "INFO",
  "values": {
    "cmd": "python /cw/dtailocal/mercs_python/bin/mercspython.py /cw/dtailocal/mercs_python/out/320/enb/settings/mercspython_Settings_F06.s",
    "cwd": null
  }
},
{
  "ts": "2018-02-05T17:00:10.997032",
  "type": "INFO",
  "values": "Start: Run process"
},
{
  "ts": "2018-02-05T17:00:11.019792",
  "type": "INFO",
  "values": "Write log to /cw/dtailocal/mercs_python/out/320/enb/logs/mercspython_Log_F06.running.log"
},
{
  "ts": "2018-02-05T17:00:15.425404",
  "type": "INFO",
  "values": "Process ended (returncode 0)"
},
{
  "ts": "2018-02-05T17:00:15.425485",
  "type": "INFO",
  "values": "Finished: Run process 4.428 seconds"
},
{
  "ts": "2018-02-05T17:00:15.425569",
  "type": "WARNING",
  "values": {
    "Exit": "finished",
    "Returncode": 0,
    "Time": 4.428481578826904
  }
},
{
  "ts": "2018-02-05T17:00:15.431790",
  "type": "INFO",
  "values": "Closing /cw/dtailocal/mercs_python/out/320/enb/logs/mercspython_Log_F06.running.log"
}
]
