[
{
  "ts": "2018-02-05T18:17:55.917164",
  "type": "SETTINGS",
  "values": {
    "date": "2018/02/05 19:17:55",
    "date_iso": "2018-02-05T19:17:55.916347",
    "params": null,
    "system": {
      "nodename": "gibson",
      "machine": "x86_64",
      "platform": "Linux-4.4.0-112-generic-x86_64-with-debian-stretch-sid",
      "processor": "x86_64",
      "version": "#135-Ubuntu SMP Fri Jan 19 11:48:36 UTC 2018",
      "system": "Linux",
      "cpu_count": 8,
      "cpu_times": {
        "user": 166765.36,
        "system": 18927.76,
        "idle": 7643519.52,
        "nice": 753.62
      },
      "cpu_percent": 100.0,
      "virtual_memory": {
        "total": 33618501632,
        "available": 20701405184,
        "percent": 38.4,
        "used": 11892948992,
        "free": 8416931840
      }
    },
    "process": {
      "username": "evgeniya",
      "cwd": "/cw/dtailocal/mercs_python/src/core",
      "create_time": 1517854425.91,
      "cpu_times": {
        "user": 1.11,
        "system": 0.15
      }
    },
    "logfile": "/cw/dtailocal/mercs_python/out/356/scm20d/logs/mercspython_Log_F03",
    "command": "python /cw/dtailocal/mercs_python/bin/mercspython.py /cw/dtailocal/mercs_python/out/356/scm20d/settings/mercspython_Settings_F03.s"
  }
},
{
  "ts": "2018-02-05T18:17:55.917311",
  "type": "INFO",
  "values": {
    "cmd": "python /cw/dtailocal/mercs_python/bin/mercspython.py /cw/dtailocal/mercs_python/out/356/scm20d/settings/mercspython_Settings_F03.s",
    "cwd": null
  }
},
{
  "ts": "2018-02-05T18:17:55.942006",
  "type": "INFO",
  "values": "Start: Run process"
},
{
  "ts": "2018-02-05T18:17:55.983912",
  "type": "INFO",
  "values": "Write log to /cw/dtailocal/mercs_python/out/356/scm20d/logs/mercspython_Log_F03.running.log"
},
{
  "ts": "2018-02-05T18:19:18.483018",
  "type": "INFO",
  "values": "Process ended (returncode 0)"
},
{
  "ts": "2018-02-05T18:19:18.483100",
  "type": "INFO",
  "values": "Finished: Run process 82.541 seconds"
},
{
  "ts": "2018-02-05T18:19:18.483182",
  "type": "WARNING",
  "values": {
    "Exit": "finished",
    "Returncode": 0,
    "Time": 82.54112410545349
  }
},
{
  "ts": "2018-02-05T18:19:18.495804",
  "type": "INFO",
  "values": "Closing /cw/dtailocal/mercs_python/out/356/scm20d/logs/mercspython_Log_F03.running.log"
}
]
