[
{
  "ts": "2018-02-05T15:56:16.673179",
  "type": "SETTINGS",
  "values": {
    "date": "2018/02/05 16:56:16",
    "date_iso": "2018-02-05T16:56:16.672338",
    "params": null,
    "system": {
      "nodename": "gibson",
      "machine": "x86_64",
      "platform": "Linux-4.4.0-112-generic-x86_64-with-debian-stretch-sid",
      "processor": "x86_64",
      "version": "#135-Ubuntu SMP Fri Jan 19 11:48:36 UTC 2018",
      "system": "Linux",
      "cpu_count": 8,
      "cpu_times": {
        "user": 105811.85,
        "system": 18293.62,
        "idle": 7637228.85,
        "nice": 749.46
      },
      "cpu_percent": 100.0,
      "virtual_memory": {
        "total": 33618501632,
        "available": 24754069504,
        "percent": 26.4,
        "used": 7942152192,
        "free": 8399671296
      }
    },
    "process": {
      "username": "evgeniya",
      "cwd": "/cw/dtailocal/mercs_python/src/core",
      "create_time": 1517845924.32,
      "cpu_times": {
        "user": 2.38,
        "system": 0.22
      }
    },
    "logfile": "/cw/dtailocal/mercs_python/out/255/oes97/logs/mercspython_Log_F09",
    "command": "python /cw/dtailocal/mercs_python/bin/mercspython.py /cw/dtailocal/mercs_python/out/255/oes97/settings/mercspython_Settings_F09.s"
  }
},
{
  "ts": "2018-02-05T15:56:16.673330",
  "type": "INFO",
  "values": {
    "cmd": "python /cw/dtailocal/mercs_python/bin/mercspython.py /cw/dtailocal/mercs_python/out/255/oes97/settings/mercspython_Settings_F09.s",
    "cwd": null
  }
},
{
  "ts": "2018-02-05T15:56:16.717394",
  "type": "INFO",
  "values": "Start: Run process"
},
{
  "ts": "2018-02-05T15:56:16.751915",
  "type": "INFO",
  "values": "Write log to /cw/dtailocal/mercs_python/out/255/oes97/logs/mercspython_Log_F09.running.log"
},
{
  "ts": "2018-02-05T15:56:44.986030",
  "type": "INFO",
  "values": "Process ended (returncode 0)"
},
{
  "ts": "2018-02-05T15:56:44.986110",
  "type": "INFO",
  "values": "Finished: Run process 28.269 seconds"
},
{
  "ts": "2018-02-05T15:56:44.986198",
  "type": "WARNING",
  "values": {
    "Exit": "finished",
    "Returncode": 0,
    "Time": 28.26873779296875
  }
}
]
