[
{
  "ts": "2018-02-05T15:53:03.441124",
  "type": "SETTINGS",
  "values": {
    "date": "2018/02/05 16:53:03",
    "date_iso": "2018-02-05T16:53:03.440269",
    "params": null,
    "system": {
      "nodename": "gibson",
      "machine": "x86_64",
      "platform": "Linux-4.4.0-112-generic-x86_64-with-debian-stretch-sid",
      "processor": "x86_64",
      "version": "#135-Ubuntu SMP Fri Jan 19 11:48:36 UTC 2018",
      "system": "Linux",
      "cpu_count": 8,
      "cpu_times": {
        "user": 104280.7,
        "system": 18279.8,
        "idle": 7637228.61,
        "nice": 749.46
      },
      "cpu_percent": 100.0,
      "virtual_memory": {
        "total": 33618501632,
        "available": 24942825472,
        "percent": 25.8,
        "used": 7753170944,
        "free": 8635244544
      }
    },
    "process": {
      "username": "evgeniya",
      "cwd": "/cw/dtailocal/mercs_python/src/core",
      "create_time": 1517845924.32,
      "cpu_times": {
        "user": 1.88,
        "system": 0.1
      }
    },
    "logfile": "/cw/dtailocal/mercs_python/out/255/oes97/logs/mercspython_Log_F02",
    "command": "python /cw/dtailocal/mercs_python/bin/mercspython.py /cw/dtailocal/mercs_python/out/255/oes97/settings/mercspython_Settings_F02.s"
  }
},
{
  "ts": "2018-02-05T15:53:03.441289",
  "type": "INFO",
  "values": {
    "cmd": "python /cw/dtailocal/mercs_python/bin/mercspython.py /cw/dtailocal/mercs_python/out/255/oes97/settings/mercspython_Settings_F02.s",
    "cwd": null
  }
},
{
  "ts": "2018-02-05T15:53:03.457290",
  "type": "INFO",
  "values": "Start: Run process"
},
{
  "ts": "2018-02-05T15:53:03.515793",
  "type": "INFO",
  "values": "Write log to /cw/dtailocal/mercs_python/out/255/oes97/logs/mercspython_Log_F02.running.log"
},
{
  "ts": "2018-02-05T15:53:28.745643",
  "type": "INFO",
  "values": "Process ended (returncode 0)"
},
{
  "ts": "2018-02-05T15:53:28.745725",
  "type": "INFO",
  "values": "Finished: Run process 25.288 seconds"
},
{
  "ts": "2018-02-05T15:53:28.745805",
  "type": "WARNING",
  "values": {
    "Exit": "finished",
    "Returncode": 0,
    "Time": 25.288459062576294
  }
}
]
