[
{
  "ts": "2018-02-05T16:21:10.808848",
  "type": "SETTINGS",
  "values": {
    "date": "2018/02/05 17:21:10",
    "date_iso": "2018-02-05T17:21:10.808000",
    "params": null,
    "system": {
      "nodename": "gibson",
      "machine": "x86_64",
      "platform": "Linux-4.4.0-112-generic-x86_64-with-debian-stretch-sid",
      "processor": "x86_64",
      "version": "#135-Ubuntu SMP Fri Jan 19 11:48:36 UTC 2018",
      "system": "Linux",
      "cpu_count": 8,
      "cpu_times": {
        "user": 117600.33,
        "system": 18450.31,
        "idle": 7637231.32,
        "nice": 749.46
      },
      "cpu_percent": 100.0,
      "virtual_memory": {
        "total": 33618501632,
        "available": 24276180992,
        "percent": 27.8,
        "used": 8448290816,
        "free": 7712239616
      }
    },
    "process": {
      "username": "evgeniya",
      "cwd": "/cw/dtailocal/mercs_python/src/core",
      "create_time": 1517847635.02,
      "cpu_times": {
        "user": 1.47,
        "system": 0.21
      }
    },
    "logfile": "/cw/dtailocal/mercs_python/out/229/slump/logs/mercspython_Log_F09",
    "command": "python /cw/dtailocal/mercs_python/bin/mercspython.py /cw/dtailocal/mercs_python/out/229/slump/settings/mercspython_Settings_F09.s"
  }
},
{
  "ts": "2018-02-05T16:21:10.808997",
  "type": "INFO",
  "values": {
    "cmd": "python /cw/dtailocal/mercs_python/bin/mercspython.py /cw/dtailocal/mercs_python/out/229/slump/settings/mercspython_Settings_F09.s",
    "cwd": null
  }
},
{
  "ts": "2018-02-05T16:21:10.833450",
  "type": "INFO",
  "values": "Start: Run process"
},
{
  "ts": "2018-02-05T16:21:10.859783",
  "type": "INFO",
  "values": "Write log to /cw/dtailocal/mercs_python/out/229/slump/logs/mercspython_Log_F09.running.log"
},
{
  "ts": "2018-02-05T16:21:14.266305",
  "type": "INFO",
  "values": "Process ended (returncode 0)"
},
{
  "ts": "2018-02-05T16:21:14.266375",
  "type": "INFO",
  "values": "Finished: Run process 3.433 seconds"
},
{
  "ts": "2018-02-05T16:21:14.266443",
  "type": "WARNING",
  "values": {
    "Exit": "finished",
    "Returncode": 0,
    "Time": 3.432952404022217
  }
}
]
