[
{
  "ts": "2018-02-05T16:20:59.977068",
  "type": "SETTINGS",
  "values": {
    "date": "2018/02/05 17:20:59",
    "date_iso": "2018-02-05T17:20:59.976205",
    "params": null,
    "system": {
      "nodename": "gibson",
      "machine": "x86_64",
      "platform": "Linux-4.4.0-112-generic-x86_64-with-debian-stretch-sid",
      "processor": "x86_64",
      "version": "#135-Ubuntu SMP Fri Jan 19 11:48:36 UTC 2018",
      "system": "Linux",
      "cpu_count": 8,
      "cpu_times": {
        "user": 117514.7,
        "system": 18449.49,
        "idle": 7637231.22,
        "nice": 749.46
      },
      "cpu_percent": 100.0,
      "virtual_memory": {
        "total": 33618501632,
        "available": 24551690240,
        "percent": 27.0,
        "used": 8172462080,
        "free": 7990263808
      }
    },
    "process": {
      "username": "evgeniya",
      "cwd": "/cw/dtailocal/mercs_python/src/core",
      "create_time": 1517847635.02,
      "cpu_times": {
        "user": 1.21,
        "system": 0.16
      }
    },
    "logfile": "/cw/dtailocal/mercs_python/out/229/slump/logs/mercspython_Log_F06",
    "command": "python /cw/dtailocal/mercs_python/bin/mercspython.py /cw/dtailocal/mercs_python/out/229/slump/settings/mercspython_Settings_F06.s"
  }
},
{
  "ts": "2018-02-05T16:20:59.977217",
  "type": "INFO",
  "values": {
    "cmd": "python /cw/dtailocal/mercs_python/bin/mercspython.py /cw/dtailocal/mercs_python/out/229/slump/settings/mercspython_Settings_F06.s",
    "cwd": null
  }
},
{
  "ts": "2018-02-05T16:20:59.997407",
  "type": "INFO",
  "values": "Start: Run process"
},
{
  "ts": "2018-02-05T16:21:00.031933",
  "type": "INFO",
  "values": "Write log to /cw/dtailocal/mercs_python/out/229/slump/logs/mercspython_Log_F06.running.log"
},
{
  "ts": "2018-02-05T16:21:03.443736",
  "type": "INFO",
  "values": "Process ended (returncode 0)"
},
{
  "ts": "2018-02-05T16:21:03.443824",
  "type": "INFO",
  "values": "Finished: Run process 3.446 seconds"
},
{
  "ts": "2018-02-05T16:21:03.443915",
  "type": "WARNING",
  "values": {
    "Exit": "finished",
    "Returncode": 0,
    "Time": 3.4464356899261475
  }
},
{
  "ts": "2018-02-05T16:21:03.451810",
  "type": "INFO",
  "values": "Closing /cw/dtailocal/mercs_python/out/229/slump/logs/mercspython_Log_F06.running.log"
}
]
