[
{
  "ts": "2018-02-05T14:50:53.668633",
  "type": "SETTINGS",
  "values": {
    "date": "2018/02/05 15:50:53",
    "date_iso": "2018-02-05T15:50:53.667801",
    "params": null,
    "system": {
      "nodename": "gibson",
      "machine": "x86_64",
      "platform": "Linux-4.4.0-112-generic-x86_64-with-debian-stretch-sid",
      "processor": "x86_64",
      "version": "#135-Ubuntu SMP Fri Jan 19 11:48:36 UTC 2018",
      "system": "Linux",
      "cpu_count": 8,
      "cpu_times": {
        "user": 81445.76,
        "system": 18033.52,
        "idle": 7630551.47,
        "nice": 732.25
      },
      "cpu_percent": 99.8,
      "virtual_memory": {
        "total": 33618501632,
        "available": 25002840064,
        "percent": 25.6,
        "used": 7538659328,
        "free": 9681838080
      }
    },
    "process": {
      "username": "evgeniya",
      "cwd": "/cw/dtailocal/mercs_python/src/core",
      "create_time": 1517842247.1,
      "cpu_times": {
        "user": 0.7,
        "system": 0.1
      }
    },
    "logfile": "/cw/dtailocal/mercs_python/out/326/wq/logs/mercspython_Log_F01",
    "command": "python /cw/dtailocal/mercs_python/bin/mercspython.py /cw/dtailocal/mercs_python/out/326/wq/settings/mercspython_Settings_F01.s"
  }
},
{
  "ts": "2018-02-05T14:50:53.668783",
  "type": "INFO",
  "values": {
    "cmd": "python /cw/dtailocal/mercs_python/bin/mercspython.py /cw/dtailocal/mercs_python/out/326/wq/settings/mercspython_Settings_F01.s",
    "cwd": null
  }
},
{
  "ts": "2018-02-05T14:50:53.677172",
  "type": "INFO",
  "values": "Start: Run process"
},
{
  "ts": "2018-02-05T14:50:53.703795",
  "type": "INFO",
  "values": "Write log to /cw/dtailocal/mercs_python/out/326/wq/logs/mercspython_Log_F01.running.log"
},
{
  "ts": "2018-02-05T14:50:58.509617",
  "type": "INFO",
  "values": "Process ended (returncode 0)"
},
{
  "ts": "2018-02-05T14:50:58.509694",
  "type": "INFO",
  "values": "Finished: Run process 4.833 seconds"
},
{
  "ts": "2018-02-05T14:50:58.509778",
  "type": "WARNING",
  "values": {
    "Exit": "finished",
    "Returncode": 0,
    "Time": 4.832545518875122
  }
}
]
