[
{
  "ts": "2018-02-05T14:51:12.713305",
  "type": "SETTINGS",
  "values": {
    "date": "2018/02/05 15:51:12",
    "date_iso": "2018-02-05T15:51:12.712385",
    "params": null,
    "system": {
      "nodename": "gibson",
      "machine": "x86_64",
      "platform": "Linux-4.4.0-112-generic-x86_64-with-debian-stretch-sid",
      "processor": "x86_64",
      "version": "#135-Ubuntu SMP Fri Jan 19 11:48:36 UTC 2018",
      "system": "Linux",
      "cpu_count": 8,
      "cpu_times": {
        "user": 81595.32,
        "system": 18035.73,
        "idle": 7630551.75,
        "nice": 732.25
      },
      "cpu_percent": 99.8,
      "virtual_memory": {
        "total": 33618501632,
        "available": 25509453824,
        "percent": 24.1,
        "used": 7041474560,
        "free": 10179690496
      }
    },
    "process": {
      "username": "evgeniya",
      "cwd": "/cw/dtailocal/mercs_python/src/core",
      "create_time": 1517842247.1,
      "cpu_times": {
        "user": 1.03,
        "system": 0.19
      }
    },
    "logfile": "/cw/dtailocal/mercs_python/out/326/wq/logs/mercspython_Log_F05",
    "command": "python /cw/dtailocal/mercs_python/bin/mercspython.py /cw/dtailocal/mercs_python/out/326/wq/settings/mercspython_Settings_F05.s"
  }
},
{
  "ts": "2018-02-05T14:51:12.713471",
  "type": "INFO",
  "values": {
    "cmd": "python /cw/dtailocal/mercs_python/bin/mercspython.py /cw/dtailocal/mercs_python/out/326/wq/settings/mercspython_Settings_F05.s",
    "cwd": null
  }
},
{
  "ts": "2018-02-05T14:51:12.729144",
  "type": "INFO",
  "values": "Start: Run process"
},
{
  "ts": "2018-02-05T14:51:12.775773",
  "type": "INFO",
  "values": "Write log to /cw/dtailocal/mercs_python/out/326/wq/logs/mercspython_Log_F05.running.log"
},
{
  "ts": "2018-02-05T14:51:17.381400",
  "type": "INFO",
  "values": "Process ended (returncode 0)"
},
{
  "ts": "2018-02-05T14:51:17.381484",
  "type": "INFO",
  "values": "Finished: Run process 4.652 seconds"
},
{
  "ts": "2018-02-05T14:51:17.381565",
  "type": "WARNING",
  "values": {
    "Exit": "finished",
    "Returncode": 0,
    "Time": 4.6523613929748535
  }
},
{
  "ts": "2018-02-05T14:51:17.387840",
  "type": "INFO",
  "values": "Closing /cw/dtailocal/mercs_python/out/326/wq/logs/mercspython_Log_F05.running.log"
}
]
