[
{
  "ts": "2018-02-07T13:06:15.981489",
  "type": "SETTINGS",
  "values": {
    "date": "2018/02/07 14:06:15",
    "date_iso": "2018-02-07T14:06:15.980559",
    "params": null,
    "system": {
      "nodename": "gibson",
      "machine": "x86_64",
      "platform": "Linux-4.4.0-112-generic-x86_64-with-debian-stretch-sid",
      "processor": "x86_64",
      "version": "#135-Ubuntu SMP Fri Jan 19 11:48:36 UTC 2018",
      "system": "Linux",
      "cpu_count": 8,
      "cpu_times": {
        "user": 401019.37,
        "system": 23569.32,
        "idle": 8633961.09,
        "nice": 906.12
      },
      "cpu_percent": 99.6,
      "virtual_memory": {
        "total": 33618501632,
        "available": 25432432640,
        "percent": 24.3,
        "used": 7241842688,
        "free": 11094523904
      }
    },
    "process": {
      "username": "evgeniya",
      "cwd": "/cw/dtailocal/mercs_python/src/core",
      "create_time": 1518008663.99,
      "cpu_times": {
        "user": 1.06,
        "system": 0.07
      }
    },
    "logfile": "/cw/dtailocal/mercs_python/out/811/rf1/logs/mercspython_Log_F01",
    "command": "python /cw/dtailocal/mercs_python/bin/mercspython.py /cw/dtailocal/mercs_python/out/811/rf1/settings/mercspython_Settings_F01.s"
  }
},
{
  "ts": "2018-02-07T13:06:15.981658",
  "type": "INFO",
  "values": {
    "cmd": "python /cw/dtailocal/mercs_python/bin/mercspython.py /cw/dtailocal/mercs_python/out/811/rf1/settings/mercspython_Settings_F01.s",
    "cwd": null
  }
},
{
  "ts": "2018-02-07T13:06:15.993246",
  "type": "INFO",
  "values": "Start: Run process"
},
{
  "ts": "2018-02-07T13:06:16.030990",
  "type": "INFO",
  "values": "Write log to /cw/dtailocal/mercs_python/out/811/rf1/logs/mercspython_Log_F01.running.log"
},
{
  "ts": "2018-02-07T13:08:15.392926",
  "type": "INFO",
  "values": "Process ended (returncode 0)"
},
{
  "ts": "2018-02-07T13:08:15.393014",
  "type": "INFO",
  "values": "Finished: Run process 119.400 seconds"
},
{
  "ts": "2018-02-07T13:08:15.393096",
  "type": "WARNING",
  "values": {
    "Exit": "finished",
    "Returncode": 0,
    "Time": 119.3997950553894
  }
},
{
  "ts": "2018-02-07T13:08:15.403902",
  "type": "INFO",
  "values": "Closing /cw/dtailocal/mercs_python/out/811/rf1/logs/mercspython_Log_F01.running.log"
}
]
