[
{
  "ts": "2018-02-05T14:55:38.201252",
  "type": "SETTINGS",
  "values": {
    "date": "2018/02/05 15:55:38",
    "date_iso": "2018-02-05T15:55:38.200334",
    "params": null,
    "system": {
      "nodename": "gibson",
      "machine": "x86_64",
      "platform": "Linux-4.4.0-112-generic-x86_64-with-debian-stretch-sid",
      "processor": "x86_64",
      "version": "#135-Ubuntu SMP Fri Jan 19 11:48:36 UTC 2018",
      "system": "Linux",
      "cpu_count": 8,
      "cpu_times": {
        "user": 83691.96,
        "system": 18059.48,
        "idle": 7630553.31,
        "nice": 732.25
      },
      "cpu_percent": 99.7,
      "virtual_memory": {
        "total": 33618501632,
        "available": 24495919104,
        "percent": 27.1,
        "used": 8045596672,
        "free": 9015549952
      }
    },
    "process": {
      "username": "evgeniya",
      "cwd": "/cw/dtailocal/mercs_python/src/core",
      "create_time": 1517842528.44,
      "cpu_times": {
        "user": 0.66,
        "system": 0.1
      }
    },
    "logfile": "/cw/dtailocal/mercs_python/out/336/enb/logs/mercspython_Log_F03",
    "command": "python /cw/dtailocal/mercs_python/bin/mercspython.py /cw/dtailocal/mercs_python/out/336/enb/settings/mercspython_Settings_F03.s"
  }
},
{
  "ts": "2018-02-05T14:55:38.201425",
  "type": "INFO",
  "values": {
    "cmd": "python /cw/dtailocal/mercs_python/bin/mercspython.py /cw/dtailocal/mercs_python/out/336/enb/settings/mercspython_Settings_F03.s",
    "cwd": null
  }
},
{
  "ts": "2018-02-05T14:55:38.229266",
  "type": "INFO",
  "values": "Start: Run process"
},
{
  "ts": "2018-02-05T14:55:38.283784",
  "type": "INFO",
  "values": "Write log to /cw/dtailocal/mercs_python/out/336/enb/logs/mercspython_Log_F03.running.log"
},
{
  "ts": "2018-02-05T14:55:41.687958",
  "type": "INFO",
  "values": "Process ended (returncode 0)"
},
{
  "ts": "2018-02-05T14:55:41.688037",
  "type": "INFO",
  "values": "Finished: Run process 3.459 seconds"
},
{
  "ts": "2018-02-05T14:55:41.688129",
  "type": "WARNING",
  "values": {
    "Exit": "finished",
    "Returncode": 0,
    "Time": 3.4588074684143066
  }
}
]
