[
{
  "ts": "2018-02-07T13:04:26.633425",
  "type": "SETTINGS",
  "values": {
    "date": "2018/02/07 14:04:26",
    "date_iso": "2018-02-07T14:04:26.631067",
    "params": null,
    "system": {
      "nodename": "gibson",
      "machine": "x86_64",
      "platform": "Linux-4.4.0-112-generic-x86_64-with-debian-stretch-sid",
      "processor": "x86_64",
      "version": "#135-Ubuntu SMP Fri Jan 19 11:48:36 UTC 2018",
      "system": "Linux",
      "cpu_count": 8,
      "cpu_times": {
        "user": 400176.33,
        "system": 23543.25,
        "idle": 8633957.65,
        "nice": 906.12
      },
      "cpu_percent": 97.6,
      "virtual_memory": {
        "total": 33618501632,
        "available": 25393238016,
        "percent": 24.5,
        "used": 7280410624,
        "free": 11093086208
      }
    },
    "process": {
      "username": "evgeniya",
      "cwd": "/cw/dtailocal/mercs_python/src/core",
      "create_time": 1518008663.76,
      "cpu_times": {
        "user": 1.7,
        "system": 0.1
      }
    },
    "logfile": "/cw/dtailocal/mercs_python/out/810/oes97/logs/mercspython_Log_F00",
    "command": "python /cw/dtailocal/mercs_python/bin/mercspython.py /cw/dtailocal/mercs_python/out/810/oes97/settings/mercspython_Settings_F00.s"
  }
},
{
  "ts": "2018-02-07T13:04:26.633584",
  "type": "INFO",
  "values": {
    "cmd": "python /cw/dtailocal/mercs_python/bin/mercspython.py /cw/dtailocal/mercs_python/out/810/oes97/settings/mercspython_Settings_F00.s",
    "cwd": null
  }
},
{
  "ts": "2018-02-07T13:04:26.654713",
  "type": "INFO",
  "values": "Start: Run process"
},
{
  "ts": "2018-02-07T13:04:26.688321",
  "type": "INFO",
  "values": "Write log to /cw/dtailocal/mercs_python/out/810/oes97/logs/mercspython_Log_F00.running.log"
},
{
  "ts": "2018-02-07T13:05:08.549514",
  "type": "INFO",
  "values": "Process ended (returncode 0)"
},
{
  "ts": "2018-02-07T13:05:08.549602",
  "type": "INFO",
  "values": "Finished: Run process 41.895 seconds"
},
{
  "ts": "2018-02-07T13:05:08.549694",
  "type": "WARNING",
  "values": {
    "Exit": "finished",
    "Returncode": 0,
    "Time": 41.89493012428284
  }
},
{
  "ts": "2018-02-07T13:05:08.552236",
  "type": "INFO",
  "values": "Closing /cw/dtailocal/mercs_python/out/810/oes97/logs/mercspython_Log_F00.running.log"
}
]
