[
{
  "ts": "2018-02-05T16:27:55.341276",
  "type": "SETTINGS",
  "values": {
    "date": "2018/02/05 17:27:55",
    "date_iso": "2018-02-05T17:27:55.340370",
    "params": null,
    "system": {
      "nodename": "gibson",
      "machine": "x86_64",
      "platform": "Linux-4.4.0-112-generic-x86_64-with-debian-stretch-sid",
      "processor": "x86_64",
      "version": "#135-Ubuntu SMP Fri Jan 19 11:48:36 UTC 2018",
      "system": "Linux",
      "cpu_count": 8,
      "cpu_times": {
        "user": 120798.8,
        "system": 18482.0,
        "idle": 7637233.0,
        "nice": 751.58
      },
      "cpu_percent": 99.9,
      "virtual_memory": {
        "total": 33618501632,
        "available": 26516918272,
        "percent": 21.1,
        "used": 6159536128,
        "free": 9908072448
      }
    },
    "process": {
      "username": "evgeniya",
      "cwd": "/cw/dtailocal/mercs_python/src/core",
      "create_time": 1517848015.37,
      "cpu_times": {
        "user": 1.08,
        "system": 0.13
      }
    },
    "logfile": "/cw/dtailocal/mercs_python/out/220/wq/logs/mercspython_Log_F07",
    "command": "python /cw/dtailocal/mercs_python/bin/mercspython.py /cw/dtailocal/mercs_python/out/220/wq/settings/mercspython_Settings_F07.s"
  }
},
{
  "ts": "2018-02-05T16:27:55.341441",
  "type": "INFO",
  "values": {
    "cmd": "python /cw/dtailocal/mercs_python/bin/mercspython.py /cw/dtailocal/mercs_python/out/220/wq/settings/mercspython_Settings_F07.s",
    "cwd": null
  }
},
{
  "ts": "2018-02-05T16:27:55.373245",
  "type": "INFO",
  "values": "Start: Run process"
},
{
  "ts": "2018-02-05T16:27:55.411710",
  "type": "INFO",
  "values": "Write log to /cw/dtailocal/mercs_python/out/220/wq/logs/mercspython_Log_F07.running.log"
},
{
  "ts": "2018-02-05T16:28:03.821641",
  "type": "INFO",
  "values": "Process ended (returncode 0)"
},
{
  "ts": "2018-02-05T16:28:03.821740",
  "type": "INFO",
  "values": "Finished: Run process 8.449 seconds"
},
{
  "ts": "2018-02-05T16:28:03.821824",
  "type": "WARNING",
  "values": {
    "Exit": "finished",
    "Returncode": 0,
    "Time": 8.448518991470337
  }
},
{
  "ts": "2018-02-05T16:28:03.827812",
  "type": "INFO",
  "values": "Closing /cw/dtailocal/mercs_python/out/220/wq/logs/mercspython_Log_F07.running.log"
}
]
