[
{
  "ts": "2018-02-07T13:05:09.183344",
  "type": "SETTINGS",
  "values": {
    "date": "2018/02/07 14:05:09",
    "date_iso": "2018-02-07T14:05:09.182467",
    "params": null,
    "system": {
      "nodename": "gibson",
      "machine": "x86_64",
      "platform": "Linux-4.4.0-112-generic-x86_64-with-debian-stretch-sid",
      "processor": "x86_64",
      "version": "#135-Ubuntu SMP Fri Jan 19 11:48:36 UTC 2018",
      "system": "Linux",
      "cpu_count": 8,
      "cpu_times": {
        "user": 400502.36,
        "system": 23554.04,
        "idle": 8633960.02,
        "nice": 906.12
      },
      "cpu_percent": 99.5,
      "virtual_memory": {
        "total": 33618501632,
        "available": 24988098560,
        "percent": 25.7,
        "used": 7686111232,
        "free": 10671394816
      }
    },
    "process": {
      "username": "evgeniya",
      "cwd": "/cw/dtailocal/mercs_python/src/core",
      "create_time": 1518008665.46,
      "cpu_times": {
        "user": 1.07,
        "system": 0.14
      }
    },
    "logfile": "/cw/dtailocal/mercs_python/out/813/wq/logs/mercspython_Log_F06",
    "command": "python /cw/dtailocal/mercs_python/bin/mercspython.py /cw/dtailocal/mercs_python/out/813/wq/settings/mercspython_Settings_F06.s"
  }
},
{
  "ts": "2018-02-07T13:05:09.183560",
  "type": "INFO",
  "values": {
    "cmd": "python /cw/dtailocal/mercs_python/bin/mercspython.py /cw/dtailocal/mercs_python/out/813/wq/settings/mercspython_Settings_F06.s",
    "cwd": null
  }
},
{
  "ts": "2018-02-07T13:05:09.204416",
  "type": "INFO",
  "values": "Start: Run process"
},
{
  "ts": "2018-02-07T13:05:09.219801",
  "type": "INFO",
  "values": "Write log to /cw/dtailocal/mercs_python/out/813/wq/logs/mercspython_Log_F06.running.log"
},
{
  "ts": "2018-02-07T13:05:16.030282",
  "type": "INFO",
  "values": "Process ended (returncode 0)"
},
{
  "ts": "2018-02-07T13:05:16.030358",
  "type": "INFO",
  "values": "Finished: Run process 6.826 seconds"
},
{
  "ts": "2018-02-07T13:05:16.030439",
  "type": "WARNING",
  "values": {
    "Exit": "finished",
    "Returncode": 0,
    "Time": 6.82597279548645
  }
},
{
  "ts": "2018-02-07T13:05:16.035833",
  "type": "INFO",
  "values": "Closing /cw/dtailocal/mercs_python/out/813/wq/logs/mercspython_Log_F06.running.log"
}
]
