[
{
  "ts": "2018-02-07T13:06:11.324947",
  "type": "SETTINGS",
  "values": {
    "date": "2018/02/07 14:06:11",
    "date_iso": "2018-02-07T14:06:11.324143",
    "params": null,
    "system": {
      "nodename": "gibson",
      "machine": "x86_64",
      "platform": "Linux-4.4.0-112-generic-x86_64-with-debian-stretch-sid",
      "processor": "x86_64",
      "version": "#135-Ubuntu SMP Fri Jan 19 11:48:36 UTC 2018",
      "system": "Linux",
      "cpu_count": 8,
      "cpu_times": {
        "user": 400983.66,
        "system": 23567.89,
        "idle": 8633961.04,
        "nice": 906.12
      },
      "cpu_percent": 99.8,
      "virtual_memory": {
        "total": 33618501632,
        "available": 24739528704,
        "percent": 26.4,
        "used": 7936000000,
        "free": 10403033088
      }
    },
    "process": {
      "username": "evgeniya",
      "cwd": "/cw/dtailocal/mercs_python/src/core",
      "create_time": 1518008739.84,
      "cpu_times": {
        "user": 1.31,
        "system": 0.26
      }
    },
    "logfile": "/cw/dtailocal/mercs_python/out/822/enb/logs/mercspython_Log_F09",
    "command": "python /cw/dtailocal/mercs_python/bin/mercspython.py /cw/dtailocal/mercs_python/out/822/enb/settings/mercspython_Settings_F09.s"
  }
},
{
  "ts": "2018-02-07T13:06:11.325094",
  "type": "INFO",
  "values": {
    "cmd": "python /cw/dtailocal/mercs_python/bin/mercspython.py /cw/dtailocal/mercs_python/out/822/enb/settings/mercspython_Settings_F09.s",
    "cwd": null
  }
},
{
  "ts": "2018-02-07T13:06:11.345294",
  "type": "INFO",
  "values": "Start: Run process"
},
{
  "ts": "2018-02-07T13:06:11.378422",
  "type": "INFO",
  "values": "Write log to /cw/dtailocal/mercs_python/out/822/enb/logs/mercspython_Log_F09.running.log"
},
{
  "ts": "2018-02-07T13:06:14.591707",
  "type": "INFO",
  "values": "Process ended (returncode 0)"
},
{
  "ts": "2018-02-07T13:06:14.591785",
  "type": "INFO",
  "values": "Finished: Run process 3.247 seconds"
},
{
  "ts": "2018-02-07T13:06:14.591863",
  "type": "WARNING",
  "values": {
    "Exit": "finished",
    "Returncode": 0,
    "Time": 3.2465267181396484
  }
},
{
  "ts": "2018-02-07T13:06:14.599824",
  "type": "INFO",
  "values": "Closing /cw/dtailocal/mercs_python/out/822/enb/logs/mercspython_Log_F09.running.log"
}
]
