[
{
  "ts": "2018-02-07T13:14:43.743785",
  "type": "SETTINGS",
  "values": {
    "date": "2018/02/07 14:14:43",
    "date_iso": "2018-02-07T14:14:43.742952",
    "params": null,
    "system": {
      "nodename": "gibson",
      "machine": "x86_64",
      "platform": "Linux-4.4.0-112-generic-x86_64-with-debian-stretch-sid",
      "processor": "x86_64",
      "version": "#135-Ubuntu SMP Fri Jan 19 11:48:36 UTC 2018",
      "system": "Linux",
      "cpu_count": 8,
      "cpu_times": {
        "user": 404766.11,
        "system": 23680.9,
        "idle": 8634156.78,
        "nice": 906.12
      },
      "cpu_percent": 70.9,
      "virtual_memory": {
        "total": 33618501632,
        "available": 25421172736,
        "percent": 24.4,
        "used": 7273168896,
        "free": 10947002368
      }
    },
    "process": {
      "username": "evgeniya",
      "cwd": "/cw/dtailocal/mercs_python/src/core",
      "create_time": 1518008775.03,
      "cpu_times": {
        "user": 1.53,
        "system": 0.38
      }
    },
    "logfile": "/cw/dtailocal/mercs_python/out/825/rf1/logs/mercspython_Log_F07",
    "command": "python /cw/dtailocal/mercs_python/bin/mercspython.py /cw/dtailocal/mercs_python/out/825/rf1/settings/mercspython_Settings_F07.s"
  }
},
{
  "ts": "2018-02-07T13:14:43.743937",
  "type": "INFO",
  "values": {
    "cmd": "python /cw/dtailocal/mercs_python/bin/mercspython.py /cw/dtailocal/mercs_python/out/825/rf1/settings/mercspython_Settings_F07.s",
    "cwd": null
  }
},
{
  "ts": "2018-02-07T13:14:43.747772",
  "type": "INFO",
  "values": "Start: Run process"
},
{
  "ts": "2018-02-07T13:14:43.748261",
  "type": "INFO",
  "values": "Write log to /cw/dtailocal/mercs_python/out/825/rf1/logs/mercspython_Log_F07.running.log"
},
{
  "ts": "2018-02-07T13:15:31.405603",
  "type": "INFO",
  "values": "Process ended (returncode 0)"
},
{
  "ts": "2018-02-07T13:15:31.405711",
  "type": "INFO",
  "values": "Finished: Run process 47.658 seconds"
},
{
  "ts": "2018-02-07T13:15:31.405802",
  "type": "WARNING",
  "values": {
    "Exit": "finished",
    "Returncode": 0,
    "Time": 47.65797781944275
  }
}
]
