[
{
  "ts": "2018-02-06T12:09:19.889684",
  "type": "SETTINGS",
  "values": {
    "date": "2018/02/06 13:09:19",
    "date_iso": "2018-02-06T13:09:19.888771",
    "params": null,
    "system": {
      "nodename": "gibson",
      "machine": "x86_64",
      "platform": "Linux-4.4.0-112-generic-x86_64-with-debian-stretch-sid",
      "processor": "x86_64",
      "version": "#135-Ubuntu SMP Fri Jan 19 11:48:36 UTC 2018",
      "system": "Linux",
      "cpu_count": 8,
      "cpu_times": {
        "user": 343078.44,
        "system": 20907.34,
        "idle": 7978263.16,
        "nice": 821.4
      },
      "cpu_percent": 87.2,
      "virtual_memory": {
        "total": 33618501632,
        "available": 25577959424,
        "percent": 23.9,
        "used": 7051579392,
        "free": 13406744576
      }
    },
    "process": {
      "username": "evgeniya",
      "cwd": "/cw/dtailocal/mercs_python/src/core",
      "create_time": 1517918789.58,
      "cpu_times": {
        "user": 2.11,
        "system": 0.35
      }
    },
    "logfile": "/cw/dtailocal/mercs_python/out/604/oes97/logs/mercspython_Log_F06",
    "command": "python /cw/dtailocal/mercs_python/bin/mercspython.py /cw/dtailocal/mercs_python/out/604/oes97/settings/mercspython_Settings_F06.s"
  }
},
{
  "ts": "2018-02-06T12:09:19.889844",
  "type": "INFO",
  "values": {
    "cmd": "python /cw/dtailocal/mercs_python/bin/mercspython.py /cw/dtailocal/mercs_python/out/604/oes97/settings/mercspython_Settings_F06.s",
    "cwd": null
  }
},
{
  "ts": "2018-02-06T12:09:19.901895",
  "type": "INFO",
  "values": "Start: Run process"
},
{
  "ts": "2018-02-06T12:09:19.902419",
  "type": "INFO",
  "values": "Write log to /cw/dtailocal/mercs_python/out/604/oes97/logs/mercspython_Log_F06.running.log"
},
{
  "ts": "2018-02-06T12:09:46.341882",
  "type": "INFO",
  "values": "Process ended (returncode 0)"
},
{
  "ts": "2018-02-06T12:09:46.341964",
  "type": "INFO",
  "values": "Finished: Run process 26.440 seconds"
},
{
  "ts": "2018-02-06T12:09:46.342055",
  "type": "WARNING",
  "values": {
    "Exit": "finished",
    "Returncode": 0,
    "Time": 26.440102100372314
  }
},
{
  "ts": "2018-02-06T12:09:46.342381",
  "type": "INFO",
  "values": "Closing /cw/dtailocal/mercs_python/out/604/oes97/logs/mercspython_Log_F06.running.log"
}
]
