[
{
  "ts": "2018-02-06T12:00:43.502954",
  "type": "SETTINGS",
  "values": {
    "date": "2018/02/06 13:00:43",
    "date_iso": "2018-02-06T13:00:43.502170",
    "params": null,
    "system": {
      "nodename": "gibson",
      "machine": "x86_64",
      "platform": "Linux-4.4.0-112-generic-x86_64-with-debian-stretch-sid",
      "processor": "x86_64",
      "version": "#135-Ubuntu SMP Fri Jan 19 11:48:36 UTC 2018",
      "system": "Linux",
      "cpu_count": 8,
      "cpu_times": {
        "user": 340784.96,
        "system": 20829.93,
        "idle": 7976524.86,
        "nice": 821.4
      },
      "cpu_percent": 33.6,
      "virtual_memory": {
        "total": 33618501632,
        "available": 24214351872,
        "percent": 28.0,
        "used": 8361287680,
        "free": 12136587264
      }
    },
    "process": {
      "username": "evgeniya",
      "cwd": "/cw/dtailocal/mercs_python/src/core",
      "create_time": 1517917604.8,
      "cpu_times": {
        "user": 1.9,
        "system": 0.34
      }
    },
    "logfile": "/cw/dtailocal/mercs_python/out/555/scm1d/logs/mercspython_Log_F02",
    "command": "python /cw/dtailocal/mercs_python/bin/mercspython.py /cw/dtailocal/mercs_python/out/555/scm1d/settings/mercspython_Settings_F02.s"
  }
},
{
  "ts": "2018-02-06T12:00:43.503084",
  "type": "INFO",
  "values": {
    "cmd": "python /cw/dtailocal/mercs_python/bin/mercspython.py /cw/dtailocal/mercs_python/out/555/scm1d/settings/mercspython_Settings_F02.s",
    "cwd": null
  }
},
{
  "ts": "2018-02-06T12:00:43.508071",
  "type": "INFO",
  "values": "Start: Run process"
},
{
  "ts": "2018-02-06T12:00:43.508605",
  "type": "INFO",
  "values": "Write log to /cw/dtailocal/mercs_python/out/555/scm1d/logs/mercspython_Log_F02.running.log"
},
{
  "ts": "2018-02-06T12:08:26.767117",
  "type": "INFO",
  "values": "Process ended (returncode 0)"
},
{
  "ts": "2018-02-06T12:08:26.767198",
  "type": "INFO",
  "values": "Finished: Run process 463.259 seconds"
},
{
  "ts": "2018-02-06T12:08:26.767279",
  "type": "WARNING",
  "values": {
    "Exit": "finished",
    "Returncode": 0,
    "Time": 463.2591676712036
  }
}
]
