[
{
  "ts": "2018-02-07T10:14:54.709238",
  "type": "SETTINGS",
  "values": {
    "date": "2018/02/07 11:14:54",
    "date_iso": "2018-02-07T11:14:54.708375",
    "params": null,
    "system": {
      "nodename": "gibson",
      "machine": "x86_64",
      "platform": "Linux-4.4.0-112-generic-x86_64-with-debian-stretch-sid",
      "processor": "x86_64",
      "version": "#135-Ubuntu SMP Fri Jan 19 11:48:36 UTC 2018",
      "system": "Linux",
      "cpu_count": 8,
      "cpu_times": {
        "user": 377066.13,
        "system": 22340.28,
        "idle": 8577337.26,
        "nice": 898.04
      },
      "cpu_percent": 98.7,
      "virtual_memory": {
        "total": 33618501632,
        "available": 26347298816,
        "percent": 21.6,
        "used": 6405406720,
        "free": 12184985600
      }
    },
    "process": {
      "username": "evgeniya",
      "cwd": "/cw/dtailocal/mercs_python/src/core",
      "create_time": 1517998486.05,
      "cpu_times": {
        "user": 0.72,
        "system": 0.08
      }
    },
    "logfile": "/cw/dtailocal/mercs_python/out/707/andro/logs/mercspython_Log_F02",
    "command": "python /cw/dtailocal/mercs_python/bin/mercspython.py /cw/dtailocal/mercs_python/out/707/andro/settings/mercspython_Settings_F02.s"
  }
},
{
  "ts": "2018-02-07T10:14:54.709397",
  "type": "INFO",
  "values": {
    "cmd": "python /cw/dtailocal/mercs_python/bin/mercspython.py /cw/dtailocal/mercs_python/out/707/andro/settings/mercspython_Settings_F02.s",
    "cwd": null
  }
},
{
  "ts": "2018-02-07T10:14:54.721229",
  "type": "INFO",
  "values": "Start: Run process"
},
{
  "ts": "2018-02-07T10:14:54.763777",
  "type": "INFO",
  "values": "Write log to /cw/dtailocal/mercs_python/out/707/andro/logs/mercspython_Log_F02.running.log"
},
{
  "ts": "2018-02-07T10:14:57.967736",
  "type": "INFO",
  "values": "Process ended (returncode 0)"
},
{
  "ts": "2018-02-07T10:14:57.967813",
  "type": "INFO",
  "values": "Finished: Run process 3.247 seconds"
},
{
  "ts": "2018-02-07T10:14:57.967895",
  "type": "WARNING",
  "values": {
    "Exit": "finished",
    "Returncode": 0,
    "Time": 3.2466061115264893
  }
}
]
