[
{
  "ts": "2018-02-07T10:15:20.135886",
  "type": "SETTINGS",
  "values": {
    "date": "2018/02/07 11:15:20",
    "date_iso": "2018-02-07T11:15:20.135006",
    "params": null,
    "system": {
      "nodename": "gibson",
      "machine": "x86_64",
      "platform": "Linux-4.4.0-112-generic-x86_64-with-debian-stretch-sid",
      "processor": "x86_64",
      "version": "#135-Ubuntu SMP Fri Jan 19 11:48:36 UTC 2018",
      "system": "Linux",
      "cpu_count": 8,
      "cpu_times": {
        "user": 377256.76,
        "system": 22350.22,
        "idle": 8577339.03,
        "nice": 898.04
      },
      "cpu_percent": 99.2,
      "virtual_memory": {
        "total": 33618501632,
        "available": 26407538688,
        "percent": 21.4,
        "used": 6342217728,
        "free": 12240412672
      }
    },
    "process": {
      "username": "evgeniya",
      "cwd": "/cw/dtailocal/mercs_python/src/core",
      "create_time": 1517998486.05,
      "cpu_times": {
        "user": 1.31,
        "system": 0.22
      }
    },
    "logfile": "/cw/dtailocal/mercs_python/out/707/andro/logs/mercspython_Log_F09",
    "command": "python /cw/dtailocal/mercs_python/bin/mercspython.py /cw/dtailocal/mercs_python/out/707/andro/settings/mercspython_Settings_F09.s"
  }
},
{
  "ts": "2018-02-07T10:15:20.136041",
  "type": "INFO",
  "values": {
    "cmd": "python /cw/dtailocal/mercs_python/bin/mercspython.py /cw/dtailocal/mercs_python/out/707/andro/settings/mercspython_Settings_F09.s",
    "cwd": null
  }
},
{
  "ts": "2018-02-07T10:15:20.149737",
  "type": "INFO",
  "values": "Start: Run process"
},
{
  "ts": "2018-02-07T10:15:20.171787",
  "type": "INFO",
  "values": "Write log to /cw/dtailocal/mercs_python/out/707/andro/logs/mercspython_Log_F09.running.log"
},
{
  "ts": "2018-02-07T10:15:23.583968",
  "type": "INFO",
  "values": "Process ended (returncode 0)"
},
{
  "ts": "2018-02-07T10:15:23.584051",
  "type": "INFO",
  "values": "Finished: Run process 3.434 seconds"
},
{
  "ts": "2018-02-07T10:15:23.584144",
  "type": "WARNING",
  "values": {
    "Exit": "finished",
    "Returncode": 0,
    "Time": 3.4343385696411133
  }
},
{
  "ts": "2018-02-07T10:15:23.584602",
  "type": "INFO",
  "values": "Closing /cw/dtailocal/mercs_python/out/707/andro/logs/mercspython_Log_F09.running.log"
}
]
