[
{
  "ts": "2018-02-07T13:03:44.436611",
  "type": "SETTINGS",
  "values": {
    "date": "2018/02/07 14:03:44",
    "date_iso": "2018-02-07T14:03:44.434345",
    "params": null,
    "system": {
      "nodename": "gibson",
      "machine": "x86_64",
      "platform": "Linux-4.4.0-112-generic-x86_64-with-debian-stretch-sid",
      "processor": "x86_64",
      "version": "#135-Ubuntu SMP Fri Jan 19 11:48:36 UTC 2018",
      "system": "Linux",
      "cpu_count": 8,
      "cpu_times": {
        "user": 399860.0,
        "system": 23528.74,
        "idle": 8633952.76,
        "nice": 906.12
      },
      "cpu_percent": 89.7,
      "virtual_memory": {
        "total": 33618501632,
        "available": 26107367424,
        "percent": 22.3,
        "used": 6557892608,
        "free": 11821981696
      }
    },
    "process": {
      "username": "evgeniya",
      "cwd": "/cw/dtailocal/mercs_python/src/core",
      "create_time": 1518008621.83,
      "cpu_times": {
        "user": 1.64,
        "system": 0.09
      }
    },
    "logfile": "/cw/dtailocal/mercs_python/out/803/oes97/logs/mercspython_Log_F00",
    "command": "python /cw/dtailocal/mercs_python/bin/mercspython.py /cw/dtailocal/mercs_python/out/803/oes97/settings/mercspython_Settings_F00.s"
  }
},
{
  "ts": "2018-02-07T13:03:44.436777",
  "type": "INFO",
  "values": {
    "cmd": "python /cw/dtailocal/mercs_python/bin/mercspython.py /cw/dtailocal/mercs_python/out/803/oes97/settings/mercspython_Settings_F00.s",
    "cwd": null
  }
},
{
  "ts": "2018-02-07T13:03:44.441690",
  "type": "INFO",
  "values": "Start: Run process"
},
{
  "ts": "2018-02-07T13:03:44.442759",
  "type": "INFO",
  "values": "Write log to /cw/dtailocal/mercs_python/out/803/oes97/logs/mercspython_Log_F00.running.log"
},
{
  "ts": "2018-02-07T13:04:27.518409",
  "type": "INFO",
  "values": "Process ended (returncode 0)"
},
{
  "ts": "2018-02-07T13:04:27.518487",
  "type": "INFO",
  "values": "Finished: Run process 43.077 seconds"
},
{
  "ts": "2018-02-07T13:04:27.518579",
  "type": "WARNING",
  "values": {
    "Exit": "finished",
    "Returncode": 0,
    "Time": 43.076847553253174
  }
},
{
  "ts": "2018-02-07T13:04:27.527800",
  "type": "INFO",
  "values": "Closing /cw/dtailocal/mercs_python/out/803/oes97/logs/mercspython_Log_F00.running.log"
}
]
