[
{
  "ts": "2018-02-07T13:04:27.529218",
  "type": "SETTINGS",
  "values": {
    "date": "2018/02/07 14:04:27",
    "date_iso": "2018-02-07T14:04:27.528401",
    "params": null,
    "system": {
      "nodename": "gibson",
      "machine": "x86_64",
      "platform": "Linux-4.4.0-112-generic-x86_64-with-debian-stretch-sid",
      "processor": "x86_64",
      "version": "#135-Ubuntu SMP Fri Jan 19 11:48:36 UTC 2018",
      "system": "Linux",
      "cpu_count": 8,
      "cpu_times": {
        "user": 400183.07,
        "system": 23543.56,
        "idle": 8633957.72,
        "nice": 906.12
      },
      "cpu_percent": 98.6,
      "virtual_memory": {
        "total": 33618501632,
        "available": 25587224576,
        "percent": 23.9,
        "used": 7087042560,
        "free": 11286036480
      }
    },
    "process": {
      "username": "evgeniya",
      "cwd": "/cw/dtailocal/mercs_python/src/core",
      "create_time": 1518008621.83,
      "cpu_times": {
        "user": 1.8,
        "system": 0.13
      }
    },
    "logfile": "/cw/dtailocal/mercs_python/out/803/oes97/logs/mercspython_Log_F01",
    "command": "python /cw/dtailocal/mercs_python/bin/mercspython.py /cw/dtailocal/mercs_python/out/803/oes97/settings/mercspython_Settings_F01.s"
  }
},
{
  "ts": "2018-02-07T13:04:27.529364",
  "type": "INFO",
  "values": {
    "cmd": "python /cw/dtailocal/mercs_python/bin/mercspython.py /cw/dtailocal/mercs_python/out/803/oes97/settings/mercspython_Settings_F01.s",
    "cwd": null
  }
},
{
  "ts": "2018-02-07T13:04:27.539950",
  "type": "INFO",
  "values": "Start: Run process"
},
{
  "ts": "2018-02-07T13:04:27.555816",
  "type": "INFO",
  "values": "Write log to /cw/dtailocal/mercs_python/out/803/oes97/logs/mercspython_Log_F01.running.log"
},
{
  "ts": "2018-02-07T13:05:10.835722",
  "type": "INFO",
  "values": "Process ended (returncode 0)"
},
{
  "ts": "2018-02-07T13:05:10.835808",
  "type": "INFO",
  "values": "Finished: Run process 43.296 seconds"
},
{
  "ts": "2018-02-07T13:05:10.835896",
  "type": "WARNING",
  "values": {
    "Exit": "finished",
    "Returncode": 0,
    "Time": 43.2958984375
  }
}
]
