[
{
  "ts": "2018-02-07T13:05:10.841599",
  "type": "SETTINGS",
  "values": {
    "date": "2018/02/07 14:05:10",
    "date_iso": "2018-02-07T14:05:10.840667",
    "params": null,
    "system": {
      "nodename": "gibson",
      "machine": "x86_64",
      "platform": "Linux-4.4.0-112-generic-x86_64-with-debian-stretch-sid",
      "processor": "x86_64",
      "version": "#135-Ubuntu SMP Fri Jan 19 11:48:36 UTC 2018",
      "system": "Linux",
      "cpu_count": 8,
      "cpu_times": {
        "user": 400514.73,
        "system": 23554.68,
        "idle": 8633960.2,
        "nice": 906.12
      },
      "cpu_percent": 99.3,
      "virtual_memory": {
        "total": 33618501632,
        "available": 24918269952,
        "percent": 25.9,
        "used": 7755952128,
        "free": 10600783872
      }
    },
    "process": {
      "username": "evgeniya",
      "cwd": "/cw/dtailocal/mercs_python/src/core",
      "create_time": 1518008621.83,
      "cpu_times": {
        "user": 1.83,
        "system": 0.13
      }
    },
    "logfile": "/cw/dtailocal/mercs_python/out/803/oes97/logs/mercspython_Log_F02",
    "command": "python /cw/dtailocal/mercs_python/bin/mercspython.py /cw/dtailocal/mercs_python/out/803/oes97/settings/mercspython_Settings_F02.s"
  }
},
{
  "ts": "2018-02-07T13:05:10.841752",
  "type": "INFO",
  "values": {
    "cmd": "python /cw/dtailocal/mercs_python/bin/mercspython.py /cw/dtailocal/mercs_python/out/803/oes97/settings/mercspython_Settings_F02.s",
    "cwd": null
  }
},
{
  "ts": "2018-02-07T13:05:10.857708",
  "type": "INFO",
  "values": "Start: Run process"
},
{
  "ts": "2018-02-07T13:05:10.884151",
  "type": "INFO",
  "values": "Write log to /cw/dtailocal/mercs_python/out/803/oes97/logs/mercspython_Log_F02.running.log"
},
{
  "ts": "2018-02-07T13:05:57.147256",
  "type": "INFO",
  "values": "Process ended (returncode 0)"
},
{
  "ts": "2018-02-07T13:05:57.147341",
  "type": "INFO",
  "values": "Finished: Run process 46.290 seconds"
},
{
  "ts": "2018-02-07T13:05:57.147429",
  "type": "WARNING",
  "values": {
    "Exit": "finished",
    "Returncode": 0,
    "Time": 46.28966045379639
  }
}
]
