[
{
  "ts": "2018-02-05T16:26:49.753288",
  "type": "SETTINGS",
  "values": {
    "date": "2018/02/05 17:26:49",
    "date_iso": "2018-02-05T17:26:49.752373",
    "params": null,
    "system": {
      "nodename": "gibson",
      "machine": "x86_64",
      "platform": "Linux-4.4.0-112-generic-x86_64-with-debian-stretch-sid",
      "processor": "x86_64",
      "version": "#135-Ubuntu SMP Fri Jan 19 11:48:36 UTC 2018",
      "system": "Linux",
      "cpu_count": 8,
      "cpu_times": {
        "user": 120280.49,
        "system": 18476.48,
        "idle": 7637232.65,
        "nice": 751.58
      },
      "cpu_percent": 100.0,
      "virtual_memory": {
        "total": 33618501632,
        "available": 24164483072,
        "percent": 28.1,
        "used": 8522002432,
        "free": 7555678208
      }
    },
    "process": {
      "username": "evgeniya",
      "cwd": "/cw/dtailocal/mercs_python/src/core",
      "create_time": 1517847971.62,
      "cpu_times": {
        "user": 1.26,
        "system": 0.19
      }
    },
    "logfile": "/cw/dtailocal/mercs_python/out/219/slump/logs/mercspython_Log_F09",
    "command": "python /cw/dtailocal/mercs_python/bin/mercspython.py /cw/dtailocal/mercs_python/out/219/slump/settings/mercspython_Settings_F09.s"
  }
},
{
  "ts": "2018-02-05T16:26:49.753454",
  "type": "INFO",
  "values": {
    "cmd": "python /cw/dtailocal/mercs_python/bin/mercspython.py /cw/dtailocal/mercs_python/out/219/slump/settings/mercspython_Settings_F09.s",
    "cwd": null
  }
},
{
  "ts": "2018-02-05T16:26:49.777825",
  "type": "INFO",
  "values": "Start: Run process"
},
{
  "ts": "2018-02-05T16:26:49.831785",
  "type": "INFO",
  "values": "Write log to /cw/dtailocal/mercs_python/out/219/slump/logs/mercspython_Log_F09.running.log"
},
{
  "ts": "2018-02-05T16:26:54.437858",
  "type": "INFO",
  "values": "Process ended (returncode 0)"
},
{
  "ts": "2018-02-05T16:26:54.437939",
  "type": "INFO",
  "values": "Finished: Run process 4.660 seconds"
},
{
  "ts": "2018-02-05T16:26:54.438026",
  "type": "WARNING",
  "values": {
    "Exit": "finished",
    "Returncode": 0,
    "Time": 4.660153150558472
  }
}
]
