[
{
  "ts": "2018-02-05T16:26:17.769166",
  "type": "SETTINGS",
  "values": {
    "date": "2018/02/05 17:26:17",
    "date_iso": "2018-02-05T17:26:17.768341",
    "params": null,
    "system": {
      "nodename": "gibson",
      "machine": "x86_64",
      "platform": "Linux-4.4.0-112-generic-x86_64-with-debian-stretch-sid",
      "processor": "x86_64",
      "version": "#135-Ubuntu SMP Fri Jan 19 11:48:36 UTC 2018",
      "system": "Linux",
      "cpu_count": 8,
      "cpu_times": {
        "user": 120027.46,
        "system": 18474.04,
        "idle": 7637232.52,
        "nice": 751.58
      },
      "cpu_percent": 98.5,
      "virtual_memory": {
        "total": 33618501632,
        "available": 25027014656,
        "percent": 25.6,
        "used": 7650009088,
        "free": 8421249024
      }
    },
    "process": {
      "username": "evgeniya",
      "cwd": "/cw/dtailocal/mercs_python/src/core",
      "create_time": 1517847971.62,
      "cpu_times": {
        "user": 0.7,
        "system": 0.1
      }
    },
    "logfile": "/cw/dtailocal/mercs_python/out/219/slump/logs/mercspython_Log_F01",
    "command": "python /cw/dtailocal/mercs_python/bin/mercspython.py /cw/dtailocal/mercs_python/out/219/slump/settings/mercspython_Settings_F01.s"
  }
},
{
  "ts": "2018-02-05T16:26:17.769320",
  "type": "INFO",
  "values": {
    "cmd": "python /cw/dtailocal/mercs_python/bin/mercspython.py /cw/dtailocal/mercs_python/out/219/slump/settings/mercspython_Settings_F01.s",
    "cwd": null
  }
},
{
  "ts": "2018-02-05T16:26:17.789397",
  "type": "INFO",
  "values": "Start: Run process"
},
{
  "ts": "2018-02-05T16:26:17.828862",
  "type": "INFO",
  "values": "Write log to /cw/dtailocal/mercs_python/out/219/slump/logs/mercspython_Log_F01.running.log"
},
{
  "ts": "2018-02-05T16:26:21.833652",
  "type": "INFO",
  "values": "Process ended (returncode 0)"
},
{
  "ts": "2018-02-05T16:26:21.833726",
  "type": "INFO",
  "values": "Finished: Run process 4.044 seconds"
},
{
  "ts": "2018-02-05T16:26:21.833808",
  "type": "WARNING",
  "values": {
    "Exit": "finished",
    "Returncode": 0,
    "Time": 4.04435396194458
  }
},
{
  "ts": "2018-02-05T16:26:21.839796",
  "type": "INFO",
  "values": "Closing /cw/dtailocal/mercs_python/out/219/slump/logs/mercspython_Log_F01.running.log"
}
]
