[
{
  "ts": "2018-02-05T16:57:11.569280",
  "type": "SETTINGS",
  "values": {
    "date": "2018/02/05 17:57:11",
    "date_iso": "2018-02-05T17:57:11.568415",
    "params": null,
    "system": {
      "nodename": "gibson",
      "machine": "x86_64",
      "platform": "Linux-4.4.0-112-generic-x86_64-with-debian-stretch-sid",
      "processor": "x86_64",
      "version": "#135-Ubuntu SMP Fri Jan 19 11:48:36 UTC 2018",
      "system": "Linux",
      "cpu_count": 8,
      "cpu_times": {
        "user": 134730.1,
        "system": 18590.18,
        "idle": 7637234.44,
        "nice": 751.58
      },
      "cpu_percent": 100.0,
      "virtual_memory": {
        "total": 33618501632,
        "available": 23583571968,
        "percent": 29.8,
        "used": 9042354176,
        "free": 6395969536
      }
    },
    "process": {
      "username": "evgeniya",
      "cwd": "/cw/dtailocal/mercs_python/src/core",
      "create_time": 1517847483.94,
      "cpu_times": {
        "user": 2.06,
        "system": 0.28
      }
    },
    "logfile": "/cw/dtailocal/mercs_python/out/288/scm20d/logs/mercspython_Log_F08",
    "command": "python /cw/dtailocal/mercs_python/bin/mercspython.py /cw/dtailocal/mercs_python/out/288/scm20d/settings/mercspython_Settings_F08.s"
  }
},
{
  "ts": "2018-02-05T16:57:11.569438",
  "type": "INFO",
  "values": {
    "cmd": "python /cw/dtailocal/mercs_python/bin/mercspython.py /cw/dtailocal/mercs_python/out/288/scm20d/settings/mercspython_Settings_F08.s",
    "cwd": null
  }
},
{
  "ts": "2018-02-05T16:57:11.600056",
  "type": "INFO",
  "values": "Start: Run process"
},
{
  "ts": "2018-02-05T16:57:11.635782",
  "type": "INFO",
  "values": "Write log to /cw/dtailocal/mercs_python/out/288/scm20d/logs/mercspython_Log_F08.running.log"
},
{
  "ts": "2018-02-05T17:02:58.284686",
  "type": "INFO",
  "values": "Process ended (returncode 0)"
},
{
  "ts": "2018-02-05T17:02:58.284774",
  "type": "INFO",
  "values": "Finished: Run process 346.685 seconds"
},
{
  "ts": "2018-02-05T17:02:58.284858",
  "type": "WARNING",
  "values": {
    "Exit": "finished",
    "Returncode": 0,
    "Time": 346.68474221229553
  }
}
]
