[
{
  "ts": "2018-02-06T12:16:37.735925",
  "type": "SETTINGS",
  "values": {
    "date": "2018/02/06 13:16:37",
    "date_iso": "2018-02-06T13:16:37.735081",
    "params": null,
    "system": {
      "nodename": "gibson",
      "machine": "x86_64",
      "platform": "Linux-4.4.0-112-generic-x86_64-with-debian-stretch-sid",
      "processor": "x86_64",
      "version": "#135-Ubuntu SMP Fri Jan 19 11:48:36 UTC 2018",
      "system": "Linux",
      "cpu_count": 8,
      "cpu_times": {
        "user": 346075.43,
        "system": 20950.58,
        "idle": 7978720.22,
        "nice": 821.4
      },
      "cpu_percent": 87.1,
      "virtual_memory": {
        "total": 33618501632,
        "available": 22363529216,
        "percent": 33.5,
        "used": 10266058752,
        "free": 10071584768
      }
    },
    "process": {
      "username": "evgeniya",
      "cwd": "/cw/dtailocal/mercs_python/src/core",
      "create_time": 1517919065.08,
      "cpu_times": {
        "user": 1.25,
        "system": 0.29
      }
    },
    "logfile": "/cw/dtailocal/mercs_python/out/605/rf1/logs/mercspython_Log_F03",
    "command": "python /cw/dtailocal/mercs_python/bin/mercspython.py /cw/dtailocal/mercs_python/out/605/rf1/settings/mercspython_Settings_F03.s"
  }
},
{
  "ts": "2018-02-06T12:16:37.736081",
  "type": "INFO",
  "values": {
    "cmd": "python /cw/dtailocal/mercs_python/bin/mercspython.py /cw/dtailocal/mercs_python/out/605/rf1/settings/mercspython_Settings_F03.s",
    "cwd": null
  }
},
{
  "ts": "2018-02-06T12:16:37.740201",
  "type": "INFO",
  "values": "Start: Run process"
},
{
  "ts": "2018-02-06T12:16:37.740664",
  "type": "INFO",
  "values": "Write log to /cw/dtailocal/mercs_python/out/605/rf1/logs/mercspython_Log_F03.running.log"
},
{
  "ts": "2018-02-06T12:18:26.669877",
  "type": "INFO",
  "values": "Process ended (returncode 0)"
},
{
  "ts": "2018-02-06T12:18:26.670147",
  "type": "INFO",
  "values": "Finished: Run process 108.930 seconds"
},
{
  "ts": "2018-02-06T12:18:26.670239",
  "type": "WARNING",
  "values": {
    "Exit": "finished",
    "Returncode": 0,
    "Time": 108.92996573448181
  }
},
{
  "ts": "2018-02-06T12:18:26.670608",
  "type": "INFO",
  "values": "Closing /cw/dtailocal/mercs_python/out/605/rf1/logs/mercspython_Log_F03.running.log"
}
]
