[
{
  "ts": "2018-02-07T10:15:50.957349",
  "type": "SETTINGS",
  "values": {
    "date": "2018/02/07 11:15:50",
    "date_iso": "2018-02-07T11:15:50.956283",
    "params": null,
    "system": {
      "nodename": "gibson",
      "machine": "x86_64",
      "platform": "Linux-4.4.0-112-generic-x86_64-with-debian-stretch-sid",
      "processor": "x86_64",
      "version": "#135-Ubuntu SMP Fri Jan 19 11:48:36 UTC 2018",
      "system": "Linux",
      "cpu_count": 8,
      "cpu_times": {
        "user": 377491.13,
        "system": 22359.59,
        "idle": 8577340.73,
        "nice": 898.04
      },
      "cpu_percent": 99.7,
      "virtual_memory": {
        "total": 33618501632,
        "available": 26019426304,
        "percent": 22.6,
        "used": 6730416128,
        "free": 11882909696
      }
    },
    "process": {
      "username": "evgeniya",
      "cwd": "/cw/dtailocal/mercs_python/src/core",
      "create_time": 1517998526.09,
      "cpu_times": {
        "user": 0.94,
        "system": 0.15
      }
    },
    "logfile": "/cw/dtailocal/mercs_python/out/713/wq/logs/mercspython_Log_F04",
    "command": "python /cw/dtailocal/mercs_python/bin/mercspython.py /cw/dtailocal/mercs_python/out/713/wq/settings/mercspython_Settings_F04.s"
  }
},
{
  "ts": "2018-02-07T10:15:50.957528",
  "type": "INFO",
  "values": {
    "cmd": "python /cw/dtailocal/mercs_python/bin/mercspython.py /cw/dtailocal/mercs_python/out/713/wq/settings/mercspython_Settings_F04.s",
    "cwd": null
  }
},
{
  "ts": "2018-02-07T10:15:50.969327",
  "type": "INFO",
  "values": "Start: Run process"
},
{
  "ts": "2018-02-07T10:15:50.984923",
  "type": "INFO",
  "values": "Write log to /cw/dtailocal/mercs_python/out/713/wq/logs/mercspython_Log_F04.running.log"
},
{
  "ts": "2018-02-07T10:15:57.199717",
  "type": "INFO",
  "values": "Process ended (returncode 0)"
},
{
  "ts": "2018-02-07T10:15:57.199803",
  "type": "INFO",
  "values": "Finished: Run process 6.230 seconds"
},
{
  "ts": "2018-02-07T10:15:57.199885",
  "type": "WARNING",
  "values": {
    "Exit": "finished",
    "Returncode": 0,
    "Time": 6.230496883392334
  }
}
]
