[SETTINGS] {
  "date": "2018/02/05 16:44:18",
  "date_iso": "2018-02-05T16:44:18.760522",
  "params": null,
  "system": {
    "nodename": "gibson",
    "machine": "x86_64",
    "platform": "Linux-4.4.0-112-generic-x86_64-with-debian-stretch-sid",
    "processor": "x86_64",
    "version": "#135-Ubuntu SMP Fri Jan 19 11:48:36 UTC 2018",
    "system": "Linux",
    "cpu_count": 8,
    "cpu_times": {
      "user": 100130.62,
      "system": 18238.24,
      "idle": 7637225.88,
      "nice": 749.46
    },
    "cpu_percent": 98.9,
    "virtual_memory": {
      "total": 33618501632,
      "available": 26348474368,
      "percent": 21.6,
      "used": 6254080000,
      "free": 10161885184
    }
  },
  "process": {
    "username": "evgeniya",
    "cwd": "/cw/dtailocal/mercs_python/src/core",
    "create_time": 1517845444.28,
    "cpu_times": {
      "user": 0.88,
      "system": 0.1
    }
  },
  "logfile": "/cw/dtailocal/mercs_python/out/212/enb/logs/mercspython_Log_F03",
  "command": "python /cw/dtailocal/mercs_python/bin/mercspython.py /cw/dtailocal/mercs_python/out/212/enb/settings/mercspython_Settings_F03.s"
}
[INFO] cmd:python /cw/dtailocal/mercs_python/bin/mercspython.py /cw/dtailocal/mercs_python/out/212/enb/settings/mercspython_Settings_F03.s; cwd:None
[INFO] Start: Run process
[INFO] Write log to /cw/dtailocal/mercs_python/out/212/enb/logs/mercspython_Log_F03.running.log
[STDERR] /cw/dtailocal/mercs_python/bin/mercspython.py:123: DataConversionWarning: A column-vector y was passed when a 1d array was expected. Please change the shape of y to (n_samples,), for example using ravel().
[STDERR]   models[i].fit(X, Y)
[STDERR] /cw/dtailocal/mercs_python/bin/mercspython.py:123: DataConversionWarning: A column-vector y was passed when a 1d array was expected. Please change the shape of y to (n_samples,), for example using ravel().
[STDERR]   models[i].fit(X, Y)
[STDERR] /cw/dtailocal/mercs_python/bin/mercspython.py:123: DataConversionWarning: A column-vector y was passed when a 1d array was expected. Please change the shape of y to (n_samples,), for example using ravel().
[STDERR]   models[i].fit(X, Y)
[STDERR] /cw/dtailocal/mercs_python/bin/mercspython.py:123: DataConversionWarning: A column-vector y was passed when a 1d array was expected. Please change the shape of y to (n_samples,), for example using ravel().
[STDERR]   models[i].fit(X, Y)
[STDERR] /cw/dtailocal/mercs_python/bin/mercspython.py:123: DataConversionWarning: A column-vector y was passed when a 1d array was expected. Please change the shape of y to (n_samples,), for example using ravel().
[STDERR]   models[i].fit(X, Y)
[STDERR] /cw/dtailocal/mercs_python/bin/mercspython.py:123: DataConversionWarning: A column-vector y was passed when a 1d array was expected. Please change the shape of y to (n_samples,), for example using ravel().
[STDERR]   models[i].fit(X, Y)
[STDERR] /cw/dtailocal/mercs_python/bin/mercspython.py:123: DataConversionWarning: A column-vector y was passed when a 1d array was expected. Please change the shape of y to (n_samples,), for example using ravel().
[STDERR]   models[i].fit(X, Y)
[STDERR] /cw/dtailocal/mercs_python/bin/mercspython.py:123: DataConversionWarning: A column-vector y was passed when a 1d array was expected. Please change the shape of y to (n_samples,), for example using ravel().
[STDERR]   models[i].fit(X, Y)
[STDERR] /cw/dtailocal/mercs_python/bin/mercspython.py:123: DataConversionWarning: A column-vector y was passed when a 1d array was expected. Please change the shape of y to (n_samples,), for example using ravel().
[STDERR]   models[i].fit(X, Y)
[STDERR] /cw/dtailocal/mercs_python/bin/mercspython.py:123: DataConversionWarning: A column-vector y was passed when a 1d array was expected. Please change the shape of y to (n_samples,), for example using ravel().
[STDERR]   models[i].fit(X, Y)
[[0, 0, 0, 0, 1, 0, 0, 0, 0, 0], [0, 0, 0, 0, 0, 0, 0, 1, 0, 0], [1, 0, 0, 0, 0, 0, 0, 0, 0, 0], [0, 0, 0, 1, 0, 0, 0, 0, 0, 0], [0, 0, 1, 0, 0, 0, 0, 0, 0, 0], [0, 1, 0, 0, 0, 0, 0, 0, 0, 0], [0, 0, 0, 0, 0, 0, 0, 0, 0, 1], [0, 0, 0, 0, 0, 0, 0, 0, 1, 0], [0, 0, 0, 0, 0, 0, 1, 0, 0, 0], [0, 0, 0, 0, 0, 1, 0, 0, 0, 0]]
====================================================
Total induction time of the MDEModel was: 1400 ms
====================================================
====================================================
Total inference time of the MDEModel was: 102 ms
====================================================
====================================================
This was for: 10 queries.
====================================================
[INFO] Process ended (returncode 0)
[INFO] Finished: Run process 4.025 seconds
[WARNING] Exit:finished; Returncode:0; Time:4.02478
