[
{
  "ts": "2018-02-05T15:44:10.446129",
  "type": "SETTINGS",
  "values": {
    "date": "2018/02/05 16:44:10",
    "date_iso": "2018-02-05T16:44:10.445244",
    "params": null,
    "system": {
      "nodename": "gibson",
      "machine": "x86_64",
      "platform": "Linux-4.4.0-112-generic-x86_64-with-debian-stretch-sid",
      "processor": "x86_64",
      "version": "#135-Ubuntu SMP Fri Jan 19 11:48:36 UTC 2018",
      "system": "Linux",
      "cpu_count": 8,
      "cpu_times": {
        "user": 100066.71,
        "system": 18236.48,
        "idle": 7637225.28,
        "nice": 749.46
      },
      "cpu_percent": 99.5,
      "virtual_memory": {
        "total": 33618501632,
        "available": 25981566976,
        "percent": 22.7,
        "used": 6619660288,
        "free": 9798008832
      }
    },
    "process": {
      "username": "evgeniya",
      "cwd": "/cw/dtailocal/mercs_python/src/core",
      "create_time": 1517845444.28,
      "cpu_times": {
        "user": 0.68,
        "system": 0.07
      }
    },
    "logfile": "/cw/dtailocal/mercs_python/out/212/enb/logs/mercspython_Log_F01",
    "command": "python /cw/dtailocal/mercs_python/bin/mercspython.py /cw/dtailocal/mercs_python/out/212/enb/settings/mercspython_Settings_F01.s"
  }
},
{
  "ts": "2018-02-05T15:44:10.446286",
  "type": "INFO",
  "values": {
    "cmd": "python /cw/dtailocal/mercs_python/bin/mercspython.py /cw/dtailocal/mercs_python/out/212/enb/settings/mercspython_Settings_F01.s",
    "cwd": null
  }
},
{
  "ts": "2018-02-05T15:44:10.464850",
  "type": "INFO",
  "values": "Start: Run process"
},
{
  "ts": "2018-02-05T15:44:10.499795",
  "type": "INFO",
  "values": "Write log to /cw/dtailocal/mercs_python/out/212/enb/logs/mercspython_Log_F01.running.log"
},
{
  "ts": "2018-02-05T15:44:14.912653",
  "type": "INFO",
  "values": "Process ended (returncode 0)"
},
{
  "ts": "2018-02-05T15:44:14.912737",
  "type": "INFO",
  "values": "Finished: Run process 4.448 seconds"
},
{
  "ts": "2018-02-05T15:44:14.912823",
  "type": "WARNING",
  "values": {
    "Exit": "finished",
    "Returncode": 0,
    "Time": 4.447912693023682
  }
}
]
