[
{
  "ts": "2018-02-05T15:44:14.922418",
  "type": "SETTINGS",
  "values": {
    "date": "2018/02/05 16:44:14",
    "date_iso": "2018-02-05T16:44:14.921495",
    "params": null,
    "system": {
      "nodename": "gibson",
      "machine": "x86_64",
      "platform": "Linux-4.4.0-112-generic-x86_64-with-debian-stretch-sid",
      "processor": "x86_64",
      "version": "#135-Ubuntu SMP Fri Jan 19 11:48:36 UTC 2018",
      "system": "Linux",
      "cpu_count": 8,
      "cpu_times": {
        "user": 100100.94,
        "system": 18237.64,
        "idle": 7637225.54,
        "nice": 749.46
      },
      "cpu_percent": 99.2,
      "virtual_memory": {
        "total": 33618501632,
        "available": 26437304320,
        "percent": 21.4,
        "used": 6165209088,
        "free": 10251202560
      }
    },
    "process": {
      "username": "evgeniya",
      "cwd": "/cw/dtailocal/mercs_python/src/core",
      "create_time": 1517845444.28,
      "cpu_times": {
        "user": 0.8,
        "system": 0.09
      }
    },
    "logfile": "/cw/dtailocal/mercs_python/out/212/enb/logs/mercspython_Log_F02",
    "command": "python /cw/dtailocal/mercs_python/bin/mercspython.py /cw/dtailocal/mercs_python/out/212/enb/settings/mercspython_Settings_F02.s"
  }
},
{
  "ts": "2018-02-05T15:44:14.922593",
  "type": "INFO",
  "values": {
    "cmd": "python /cw/dtailocal/mercs_python/bin/mercspython.py /cw/dtailocal/mercs_python/out/212/enb/settings/mercspython_Settings_F02.s",
    "cwd": null
  }
},
{
  "ts": "2018-02-05T15:44:14.941404",
  "type": "INFO",
  "values": "Start: Run process"
},
{
  "ts": "2018-02-05T15:44:14.947853",
  "type": "INFO",
  "values": "Write log to /cw/dtailocal/mercs_python/out/212/enb/logs/mercspython_Log_F02.running.log"
},
{
  "ts": "2018-02-05T15:44:18.752674",
  "type": "INFO",
  "values": "Process ended (returncode 0)"
},
{
  "ts": "2018-02-05T15:44:18.752760",
  "type": "INFO",
  "values": "Finished: Run process 3.811 seconds"
},
{
  "ts": "2018-02-05T15:44:18.752843",
  "type": "WARNING",
  "values": {
    "Exit": "finished",
    "Returncode": 0,
    "Time": 3.8113763332366943
  }
},
{
  "ts": "2018-02-05T15:44:18.759836",
  "type": "INFO",
  "values": "Closing /cw/dtailocal/mercs_python/out/212/enb/logs/mercspython_Log_F02.running.log"
}
]
