[
{
  "ts": "2018-02-06T12:30:33.577367",
  "type": "SETTINGS",
  "values": {
    "date": "2018/02/06 13:30:33",
    "date_iso": "2018-02-06T13:30:33.576578",
    "params": null,
    "system": {
      "nodename": "gibson",
      "machine": "x86_64",
      "platform": "Linux-4.4.0-112-generic-x86_64-with-debian-stretch-sid",
      "processor": "x86_64",
      "version": "#135-Ubuntu SMP Fri Jan 19 11:48:36 UTC 2018",
      "system": "Linux",
      "cpu_count": 8,
      "cpu_times": {
        "user": 351439.92,
        "system": 21056.18,
        "idle": 7979907.93,
        "nice": 823.13
      },
      "cpu_percent": 73.7,
      "virtual_memory": {
        "total": 33618501632,
        "available": 25669566464,
        "percent": 23.6,
        "used": 6941302784,
        "free": 13181169664
      }
    },
    "process": {
      "username": "evgeniya",
      "cwd": "/cw/dtailocal/mercs_python/src/core",
      "create_time": 1517920197.32,
      "cpu_times": {
        "user": 1.17,
        "system": 0.54
      }
    },
    "logfile": "/cw/dtailocal/mercs_python/out/623/wq/logs/mercspython_Log_F09",
    "command": "python /cw/dtailocal/mercs_python/bin/mercspython.py /cw/dtailocal/mercs_python/out/623/wq/settings/mercspython_Settings_F09.s"
  }
},
{
  "ts": "2018-02-06T12:30:33.577509",
  "type": "INFO",
  "values": {
    "cmd": "python /cw/dtailocal/mercs_python/bin/mercspython.py /cw/dtailocal/mercs_python/out/623/wq/settings/mercspython_Settings_F09.s",
    "cwd": null
  }
},
{
  "ts": "2018-02-06T12:30:33.581724",
  "type": "INFO",
  "values": "Start: Run process"
},
{
  "ts": "2018-02-06T12:30:33.582104",
  "type": "INFO",
  "values": "Write log to /cw/dtailocal/mercs_python/out/623/wq/logs/mercspython_Log_F09.running.log"
},
{
  "ts": "2018-02-06T12:30:37.588097",
  "type": "INFO",
  "values": "Process ended (returncode 0)"
},
{
  "ts": "2018-02-06T12:30:37.588174",
  "type": "INFO",
  "values": "Finished: Run process 4.006 seconds"
},
{
  "ts": "2018-02-06T12:30:37.588250",
  "type": "WARNING",
  "values": {
    "Exit": "finished",
    "Returncode": 0,
    "Time": 4.006462812423706
  }
}
]
