[
{
  "ts": "2018-02-05T17:10:30.841087",
  "type": "SETTINGS",
  "values": {
    "date": "2018/02/05 18:10:30",
    "date_iso": "2018-02-05T18:10:30.840229",
    "params": null,
    "system": {
      "nodename": "gibson",
      "machine": "x86_64",
      "platform": "Linux-4.4.0-112-generic-x86_64-with-debian-stretch-sid",
      "processor": "x86_64",
      "version": "#135-Ubuntu SMP Fri Jan 19 11:48:36 UTC 2018",
      "system": "Linux",
      "cpu_count": 8,
      "cpu_times": {
        "user": 141052.57,
        "system": 18657.16,
        "idle": 7637234.65,
        "nice": 751.58
      },
      "cpu_percent": 100.0,
      "virtual_memory": {
        "total": 33618501632,
        "available": 22078439424,
        "percent": 34.3,
        "used": 10551881728,
        "free": 4861779968
      }
    },
    "process": {
      "username": "evgeniya",
      "cwd": "/cw/dtailocal/mercs_python/src/core",
      "create_time": 1517850622.42,
      "cpu_times": {
        "user": 0.65,
        "system": 0.08
      }
    },
    "logfile": "/cw/dtailocal/mercs_python/out/341/slump/logs/mercspython_Log_F02",
    "command": "python /cw/dtailocal/mercs_python/bin/mercspython.py /cw/dtailocal/mercs_python/out/341/slump/settings/mercspython_Settings_F02.s"
  }
},
{
  "ts": "2018-02-05T17:10:30.841245",
  "type": "INFO",
  "values": {
    "cmd": "python /cw/dtailocal/mercs_python/bin/mercspython.py /cw/dtailocal/mercs_python/out/341/slump/settings/mercspython_Settings_F02.s",
    "cwd": null
  }
},
{
  "ts": "2018-02-05T17:10:30.853424",
  "type": "INFO",
  "values": "Start: Run process"
},
{
  "ts": "2018-02-05T17:10:30.895788",
  "type": "INFO",
  "values": "Write log to /cw/dtailocal/mercs_python/out/341/slump/logs/mercspython_Log_F02.running.log"
},
{
  "ts": "2018-02-05T17:10:33.899549",
  "type": "INFO",
  "values": "Process ended (returncode 0)"
},
{
  "ts": "2018-02-05T17:10:33.899652",
  "type": "INFO",
  "values": "Finished: Run process 3.046 seconds"
},
{
  "ts": "2018-02-05T17:10:33.899754",
  "type": "WARNING",
  "values": {
    "Exit": "finished",
    "Returncode": 0,
    "Time": 3.046238899230957
  }
},
{
  "ts": "2018-02-05T17:10:33.904270",
  "type": "INFO",
  "values": "Closing /cw/dtailocal/mercs_python/out/341/slump/logs/mercspython_Log_F02.running.log"
}
]
