[
{
  "ts": "2018-02-05T17:10:33.905728",
  "type": "SETTINGS",
  "values": {
    "date": "2018/02/05 18:10:33",
    "date_iso": "2018-02-05T18:10:33.904812",
    "params": null,
    "system": {
      "nodename": "gibson",
      "machine": "x86_64",
      "platform": "Linux-4.4.0-112-generic-x86_64-with-debian-stretch-sid",
      "processor": "x86_64",
      "version": "#135-Ubuntu SMP Fri Jan 19 11:48:36 UTC 2018",
      "system": "Linux",
      "cpu_count": 8,
      "cpu_times": {
        "user": 141076.82,
        "system": 18657.4,
        "idle": 7637234.65,
        "nice": 751.58
      },
      "cpu_percent": 100.0,
      "virtual_memory": {
        "total": 33618501632,
        "available": 22105382912,
        "percent": 34.2,
        "used": 10524938240,
        "free": 4887789568
      }
    },
    "process": {
      "username": "evgeniya",
      "cwd": "/cw/dtailocal/mercs_python/src/core",
      "create_time": 1517850622.42,
      "cpu_times": {
        "user": 0.76,
        "system": 0.09
      }
    },
    "logfile": "/cw/dtailocal/mercs_python/out/341/slump/logs/mercspython_Log_F03",
    "command": "python /cw/dtailocal/mercs_python/bin/mercspython.py /cw/dtailocal/mercs_python/out/341/slump/settings/mercspython_Settings_F03.s"
  }
},
{
  "ts": "2018-02-05T17:10:33.905902",
  "type": "INFO",
  "values": {
    "cmd": "python /cw/dtailocal/mercs_python/bin/mercspython.py /cw/dtailocal/mercs_python/out/341/slump/settings/mercspython_Settings_F03.s",
    "cwd": null
  }
},
{
  "ts": "2018-02-05T17:10:33.917057",
  "type": "INFO",
  "values": "Start: Run process"
},
{
  "ts": "2018-02-05T17:10:33.949775",
  "type": "INFO",
  "values": "Write log to /cw/dtailocal/mercs_python/out/341/slump/logs/mercspython_Log_F03.running.log"
},
{
  "ts": "2018-02-05T17:10:37.359098",
  "type": "INFO",
  "values": "Process ended (returncode 0)"
},
{
  "ts": "2018-02-05T17:10:37.359177",
  "type": "INFO",
  "values": "Finished: Run process 3.442 seconds"
},
{
  "ts": "2018-02-05T17:10:37.359262",
  "type": "WARNING",
  "values": {
    "Exit": "finished",
    "Returncode": 0,
    "Time": 3.442150354385376
  }
}
]
