[
{
  "ts": "2018-02-07T10:18:33.991016",
  "type": "SETTINGS",
  "values": {
    "date": "2018/02/07 11:18:33",
    "date_iso": "2018-02-07T11:18:33.988538",
    "params": null,
    "system": {
      "nodename": "gibson",
      "machine": "x86_64",
      "platform": "Linux-4.4.0-112-generic-x86_64-with-debian-stretch-sid",
      "processor": "x86_64",
      "version": "#135-Ubuntu SMP Fri Jan 19 11:48:36 UTC 2018",
      "system": "Linux",
      "cpu_count": 8,
      "cpu_times": {
        "user": 378759.82,
        "system": 22390.43,
        "idle": 8577343.0,
        "nice": 898.04
      },
      "cpu_percent": 100.0,
      "virtual_memory": {
        "total": 33618501632,
        "available": 25109946368,
        "percent": 25.3,
        "used": 7638917120,
        "free": 11029172224
      }
    },
    "process": {
      "username": "evgeniya",
      "cwd": "/cw/dtailocal/mercs_python/src/core",
      "create_time": 1517998710.9,
      "cpu_times": {
        "user": 1.84,
        "system": 0.1
      }
    },
    "logfile": "/cw/dtailocal/mercs_python/out/731/oes97/logs/mercspython_Log_F00",
    "command": "python /cw/dtailocal/mercs_python/bin/mercspython.py /cw/dtailocal/mercs_python/out/731/oes97/settings/mercspython_Settings_F00.s"
  }
},
{
  "ts": "2018-02-07T10:18:33.991192",
  "type": "INFO",
  "values": {
    "cmd": "python /cw/dtailocal/mercs_python/bin/mercspython.py /cw/dtailocal/mercs_python/out/731/oes97/settings/mercspython_Settings_F00.s",
    "cwd": null
  }
},
{
  "ts": "2018-02-07T10:18:33.994742",
  "type": "INFO",
  "values": "Start: Run process"
},
{
  "ts": "2018-02-07T10:18:34.023822",
  "type": "INFO",
  "values": "Write log to /cw/dtailocal/mercs_python/out/731/oes97/logs/mercspython_Log_F00.running.log"
},
{
  "ts": "2018-02-07T10:19:12.270152",
  "type": "INFO",
  "values": "Process ended (returncode 0)"
},
{
  "ts": "2018-02-07T10:19:12.270231",
  "type": "INFO",
  "values": "Finished: Run process 38.276 seconds"
},
{
  "ts": "2018-02-07T10:19:12.270320",
  "type": "WARNING",
  "values": {
    "Exit": "finished",
    "Returncode": 0,
    "Time": 38.27552843093872
  }
}
]
