[
{
  "ts": "2018-02-07T10:20:32.913333",
  "type": "SETTINGS",
  "values": {
    "date": "2018/02/07 11:20:32",
    "date_iso": "2018-02-07T11:20:32.912472",
    "params": null,
    "system": {
      "nodename": "gibson",
      "machine": "x86_64",
      "platform": "Linux-4.4.0-112-generic-x86_64-with-debian-stretch-sid",
      "processor": "x86_64",
      "version": "#135-Ubuntu SMP Fri Jan 19 11:48:36 UTC 2018",
      "system": "Linux",
      "cpu_count": 8,
      "cpu_times": {
        "user": 379705.36,
        "system": 22395.84,
        "idle": 8577343.15,
        "nice": 898.04
      },
      "cpu_percent": 100.0,
      "virtual_memory": {
        "total": 33618501632,
        "available": 24058732544,
        "percent": 28.4,
        "used": 8692473856,
        "free": 9968312320
      }
    },
    "process": {
      "username": "evgeniya",
      "cwd": "/cw/dtailocal/mercs_python/src/core",
      "create_time": 1517998710.9,
      "cpu_times": {
        "user": 1.98,
        "system": 0.12
      }
    },
    "logfile": "/cw/dtailocal/mercs_python/out/731/oes97/logs/mercspython_Log_F03",
    "command": "python /cw/dtailocal/mercs_python/bin/mercspython.py /cw/dtailocal/mercs_python/out/731/oes97/settings/mercspython_Settings_F03.s"
  }
},
{
  "ts": "2018-02-07T10:20:32.913490",
  "type": "INFO",
  "values": {
    "cmd": "python /cw/dtailocal/mercs_python/bin/mercspython.py /cw/dtailocal/mercs_python/out/731/oes97/settings/mercspython_Settings_F03.s",
    "cwd": null
  }
},
{
  "ts": "2018-02-07T10:20:32.937673",
  "type": "INFO",
  "values": "Start: Run process"
},
{
  "ts": "2018-02-07T10:20:32.984080",
  "type": "INFO",
  "values": "Write log to /cw/dtailocal/mercs_python/out/731/oes97/logs/mercspython_Log_F03.running.log"
},
{
  "ts": "2018-02-07T10:21:12.430599",
  "type": "INFO",
  "values": "Process ended (returncode 0)"
},
{
  "ts": "2018-02-07T10:21:12.430696",
  "type": "INFO",
  "values": "Finished: Run process 39.493 seconds"
},
{
  "ts": "2018-02-07T10:21:12.430778",
  "type": "WARNING",
  "values": {
    "Exit": "finished",
    "Returncode": 0,
    "Time": 39.49304938316345
  }
},
{
  "ts": "2018-02-07T10:21:12.439799",
  "type": "INFO",
  "values": "Closing /cw/dtailocal/mercs_python/out/731/oes97/logs/mercspython_Log_F03.running.log"
}
]
