[
{
  "ts": "2018-02-06T10:15:31.133209",
  "type": "SETTINGS",
  "values": {
    "date": "2018/02/06 11:15:31",
    "date_iso": "2018-02-06T11:15:31.131548",
    "params": null,
    "system": {
      "nodename": "gibson",
      "machine": "x86_64",
      "platform": "Linux-4.4.0-112-generic-x86_64-with-debian-stretch-sid",
      "processor": "x86_64",
      "version": "#135-Ubuntu SMP Fri Jan 19 11:48:36 UTC 2018",
      "system": "Linux",
      "cpu_count": 8,
      "cpu_times": {
        "user": 319838.05,
        "system": 20569.74,
        "idle": 7947392.58,
        "nice": 819.07
      },
      "cpu_percent": 50.7,
      "virtual_memory": {
        "total": 33618501632,
        "available": 23766212608,
        "percent": 29.3,
        "used": 8886956032,
        "free": 12414279680
      }
    },
    "process": {
      "username": "evgeniya",
      "cwd": "/cw/dtailocal/mercs_python/src/core",
      "create_time": 1517912129.22,
      "cpu_times": {
        "user": 1.47,
        "system": 0.04
      }
    },
    "logfile": "/cw/dtailocal/mercs_python/out/557/scm1d/logs/mercspython_Log_F00",
    "command": "python /cw/dtailocal/mercs_python/bin/mercspython.py /cw/dtailocal/mercs_python/out/557/scm1d/settings/mercspython_Settings_F00.s"
  }
},
{
  "ts": "2018-02-06T10:15:31.133303",
  "type": "INFO",
  "values": {
    "cmd": "python /cw/dtailocal/mercs_python/bin/mercspython.py /cw/dtailocal/mercs_python/out/557/scm1d/settings/mercspython_Settings_F00.s",
    "cwd": null
  }
},
{
  "ts": "2018-02-06T10:15:31.136215",
  "type": "INFO",
  "values": "Start: Run process"
},
{
  "ts": "2018-02-06T10:15:31.138238",
  "type": "INFO",
  "values": "Write log to /cw/dtailocal/mercs_python/out/557/scm1d/logs/mercspython_Log_F00.running.log"
},
{
  "ts": "2018-02-06T10:21:38.792221",
  "type": "INFO",
  "values": "Process ended (returncode 0)"
},
{
  "ts": "2018-02-06T10:21:38.792310",
  "type": "INFO",
  "values": "Finished: Run process 367.656 seconds"
},
{
  "ts": "2018-02-06T10:21:38.792401",
  "type": "WARNING",
  "values": {
    "Exit": "finished",
    "Returncode": 0,
    "Time": 367.656133890152
  }
},
{
  "ts": "2018-02-06T10:21:38.792774",
  "type": "INFO",
  "values": "Closing /cw/dtailocal/mercs_python/out/557/scm1d/logs/mercspython_Log_F00.running.log"
}
]
