[
{
  "ts": "2018-02-06T10:21:38.794073",
  "type": "SETTINGS",
  "values": {
    "date": "2018/02/06 11:21:38",
    "date_iso": "2018-02-06T11:21:38.793387",
    "params": null,
    "system": {
      "nodename": "gibson",
      "machine": "x86_64",
      "platform": "Linux-4.4.0-112-generic-x86_64-with-debian-stretch-sid",
      "processor": "x86_64",
      "version": "#135-Ubuntu SMP Fri Jan 19 11:48:36 UTC 2018",
      "system": "Linux",
      "cpu_count": 8,
      "cpu_times": {
        "user": 321352.95,
        "system": 20588.62,
        "idle": 7948794.7,
        "nice": 819.07
      },
      "cpu_percent": 52.1,
      "virtual_memory": {
        "total": 33618501632,
        "available": 22331723776,
        "percent": 33.6,
        "used": 10309431296,
        "free": 10957340672
      }
    },
    "process": {
      "username": "evgeniya",
      "cwd": "/cw/dtailocal/mercs_python/src/core",
      "create_time": 1517912129.22,
      "cpu_times": {
        "user": 1.74,
        "system": 0.2
      }
    },
    "logfile": "/cw/dtailocal/mercs_python/out/557/scm1d/logs/mercspython_Log_F01",
    "command": "python /cw/dtailocal/mercs_python/bin/mercspython.py /cw/dtailocal/mercs_python/out/557/scm1d/settings/mercspython_Settings_F01.s"
  }
},
{
  "ts": "2018-02-06T10:21:38.794172",
  "type": "INFO",
  "values": {
    "cmd": "python /cw/dtailocal/mercs_python/bin/mercspython.py /cw/dtailocal/mercs_python/out/557/scm1d/settings/mercspython_Settings_F01.s",
    "cwd": null
  }
},
{
  "ts": "2018-02-06T10:21:38.797839",
  "type": "INFO",
  "values": "Start: Run process"
},
{
  "ts": "2018-02-06T10:21:38.798417",
  "type": "INFO",
  "values": "Write log to /cw/dtailocal/mercs_python/out/557/scm1d/logs/mercspython_Log_F01.running.log"
},
{
  "ts": "2018-02-06T10:27:41.849419",
  "type": "INFO",
  "values": "Process ended (returncode 0)"
},
{
  "ts": "2018-02-06T10:27:41.849481",
  "type": "INFO",
  "values": "Finished: Run process 363.052 seconds"
},
{
  "ts": "2018-02-06T10:27:41.849539",
  "type": "WARNING",
  "values": {
    "Exit": "finished",
    "Returncode": 0,
    "Time": 363.0516929626465
  }
},
{
  "ts": "2018-02-06T10:27:41.849813",
  "type": "INFO",
  "values": "Closing /cw/dtailocal/mercs_python/out/557/scm1d/logs/mercspython_Log_F01.running.log"
}
]
