[
{
  "ts": "2018-02-06T09:57:49.510003",
  "type": "SETTINGS",
  "values": {
    "date": "2018/02/06 10:57:49",
    "date_iso": "2018-02-06T10:57:49.509136",
    "params": null,
    "system": {
      "nodename": "gibson",
      "machine": "x86_64",
      "platform": "Linux-4.4.0-112-generic-x86_64-with-debian-stretch-sid",
      "processor": "x86_64",
      "version": "#135-Ubuntu SMP Fri Jan 19 11:48:36 UTC 2018",
      "system": "Linux",
      "cpu_count": 8,
      "cpu_times": {
        "user": 313776.68,
        "system": 20396.77,
        "idle": 7945192.48,
        "nice": 819.07
      },
      "cpu_percent": 88.7,
      "virtual_memory": {
        "total": 33618501632,
        "available": 25212497920,
        "percent": 25.0,
        "used": 7396220928,
        "free": 14265765888
      }
    },
    "process": {
      "username": "evgeniya",
      "cwd": "/cw/dtailocal/mercs_python/src/core",
      "create_time": 1517911000.32,
      "cpu_times": {
        "user": 0.88,
        "system": 0.11
      }
    },
    "logfile": "/cw/dtailocal/mercs_python/out/536/rf1/logs/mercspython_Log_F02",
    "command": "python /cw/dtailocal/mercs_python/bin/mercspython.py /cw/dtailocal/mercs_python/out/536/rf1/settings/mercspython_Settings_F02.s"
  }
},
{
  "ts": "2018-02-06T09:57:49.510150",
  "type": "INFO",
  "values": {
    "cmd": "python /cw/dtailocal/mercs_python/bin/mercspython.py /cw/dtailocal/mercs_python/out/536/rf1/settings/mercspython_Settings_F02.s",
    "cwd": null
  }
},
{
  "ts": "2018-02-06T09:57:49.515624",
  "type": "INFO",
  "values": "Start: Run process"
},
{
  "ts": "2018-02-06T09:57:49.519851",
  "type": "INFO",
  "values": "Write log to /cw/dtailocal/mercs_python/out/536/rf1/logs/mercspython_Log_F02.running.log"
},
{
  "ts": "2018-02-06T09:58:21.574199",
  "type": "INFO",
  "values": "Process ended (returncode 0)"
},
{
  "ts": "2018-02-06T09:58:21.574258",
  "type": "INFO",
  "values": "Finished: Run process 32.059 seconds"
},
{
  "ts": "2018-02-06T09:58:21.574313",
  "type": "WARNING",
  "values": {
    "Exit": "finished",
    "Returncode": 0,
    "Time": 32.05865979194641
  }
},
{
  "ts": "2018-02-06T09:58:21.574567",
  "type": "INFO",
  "values": "Closing /cw/dtailocal/mercs_python/out/536/rf1/logs/mercspython_Log_F02.running.log"
}
]
