[
{
  "ts": "2018-02-05T16:14:35.117213",
  "type": "SETTINGS",
  "values": {
    "date": "2018/02/05 17:14:35",
    "date_iso": "2018-02-05T17:14:35.116362",
    "params": null,
    "system": {
      "nodename": "gibson",
      "machine": "x86_64",
      "platform": "Linux-4.4.0-112-generic-x86_64-with-debian-stretch-sid",
      "processor": "x86_64",
      "version": "#135-Ubuntu SMP Fri Jan 19 11:48:36 UTC 2018",
      "system": "Linux",
      "cpu_count": 8,
      "cpu_times": {
        "user": 114464.33,
        "system": 18423.22,
        "idle": 7637230.65,
        "nice": 749.46
      },
      "cpu_percent": 99.8,
      "virtual_memory": {
        "total": 33618501632,
        "available": 24723148800,
        "percent": 26.5,
        "used": 7991066624,
        "free": 8203161600
      }
    },
    "process": {
      "username": "evgeniya",
      "cwd": "/cw/dtailocal/mercs_python/src/core",
      "create_time": 1517847260.26,
      "cpu_times": {
        "user": 0.8,
        "system": 0.14
      }
    },
    "logfile": "/cw/dtailocal/mercs_python/out/239/slump/logs/mercspython_Log_F04",
    "command": "python /cw/dtailocal/mercs_python/bin/mercspython.py /cw/dtailocal/mercs_python/out/239/slump/settings/mercspython_Settings_F04.s"
  }
},
{
  "ts": "2018-02-05T16:14:35.117366",
  "type": "INFO",
  "values": {
    "cmd": "python /cw/dtailocal/mercs_python/bin/mercspython.py /cw/dtailocal/mercs_python/out/239/slump/settings/mercspython_Settings_F04.s",
    "cwd": null
  }
},
{
  "ts": "2018-02-05T16:14:35.141331",
  "type": "INFO",
  "values": "Start: Run process"
},
{
  "ts": "2018-02-05T16:14:35.175772",
  "type": "INFO",
  "values": "Write log to /cw/dtailocal/mercs_python/out/239/slump/logs/mercspython_Log_F04.running.log"
},
{
  "ts": "2018-02-05T16:14:38.379714",
  "type": "INFO",
  "values": "Process ended (returncode 0)"
},
{
  "ts": "2018-02-05T16:14:38.379791",
  "type": "INFO",
  "values": "Finished: Run process 3.238 seconds"
},
{
  "ts": "2018-02-05T16:14:38.379868",
  "type": "WARNING",
  "values": {
    "Exit": "finished",
    "Returncode": 0,
    "Time": 3.2384889125823975
  }
},
{
  "ts": "2018-02-05T16:14:38.387897",
  "type": "INFO",
  "values": "Closing /cw/dtailocal/mercs_python/out/239/slump/logs/mercspython_Log_F04.running.log"
}
]
