[SETTINGS] {
  "date": "2018/02/05 17:14:24",
  "date_iso": "2018-02-05T17:14:24.948775",
  "params": null,
  "system": {
    "nodename": "gibson",
    "machine": "x86_64",
    "platform": "Linux-4.4.0-112-generic-x86_64-with-debian-stretch-sid",
    "processor": "x86_64",
    "version": "#135-Ubuntu SMP Fri Jan 19 11:48:36 UTC 2018",
    "system": "Linux",
    "cpu_count": 8,
    "cpu_times": {
      "user": 114384.07,
      "system": 18422.31,
      "idle": 7637230.56,
      "nice": 749.46
    },
    "cpu_percent": 100.0,
    "virtual_memory": {
      "total": 33618501632,
      "available": 25003675648,
      "percent": 25.6,
      "used": 7710531584,
      "free": 8484274176
    }
  },
  "process": {
    "username": "evgeniya",
    "cwd": "/cw/dtailocal/mercs_python/src/core",
    "create_time": 1517847260.26,
    "cpu_times": {
      "user": 0.59,
      "system": 0.08
    }
  },
  "logfile": "/cw/dtailocal/mercs_python/out/239/slump/logs/mercspython_Log_F01",
  "command": "python /cw/dtailocal/mercs_python/bin/mercspython.py /cw/dtailocal/mercs_python/out/239/slump/settings/mercspython_Settings_F01.s"
}
[INFO] cmd:python /cw/dtailocal/mercs_python/bin/mercspython.py /cw/dtailocal/mercs_python/out/239/slump/settings/mercspython_Settings_F01.s; cwd:None
[INFO] Start: Run process
[INFO] Write log to /cw/dtailocal/mercs_python/out/239/slump/logs/mercspython_Log_F01.running.log
[STDERR] /cw/dtailocal/mercs_python/bin/mercspython.py:123: DataConversionWarning: A column-vector y was passed when a 1d array was expected. Please change the shape of y to (n_samples,), for example using ravel().
[STDERR]   models[i].fit(X, Y)
[STDERR] /cw/dtailocal/mercs_python/bin/mercspython.py:123: DataConversionWarning: A column-vector y was passed when a 1d array was expected. Please change the shape of y to (n_samples,), for example using ravel().
[STDERR]   models[i].fit(X, Y)
[STDERR] /cw/dtailocal/mercs_python/bin/mercspython.py:123: DataConversionWarning: A column-vector y was passed when a 1d array was expected. Please change the shape of y to (n_samples,), for example using ravel().
[STDERR]   models[i].fit(X, Y)
[STDERR] /cw/dtailocal/mercs_python/bin/mercspython.py:123: DataConversionWarning: A column-vector y was passed when a 1d array was expected. Please change the shape of y to (n_samples,), for example using ravel().
[STDERR]   models[i].fit(X, Y)
[[0, 0, 0, 0, 0, 1, 1, 0, 0, 0], [0, 0, 0, 0, 0, 0, 0, 0, 1, 0], [1, 1, 0, 0, 1, 0, 0, 0, 0, 1], [0, 0, 0, 0, 0, 0, 0, 1, 0, 0], [0, 0, 1, 0, 0, 0, 0, 0, 0, 0], [0, 0, 0, 1, 0, 0, 0, 0, 0, 0]]
====================================================
Total induction time of the MDEModel was: 855 ms
====================================================
====================================================
Total inference time of the MDEModel was: 138 ms
====================================================
====================================================
This was for: 10 queries.
====================================================
[INFO] Process ended (returncode 0)
[INFO] Finished: Run process 3.427 seconds
[WARNING] Exit:finished; Returncode:0; Time:3.42675
