[
{
  "ts": "2018-02-05T15:09:12.886800",
  "type": "SETTINGS",
  "values": {
    "date": "2018/02/05 16:09:12",
    "date_iso": "2018-02-05T16:09:12.885840",
    "params": null,
    "system": {
      "nodename": "gibson",
      "machine": "x86_64",
      "platform": "Linux-4.4.0-112-generic-x86_64-with-debian-stretch-sid",
      "processor": "x86_64",
      "version": "#135-Ubuntu SMP Fri Jan 19 11:48:36 UTC 2018",
      "system": "Linux",
      "cpu_count": 8,
      "cpu_times": {
        "user": 90139.23,
        "system": 18120.49,
        "idle": 7630558.17,
        "nice": 732.25
      },
      "cpu_percent": 95.2,
      "virtual_memory": {
        "total": 33618501632,
        "available": 25649311744,
        "percent": 23.7,
        "used": 6850854912,
        "free": 9947357184
      }
    },
    "process": {
      "username": "evgeniya",
      "cwd": "/cw/dtailocal/mercs_python/src/core",
      "create_time": 1517843326.94,
      "cpu_times": {
        "user": 1.17,
        "system": 0.24
      }
    },
    "logfile": "/cw/dtailocal/mercs_python/out/317/slump/logs/mercspython_Log_F08",
    "command": "python /cw/dtailocal/mercs_python/bin/mercspython.py /cw/dtailocal/mercs_python/out/317/slump/settings/mercspython_Settings_F08.s"
  }
},
{
  "ts": "2018-02-05T15:09:12.886967",
  "type": "INFO",
  "values": {
    "cmd": "python /cw/dtailocal/mercs_python/bin/mercspython.py /cw/dtailocal/mercs_python/out/317/slump/settings/mercspython_Settings_F08.s",
    "cwd": null
  }
},
{
  "ts": "2018-02-05T15:09:12.891971",
  "type": "INFO",
  "values": "Start: Run process"
},
{
  "ts": "2018-02-05T15:09:12.897274",
  "type": "INFO",
  "values": "Write log to /cw/dtailocal/mercs_python/out/317/slump/logs/mercspython_Log_F08.running.log"
},
{
  "ts": "2018-02-05T15:09:15.303716",
  "type": "INFO",
  "values": "Process ended (returncode 0)"
},
{
  "ts": "2018-02-05T15:09:15.303981",
  "type": "INFO",
  "values": "Finished: Run process 2.412 seconds"
},
{
  "ts": "2018-02-05T15:09:15.304060",
  "type": "WARNING",
  "values": {
    "Exit": "finished",
    "Returncode": 0,
    "Time": 2.412038564682007
  }
},
{
  "ts": "2018-02-05T15:09:15.304415",
  "type": "INFO",
  "values": "Closing /cw/dtailocal/mercs_python/out/317/slump/logs/mercspython_Log_F08.running.log"
}
]
