[
{
  "ts": "2018-02-05T16:02:51.731057",
  "type": "SETTINGS",
  "values": {
    "date": "2018/02/05 17:02:51",
    "date_iso": "2018-02-05T17:02:51.730207",
    "params": null,
    "system": {
      "nodename": "gibson",
      "machine": "x86_64",
      "platform": "Linux-4.4.0-112-generic-x86_64-with-debian-stretch-sid",
      "processor": "x86_64",
      "version": "#135-Ubuntu SMP Fri Jan 19 11:48:36 UTC 2018",
      "system": "Linux",
      "cpu_count": 8,
      "cpu_times": {
        "user": 108930.65,
        "system": 18334.06,
        "idle": 7637229.33,
        "nice": 749.46
      },
      "cpu_percent": 100.0,
      "virtual_memory": {
        "total": 33618501632,
        "available": 23355305984,
        "percent": 30.5,
        "used": 9291350016,
        "free": 6949195776
      }
    },
    "process": {
      "username": "evgeniya",
      "cwd": "/cw/dtailocal/mercs_python/src/core",
      "create_time": 1517846420.9,
      "cpu_times": {
        "user": 0.83,
        "system": 0.1
      }
    },
    "logfile": "/cw/dtailocal/mercs_python/out/216/rf1/logs/mercspython_Log_F01",
    "command": "python /cw/dtailocal/mercs_python/bin/mercspython.py /cw/dtailocal/mercs_python/out/216/rf1/settings/mercspython_Settings_F01.s"
  }
},
{
  "ts": "2018-02-05T16:02:51.731211",
  "type": "INFO",
  "values": {
    "cmd": "python /cw/dtailocal/mercs_python/bin/mercspython.py /cw/dtailocal/mercs_python/out/216/rf1/settings/mercspython_Settings_F01.s",
    "cwd": null
  }
},
{
  "ts": "2018-02-05T16:02:51.749377",
  "type": "INFO",
  "values": "Start: Run process"
},
{
  "ts": "2018-02-05T16:02:51.771922",
  "type": "INFO",
  "values": "Write log to /cw/dtailocal/mercs_python/out/216/rf1/logs/mercspython_Log_F01.running.log"
},
{
  "ts": "2018-02-05T16:05:21.559211",
  "type": "INFO",
  "values": "Process ended (returncode 0)"
},
{
  "ts": "2018-02-05T16:05:21.559300",
  "type": "INFO",
  "values": "Finished: Run process 149.810 seconds"
},
{
  "ts": "2018-02-05T16:05:21.559384",
  "type": "WARNING",
  "values": {
    "Exit": "finished",
    "Returncode": 0,
    "Time": 149.80994606018066
  }
}
]
