[
{
  "ts": "2018-02-05T16:08:08.829125",
  "type": "SETTINGS",
  "values": {
    "date": "2018/02/05 17:08:08",
    "date_iso": "2018-02-05T17:08:08.828289",
    "params": null,
    "system": {
      "nodename": "gibson",
      "machine": "x86_64",
      "platform": "Linux-4.4.0-112-generic-x86_64-with-debian-stretch-sid",
      "processor": "x86_64",
      "version": "#135-Ubuntu SMP Fri Jan 19 11:48:36 UTC 2018",
      "system": "Linux",
      "cpu_count": 8,
      "cpu_times": {
        "user": 111417.71,
        "system": 18382.05,
        "idle": 7637229.87,
        "nice": 749.46
      },
      "cpu_percent": 99.9,
      "virtual_memory": {
        "total": 33618501632,
        "available": 23828717568,
        "percent": 29.1,
        "used": 8894930944,
        "free": 7375917056
      }
    },
    "process": {
      "username": "evgeniya",
      "cwd": "/cw/dtailocal/mercs_python/src/core",
      "create_time": 1517846847.1,
      "cpu_times": {
        "user": 1.22,
        "system": 0.19
      }
    },
    "logfile": "/cw/dtailocal/mercs_python/out/261/andro/logs/mercspython_Log_F06",
    "command": "python /cw/dtailocal/mercs_python/bin/mercspython.py /cw/dtailocal/mercs_python/out/261/andro/settings/mercspython_Settings_F06.s"
  }
},
{
  "ts": "2018-02-05T16:08:08.829402",
  "type": "INFO",
  "values": {
    "cmd": "python /cw/dtailocal/mercs_python/bin/mercspython.py /cw/dtailocal/mercs_python/out/261/andro/settings/mercspython_Settings_F06.s",
    "cwd": null
  }
},
{
  "ts": "2018-02-05T16:08:08.844647",
  "type": "INFO",
  "values": "Start: Run process"
},
{
  "ts": "2018-02-05T16:08:08.883800",
  "type": "INFO",
  "values": "Write log to /cw/dtailocal/mercs_python/out/261/andro/logs/mercspython_Log_F06.running.log"
},
{
  "ts": "2018-02-05T16:08:15.291539",
  "type": "INFO",
  "values": "Process ended (returncode 0)"
},
{
  "ts": "2018-02-05T16:08:15.291635",
  "type": "INFO",
  "values": "Finished: Run process 6.447 seconds"
},
{
  "ts": "2018-02-05T16:08:15.291718",
  "type": "WARNING",
  "values": {
    "Exit": "finished",
    "Returncode": 0,
    "Time": 6.447009086608887
  }
}
]
