[
{
  "ts": "2018-02-05T16:08:02.358320",
  "type": "SETTINGS",
  "values": {
    "date": "2018/02/05 17:08:02",
    "date_iso": "2018-02-05T17:08:02.357595",
    "params": null,
    "system": {
      "nodename": "gibson",
      "machine": "x86_64",
      "platform": "Linux-4.4.0-112-generic-x86_64-with-debian-stretch-sid",
      "processor": "x86_64",
      "version": "#135-Ubuntu SMP Fri Jan 19 11:48:36 UTC 2018",
      "system": "Linux",
      "cpu_count": 8,
      "cpu_times": {
        "user": 111367.3,
        "system": 18380.78,
        "idle": 7637229.82,
        "nice": 749.46
      },
      "cpu_percent": 99.9,
      "virtual_memory": {
        "total": 33618501632,
        "available": 23162179584,
        "percent": 31.1,
        "used": 9560166400,
        "free": 6711443456
      }
    },
    "process": {
      "username": "evgeniya",
      "cwd": "/cw/dtailocal/mercs_python/src/core",
      "create_time": 1517846847.1,
      "cpu_times": {
        "user": 1.16,
        "system": 0.17
      }
    },
    "logfile": "/cw/dtailocal/mercs_python/out/261/andro/logs/mercspython_Log_F05",
    "command": "python /cw/dtailocal/mercs_python/bin/mercspython.py /cw/dtailocal/mercs_python/out/261/andro/settings/mercspython_Settings_F05.s"
  }
},
{
  "ts": "2018-02-05T16:08:02.358436",
  "type": "INFO",
  "values": {
    "cmd": "python /cw/dtailocal/mercs_python/bin/mercspython.py /cw/dtailocal/mercs_python/out/261/andro/settings/mercspython_Settings_F05.s",
    "cwd": null
  }
},
{
  "ts": "2018-02-05T16:08:02.377099",
  "type": "INFO",
  "values": "Start: Run process"
},
{
  "ts": "2018-02-05T16:08:02.408743",
  "type": "INFO",
  "values": "Write log to /cw/dtailocal/mercs_python/out/261/andro/logs/mercspython_Log_F05.running.log"
},
{
  "ts": "2018-02-05T16:08:08.816679",
  "type": "INFO",
  "values": "Process ended (returncode 0)"
},
{
  "ts": "2018-02-05T16:08:08.816758",
  "type": "INFO",
  "values": "Finished: Run process 6.440 seconds"
},
{
  "ts": "2018-02-05T16:08:08.816841",
  "type": "WARNING",
  "values": {
    "Exit": "finished",
    "Returncode": 0,
    "Time": 6.439677715301514
  }
}
]
