[
{
  "ts": "2018-02-06T12:14:27.110431",
  "type": "SETTINGS",
  "values": {
    "date": "2018/02/06 13:14:27",
    "date_iso": "2018-02-06T13:14:27.109580",
    "params": null,
    "system": {
      "nodename": "gibson",
      "machine": "x86_64",
      "platform": "Linux-4.4.0-112-generic-x86_64-with-debian-stretch-sid",
      "processor": "x86_64",
      "version": "#135-Ubuntu SMP Fri Jan 19 11:48:36 UTC 2018",
      "system": "Linux",
      "cpu_count": 8,
      "cpu_times": {
        "user": 345184.61,
        "system": 20935.78,
        "idle": 7978582.58,
        "nice": 821.4
      },
      "cpu_percent": 86.6,
      "virtual_memory": {
        "total": 33618501632,
        "available": 22772473856,
        "percent": 32.3,
        "used": 9847402496,
        "free": 10524033024
      }
    },
    "process": {
      "username": "evgeniya",
      "cwd": "/cw/dtailocal/mercs_python/src/core",
      "create_time": 1517919253.65,
      "cpu_times": {
        "user": 1.12,
        "system": 0.43
      }
    },
    "logfile": "/cw/dtailocal/mercs_python/out/625/enb/logs/mercspython_Log_F07",
    "command": "python /cw/dtailocal/mercs_python/bin/mercspython.py /cw/dtailocal/mercs_python/out/625/enb/settings/mercspython_Settings_F07.s"
  }
},
{
  "ts": "2018-02-06T12:14:27.110581",
  "type": "INFO",
  "values": {
    "cmd": "python /cw/dtailocal/mercs_python/bin/mercspython.py /cw/dtailocal/mercs_python/out/625/enb/settings/mercspython_Settings_F07.s",
    "cwd": null
  }
},
{
  "ts": "2018-02-06T12:14:27.114149",
  "type": "INFO",
  "values": "Start: Run process"
},
{
  "ts": "2018-02-06T12:14:27.114552",
  "type": "INFO",
  "values": "Write log to /cw/dtailocal/mercs_python/out/625/enb/logs/mercspython_Log_F07.running.log"
},
{
  "ts": "2018-02-06T12:14:28.916696",
  "type": "INFO",
  "values": "Process ended (returncode 0)"
},
{
  "ts": "2018-02-06T12:14:28.916778",
  "type": "INFO",
  "values": "Finished: Run process 1.803 seconds"
},
{
  "ts": "2018-02-06T12:14:28.916856",
  "type": "WARNING",
  "values": {
    "Exit": "finished",
    "Returncode": 0,
    "Time": 1.8026506900787354
  }
}
]
