[
{
  "ts": "2018-02-07T13:04:34.143702",
  "type": "SETTINGS",
  "values": {
    "date": "2018/02/07 14:04:34",
    "date_iso": "2018-02-07T14:04:34.142824",
    "params": null,
    "system": {
      "nodename": "gibson",
      "machine": "x86_64",
      "platform": "Linux-4.4.0-112-generic-x86_64-with-debian-stretch-sid",
      "processor": "x86_64",
      "version": "#135-Ubuntu SMP Fri Jan 19 11:48:36 UTC 2018",
      "system": "Linux",
      "cpu_count": 8,
      "cpu_times": {
        "user": 400233.2,
        "system": 23545.18,
        "idle": 8633958.65,
        "nice": 906.12
      },
      "cpu_percent": 99.6,
      "virtual_memory": {
        "total": 33618501632,
        "available": 25514295296,
        "percent": 24.1,
        "used": 7159353344,
        "free": 11210981376
      }
    },
    "process": {
      "username": "evgeniya",
      "cwd": "/cw/dtailocal/mercs_python/src/core",
      "create_time": 1518008668.73,
      "cpu_times": {
        "user": 0.7,
        "system": 0.06
      }
    },
    "logfile": "/cw/dtailocal/mercs_python/out/816/jura/logs/mercspython_Log_F01",
    "command": "python /cw/dtailocal/mercs_python/bin/mercspython.py /cw/dtailocal/mercs_python/out/816/jura/settings/mercspython_Settings_F01.s"
  }
},
{
  "ts": "2018-02-07T13:04:34.143863",
  "type": "INFO",
  "values": {
    "cmd": "python /cw/dtailocal/mercs_python/bin/mercspython.py /cw/dtailocal/mercs_python/out/816/jura/settings/mercspython_Settings_F01.s",
    "cwd": null
  }
},
{
  "ts": "2018-02-07T13:04:34.153912",
  "type": "INFO",
  "values": "Start: Run process"
},
{
  "ts": "2018-02-07T13:04:34.191382",
  "type": "INFO",
  "values": "Write log to /cw/dtailocal/mercs_python/out/816/jura/logs/mercspython_Log_F01.running.log"
},
{
  "ts": "2018-02-07T13:04:38.207728",
  "type": "INFO",
  "values": "Process ended (returncode 0)"
},
{
  "ts": "2018-02-07T13:04:38.207806",
  "type": "INFO",
  "values": "Finished: Run process 4.054 seconds"
},
{
  "ts": "2018-02-07T13:04:38.207886",
  "type": "WARNING",
  "values": {
    "Exit": "finished",
    "Returncode": 0,
    "Time": 4.053922653198242
  }
},
{
  "ts": "2018-02-07T13:04:38.216409",
  "type": "INFO",
  "values": "Closing /cw/dtailocal/mercs_python/out/816/jura/logs/mercspython_Log_F01.running.log"
}
]
