[
{
  "ts": "2018-02-07T13:05:27.218229",
  "type": "SETTINGS",
  "values": {
    "date": "2018/02/07 14:05:27",
    "date_iso": "2018-02-07T14:05:27.217306",
    "params": null,
    "system": {
      "nodename": "gibson",
      "machine": "x86_64",
      "platform": "Linux-4.4.0-112-generic-x86_64-with-debian-stretch-sid",
      "processor": "x86_64",
      "version": "#135-Ubuntu SMP Fri Jan 19 11:48:36 UTC 2018",
      "system": "Linux",
      "cpu_count": 8,
      "cpu_times": {
        "user": 400641.91,
        "system": 23558.07,
        "idle": 8633960.43,
        "nice": 906.12
      },
      "cpu_percent": 100.0,
      "virtual_memory": {
        "total": 33618501632,
        "available": 24674140160,
        "percent": 26.6,
        "used": 8001368064,
        "free": 10354159616
      }
    },
    "process": {
      "username": "evgeniya",
      "cwd": "/cw/dtailocal/mercs_python/src/core",
      "create_time": 1518008708.1,
      "cpu_times": {
        "user": 0.9,
        "system": 0.17
      }
    },
    "logfile": "/cw/dtailocal/mercs_python/out/819/slump/logs/mercspython_Log_F05",
    "command": "python /cw/dtailocal/mercs_python/bin/mercspython.py /cw/dtailocal/mercs_python/out/819/slump/settings/mercspython_Settings_F05.s"
  }
},
{
  "ts": "2018-02-07T13:05:27.218395",
  "type": "INFO",
  "values": {
    "cmd": "python /cw/dtailocal/mercs_python/bin/mercspython.py /cw/dtailocal/mercs_python/out/819/slump/settings/mercspython_Settings_F05.s",
    "cwd": null
  }
},
{
  "ts": "2018-02-07T13:05:27.229299",
  "type": "INFO",
  "values": "Start: Run process"
},
{
  "ts": "2018-02-07T13:05:27.252354",
  "type": "INFO",
  "values": "Write log to /cw/dtailocal/mercs_python/out/819/slump/logs/mercspython_Log_F05.running.log"
},
{
  "ts": "2018-02-07T13:05:30.656442",
  "type": "INFO",
  "values": "Process ended (returncode 0)"
},
{
  "ts": "2018-02-07T13:05:30.656526",
  "type": "INFO",
  "values": "Finished: Run process 3.427 seconds"
},
{
  "ts": "2018-02-07T13:05:30.656630",
  "type": "WARNING",
  "values": {
    "Exit": "finished",
    "Returncode": 0,
    "Time": 3.4272587299346924
  }
}
]
