[
{
  "ts": "2018-02-05T17:20:24.441268",
  "type": "SETTINGS",
  "values": {
    "date": "2018/02/05 18:20:24",
    "date_iso": "2018-02-05T18:20:24.440356",
    "params": null,
    "system": {
      "nodename": "gibson",
      "machine": "x86_64",
      "platform": "Linux-4.4.0-112-generic-x86_64-with-debian-stretch-sid",
      "processor": "x86_64",
      "version": "#135-Ubuntu SMP Fri Jan 19 11:48:36 UTC 2018",
      "system": "Linux",
      "cpu_count": 8,
      "cpu_times": {
        "user": 145737.87,
        "system": 18716.68,
        "idle": 7637235.5,
        "nice": 751.59
      },
      "cpu_percent": 100.0,
      "virtual_memory": {
        "total": 33618501632,
        "available": 23978565632,
        "percent": 28.7,
        "used": 8659505152,
        "free": 6684352512
      }
    },
    "process": {
      "username": "evgeniya",
      "cwd": "/cw/dtailocal/mercs_python/src/core",
      "create_time": 1517850411.84,
      "cpu_times": {
        "user": 1.76,
        "system": 0.34
      }
    },
    "logfile": "/cw/dtailocal/mercs_python/out/324/rf1/logs/mercspython_Log_F09",
    "command": "python /cw/dtailocal/mercs_python/bin/mercspython.py /cw/dtailocal/mercs_python/out/324/rf1/settings/mercspython_Settings_F09.s"
  }
},
{
  "ts": "2018-02-05T17:20:24.441431",
  "type": "INFO",
  "values": {
    "cmd": "python /cw/dtailocal/mercs_python/bin/mercspython.py /cw/dtailocal/mercs_python/out/324/rf1/settings/mercspython_Settings_F09.s",
    "cwd": null
  }
},
{
  "ts": "2018-02-05T17:20:24.461090",
  "type": "INFO",
  "values": "Start: Run process"
},
{
  "ts": "2018-02-05T17:20:24.495771",
  "type": "INFO",
  "values": "Write log to /cw/dtailocal/mercs_python/out/324/rf1/logs/mercspython_Log_F09.running.log"
},
{
  "ts": "2018-02-05T17:21:33.988166",
  "type": "INFO",
  "values": "Process ended (returncode 0)"
},
{
  "ts": "2018-02-05T17:21:33.988249",
  "type": "INFO",
  "values": "Finished: Run process 69.527 seconds"
},
{
  "ts": "2018-02-05T17:21:33.988339",
  "type": "WARNING",
  "values": {
    "Exit": "finished",
    "Returncode": 0,
    "Time": 69.52719163894653
  }
},
{
  "ts": "2018-02-05T17:21:33.995846",
  "type": "INFO",
  "values": "Closing /cw/dtailocal/mercs_python/out/324/rf1/logs/mercspython_Log_F09.running.log"
}
]
