ID,Dataset,Ind t,Inf t,Nb Atts,Nb Queries,Nb Tuples,R^2 per query,Relative error / query,Sum of squared residuals / query,System,Tot t,basetype,dataset,ensemble,ensemble_its,keyword,param,prediction,selection_h,selection_its,selection_num_targets,system,Mean time/Query,Selection
71,andro,921.2,172.3,36,36,48,-1.9940837035,0.233523394,0.2340091452,mercspython,1093.5,Ensemble,andro,Rforest,30,basic,1,Simple,base,1,1,mercspython,4.7861111111,1 target/tree
73,enb,424.2,48.3,10,10,767,-0.522530062,0.1991596379,0.1500032926,mercspython,472.5,Ensemble,enb,Rforest,30,basic,1,Simple,base,1,1,mercspython,4.83,1 target/tree
74,jura,654.4,79.5,18,18,358,-0.7635548382,0.1830292016,0.0835499956,mercspython,733.9,Ensemble,jura,Rforest,30,basic,1,Simple,base,1,1,mercspython,4.4166666667,1 target/tree
540,andro,63.6,106.7,36,36,48,-0.3075535212,0.1739250251,0.1028793439,mercspython,170.3,Ensemble,andro,Rforest,30,basic,1,Simple,feature_importance,1,2,mercspython,2.9638888889,FI (n_clusters = 2)
541,enb,83.4,57.3,10,10,767,-0.6854139804,0.2389923139,0.1842284144,mercspython,140.7,Ensemble,enb,Rforest,30,basic,1,Simple,feature_importance,1,2,mercspython,5.73,FI (n_clusters = 2)
542,jura,79.4,65.3,18,18,358,-0.5046499763,0.1744817144,0.1230666175,mercspython,144.7,Ensemble,jura,Rforest,30,basic,1,Simple,feature_importance,1,2,mercspython,3.6277777778,FI (n_clusters = 2)
550,andro,140.7,116.3,36,36,48,-1.2483654696,0.2053615456,0.1836190078,mercspython,257,Ensemble,andro,Rforest,30,basic,1,Simple,feature_importance,1,4,mercspython,3.2305555556,FI (n_clusters = 4)
551,enb,160.3,52.9,10,10,767,-0.5379376858,0.2059470971,0.1634979764,mercspython,213.2,Ensemble,enb,Rforest,30,basic,1,Simple,feature_importance,1,4,mercspython,5.29,FI (n_clusters = 4)
552,jura,171.9,78.1,18,18,358,-0.4185315521,0.1589345626,0.1022750764,mercspython,250,Ensemble,jura,Rforest,30,basic,1,Simple,feature_importance,1,4,mercspython,4.3388888889,FI (n_clusters = 4)
600,andro,90.0,99.0,36,36,48,-0.6360733476242024,0.18566515671846162,0.12915897350195807,mercspython,189.0,Ensemble,andro,Rforest,30,basic,1.0,Simple,feature_importance_kmeans,1,3.0,mercspython,2.75,KM (n_clusters = 3)
601,enb,103.6,42.0,10,10,767,-0.5643878349820894,0.20684922147564308,0.16156517341742274,mercspython,145.6,Ensemble,enb,Rforest,30,basic,1.0,Simple,feature_importance_kmeans,1,3.0,mercspython,4.2,KM (n_clusters = 3)
602,jura,116.7,69.3,18,18,358,-0.5216486940628224,0.15909932266770205,0.11482900605879458,mercspython,186.0,Ensemble,jura,Rforest,30,basic,1.0,Simple,feature_importance_kmeans,1,3.0,mercspython,3.8499999999999996,KM (n_clusters = 3)
