[
{
  "ts": "2018-02-05T14:50:37.803048",
  "type": "SETTINGS",
  "values": {
    "date": "2018/02/05 15:50:37",
    "date_iso": "2018-02-05T15:50:37.802231",
    "params": null,
    "system": {
      "nodename": "gibson",
      "machine": "x86_64",
      "platform": "Linux-4.4.0-112-generic-x86_64-with-debian-stretch-sid",
      "processor": "x86_64",
      "version": "#135-Ubuntu SMP Fri Jan 19 11:48:36 UTC 2018",
      "system": "Linux",
      "cpu_count": 8,
      "cpu_times": {
        "user": 81321.24,
        "system": 18031.5,
        "idle": 7630551.24,
        "nice": 732.25
      },
      "cpu_percent": 100.0,
      "virtual_memory": {
        "total": 33618501632,
        "available": 24788897792,
        "percent": 26.3,
        "used": 7762030592,
        "free": 9473179648
      }
    },
    "process": {
      "username": "evgeniya",
      "cwd": "/cw/dtailocal/mercs_python/src/core",
      "create_time": 1517842215.35,
      "cpu_times": {
        "user": 1.37,
        "system": 0.16
      }
    },
    "logfile": "/cw/dtailocal/mercs_python/out/325/slump/logs/mercspython_Log_F07",
    "command": "python /cw/dtailocal/mercs_python/bin/mercspython.py /cw/dtailocal/mercs_python/out/325/slump/settings/mercspython_Settings_F07.s"
  }
},
{
  "ts": "2018-02-05T14:50:37.803196",
  "type": "INFO",
  "values": {
    "cmd": "python /cw/dtailocal/mercs_python/bin/mercspython.py /cw/dtailocal/mercs_python/out/325/slump/settings/mercspython_Settings_F07.s",
    "cwd": null
  }
},
{
  "ts": "2018-02-05T14:50:37.817049",
  "type": "INFO",
  "values": "Start: Run process"
},
{
  "ts": "2018-02-05T14:50:37.821181",
  "type": "INFO",
  "values": "Write log to /cw/dtailocal/mercs_python/out/325/slump/logs/mercspython_Log_F07.running.log"
},
{
  "ts": "2018-02-05T14:50:40.424235",
  "type": "INFO",
  "values": "Process ended (returncode 0)"
},
{
  "ts": "2018-02-05T14:50:40.424311",
  "type": "INFO",
  "values": "Finished: Run process 2.607 seconds"
},
{
  "ts": "2018-02-05T14:50:40.424389",
  "type": "WARNING",
  "values": {
    "Exit": "finished",
    "Returncode": 0,
    "Time": 2.6073057651519775
  }
},
{
  "ts": "2018-02-05T14:50:40.431806",
  "type": "INFO",
  "values": "Closing /cw/dtailocal/mercs_python/out/325/slump/logs/mercspython_Log_F07.running.log"
}
]
