[
{
  "ts": "2018-02-05T14:50:23.117153",
  "type": "SETTINGS",
  "values": {
    "date": "2018/02/05 15:50:23",
    "date_iso": "2018-02-05T15:50:23.116321",
    "params": null,
    "system": {
      "nodename": "gibson",
      "machine": "x86_64",
      "platform": "Linux-4.4.0-112-generic-x86_64-with-debian-stretch-sid",
      "processor": "x86_64",
      "version": "#135-Ubuntu SMP Fri Jan 19 11:48:36 UTC 2018",
      "system": "Linux",
      "cpu_count": 8,
      "cpu_times": {
        "user": 81205.72,
        "system": 18029.86,
        "idle": 7630551.04,
        "nice": 732.25
      },
      "cpu_percent": 100.0,
      "virtual_memory": {
        "total": 33618501632,
        "available": 25004621824,
        "percent": 25.6,
        "used": 7536910336,
        "free": 9692958720
      }
    },
    "process": {
      "username": "evgeniya",
      "cwd": "/cw/dtailocal/mercs_python/src/core",
      "create_time": 1517842215.35,
      "cpu_times": {
        "user": 0.73,
        "system": 0.06
      }
    },
    "logfile": "/cw/dtailocal/mercs_python/out/325/slump/logs/mercspython_Log_F02",
    "command": "python /cw/dtailocal/mercs_python/bin/mercspython.py /cw/dtailocal/mercs_python/out/325/slump/settings/mercspython_Settings_F02.s"
  }
},
{
  "ts": "2018-02-05T14:50:23.117401",
  "type": "INFO",
  "values": {
    "cmd": "python /cw/dtailocal/mercs_python/bin/mercspython.py /cw/dtailocal/mercs_python/out/325/slump/settings/mercspython_Settings_F02.s",
    "cwd": null
  }
},
{
  "ts": "2018-02-05T14:50:23.145100",
  "type": "INFO",
  "values": "Start: Run process"
},
{
  "ts": "2018-02-05T14:50:23.191789",
  "type": "INFO",
  "values": "Write log to /cw/dtailocal/mercs_python/out/325/slump/logs/mercspython_Log_F02.running.log"
},
{
  "ts": "2018-02-05T14:50:26.010163",
  "type": "INFO",
  "values": "Process ended (returncode 0)"
},
{
  "ts": "2018-02-05T14:50:26.010261",
  "type": "INFO",
  "values": "Finished: Run process 2.865 seconds"
},
{
  "ts": "2018-02-05T14:50:26.010339",
  "type": "WARNING",
  "values": {
    "Exit": "finished",
    "Returncode": 0,
    "Time": 2.8651859760284424
  }
}
]
