[
{
  "ts": "2018-02-05T16:27:11.292089",
  "type": "SETTINGS",
  "values": {
    "date": "2018/02/05 17:27:11",
    "date_iso": "2018-02-05T17:27:11.262769",
    "params": null,
    "system": {
      "nodename": "gibson",
      "machine": "x86_64",
      "platform": "Linux-4.4.0-112-generic-x86_64-with-debian-stretch-sid",
      "processor": "x86_64",
      "version": "#135-Ubuntu SMP Fri Jan 19 11:48:36 UTC 2018",
      "system": "Linux",
      "cpu_count": 8,
      "cpu_times": {
        "user": 120450.27,
        "system": 18478.52,
        "idle": 7637232.72,
        "nice": 751.58
      },
      "cpu_percent": 100.0,
      "virtual_memory": {
        "total": 33618501632,
        "available": 24570449920,
        "percent": 26.9,
        "used": 8106442752,
        "free": 7958003712
      }
    },
    "process": {
      "username": "evgeniya",
      "cwd": "/cw/dtailocal/mercs_python/src/core",
      "create_time": 1517848029.61,
      "cpu_times": {
        "user": 0.52,
        "system": 0.07
      }
    },
    "logfile": "/cw/dtailocal/mercs_python/out/303/jura/logs/mercspython_Log_F00",
    "command": "python /cw/dtailocal/mercs_python/bin/mercspython.py /cw/dtailocal/mercs_python/out/303/jura/settings/mercspython_Settings_F00.s"
  }
},
{
  "ts": "2018-02-05T16:27:11.292255",
  "type": "INFO",
  "values": {
    "cmd": "python /cw/dtailocal/mercs_python/bin/mercspython.py /cw/dtailocal/mercs_python/out/303/jura/settings/mercspython_Settings_F00.s",
    "cwd": null
  }
},
{
  "ts": "2018-02-05T16:27:11.299488",
  "type": "INFO",
  "values": "Start: Run process"
},
{
  "ts": "2018-02-05T16:27:11.330025",
  "type": "INFO",
  "values": "Write log to /cw/dtailocal/mercs_python/out/303/jura/logs/mercspython_Log_F00.running.log"
},
{
  "ts": "2018-02-05T16:27:15.335720",
  "type": "INFO",
  "values": "Process ended (returncode 0)"
},
{
  "ts": "2018-02-05T16:27:15.335796",
  "type": "INFO",
  "values": "Finished: Run process 4.036 seconds"
},
{
  "ts": "2018-02-05T16:27:15.335878",
  "type": "WARNING",
  "values": {
    "Exit": "finished",
    "Returncode": 0,
    "Time": 4.036345958709717
  }
},
{
  "ts": "2018-02-05T16:27:15.343803",
  "type": "INFO",
  "values": "Closing /cw/dtailocal/mercs_python/out/303/jura/logs/mercspython_Log_F00.running.log"
}
]
