[SETTINGS] {
  "date": "2018/02/05 17:21:55",
  "date_iso": "2018-02-05T17:21:55.497427",
  "params": null,
  "system": {
    "nodename": "gibson",
    "machine": "x86_64",
    "platform": "Linux-4.4.0-112-generic-x86_64-with-debian-stretch-sid",
    "processor": "x86_64",
    "version": "#135-Ubuntu SMP Fri Jan 19 11:48:36 UTC 2018",
    "system": "Linux",
    "cpu_count": 8,
    "cpu_times": {
      "user": 117954.25,
      "system": 18453.44,
      "idle": 7637231.51,
      "nice": 749.46
    },
    "cpu_percent": 100.0,
    "virtual_memory": {
      "total": 33618501632,
      "available": 23422758912,
      "percent": 30.3,
      "used": 9291804672,
      "free": 6849015808
    }
  },
  "process": {
    "username": "evgeniya",
    "cwd": "/cw/dtailocal/mercs_python/src/core",
    "create_time": 1517847712.51,
    "cpu_times": {
      "user": 1.76,
      "system": 0.09
    }
  },
  "logfile": "/cw/dtailocal/mercs_python/out/265/oes97/logs/mercspython_Log_F00",
  "command": "python /cw/dtailocal/mercs_python/bin/mercspython.py /cw/dtailocal/mercs_python/out/265/oes97/settings/mercspython_Settings_F00.s"
}
[INFO] cmd:python /cw/dtailocal/mercs_python/bin/mercspython.py /cw/dtailocal/mercs_python/out/265/oes97/settings/mercspython_Settings_F00.s; cwd:None
[INFO] Start: Run process
[INFO] Write log to /cw/dtailocal/mercs_python/out/265/oes97/logs/mercspython_Log_F00.running.log
[STDERR] /cw/dtailocal/mercs_python/bin/mercspython.py:479: DataConversionWarning: A column-vector y was passed when a 1d array was expected. Please change the shape of y to (n_samples,), for example using ravel().
[STDERR]   rf.fit(X, y)
[STDERR] /cw/dtailocal/mercs_python/bin/mercspython.py:479: DataConversionWarning: A column-vector y was passed when a 1d array was expected. Please change the shape of y to (n_samples,), for example using ravel().
[STDERR]   rf.fit(X, y)
[STDERR] /cw/dtailocal/mercs_python/bin/mercspython.py:479: DataConversionWarning: A column-vector y was passed when a 1d array was expected. Please change the shape of y to (n_samples,), for example using ravel().
[STDERR]   rf.fit(X, y)
[STDERR] /cw/dtailocal/mercs_python/bin/mercspython.py:479: DataConversionWarning: A column-vector y was passed when a 1d array was expected. Please change the shape of y to (n_samples,), for example using ravel().
[STDERR]   rf.fit(X, y)
[STDERR] /cw/dtailocal/mercs_python/bin/mercspython.py:479: DataConversionWarning: A column-vector y was passed when a 1d array was expected. Please change the shape of y to (n_samples,), for example using ravel().
[STDERR]   rf.fit(X, y)
[STDERR] /cw/dtailocal/mercs_python/bin/mercspython.py:479: DataConversionWarning: A column-vector y was passed when a 1d array was expected. Please change the shape of y to (n_samples,), for example using ravel().
[STDERR]   rf.fit(X, y)
[STDERR] /cw/dtailocal/mercs_python/bin/mercspython.py:479: DataConversionWarning: A column-vector y was passed when a 1d array was expected. Please change the shape of y to (n_samples,), for example using ravel().
[STDERR]   rf.fit(X, y)
[STDERR] /cw/dtailocal/mercs_python/bin/mercspython.py:479: DataConversionWarning: A column-vector y was passed when a 1d array was expected. Please change the shape of y to (n_samples,), for example using ravel().
[STDERR]   rf.fit(X, y)
[STDERR] /cw/dtailocal/mercs_python/bin/mercspython.py:479: DataConversionWarning: A column-vector y was passed when a 1d array was expected. Please change the shape of y to (n_samples,), for example using ravel().
[STDERR]   rf.fit(X, y)
[STDERR] /cw/dtailocal/mercs_python/bin/mercspython.py:479: DataConversionWarning: A column-vector y was passed when a 1d array was expected. Please change the shape of y to (n_samples,), for example using ravel().
[STDERR]   rf.fit(X, y)
[STDERR] /cw/dtailocal/mercs_python/bin/mercspython.py:479: DataConversionWarning: A column-vector y was passed when a 1d array was expected. Please change the shape of y to (n_samples,), for example using ravel().
[STDERR]   rf.fit(X, y)
[STDERR] /cw/dtailocal/mercs_python/bin/mercspython.py:479: DataConversionWarning: A column-vector y was passed when a 1d array was expected. Please change the shape of y to (n_samples,), for example using ravel().
[STDERR]   rf.fit(X, y)
[STDERR] /cw/dtailocal/mercs_python/bin/mercspython.py:479: DataConversionWarning: A column-vector y was passed when a 1d array was expected. Please change the shape of y to (n_samples,), for example using ravel().
[STDERR]   rf.fit(X, y)
[STDERR] /cw/dtailocal/mercs_python/bin/mercspython.py:479: DataConversionWarning: A column-vector y was passed when a 1d array was expected. Please change the shape of y to (n_samples,), for example using ravel().
[STDERR]   rf.fit(X, y)
[STDERR] /cw/dtailocal/mercs_python/bin/mercspython.py:479: DataConversionWarning: A column-vector y was passed when a 1d array was expected. Please change the shape of y to (n_samples,), for example using ravel().
[STDERR]   rf.fit(X, y)
[STDERR] /cw/dtailocal/mercs_python/bin/mercspython.py:479: DataConversionWarning: A column-vector y was passed when a 1d array was expected. Please change the shape of y to (n_samples,), for example using ravel().
[STDERR]   rf.fit(X, y)
[STDERR] /cw/dtailocal/mercs_python/bin/mercspython.py:479: DataConversionWarning: A column-vector y was passed when a 1d array was expected. Please change the shape of y to (n_samples,), for example using ravel().
[STDERR]   rf.fit(X, y)
[STDERR] /cw/dtailocal/mercs_python/bin/mercspython.py:479: DataConversionWarning: A column-vector y was passed when a 1d array was expected. Please change the shape of y to (n_samples,), for example using ravel().
[STDERR]   rf.fit(X, y)
[STDERR] /cw/dtailocal/mercs_python/bin/mercspython.py:479: DataConversionWarning: A column-vector y was passed when a 1d array was expected. Please change the shape of y to (n_samples,), for example using ravel().
[STDERR]   rf.fit(X, y)
[STDERR] /cw/dtailocal/mercs_python/bin/mercspython.py:479: DataConversionWarning: A column-vector y was passed when a 1d array was expected. Please change the shape of y to (n_samples,), for example using ravel().
[STDERR]   rf.fit(X, y)
[STDERR] /cw/dtailocal/mercs_python/bin/mercspython.py:479: DataConversionWarning: A column-vector y was passed when a 1d array was expected. Please change the shape of y to (n_samples,), for example using ravel().
[STDERR]   rf.fit(X, y)
[STDERR] /cw/dtailocal/mercs_python/bin/mercspython.py:479: DataConversionWarning: A column-vector y was passed when a 1d array was expected. Please change the shape of y to (n_samples,), for example using ravel().
[STDERR]   rf.fit(X, y)
[STDERR] /cw/dtailocal/mercs_python/bin/mercspython.py:479: DataConversionWarning: A column-vector y was passed when a 1d array was expected. Please change the shape of y to (n_samples,), for example using ravel().
[STDERR]   rf.fit(X, y)
[STDERR] /cw/dtailocal/mercs_python/bin/mercspython.py:479: DataConversionWarning: A column-vector y was passed when a 1d array was expected. Please change the shape of y to (n_samples,), for example using ravel().
[STDERR]   rf.fit(X, y)
[STDERR] /cw/dtailocal/mercs_python/bin/mercspython.py:479: DataConversionWarning: A column-vector y was passed when a 1d array was expected. Please change the shape of y to (n_samples,), for example using ravel().
[STDERR]   rf.fit(X, y)
[STDERR] /cw/dtailocal/mercs_python/bin/mercspython.py:479: DataConversionWarning: A column-vector y was passed when a 1d array was expected. Please change the shape of y to (n_samples,), for example using ravel().
[STDERR]   rf.fit(X, y)
[STDERR] /cw/dtailocal/mercs_python/bin/mercspython.py:479: DataConversionWarning: A column-vector y was passed when a 1d array was expected. Please change the shape of y to (n_samples,), for example using ravel().
[STDERR]   rf.fit(X, y)
[STDERR] /cw/dtailocal/mercs_python/bin/mercspython.py:479: DataConversionWarning: A column-vector y was passed when a 1d array was expected. Please change the shape of y to (n_samples,), for example using ravel().
[STDERR]   rf.fit(X, y)
[STDERR] /cw/dtailocal/mercs_python/bin/mercspython.py:479: DataConversionWarning: A column-vector y was passed when a 1d array was expected. Please change the shape of y to (n_samples,), for example using ravel().
[STDERR]   rf.fit(X, y)
[STDERR] /cw/dtailocal/mercs_python/bin/mercspython.py:479: DataConversionWarning: A column-vector y was passed when a 1d array was expected. Please change the shape of y to (n_samples,), for example using ravel().
[STDERR]   rf.fit(X, y)
[STDERR] /cw/dtailocal/mercs_python/bin/mercspython.py:479: DataConversionWarning: A column-vector y was passed when a 1d array was expected. Please change the shape of y to (n_samples,), for example using ravel().
[STDERR]   rf.fit(X, y)
[STDERR] /cw/dtailocal/mercs_python/bin/mercspython.py:479: DataConversionWarning: A column-vector y was passed when a 1d array was expected. Please change the shape of y to (n_samples,), for example using ravel().
[STDERR]   rf.fit(X, y)
[STDERR] /cw/dtailocal/mercs_python/bin/mercspython.py:479: DataConversionWarning: A column-vector y was passed when a 1d array was expected. Please change the shape of y to (n_samples,), for example using ravel().
[STDERR]   rf.fit(X, y)
[STDERR] /cw/dtailocal/mercs_python/bin/mercspython.py:479: DataConversionWarning: A column-vector y was passed when a 1d array was expected. Please change the shape of y to (n_samples,), for example using ravel().
[STDERR]   rf.fit(X, y)
[STDERR] /cw/dtailocal/mercs_python/bin/mercspython.py:479: DataConversionWarning: A column-vector y was passed when a 1d array was expected. Please change the shape of y to (n_samples,), for example using ravel().
[STDERR]   rf.fit(X, y)
[STDERR] /cw/dtailocal/mercs_python/bin/mercspython.py:479: DataConversionWarning: A column-vector y was passed when a 1d array was expected. Please change the shape of y to (n_samples,), for example using ravel().
[STDERR]   rf.fit(X, y)
[STDERR] /cw/dtailocal/mercs_python/bin/mercspython.py:479: DataConversionWarning: A column-vector y was passed when a 1d array was expected. Please change the shape of y to (n_samples,), for example using ravel().
[STDERR]   rf.fit(X, y)
[STDERR] /cw/dtailocal/mercs_python/bin/mercspython.py:479: DataConversionWarning: A column-vector y was passed when a 1d array was expected. Please change the shape of y to (n_samples,), for example using ravel().
[STDERR]   rf.fit(X, y)
[STDERR] /cw/dtailocal/mercs_python/bin/mercspython.py:479: DataConversionWarning: A column-vector y was passed when a 1d array was expected. Please change the shape of y to (n_samples,), for example using ravel().
[STDERR]   rf.fit(X, y)
[STDERR] /cw/dtailocal/mercs_python/bin/mercspython.py:479: DataConversionWarning: A column-vector y was passed when a 1d array was expected. Please change the shape of y to (n_samples,), for example using ravel().
[STDERR]   rf.fit(X, y)
[STDERR] /cw/dtailocal/mercs_python/bin/mercspython.py:479: DataConversionWarning: A column-vector y was passed when a 1d array was expected. Please change the shape of y to (n_samples,), for example using ravel().
[STDERR]   rf.fit(X, y)
[STDERR] /cw/dtailocal/mercs_python/bin/mercspython.py:479: DataConversionWarning: A column-vector y was passed when a 1d array was expected. Please change the shape of y to (n_samples,), for example using ravel().
[STDERR]   rf.fit(X, y)
[STDERR] /cw/dtailocal/mercs_python/bin/mercspython.py:479: DataConversionWarning: A column-vector y was passed when a 1d array was expected. Please change the shape of y to (n_samples,), for example using ravel().
[STDERR]   rf.fit(X, y)
[STDERR] /cw/dtailocal/mercs_python/bin/mercspython.py:479: DataConversionWarning: A column-vector y was passed when a 1d array was expected. Please change the shape of y to (n_samples,), for example using ravel().
[STDERR]   rf.fit(X, y)
[STDERR] /cw/dtailocal/mercs_python/bin/mercspython.py:479: DataConversionWarning: A column-vector y was passed when a 1d array was expected. Please change the shape of y to (n_samples,), for example using ravel().
[STDERR]   rf.fit(X, y)
[STDERR] /cw/dtailocal/mercs_python/bin/mercspython.py:479: DataConversionWarning: A column-vector y was passed when a 1d array was expected. Please change the shape of y to (n_samples,), for example using ravel().
[STDERR]   rf.fit(X, y)
[STDERR] /cw/dtailocal/mercs_python/bin/mercspython.py:479: DataConversionWarning: A column-vector y was passed when a 1d array was expected. Please change the shape of y to (n_samples,), for example using ravel().
[STDERR]   rf.fit(X, y)
[STDERR] /cw/dtailocal/mercs_python/bin/mercspython.py:479: DataConversionWarning: A column-vector y was passed when a 1d array was expected. Please change the shape of y to (n_samples,), for example using ravel().
[STDERR]   rf.fit(X, y)
[STDERR] /cw/dtailocal/mercs_python/bin/mercspython.py:479: DataConversionWarning: A column-vector y was passed when a 1d array was expected. Please change the shape of y to (n_samples,), for example using ravel().
[STDERR]   rf.fit(X, y)
[STDERR] /cw/dtailocal/mercs_python/bin/mercspython.py:479: DataConversionWarning: A column-vector y was passed when a 1d array was expected. Please change the shape of y to (n_samples,), for example using ravel().
[STDERR]   rf.fit(X, y)
[STDERR] /cw/dtailocal/mercs_python/bin/mercspython.py:479: DataConversionWarning: A column-vector y was passed when a 1d array was expected. Please change the shape of y to (n_samples,), for example using ravel().
[STDERR]   rf.fit(X, y)
[STDERR] /cw/dtailocal/mercs_python/bin/mercspython.py:479: DataConversionWarning: A column-vector y was passed when a 1d array was expected. Please change the shape of y to (n_samples,), for example using ravel().
[STDERR]   rf.fit(X, y)
[STDERR] /cw/dtailocal/mercs_python/bin/mercspython.py:479: DataConversionWarning: A column-vector y was passed when a 1d array was expected. Please change the shape of y to (n_samples,), for example using ravel().
[STDERR]   rf.fit(X, y)
[STDERR] /cw/dtailocal/mercs_python/bin/mercspython.py:479: DataConversionWarning: A column-vector y was passed when a 1d array was expected. Please change the shape of y to (n_samples,), for example using ravel().
[STDERR]   rf.fit(X, y)
[STDERR] /cw/dtailocal/mercs_python/bin/mercspython.py:479: DataConversionWarning: A column-vector y was passed when a 1d array was expected. Please change the shape of y to (n_samples,), for example using ravel().
[STDERR]   rf.fit(X, y)
[STDERR] /cw/dtailocal/mercs_python/bin/mercspython.py:479: DataConversionWarning: A column-vector y was passed when a 1d array was expected. Please change the shape of y to (n_samples,), for example using ravel().
[STDERR]   rf.fit(X, y)
[STDERR] /cw/dtailocal/mercs_python/bin/mercspython.py:479: DataConversionWarning: A column-vector y was passed when a 1d array was expected. Please change the shape of y to (n_samples,), for example using ravel().
[STDERR]   rf.fit(X, y)
[STDERR] /cw/dtailocal/mercs_python/bin/mercspython.py:479: DataConversionWarning: A column-vector y was passed when a 1d array was expected. Please change the shape of y to (n_samples,), for example using ravel().
[STDERR]   rf.fit(X, y)
[STDERR] /cw/dtailocal/mercs_python/bin/mercspython.py:479: DataConversionWarning: A column-vector y was passed when a 1d array was expected. Please change the shape of y to (n_samples,), for example using ravel().
[STDERR]   rf.fit(X, y)
[STDERR] /cw/dtailocal/mercs_python/bin/mercspython.py:479: DataConversionWarning: A column-vector y was passed when a 1d array was expected. Please change the shape of y to (n_samples,), for example using ravel().
[STDERR]   rf.fit(X, y)
[STDERR] /cw/dtailocal/mercs_python/bin/mercspython.py:479: DataConversionWarning: A column-vector y was passed when a 1d array was expected. Please change the shape of y to (n_samples,), for example using ravel().
[STDERR]   rf.fit(X, y)
[STDERR] /cw/dtailocal/mercs_python/bin/mercspython.py:479: DataConversionWarning: A column-vector y was passed when a 1d array was expected. Please change the shape of y to (n_samples,), for example using ravel().
[STDERR]   rf.fit(X, y)
[STDERR] /cw/dtailocal/mercs_python/bin/mercspython.py:479: DataConversionWarning: A column-vector y was passed when a 1d array was expected. Please change the shape of y to (n_samples,), for example using ravel().
[STDERR]   rf.fit(X, y)
[STDERR] /cw/dtailocal/mercs_python/bin/mercspython.py:479: DataConversionWarning: A column-vector y was passed when a 1d array was expected. Please change the shape of y to (n_samples,), for example using ravel().
[STDERR]   rf.fit(X, y)
[STDERR] /cw/dtailocal/mercs_python/bin/mercspython.py:479: DataConversionWarning: A column-vector y was passed when a 1d array was expected. Please change the shape of y to (n_samples,), for example using ravel().
[STDERR]   rf.fit(X, y)
[STDERR] /cw/dtailocal/mercs_python/bin/mercspython.py:479: DataConversionWarning: A column-vector y was passed when a 1d array was expected. Please change the shape of y to (n_samples,), for example using ravel().
[STDERR]   rf.fit(X, y)
[STDERR] /cw/dtailocal/mercs_python/bin/mercspython.py:479: DataConversionWarning: A column-vector y was passed when a 1d array was expected. Please change the shape of y to (n_samples,), for example using ravel().
[STDERR]   rf.fit(X, y)
[STDERR] /cw/dtailocal/mercs_python/bin/mercspython.py:479: DataConversionWarning: A column-vector y was passed when a 1d array was expected. Please change the shape of y to (n_samples,), for example using ravel().
[STDERR]   rf.fit(X, y)
[STDERR] /cw/dtailocal/mercs_python/bin/mercspython.py:479: DataConversionWarning: A column-vector y was passed when a 1d array was expected. Please change the shape of y to (n_samples,), for example using ravel().
[STDERR]   rf.fit(X, y)
[STDERR] /cw/dtailocal/mercs_python/bin/mercspython.py:479: DataConversionWarning: A column-vector y was passed when a 1d array was expected. Please change the shape of y to (n_samples,), for example using ravel().
[STDERR]   rf.fit(X, y)
[STDERR] /cw/dtailocal/mercs_python/bin/mercspython.py:479: DataConversionWarning: A column-vector y was passed when a 1d array was expected. Please change the shape of y to (n_samples,), for example using ravel().
[STDERR]   rf.fit(X, y)
[STDERR] /cw/dtailocal/mercs_python/bin/mercspython.py:479: DataConversionWarning: A column-vector y was passed when a 1d array was expected. Please change the shape of y to (n_samples,), for example using ravel().
[STDERR]   rf.fit(X, y)
[STDERR] /cw/dtailocal/mercs_python/bin/mercspython.py:479: DataConversionWarning: A column-vector y was passed when a 1d array was expected. Please change the shape of y to (n_samples,), for example using ravel().
[STDERR]   rf.fit(X, y)
[STDERR] /cw/dtailocal/mercs_python/bin/mercspython.py:479: DataConversionWarning: A column-vector y was passed when a 1d array was expected. Please change the shape of y to (n_samples,), for example using ravel().
[STDERR]   rf.fit(X, y)
[STDERR] /cw/dtailocal/mercs_python/bin/mercspython.py:479: DataConversionWarning: A column-vector y was passed when a 1d array was expected. Please change the shape of y to (n_samples,), for example using ravel().
[STDERR]   rf.fit(X, y)
[STDERR] /cw/dtailocal/mercs_python/bin/mercspython.py:479: DataConversionWarning: A column-vector y was passed when a 1d array was expected. Please change the shape of y to (n_samples,), for example using ravel().
[STDERR]   rf.fit(X, y)
[STDERR] /cw/dtailocal/mercs_python/bin/mercspython.py:479: DataConversionWarning: A column-vector y was passed when a 1d array was expected. Please change the shape of y to (n_samples,), for example using ravel().
[STDERR]   rf.fit(X, y)
[STDERR] /cw/dtailocal/mercs_python/bin/mercspython.py:479: DataConversionWarning: A column-vector y was passed when a 1d array was expected. Please change the shape of y to (n_samples,), for example using ravel().
[STDERR]   rf.fit(X, y)
[STDERR] /cw/dtailocal/mercs_python/bin/mercspython.py:479: DataConversionWarning: A column-vector y was passed when a 1d array was expected. Please change the shape of y to (n_samples,), for example using ravel().
[STDERR]   rf.fit(X, y)
[STDERR] /cw/dtailocal/mercs_python/bin/mercspython.py:479: DataConversionWarning: A column-vector y was passed when a 1d array was expected. Please change the shape of y to (n_samples,), for example using ravel().
[STDERR]   rf.fit(X, y)
[STDERR] /cw/dtailocal/mercs_python/bin/mercspython.py:479: DataConversionWarning: A column-vector y was passed when a 1d array was expected. Please change the shape of y to (n_samples,), for example using ravel().
[STDERR]   rf.fit(X, y)
[STDERR] /cw/dtailocal/mercs_python/bin/mercspython.py:479: DataConversionWarning: A column-vector y was passed when a 1d array was expected. Please change the shape of y to (n_samples,), for example using ravel().
[STDERR]   rf.fit(X, y)
[STDERR] /cw/dtailocal/mercs_python/bin/mercspython.py:479: DataConversionWarning: A column-vector y was passed when a 1d array was expected. Please change the shape of y to (n_samples,), for example using ravel().
[STDERR]   rf.fit(X, y)
[STDERR] /cw/dtailocal/mercs_python/bin/mercspython.py:479: DataConversionWarning: A column-vector y was passed when a 1d array was expected. Please change the shape of y to (n_samples,), for example using ravel().
[STDERR]   rf.fit(X, y)
[STDERR] /cw/dtailocal/mercs_python/bin/mercspython.py:479: DataConversionWarning: A column-vector y was passed when a 1d array was expected. Please change the shape of y to (n_samples,), for example using ravel().
[STDERR]   rf.fit(X, y)
[STDERR] /cw/dtailocal/mercs_python/bin/mercspython.py:479: DataConversionWarning: A column-vector y was passed when a 1d array was expected. Please change the shape of y to (n_samples,), for example using ravel().
[STDERR]   rf.fit(X, y)
[STDERR] /cw/dtailocal/mercs_python/bin/mercspython.py:479: DataConversionWarning: A column-vector y was passed when a 1d array was expected. Please change the shape of y to (n_samples,), for example using ravel().
[STDERR]   rf.fit(X, y)
[STDERR] /cw/dtailocal/mercs_python/bin/mercspython.py:479: DataConversionWarning: A column-vector y was passed when a 1d array was expected. Please change the shape of y to (n_samples,), for example using ravel().
[STDERR]   rf.fit(X, y)
[STDERR] /cw/dtailocal/mercs_python/bin/mercspython.py:479: DataConversionWarning: A column-vector y was passed when a 1d array was expected. Please change the shape of y to (n_samples,), for example using ravel().
[STDERR]   rf.fit(X, y)
[STDERR] /cw/dtailocal/mercs_python/bin/mercspython.py:479: DataConversionWarning: A column-vector y was passed when a 1d array was expected. Please change the shape of y to (n_samples,), for example using ravel().
[STDERR]   rf.fit(X, y)
[STDERR] /cw/dtailocal/mercs_python/bin/mercspython.py:479: DataConversionWarning: A column-vector y was passed when a 1d array was expected. Please change the shape of y to (n_samples,), for example using ravel().
[STDERR]   rf.fit(X, y)
[STDERR] /cw/dtailocal/mercs_python/bin/mercspython.py:479: DataConversionWarning: A column-vector y was passed when a 1d array was expected. Please change the shape of y to (n_samples,), for example using ravel().
[STDERR]   rf.fit(X, y)
[STDERR] /cw/dtailocal/mercs_python/bin/mercspython.py:479: DataConversionWarning: A column-vector y was passed when a 1d array was expected. Please change the shape of y to (n_samples,), for example using ravel().
[STDERR]   rf.fit(X, y)
[STDERR] /cw/dtailocal/mercs_python/bin/mercspython.py:479: DataConversionWarning: A column-vector y was passed when a 1d array was expected. Please change the shape of y to (n_samples,), for example using ravel().
[STDERR]   rf.fit(X, y)
[STDERR] /cw/dtailocal/mercs_python/bin/mercspython.py:479: DataConversionWarning: A column-vector y was passed when a 1d array was expected. Please change the shape of y to (n_samples,), for example using ravel().
[STDERR]   rf.fit(X, y)
[STDERR] /cw/dtailocal/mercs_python/bin/mercspython.py:479: DataConversionWarning: A column-vector y was passed when a 1d array was expected. Please change the shape of y to (n_samples,), for example using ravel().
[STDERR]   rf.fit(X, y)
[STDERR] /cw/dtailocal/mercs_python/bin/mercspython.py:479: DataConversionWarning: A column-vector y was passed when a 1d array was expected. Please change the shape of y to (n_samples,), for example using ravel().
[STDERR]   rf.fit(X, y)
[STDERR] /cw/dtailocal/mercs_python/bin/mercspython.py:479: DataConversionWarning: A column-vector y was passed when a 1d array was expected. Please change the shape of y to (n_samples,), for example using ravel().
[STDERR]   rf.fit(X, y)
[STDERR] /cw/dtailocal/mercs_python/bin/mercspython.py:479: DataConversionWarning: A column-vector y was passed when a 1d array was expected. Please change the shape of y to (n_samples,), for example using ravel().
[STDERR]   rf.fit(X, y)
[STDERR] /cw/dtailocal/mercs_python/bin/mercspython.py:479: DataConversionWarning: A column-vector y was passed when a 1d array was expected. Please change the shape of y to (n_samples,), for example using ravel().
[STDERR]   rf.fit(X, y)
[STDERR] /cw/dtailocal/mercs_python/bin/mercspython.py:479: DataConversionWarning: A column-vector y was passed when a 1d array was expected. Please change the shape of y to (n_samples,), for example using ravel().
[STDERR]   rf.fit(X, y)
[STDERR] /cw/dtailocal/mercs_python/bin/mercspython.py:479: DataConversionWarning: A column-vector y was passed when a 1d array was expected. Please change the shape of y to (n_samples,), for example using ravel().
[STDERR]   rf.fit(X, y)
[STDERR] /cw/dtailocal/mercs_python/bin/mercspython.py:479: DataConversionWarning: A column-vector y was passed when a 1d array was expected. Please change the shape of y to (n_samples,), for example using ravel().
[STDERR]   rf.fit(X, y)
[STDERR] /cw/dtailocal/mercs_python/bin/mercspython.py:479: DataConversionWarning: A column-vector y was passed when a 1d array was expected. Please change the shape of y to (n_samples,), for example using ravel().
[STDERR]   rf.fit(X, y)
[STDERR] /cw/dtailocal/mercs_python/bin/mercspython.py:479: DataConversionWarning: A column-vector y was passed when a 1d array was expected. Please change the shape of y to (n_samples,), for example using ravel().
[STDERR]   rf.fit(X, y)
[STDERR] /cw/dtailocal/mercs_python/bin/mercspython.py:479: DataConversionWarning: A column-vector y was passed when a 1d array was expected. Please change the shape of y to (n_samples,), for example using ravel().
[STDERR]   rf.fit(X, y)
[STDERR] /cw/dtailocal/mercs_python/bin/mercspython.py:479: DataConversionWarning: A column-vector y was passed when a 1d array was expected. Please change the shape of y to (n_samples,), for example using ravel().
[STDERR]   rf.fit(X, y)
[STDERR] /cw/dtailocal/mercs_python/bin/mercspython.py:479: DataConversionWarning: A column-vector y was passed when a 1d array was expected. Please change the shape of y to (n_samples,), for example using ravel().
[STDERR]   rf.fit(X, y)
[STDERR] /cw/dtailocal/mercs_python/bin/mercspython.py:479: DataConversionWarning: A column-vector y was passed when a 1d array was expected. Please change the shape of y to (n_samples,), for example using ravel().
[STDERR]   rf.fit(X, y)
[STDERR] /cw/dtailocal/mercs_python/bin/mercspython.py:479: DataConversionWarning: A column-vector y was passed when a 1d array was expected. Please change the shape of y to (n_samples,), for example using ravel().
[STDERR]   rf.fit(X, y)
[STDERR] /cw/dtailocal/mercs_python/bin/mercspython.py:479: DataConversionWarning: A column-vector y was passed when a 1d array was expected. Please change the shape of y to (n_samples,), for example using ravel().
[STDERR]   rf.fit(X, y)
[STDERR] /cw/dtailocal/mercs_python/bin/mercspython.py:479: DataConversionWarning: A column-vector y was passed when a 1d array was expected. Please change the shape of y to (n_samples,), for example using ravel().
[STDERR]   rf.fit(X, y)
[STDERR] /cw/dtailocal/mercs_python/bin/mercspython.py:479: DataConversionWarning: A column-vector y was passed when a 1d array was expected. Please change the shape of y to (n_samples,), for example using ravel().
[STDERR]   rf.fit(X, y)
[STDERR] /cw/dtailocal/mercs_python/bin/mercspython.py:479: DataConversionWarning: A column-vector y was passed when a 1d array was expected. Please change the shape of y to (n_samples,), for example using ravel().
[STDERR]   rf.fit(X, y)
[STDERR] /cw/dtailocal/mercs_python/bin/mercspython.py:479: DataConversionWarning: A column-vector y was passed when a 1d array was expected. Please change the shape of y to (n_samples,), for example using ravel().
[STDERR]   rf.fit(X, y)
[STDERR] /cw/dtailocal/mercs_python/bin/mercspython.py:479: DataConversionWarning: A column-vector y was passed when a 1d array was expected. Please change the shape of y to (n_samples,), for example using ravel().
[STDERR]   rf.fit(X, y)
[STDERR] /cw/dtailocal/mercs_python/bin/mercspython.py:479: DataConversionWarning: A column-vector y was passed when a 1d array was expected. Please change the shape of y to (n_samples,), for example using ravel().
[STDERR]   rf.fit(X, y)
[STDERR] /cw/dtailocal/mercs_python/bin/mercspython.py:479: DataConversionWarning: A column-vector y was passed when a 1d array was expected. Please change the shape of y to (n_samples,), for example using ravel().
[STDERR]   rf.fit(X, y)
[STDERR] /cw/dtailocal/mercs_python/bin/mercspython.py:479: DataConversionWarning: A column-vector y was passed when a 1d array was expected. Please change the shape of y to (n_samples,), for example using ravel().
[STDERR]   rf.fit(X, y)
[STDERR] /cw/dtailocal/mercs_python/bin/mercspython.py:479: DataConversionWarning: A column-vector y was passed when a 1d array was expected. Please change the shape of y to (n_samples,), for example using ravel().
[STDERR]   rf.fit(X, y)
[STDERR] /cw/dtailocal/mercs_python/bin/mercspython.py:479: DataConversionWarning: A column-vector y was passed when a 1d array was expected. Please change the shape of y to (n_samples,), for example using ravel().
[STDERR]   rf.fit(X, y)
[STDERR] /cw/dtailocal/mercs_python/bin/mercspython.py:479: DataConversionWarning: A column-vector y was passed when a 1d array was expected. Please change the shape of y to (n_samples,), for example using ravel().
[STDERR]   rf.fit(X, y)
[STDERR] /cw/dtailocal/mercs_python/bin/mercspython.py:479: DataConversionWarning: A column-vector y was passed when a 1d array was expected. Please change the shape of y to (n_samples,), for example using ravel().
[STDERR]   rf.fit(X, y)
[STDERR] /cw/dtailocal/mercs_python/bin/mercspython.py:479: DataConversionWarning: A column-vector y was passed when a 1d array was expected. Please change the shape of y to (n_samples,), for example using ravel().
[STDERR]   rf.fit(X, y)
[STDERR] /cw/dtailocal/mercs_python/bin/mercspython.py:479: DataConversionWarning: A column-vector y was passed when a 1d array was expected. Please change the shape of y to (n_samples,), for example using ravel().
[STDERR]   rf.fit(X, y)
[STDERR] /cw/dtailocal/mercs_python/bin/mercspython.py:479: DataConversionWarning: A column-vector y was passed when a 1d array was expected. Please change the shape of y to (n_samples,), for example using ravel().
[STDERR]   rf.fit(X, y)
[STDERR] /cw/dtailocal/mercs_python/bin/mercspython.py:479: DataConversionWarning: A column-vector y was passed when a 1d array was expected. Please change the shape of y to (n_samples,), for example using ravel().
[STDERR]   rf.fit(X, y)
[STDERR] /cw/dtailocal/mercs_python/bin/mercspython.py:479: DataConversionWarning: A column-vector y was passed when a 1d array was expected. Please change the shape of y to (n_samples,), for example using ravel().
[STDERR]   rf.fit(X, y)
[STDERR] /cw/dtailocal/mercs_python/bin/mercspython.py:479: DataConversionWarning: A column-vector y was passed when a 1d array was expected. Please change the shape of y to (n_samples,), for example using ravel().
[STDERR]   rf.fit(X, y)
[STDERR] /cw/dtailocal/mercs_python/bin/mercspython.py:479: DataConversionWarning: A column-vector y was passed when a 1d array was expected. Please change the shape of y to (n_samples,), for example using ravel().
[STDERR]   rf.fit(X, y)
[STDERR] /cw/dtailocal/mercs_python/bin/mercspython.py:479: DataConversionWarning: A column-vector y was passed when a 1d array was expected. Please change the shape of y to (n_samples,), for example using ravel().
[STDERR]   rf.fit(X, y)
[STDERR] /cw/dtailocal/mercs_python/bin/mercspython.py:479: DataConversionWarning: A column-vector y was passed when a 1d array was expected. Please change the shape of y to (n_samples,), for example using ravel().
[STDERR]   rf.fit(X, y)
[STDERR] /cw/dtailocal/mercs_python/bin/mercspython.py:479: DataConversionWarning: A column-vector y was passed when a 1d array was expected. Please change the shape of y to (n_samples,), for example using ravel().
[STDERR]   rf.fit(X, y)
[STDERR] /cw/dtailocal/mercs_python/bin/mercspython.py:479: DataConversionWarning: A column-vector y was passed when a 1d array was expected. Please change the shape of y to (n_samples,), for example using ravel().
[STDERR]   rf.fit(X, y)
[STDERR] /cw/dtailocal/mercs_python/bin/mercspython.py:479: DataConversionWarning: A column-vector y was passed when a 1d array was expected. Please change the shape of y to (n_samples,), for example using ravel().
[STDERR]   rf.fit(X, y)
[STDERR] /cw/dtailocal/mercs_python/bin/mercspython.py:479: DataConversionWarning: A column-vector y was passed when a 1d array was expected. Please change the shape of y to (n_samples,), for example using ravel().
[STDERR]   rf.fit(X, y)
[STDERR] /cw/dtailocal/mercs_python/bin/mercspython.py:479: DataConversionWarning: A column-vector y was passed when a 1d array was expected. Please change the shape of y to (n_samples,), for example using ravel().
[STDERR]   rf.fit(X, y)
[STDERR] /cw/dtailocal/mercs_python/bin/mercspython.py:479: DataConversionWarning: A column-vector y was passed when a 1d array was expected. Please change the shape of y to (n_samples,), for example using ravel().
[STDERR]   rf.fit(X, y)
[STDERR] /cw/dtailocal/mercs_python/bin/mercspython.py:479: DataConversionWarning: A column-vector y was passed when a 1d array was expected. Please change the shape of y to (n_samples,), for example using ravel().
[STDERR]   rf.fit(X, y)
[STDERR] /cw/dtailocal/mercs_python/bin/mercspython.py:479: DataConversionWarning: A column-vector y was passed when a 1d array was expected. Please change the shape of y to (n_samples,), for example using ravel().
[STDERR]   rf.fit(X, y)
[STDERR] /cw/dtailocal/mercs_python/bin/mercspython.py:479: DataConversionWarning: A column-vector y was passed when a 1d array was expected. Please change the shape of y to (n_samples,), for example using ravel().
[STDERR]   rf.fit(X, y)
[STDERR] /cw/dtailocal/mercs_python/bin/mercspython.py:479: DataConversionWarning: A column-vector y was passed when a 1d array was expected. Please change the shape of y to (n_samples,), for example using ravel().
[STDERR]   rf.fit(X, y)
[STDERR] /cw/dtailocal/mercs_python/bin/mercspython.py:479: DataConversionWarning: A column-vector y was passed when a 1d array was expected. Please change the shape of y to (n_samples,), for example using ravel().
[STDERR]   rf.fit(X, y)
[STDERR] /cw/dtailocal/mercs_python/bin/mercspython.py:479: DataConversionWarning: A column-vector y was passed when a 1d array was expected. Please change the shape of y to (n_samples,), for example using ravel().
[STDERR]   rf.fit(X, y)
[STDERR] /cw/dtailocal/mercs_python/bin/mercspython.py:479: DataConversionWarning: A column-vector y was passed when a 1d array was expected. Please change the shape of y to (n_samples,), for example using ravel().
[STDERR]   rf.fit(X, y)
[STDERR] /cw/dtailocal/mercs_python/bin/mercspython.py:479: DataConversionWarning: A column-vector y was passed when a 1d array was expected. Please change the shape of y to (n_samples,), for example using ravel().
[STDERR]   rf.fit(X, y)
[STDERR] /cw/dtailocal/mercs_python/bin/mercspython.py:479: DataConversionWarning: A column-vector y was passed when a 1d array was expected. Please change the shape of y to (n_samples,), for example using ravel().
[STDERR]   rf.fit(X, y)
[STDERR] /cw/dtailocal/mercs_python/bin/mercspython.py:479: DataConversionWarning: A column-vector y was passed when a 1d array was expected. Please change the shape of y to (n_samples,), for example using ravel().
[STDERR]   rf.fit(X, y)
[STDERR] /cw/dtailocal/mercs_python/bin/mercspython.py:479: DataConversionWarning: A column-vector y was passed when a 1d array was expected. Please change the shape of y to (n_samples,), for example using ravel().
[STDERR]   rf.fit(X, y)
[STDERR] /cw/dtailocal/mercs_python/bin/mercspython.py:479: DataConversionWarning: A column-vector y was passed when a 1d array was expected. Please change the shape of y to (n_samples,), for example using ravel().
[STDERR]   rf.fit(X, y)
[STDERR] /cw/dtailocal/mercs_python/bin/mercspython.py:479: DataConversionWarning: A column-vector y was passed when a 1d array was expected. Please change the shape of y to (n_samples,), for example using ravel().
[STDERR]   rf.fit(X, y)
[STDERR] /cw/dtailocal/mercs_python/bin/mercspython.py:479: DataConversionWarning: A column-vector y was passed when a 1d array was expected. Please change the shape of y to (n_samples,), for example using ravel().
[STDERR]   rf.fit(X, y)
[STDERR] /cw/dtailocal/mercs_python/bin/mercspython.py:479: DataConversionWarning: A column-vector y was passed when a 1d array was expected. Please change the shape of y to (n_samples,), for example using ravel().
[STDERR]   rf.fit(X, y)
[STDERR] /cw/dtailocal/mercs_python/bin/mercspython.py:479: DataConversionWarning: A column-vector y was passed when a 1d array was expected. Please change the shape of y to (n_samples,), for example using ravel().
[STDERR]   rf.fit(X, y)
[STDERR] /cw/dtailocal/mercs_python/bin/mercspython.py:479: DataConversionWarning: A column-vector y was passed when a 1d array was expected. Please change the shape of y to (n_samples,), for example using ravel().
[STDERR]   rf.fit(X, y)
[STDERR] /cw/dtailocal/mercs_python/bin/mercspython.py:479: DataConversionWarning: A column-vector y was passed when a 1d array was expected. Please change the shape of y to (n_samples,), for example using ravel().
[STDERR]   rf.fit(X, y)
[STDERR] /cw/dtailocal/mercs_python/bin/mercspython.py:479: DataConversionWarning: A column-vector y was passed when a 1d array was expected. Please change the shape of y to (n_samples,), for example using ravel().
[STDERR]   rf.fit(X, y)
[STDERR] /cw/dtailocal/mercs_python/bin/mercspython.py:479: DataConversionWarning: A column-vector y was passed when a 1d array was expected. Please change the shape of y to (n_samples,), for example using ravel().
[STDERR]   rf.fit(X, y)
[STDERR] /cw/dtailocal/mercs_python/bin/mercspython.py:479: DataConversionWarning: A column-vector y was passed when a 1d array was expected. Please change the shape of y to (n_samples,), for example using ravel().
[STDERR]   rf.fit(X, y)
[STDERR] /cw/dtailocal/mercs_python/bin/mercspython.py:479: DataConversionWarning: A column-vector y was passed when a 1d array was expected. Please change the shape of y to (n_samples,), for example using ravel().
[STDERR]   rf.fit(X, y)
[STDERR] /cw/dtailocal/mercs_python/bin/mercspython.py:479: DataConversionWarning: A column-vector y was passed when a 1d array was expected. Please change the shape of y to (n_samples,), for example using ravel().
[STDERR]   rf.fit(X, y)
[STDERR] /cw/dtailocal/mercs_python/bin/mercspython.py:479: DataConversionWarning: A column-vector y was passed when a 1d array was expected. Please change the shape of y to (n_samples,), for example using ravel().
[STDERR]   rf.fit(X, y)
[STDERR] /cw/dtailocal/mercs_python/bin/mercspython.py:479: DataConversionWarning: A column-vector y was passed when a 1d array was expected. Please change the shape of y to (n_samples,), for example using ravel().
[STDERR]   rf.fit(X, y)
[STDERR] /cw/dtailocal/mercs_python/bin/mercspython.py:479: DataConversionWarning: A column-vector y was passed when a 1d array was expected. Please change the shape of y to (n_samples,), for example using ravel().
[STDERR]   rf.fit(X, y)
[STDERR] /cw/dtailocal/mercs_python/bin/mercspython.py:479: DataConversionWarning: A column-vector y was passed when a 1d array was expected. Please change the shape of y to (n_samples,), for example using ravel().
[STDERR]   rf.fit(X, y)
[STDERR] /cw/dtailocal/mercs_python/bin/mercspython.py:479: DataConversionWarning: A column-vector y was passed when a 1d array was expected. Please change the shape of y to (n_samples,), for example using ravel().
[STDERR]   rf.fit(X, y)
[STDERR] /cw/dtailocal/mercs_python/bin/mercspython.py:479: DataConversionWarning: A column-vector y was passed when a 1d array was expected. Please change the shape of y to (n_samples,), for example using ravel().
[STDERR]   rf.fit(X, y)
[STDERR] /cw/dtailocal/mercs_python/bin/mercspython.py:479: DataConversionWarning: A column-vector y was passed when a 1d array was expected. Please change the shape of y to (n_samples,), for example using ravel().
[STDERR]   rf.fit(X, y)
[STDERR] /cw/dtailocal/mercs_python/bin/mercspython.py:479: DataConversionWarning: A column-vector y was passed when a 1d array was expected. Please change the shape of y to (n_samples,), for example using ravel().
[STDERR]   rf.fit(X, y)
[STDERR] /cw/dtailocal/mercs_python/bin/mercspython.py:479: DataConversionWarning: A column-vector y was passed when a 1d array was expected. Please change the shape of y to (n_samples,), for example using ravel().
[STDERR]   rf.fit(X, y)
[STDERR] /cw/dtailocal/mercs_python/bin/mercspython.py:479: DataConversionWarning: A column-vector y was passed when a 1d array was expected. Please change the shape of y to (n_samples,), for example using ravel().
[STDERR]   rf.fit(X, y)
[STDERR] /cw/dtailocal/mercs_python/bin/mercspython.py:479: DataConversionWarning: A column-vector y was passed when a 1d array was expected. Please change the shape of y to (n_samples,), for example using ravel().
[STDERR]   rf.fit(X, y)
[STDERR] /cw/dtailocal/mercs_python/bin/mercspython.py:479: DataConversionWarning: A column-vector y was passed when a 1d array was expected. Please change the shape of y to (n_samples,), for example using ravel().
[STDERR]   rf.fit(X, y)
[STDERR] /cw/dtailocal/mercs_python/bin/mercspython.py:479: DataConversionWarning: A column-vector y was passed when a 1d array was expected. Please change the shape of y to (n_samples,), for example using ravel().
[STDERR]   rf.fit(X, y)
[STDERR] /cw/dtailocal/mercs_python/bin/mercspython.py:479: DataConversionWarning: A column-vector y was passed when a 1d array was expected. Please change the shape of y to (n_samples,), for example using ravel().
[STDERR]   rf.fit(X, y)
[STDERR] /cw/dtailocal/mercs_python/bin/mercspython.py:479: DataConversionWarning: A column-vector y was passed when a 1d array was expected. Please change the shape of y to (n_samples,), for example using ravel().
[STDERR]   rf.fit(X, y)
[STDERR] /cw/dtailocal/mercs_python/bin/mercspython.py:479: DataConversionWarning: A column-vector y was passed when a 1d array was expected. Please change the shape of y to (n_samples,), for example using ravel().
[STDERR]   rf.fit(X, y)
[STDERR] /cw/dtailocal/mercs_python/bin/mercspython.py:479: DataConversionWarning: A column-vector y was passed when a 1d array was expected. Please change the shape of y to (n_samples,), for example using ravel().
[STDERR]   rf.fit(X, y)
[STDERR] /cw/dtailocal/mercs_python/bin/mercspython.py:479: DataConversionWarning: A column-vector y was passed when a 1d array was expected. Please change the shape of y to (n_samples,), for example using ravel().
[STDERR]   rf.fit(X, y)
[STDERR] /cw/dtailocal/mercs_python/bin/mercspython.py:479: DataConversionWarning: A column-vector y was passed when a 1d array was expected. Please change the shape of y to (n_samples,), for example using ravel().
[STDERR]   rf.fit(X, y)
[STDERR] /cw/dtailocal/mercs_python/bin/mercspython.py:479: DataConversionWarning: A column-vector y was passed when a 1d array was expected. Please change the shape of y to (n_samples,), for example using ravel().
[STDERR]   rf.fit(X, y)
[STDERR] /cw/dtailocal/mercs_python/bin/mercspython.py:479: DataConversionWarning: A column-vector y was passed when a 1d array was expected. Please change the shape of y to (n_samples,), for example using ravel().
[STDERR]   rf.fit(X, y)
[STDERR] /cw/dtailocal/mercs_python/bin/mercspython.py:479: DataConversionWarning: A column-vector y was passed when a 1d array was expected. Please change the shape of y to (n_samples,), for example using ravel().
[STDERR]   rf.fit(X, y)
[STDERR] /cw/dtailocal/mercs_python/bin/mercspython.py:479: DataConversionWarning: A column-vector y was passed when a 1d array was expected. Please change the shape of y to (n_samples,), for example using ravel().
[STDERR]   rf.fit(X, y)
[STDERR] /cw/dtailocal/mercs_python/bin/mercspython.py:479: DataConversionWarning: A column-vector y was passed when a 1d array was expected. Please change the shape of y to (n_samples,), for example using ravel().
[STDERR]   rf.fit(X, y)
[STDERR] /cw/dtailocal/mercs_python/bin/mercspython.py:479: DataConversionWarning: A column-vector y was passed when a 1d array was expected. Please change the shape of y to (n_samples,), for example using ravel().
[STDERR]   rf.fit(X, y)
[STDERR] /cw/dtailocal/mercs_python/bin/mercspython.py:479: DataConversionWarning: A column-vector y was passed when a 1d array was expected. Please change the shape of y to (n_samples,), for example using ravel().
[STDERR]   rf.fit(X, y)
[STDERR] /cw/dtailocal/mercs_python/bin/mercspython.py:479: DataConversionWarning: A column-vector y was passed when a 1d array was expected. Please change the shape of y to (n_samples,), for example using ravel().
[STDERR]   rf.fit(X, y)
[STDERR] /cw/dtailocal/mercs_python/bin/mercspython.py:479: DataConversionWarning: A column-vector y was passed when a 1d array was expected. Please change the shape of y to (n_samples,), for example using ravel().
[STDERR]   rf.fit(X, y)
[STDERR] /cw/dtailocal/mercs_python/bin/mercspython.py:479: DataConversionWarning: A column-vector y was passed when a 1d array was expected. Please change the shape of y to (n_samples,), for example using ravel().
[STDERR]   rf.fit(X, y)
[STDERR] /cw/dtailocal/mercs_python/bin/mercspython.py:479: DataConversionWarning: A column-vector y was passed when a 1d array was expected. Please change the shape of y to (n_samples,), for example using ravel().
[STDERR]   rf.fit(X, y)
[STDERR] /cw/dtailocal/mercs_python/bin/mercspython.py:479: DataConversionWarning: A column-vector y was passed when a 1d array was expected. Please change the shape of y to (n_samples,), for example using ravel().
[STDERR]   rf.fit(X, y)
[STDERR] /cw/dtailocal/mercs_python/bin/mercspython.py:479: DataConversionWarning: A column-vector y was passed when a 1d array was expected. Please change the shape of y to (n_samples,), for example using ravel().
[STDERR]   rf.fit(X, y)
[STDERR] /cw/dtailocal/mercs_python/bin/mercspython.py:479: DataConversionWarning: A column-vector y was passed when a 1d array was expected. Please change the shape of y to (n_samples,), for example using ravel().
[STDERR]   rf.fit(X, y)
[STDERR] /cw/dtailocal/mercs_python/bin/mercspython.py:479: DataConversionWarning: A column-vector y was passed when a 1d array was expected. Please change the shape of y to (n_samples,), for example using ravel().
[STDERR]   rf.fit(X, y)
[STDERR] /cw/dtailocal/mercs_python/bin/mercspython.py:479: DataConversionWarning: A column-vector y was passed when a 1d array was expected. Please change the shape of y to (n_samples,), for example using ravel().
[STDERR]   rf.fit(X, y)
[STDERR] /cw/dtailocal/mercs_python/bin/mercspython.py:479: DataConversionWarning: A column-vector y was passed when a 1d array was expected. Please change the shape of y to (n_samples,), for example using ravel().
[STDERR]   rf.fit(X, y)
[STDERR] /cw/dtailocal/mercs_python/bin/mercspython.py:479: DataConversionWarning: A column-vector y was passed when a 1d array was expected. Please change the shape of y to (n_samples,), for example using ravel().
[STDERR]   rf.fit(X, y)
[STDERR] /cw/dtailocal/mercs_python/bin/mercspython.py:479: DataConversionWarning: A column-vector y was passed when a 1d array was expected. Please change the shape of y to (n_samples,), for example using ravel().
[STDERR]   rf.fit(X, y)
[STDERR] /cw/dtailocal/mercs_python/bin/mercspython.py:479: DataConversionWarning: A column-vector y was passed when a 1d array was expected. Please change the shape of y to (n_samples,), for example using ravel().
[STDERR]   rf.fit(X, y)
[STDERR] /cw/dtailocal/mercs_python/bin/mercspython.py:479: DataConversionWarning: A column-vector y was passed when a 1d array was expected. Please change the shape of y to (n_samples,), for example using ravel().
[STDERR]   rf.fit(X, y)
[STDERR] /cw/dtailocal/mercs_python/bin/mercspython.py:479: DataConversionWarning: A column-vector y was passed when a 1d array was expected. Please change the shape of y to (n_samples,), for example using ravel().
[STDERR]   rf.fit(X, y)
[STDERR] /cw/dtailocal/mercs_python/bin/mercspython.py:479: DataConversionWarning: A column-vector y was passed when a 1d array was expected. Please change the shape of y to (n_samples,), for example using ravel().
[STDERR]   rf.fit(X, y)
[STDERR] /cw/dtailocal/mercs_python/bin/mercspython.py:479: DataConversionWarning: A column-vector y was passed when a 1d array was expected. Please change the shape of y to (n_samples,), for example using ravel().
[STDERR]   rf.fit(X, y)
[STDERR] /cw/dtailocal/mercs_python/bin/mercspython.py:479: DataConversionWarning: A column-vector y was passed when a 1d array was expected. Please change the shape of y to (n_samples,), for example using ravel().
[STDERR]   rf.fit(X, y)
[STDERR] /cw/dtailocal/mercs_python/bin/mercspython.py:479: DataConversionWarning: A column-vector y was passed when a 1d array was expected. Please change the shape of y to (n_samples,), for example using ravel().
[STDERR]   rf.fit(X, y)
[STDERR] /cw/dtailocal/mercs_python/bin/mercspython.py:479: DataConversionWarning: A column-vector y was passed when a 1d array was expected. Please change the shape of y to (n_samples,), for example using ravel().
[STDERR]   rf.fit(X, y)
[STDERR] /cw/dtailocal/mercs_python/bin/mercspython.py:479: DataConversionWarning: A column-vector y was passed when a 1d array was expected. Please change the shape of y to (n_samples,), for example using ravel().
[STDERR]   rf.fit(X, y)
[STDERR] /cw/dtailocal/mercs_python/bin/mercspython.py:479: DataConversionWarning: A column-vector y was passed when a 1d array was expected. Please change the shape of y to (n_samples,), for example using ravel().
[STDERR]   rf.fit(X, y)
[STDERR] /cw/dtailocal/mercs_python/bin/mercspython.py:479: DataConversionWarning: A column-vector y was passed when a 1d array was expected. Please change the shape of y to (n_samples,), for example using ravel().
[STDERR]   rf.fit(X, y)
[STDERR] /cw/dtailocal/mercs_python/bin/mercspython.py:479: DataConversionWarning: A column-vector y was passed when a 1d array was expected. Please change the shape of y to (n_samples,), for example using ravel().
[STDERR]   rf.fit(X, y)
[STDERR] /cw/dtailocal/mercs_python/bin/mercspython.py:479: DataConversionWarning: A column-vector y was passed when a 1d array was expected. Please change the shape of y to (n_samples,), for example using ravel().
[STDERR]   rf.fit(X, y)
[STDERR] /cw/dtailocal/mercs_python/bin/mercspython.py:479: DataConversionWarning: A column-vector y was passed when a 1d array was expected. Please change the shape of y to (n_samples,), for example using ravel().
[STDERR]   rf.fit(X, y)
[STDERR] /cw/dtailocal/mercs_python/bin/mercspython.py:479: DataConversionWarning: A column-vector y was passed when a 1d array was expected. Please change the shape of y to (n_samples,), for example using ravel().
[STDERR]   rf.fit(X, y)
[STDERR] /cw/dtailocal/mercs_python/bin/mercspython.py:479: DataConversionWarning: A column-vector y was passed when a 1d array was expected. Please change the shape of y to (n_samples,), for example using ravel().
[STDERR]   rf.fit(X, y)
[STDERR] /cw/dtailocal/mercs_python/bin/mercspython.py:479: DataConversionWarning: A column-vector y was passed when a 1d array was expected. Please change the shape of y to (n_samples,), for example using ravel().
[STDERR]   rf.fit(X, y)
[STDERR] /cw/dtailocal/mercs_python/bin/mercspython.py:479: DataConversionWarning: A column-vector y was passed when a 1d array was expected. Please change the shape of y to (n_samples,), for example using ravel().
[STDERR]   rf.fit(X, y)
[STDERR] /cw/dtailocal/mercs_python/bin/mercspython.py:479: DataConversionWarning: A column-vector y was passed when a 1d array was expected. Please change the shape of y to (n_samples,), for example using ravel().
[STDERR]   rf.fit(X, y)
[STDERR] /cw/dtailocal/mercs_python/bin/mercspython.py:479: DataConversionWarning: A column-vector y was passed when a 1d array was expected. Please change the shape of y to (n_samples,), for example using ravel().
[STDERR]   rf.fit(X, y)
[STDERR] /cw/dtailocal/mercs_python/bin/mercspython.py:479: DataConversionWarning: A column-vector y was passed when a 1d array was expected. Please change the shape of y to (n_samples,), for example using ravel().
[STDERR]   rf.fit(X, y)
[STDERR] /cw/dtailocal/mercs_python/bin/mercspython.py:479: DataConversionWarning: A column-vector y was passed when a 1d array was expected. Please change the shape of y to (n_samples,), for example using ravel().
[STDERR]   rf.fit(X, y)
[STDERR] /cw/dtailocal/mercs_python/bin/mercspython.py:479: DataConversionWarning: A column-vector y was passed when a 1d array was expected. Please change the shape of y to (n_samples,), for example using ravel().
[STDERR]   rf.fit(X, y)
[STDERR] /cw/dtailocal/mercs_python/bin/mercspython.py:479: DataConversionWarning: A column-vector y was passed when a 1d array was expected. Please change the shape of y to (n_samples,), for example using ravel().
[STDERR]   rf.fit(X, y)
[STDERR] /cw/dtailocal/mercs_python/bin/mercspython.py:479: DataConversionWarning: A column-vector y was passed when a 1d array was expected. Please change the shape of y to (n_samples,), for example using ravel().
[STDERR]   rf.fit(X, y)
[STDERR] /cw/dtailocal/mercs_python/bin/mercspython.py:479: DataConversionWarning: A column-vector y was passed when a 1d array was expected. Please change the shape of y to (n_samples,), for example using ravel().
[STDERR]   rf.fit(X, y)
[STDERR] /cw/dtailocal/mercs_python/bin/mercspython.py:479: DataConversionWarning: A column-vector y was passed when a 1d array was expected. Please change the shape of y to (n_samples,), for example using ravel().
[STDERR]   rf.fit(X, y)
[STDERR] /cw/dtailocal/mercs_python/bin/mercspython.py:479: DataConversionWarning: A column-vector y was passed when a 1d array was expected. Please change the shape of y to (n_samples,), for example using ravel().
[STDERR]   rf.fit(X, y)
[STDERR] /cw/dtailocal/mercs_python/bin/mercspython.py:479: DataConversionWarning: A column-vector y was passed when a 1d array was expected. Please change the shape of y to (n_samples,), for example using ravel().
[STDERR]   rf.fit(X, y)
[STDERR] /cw/dtailocal/mercs_python/bin/mercspython.py:479: DataConversionWarning: A column-vector y was passed when a 1d array was expected. Please change the shape of y to (n_samples,), for example using ravel().
[STDERR]   rf.fit(X, y)
[STDERR] /cw/dtailocal/mercs_python/bin/mercspython.py:479: DataConversionWarning: A column-vector y was passed when a 1d array was expected. Please change the shape of y to (n_samples,), for example using ravel().
[STDERR]   rf.fit(X, y)
[STDERR] /cw/dtailocal/mercs_python/bin/mercspython.py:479: DataConversionWarning: A column-vector y was passed when a 1d array was expected. Please change the shape of y to (n_samples,), for example using ravel().
[STDERR]   rf.fit(X, y)
[STDERR] /cw/dtailocal/mercs_python/bin/mercspython.py:479: DataConversionWarning: A column-vector y was passed when a 1d array was expected. Please change the shape of y to (n_samples,), for example using ravel().
[STDERR]   rf.fit(X, y)
[STDERR] /cw/dtailocal/mercs_python/bin/mercspython.py:479: DataConversionWarning: A column-vector y was passed when a 1d array was expected. Please change the shape of y to (n_samples,), for example using ravel().
[STDERR]   rf.fit(X, y)
[STDERR] /cw/dtailocal/mercs_python/bin/mercspython.py:479: DataConversionWarning: A column-vector y was passed when a 1d array was expected. Please change the shape of y to (n_samples,), for example using ravel().
[STDERR]   rf.fit(X, y)
[STDERR] /cw/dtailocal/mercs_python/bin/mercspython.py:479: DataConversionWarning: A column-vector y was passed when a 1d array was expected. Please change the shape of y to (n_samples,), for example using ravel().
[STDERR]   rf.fit(X, y)
[STDERR] /cw/dtailocal/mercs_python/bin/mercspython.py:479: DataConversionWarning: A column-vector y was passed when a 1d array was expected. Please change the shape of y to (n_samples,), for example using ravel().
[STDERR]   rf.fit(X, y)
[STDERR] /cw/dtailocal/mercs_python/bin/mercspython.py:479: DataConversionWarning: A column-vector y was passed when a 1d array was expected. Please change the shape of y to (n_samples,), for example using ravel().
[STDERR]   rf.fit(X, y)
[STDERR] /cw/dtailocal/mercs_python/bin/mercspython.py:479: DataConversionWarning: A column-vector y was passed when a 1d array was expected. Please change the shape of y to (n_samples,), for example using ravel().
[STDERR]   rf.fit(X, y)
[STDERR] /cw/dtailocal/mercs_python/bin/mercspython.py:479: DataConversionWarning: A column-vector y was passed when a 1d array was expected. Please change the shape of y to (n_samples,), for example using ravel().
[STDERR]   rf.fit(X, y)
[STDERR] /cw/dtailocal/mercs_python/bin/mercspython.py:479: DataConversionWarning: A column-vector y was passed when a 1d array was expected. Please change the shape of y to (n_samples,), for example using ravel().
[STDERR]   rf.fit(X, y)
[STDERR] /cw/dtailocal/mercs_python/bin/mercspython.py:479: DataConversionWarning: A column-vector y was passed when a 1d array was expected. Please change the shape of y to (n_samples,), for example using ravel().
[STDERR]   rf.fit(X, y)
[STDERR] /cw/dtailocal/mercs_python/bin/mercspython.py:479: DataConversionWarning: A column-vector y was passed when a 1d array was expected. Please change the shape of y to (n_samples,), for example using ravel().
[STDERR]   rf.fit(X, y)
[STDERR] /cw/dtailocal/mercs_python/bin/mercspython.py:479: DataConversionWarning: A column-vector y was passed when a 1d array was expected. Please change the shape of y to (n_samples,), for example using ravel().
[STDERR]   rf.fit(X, y)
[STDERR] /cw/dtailocal/mercs_python/bin/mercspython.py:479: DataConversionWarning: A column-vector y was passed when a 1d array was expected. Please change the shape of y to (n_samples,), for example using ravel().
[STDERR]   rf.fit(X, y)
[STDERR] /cw/dtailocal/mercs_python/bin/mercspython.py:479: DataConversionWarning: A column-vector y was passed when a 1d array was expected. Please change the shape of y to (n_samples,), for example using ravel().
[STDERR]   rf.fit(X, y)
[STDERR] /cw/dtailocal/mercs_python/bin/mercspython.py:479: DataConversionWarning: A column-vector y was passed when a 1d array was expected. Please change the shape of y to (n_samples,), for example using ravel().
[STDERR]   rf.fit(X, y)
[STDERR] /cw/dtailocal/mercs_python/bin/mercspython.py:479: DataConversionWarning: A column-vector y was passed when a 1d array was expected. Please change the shape of y to (n_samples,), for example using ravel().
[STDERR]   rf.fit(X, y)
[STDERR] /cw/dtailocal/mercs_python/bin/mercspython.py:479: DataConversionWarning: A column-vector y was passed when a 1d array was expected. Please change the shape of y to (n_samples,), for example using ravel().
[STDERR]   rf.fit(X, y)
[STDERR] /cw/dtailocal/mercs_python/bin/mercspython.py:479: DataConversionWarning: A column-vector y was passed when a 1d array was expected. Please change the shape of y to (n_samples,), for example using ravel().
[STDERR]   rf.fit(X, y)
[STDERR] /cw/dtailocal/mercs_python/bin/mercspython.py:479: DataConversionWarning: A column-vector y was passed when a 1d array was expected. Please change the shape of y to (n_samples,), for example using ravel().
[STDERR]   rf.fit(X, y)
[STDERR] /cw/dtailocal/mercs_python/bin/mercspython.py:479: DataConversionWarning: A column-vector y was passed when a 1d array was expected. Please change the shape of y to (n_samples,), for example using ravel().
[STDERR]   rf.fit(X, y)
[STDERR] /cw/dtailocal/mercs_python/bin/mercspython.py:479: DataConversionWarning: A column-vector y was passed when a 1d array was expected. Please change the shape of y to (n_samples,), for example using ravel().
[STDERR]   rf.fit(X, y)
[STDERR] /cw/dtailocal/mercs_python/bin/mercspython.py:479: DataConversionWarning: A column-vector y was passed when a 1d array was expected. Please change the shape of y to (n_samples,), for example using ravel().
[STDERR]   rf.fit(X, y)
[STDERR] /cw/dtailocal/mercs_python/bin/mercspython.py:479: DataConversionWarning: A column-vector y was passed when a 1d array was expected. Please change the shape of y to (n_samples,), for example using ravel().
[STDERR]   rf.fit(X, y)
[STDERR] /cw/dtailocal/mercs_python/bin/mercspython.py:479: DataConversionWarning: A column-vector y was passed when a 1d array was expected. Please change the shape of y to (n_samples,), for example using ravel().
[STDERR]   rf.fit(X, y)
[STDERR] /cw/dtailocal/mercs_python/bin/mercspython.py:479: DataConversionWarning: A column-vector y was passed when a 1d array was expected. Please change the shape of y to (n_samples,), for example using ravel().
[STDERR]   rf.fit(X, y)
[STDERR] /cw/dtailocal/mercs_python/bin/mercspython.py:479: DataConversionWarning: A column-vector y was passed when a 1d array was expected. Please change the shape of y to (n_samples,), for example using ravel().
[STDERR]   rf.fit(X, y)
[STDERR] /cw/dtailocal/mercs_python/bin/mercspython.py:479: DataConversionWarning: A column-vector y was passed when a 1d array was expected. Please change the shape of y to (n_samples,), for example using ravel().
[STDERR]   rf.fit(X, y)
[STDERR] /cw/dtailocal/mercs_python/bin/mercspython.py:479: DataConversionWarning: A column-vector y was passed when a 1d array was expected. Please change the shape of y to (n_samples,), for example using ravel().
[STDERR]   rf.fit(X, y)
[STDERR] /cw/dtailocal/mercs_python/bin/mercspython.py:479: DataConversionWarning: A column-vector y was passed when a 1d array was expected. Please change the shape of y to (n_samples,), for example using ravel().
[STDERR]   rf.fit(X, y)
[STDERR] /cw/dtailocal/mercs_python/bin/mercspython.py:479: DataConversionWarning: A column-vector y was passed when a 1d array was expected. Please change the shape of y to (n_samples,), for example using ravel().
[STDERR]   rf.fit(X, y)
[STDERR] /cw/dtailocal/mercs_python/bin/mercspython.py:479: DataConversionWarning: A column-vector y was passed when a 1d array was expected. Please change the shape of y to (n_samples,), for example using ravel().
[STDERR]   rf.fit(X, y)
[STDERR] /cw/dtailocal/mercs_python/bin/mercspython.py:479: DataConversionWarning: A column-vector y was passed when a 1d array was expected. Please change the shape of y to (n_samples,), for example using ravel().
[STDERR]   rf.fit(X, y)
[STDERR] /cw/dtailocal/mercs_python/bin/mercspython.py:479: DataConversionWarning: A column-vector y was passed when a 1d array was expected. Please change the shape of y to (n_samples,), for example using ravel().
[STDERR]   rf.fit(X, y)
[STDERR] /cw/dtailocal/mercs_python/bin/mercspython.py:479: DataConversionWarning: A column-vector y was passed when a 1d array was expected. Please change the shape of y to (n_samples,), for example using ravel().
[STDERR]   rf.fit(X, y)
[STDERR] /cw/dtailocal/mercs_python/bin/mercspython.py:479: DataConversionWarning: A column-vector y was passed when a 1d array was expected. Please change the shape of y to (n_samples,), for example using ravel().
[STDERR]   rf.fit(X, y)
[STDERR] /cw/dtailocal/mercs_python/bin/mercspython.py:479: DataConversionWarning: A column-vector y was passed when a 1d array was expected. Please change the shape of y to (n_samples,), for example using ravel().
[STDERR]   rf.fit(X, y)
[STDERR] /cw/dtailocal/mercs_python/bin/mercspython.py:479: DataConversionWarning: A column-vector y was passed when a 1d array was expected. Please change the shape of y to (n_samples,), for example using ravel().
[STDERR]   rf.fit(X, y)
[STDERR] /cw/dtailocal/mercs_python/bin/mercspython.py:479: DataConversionWarning: A column-vector y was passed when a 1d array was expected. Please change the shape of y to (n_samples,), for example using ravel().
[STDERR]   rf.fit(X, y)
[STDERR] /cw/dtailocal/mercs_python/bin/mercspython.py:479: DataConversionWarning: A column-vector y was passed when a 1d array was expected. Please change the shape of y to (n_samples,), for example using ravel().
[STDERR]   rf.fit(X, y)
[STDERR] /cw/dtailocal/mercs_python/bin/mercspython.py:479: DataConversionWarning: A column-vector y was passed when a 1d array was expected. Please change the shape of y to (n_samples,), for example using ravel().
[STDERR]   rf.fit(X, y)
[STDERR] /cw/dtailocal/mercs_python/bin/mercspython.py:479: DataConversionWarning: A column-vector y was passed when a 1d array was expected. Please change the shape of y to (n_samples,), for example using ravel().
[STDERR]   rf.fit(X, y)
[STDERR] /cw/dtailocal/mercs_python/bin/mercspython.py:479: DataConversionWarning: A column-vector y was passed when a 1d array was expected. Please change the shape of y to (n_samples,), for example using ravel().
[STDERR]   rf.fit(X, y)
[STDERR] /cw/dtailocal/mercs_python/bin/mercspython.py:479: DataConversionWarning: A column-vector y was passed when a 1d array was expected. Please change the shape of y to (n_samples,), for example using ravel().
[STDERR]   rf.fit(X, y)
[STDERR] /cw/dtailocal/mercs_python/bin/mercspython.py:479: DataConversionWarning: A column-vector y was passed when a 1d array was expected. Please change the shape of y to (n_samples,), for example using ravel().
[STDERR]   rf.fit(X, y)
[STDERR] /cw/dtailocal/mercs_python/bin/mercspython.py:479: DataConversionWarning: A column-vector y was passed when a 1d array was expected. Please change the shape of y to (n_samples,), for example using ravel().
[STDERR]   rf.fit(X, y)
[STDERR] /cw/dtailocal/mercs_python/bin/mercspython.py:479: DataConversionWarning: A column-vector y was passed when a 1d array was expected. Please change the shape of y to (n_samples,), for example using ravel().
[STDERR]   rf.fit(X, y)
[STDERR] /cw/dtailocal/mercs_python/bin/mercspython.py:479: DataConversionWarning: A column-vector y was passed when a 1d array was expected. Please change the shape of y to (n_samples,), for example using ravel().
[STDERR]   rf.fit(X, y)
[STDERR] /cw/dtailocal/mercs_python/bin/mercspython.py:479: DataConversionWarning: A column-vector y was passed when a 1d array was expected. Please change the shape of y to (n_samples,), for example using ravel().
[STDERR]   rf.fit(X, y)
[[0, 0, 1, 0, 0, 0, 0, 0, 0, 0, 1, 0, 0, 1, 0, 0, 0, 0, 0, 0, 0, 0, 0, 0, 0, 0, 0, 0, 0, 0, 0, 0, 0, 0, 1, 1, 0, 0, 0, 0, 0, 0, 0, 0, 0, 0, 0, 0, 0, 0, 0, 0, 0, 0, 0, 0, 1, 0, 0, 0, 0, 0, 0, 0, 0, 0, 0, 0, 0, 0, 0, 0, 1, 0, 0, 0, 0, 0, 0, 0, 0, 0, 0, 0, 0, 0, 0, 0, 0, 1, 1, 0, 1, 0, 0, 0, 0, 0, 0, 0, 0, 0, 0, 0, 0, 0, 0, 0, 0, 0, 0, 0, 0, 0, 0, 0, 0, 0, 0, 0, 0, 0, 0, 1, 0, 0, 0, 0, 0, 0, 0, 0, 0, 0, 0, 0, 0, 0, 0, 1, 0, 0, 0, 1, 0, 0, 0, 0, 0, 0, 0, 0, 1, 0, 0, 0, 0, 1, 0, 0, 0, 0, 0, 0, 0, 0, 0, 0, 0, 0, 0, 0, 0, 0, 0, 0, 0, 0, 0, 0, 0, 0, 0, 0, 0, 0, 0, 0, 0, 0, 0, 0, 1, 0, 0, 0, 0, 0, 0, 0, 0, 1, 0, 0, 0, 0, 0, 0, 0, 0, 0, 0, 0, 0, 0, 0, 0, 1, 0, 0, 1, 0, 0, 0, 1, 0, 0, 0, 0, 0, 0, 0, 0, 1, 0, 0, 0, 0, 0, 0, 0, 1, 0, 0, 0, 0, 0, 0, 0, 0, 0, 0, 1, 0, 0, 0, 0, 0, 0, 0, 0, 0, 1, 0, 0, 0, 0, 1, 1, 0, 0, 0, 1, 0, 0, 0, 1, 0, 0], [1, 0, 0, 0, 0, 0, 0, 0, 0, 0, 0, 0, 0, 0, 0, 0, 1, 0, 0, 0, 0, 0, 0, 0, 0, 0, 1, 0, 0, 0, 0, 0, 0, 0, 0, 0, 1, 0, 0, 0, 0, 0, 0, 0, 0, 0, 0, 0, 0, 1, 0, 1, 0, 0, 0, 0, 0, 0, 0, 0, 0, 0, 0, 0, 0, 0, 1, 0, 0, 0, 0, 0, 0, 0, 0, 1, 0, 0, 1, 0, 0, 0, 0, 0, 0, 0, 1, 0, 0, 0, 0, 0, 0, 1, 0, 0, 0, 0, 0, 0, 0, 1, 0, 0, 0, 0, 0, 0, 0, 0, 0, 0, 0, 1, 0, 0, 0, 0, 0, 0, 0, 0, 0, 0, 0, 0, 0, 0, 0, 0, 0, 0, 0, 0, 0, 0, 0, 0, 0, 0, 0, 0, 0, 0, 0, 0, 0, 0, 0, 0, 0, 0, 0, 0, 0, 0, 1, 0, 0, 1, 0, 0, 0, 0, 0, 0, 0, 0, 0, 0, 1, 0, 1, 0, 0, 0, 0, 0, 0, 0, 0, 1, 1, 0, 0, 0, 0, 0, 0, 0, 0, 0, 0, 0, 0, 0, 0, 0, 0, 0, 1, 0, 0, 0, 0, 0, 0, 0, 0, 0, 0, 0, 0, 0, 1, 0, 0, 0, 1, 0, 0, 0, 0, 0, 0, 0, 0, 0, 0, 0, 0, 0, 0, 0, 0, 0, 1, 0, 0, 1, 0, 0, 0, 0, 0, 1, 0, 0, 0, 0, 0, 0, 0, 0, 0, 0, 0, 0, 0, 0, 0, 0, 0, 0, 0, 0, 0, 0, 0, 0, 1, 0, 0, 0, 0, 0, 0, 0, 0], [0, 0, 0, 0, 0, 0, 0, 0, 0, 0, 0, 0, 1, 0, 0, 0, 0, 0, 0, 0, 0, 0, 0, 0, 0, 0, 0, 1, 0, 0, 0, 1, 0, 1, 0, 0, 0, 0, 0, 0, 0, 0, 0, 0, 0, 0, 0, 0, 0, 0, 0, 0, 0, 0, 0, 0, 0, 0, 0, 0, 0, 1, 0, 1, 0, 0, 0, 0, 0, 0, 0, 0, 0, 0, 0, 0, 0, 0, 0, 1, 0, 0, 0, 0, 1, 1, 0, 0, 0, 0, 0, 1, 0, 0, 0, 0, 0, 0, 0, 0, 0, 0, 0, 0, 0, 0, 0, 0, 0, 0, 0, 0, 0, 0, 0, 0, 0, 0, 0, 0, 0, 1, 0, 0, 0, 0, 0, 0, 0, 0, 0, 1, 0, 0, 0, 0, 0, 0, 0, 0, 0, 0, 0, 0, 0, 0, 0, 0, 0, 0, 0, 0, 0, 0, 0, 1, 0, 0, 0, 0, 0, 0, 0, 0, 0, 0, 0, 0, 0, 0, 0, 0, 0, 0, 1, 0, 0, 0, 1, 0, 0, 0, 0, 0, 0, 0, 1, 0, 0, 0, 0, 0, 0, 0, 0, 0, 0, 0, 1, 0, 0, 0, 0, 0, 0, 1, 0, 0, 0, 0, 0, 0, 0, 0, 0, 0, 0, 0, 0, 0, 0, 0, 0, 0, 0, 0, 0, 0, 1, 0, 0, 0, 0, 0, 0, 0, 0, 0, 0, 0, 0, 0, 0, 0, 1, 0, 0, 0, 0, 1, 0, 0, 0, 0, 0, 0, 0, 0, 0, 0, 0, 0, 0, 0, 0, 0, 0, 0, 0, 0, 0, 0, 0, 0, 1, 0, 0, 0, 0], [0, 1, 0, 0, 0, 0, 0, 0, 0, 0, 0, 0, 0, 0, 0, 1, 0, 0, 0, 0, 0, 0, 0, 0, 0, 1, 0, 0, 0, 0, 0, 0, 0, 0, 0, 0, 0, 0, 1, 0, 0, 0, 0, 0, 0, 1, 0, 0, 0, 0, 0, 0, 0, 0, 0, 0, 0, 0, 0, 0, 0, 0, 0, 0, 0, 0, 0, 0, 0, 1, 0, 0, 0, 1, 1, 0, 0, 0, 0, 0, 0, 0, 0, 0, 0, 0, 0, 0, 0, 0, 0, 0, 0, 0, 0, 1, 0, 0, 0, 0, 0, 0, 0, 0, 0, 0, 0, 0, 0, 1, 0, 0, 0, 0, 0, 0, 0, 0, 0, 0, 0, 0, 0, 0, 0, 0, 0, 0, 0, 0, 0, 0, 0, 0, 1, 0, 0, 0, 0, 0, 0, 1, 0, 0, 0, 0, 0, 0, 0, 0, 1, 0, 0, 0, 0, 0, 0, 0, 0, 0, 0, 0, 0, 1, 0, 0, 0, 0, 1, 0, 0, 1, 0, 0, 0, 0, 0, 0, 0, 1, 0, 0, 0, 0, 1, 0, 0, 0, 0, 0, 0, 0, 0, 0, 0, 0, 0, 0, 0, 0, 0, 0, 0, 0, 0, 0, 0, 0, 0, 0, 0, 0, 0, 1, 0, 1, 0, 0, 0, 1, 0, 0, 0, 1, 0, 0, 0, 0, 0, 0, 0, 1, 0, 0, 0, 0, 0, 0, 0, 0, 0, 0, 0, 0, 0, 0, 0, 0, 0, 0, 1, 1, 0, 1, 0, 0, 0, 0, 0, 0, 0, 1, 0, 1, 0, 0, 0, 0, 0, 0, 0, 0, 0, 0, 0, 0, 0, 0, 1], [0, 0, 0, 0, 0, 0, 0, 0, 0, 1, 0, 0, 0, 0, 0, 0, 0, 0, 0, 0, 0, 0, 0, 0, 0, 0, 0, 0, 1, 0, 0, 0, 0, 0, 0, 0, 0, 1, 0, 0, 0, 1, 0, 0, 0, 0, 1, 0, 0, 0, 1, 0, 1, 0, 0, 1, 0, 1, 0, 0, 0, 0, 0, 0, 0, 1, 0, 0, 1, 0, 0, 0, 0, 0, 0, 0, 0, 1, 0, 0, 1, 1, 0, 0, 0, 0, 0, 1, 0, 0, 0, 0, 0, 0, 0, 0, 0, 0, 1, 0, 0, 0, 0, 0, 0, 0, 0, 0, 0, 0, 0, 0, 0, 0, 0, 0, 0, 0, 0, 0, 0, 0, 1, 0, 0, 1, 1, 1, 0, 0, 0, 0, 0, 1, 0, 1, 0, 0, 1, 0, 0, 0, 1, 0, 0, 0, 0, 0, 1, 0, 0, 0, 0, 0, 0, 0, 0, 0, 0, 0, 1, 0, 0, 0, 1, 0, 0, 0, 0, 1, 0, 0, 0, 0, 0, 0, 0, 1, 0, 0, 0, 0, 0, 0, 0, 0, 0, 0, 0, 0, 0, 1, 0, 1, 0, 0, 0, 0, 0, 0, 0, 0, 0, 1, 0, 0, 0, 0, 0, 0, 0, 0, 0, 0, 0, 0, 0, 0, 0, 0, 0, 0, 0, 0, 0, 0, 0, 0, 0, 0, 0, 0, 0, 0, 0, 0, 0, 0, 0, 0, 0, 0, 0, 0, 0, 0, 0, 0, 0, 0, 0, 0, 0, 0, 0, 0, 1, 0, 0, 0, 1, 0, 0, 0, 0, 0, 0, 0, 0, 0, 0, 0, 0, 0, 0, 0, 0, 0, 0], [0, 0, 0, 1, 0, 0, 0, 1, 0, 0, 0, 0, 0, 0, 0, 0, 0, 0, 0, 0, 0, 0, 0, 0, 1, 0, 0, 0, 0, 0, 0, 0, 0, 0, 0, 0, 0, 0, 0, 0, 0, 0, 0, 0, 0, 0, 0, 1, 0, 0, 0, 0, 0, 0, 0, 0, 0, 0, 1, 0, 0, 0, 0, 0, 1, 0, 0, 0, 0, 0, 0, 0, 0, 0, 0, 0, 0, 0, 0, 0, 0, 0, 0, 0, 0, 0, 0, 0, 0, 0, 0, 0, 0, 0, 1, 0, 0, 0, 0, 0, 0, 0, 0, 1, 0, 0, 0, 0, 0, 0, 1, 0, 0, 0, 0, 0, 0, 1, 0, 0, 0, 0, 0, 0, 0, 0, 0, 0, 0, 0, 1, 0, 0, 0, 0, 0, 0, 0, 0, 0, 0, 0, 0, 0, 0, 1, 1, 0, 0, 0, 0, 0, 0, 0, 1, 0, 0, 0, 0, 0, 0, 0, 0, 0, 0, 0, 1, 0, 0, 0, 0, 0, 0, 0, 0, 0, 0, 0, 0, 0, 0, 0, 0, 0, 0, 1, 0, 0, 0, 0, 0, 0, 0, 0, 1, 0, 0, 0, 0, 1, 0, 0, 0, 0, 0, 0, 0, 0, 0, 0, 0, 0, 0, 0, 0, 0, 0, 0, 0, 0, 0, 0, 0, 0, 0, 1, 0, 0, 0, 0, 0, 0, 0, 0, 0, 1, 0, 0, 0, 0, 0, 0, 0, 0, 0, 0, 0, 0, 0, 0, 0, 0, 0, 0, 0, 0, 0, 1, 1, 0, 0, 0, 0, 0, 0, 0, 0, 0, 0, 0, 0, 0, 0, 1, 0, 0, 0, 0, 0], [0, 0, 0, 0, 1, 0, 1, 0, 1, 0, 0, 0, 0, 0, 0, 0, 0, 1, 1, 1, 0, 0, 0, 0, 0, 0, 0, 0, 0, 1, 0, 0, 0, 0, 0, 0, 0, 0, 0, 0, 1, 0, 1, 0, 1, 0, 0, 0, 0, 0, 0, 0, 0, 0, 0, 0, 0, 0, 0, 0, 0, 0, 1, 0, 0, 0, 0, 0, 0, 0, 0, 0, 0, 0, 0, 0, 0, 0, 0, 0, 0, 0, 0, 0, 0, 0, 0, 0, 0, 0, 0, 0, 0, 0, 0, 0, 0, 0, 0, 1, 0, 0, 0, 0, 1, 1, 0, 0, 0, 0, 0, 1, 1, 0, 1, 1, 0, 0, 0, 0, 1, 0, 0, 0, 0, 0, 0, 0, 1, 0, 0, 0, 1, 0, 0, 0, 0, 0, 0, 0, 1, 0, 0, 0, 1, 0, 0, 0, 0, 1, 0, 0, 0, 0, 0, 0, 0, 0, 1, 0, 0, 0, 0, 0, 0, 0, 0, 0, 0, 0, 0, 0, 0, 0, 0, 0, 0, 0, 0, 0, 0, 0, 0, 1, 0, 0, 0, 0, 0, 0, 0, 0, 0, 0, 0, 1, 1, 0, 0, 0, 0, 0, 0, 0, 0, 0, 0, 0, 0, 0, 0, 0, 1, 0, 0, 0, 0, 0, 0, 0, 0, 1, 0, 0, 0, 0, 0, 1, 0, 1, 1, 0, 0, 0, 0, 0, 0, 0, 0, 0, 0, 0, 1, 0, 0, 0, 0, 1, 0, 0, 0, 0, 0, 0, 0, 1, 0, 0, 0, 1, 0, 0, 0, 0, 0, 0, 0, 0, 0, 0, 0, 0, 0, 0, 0, 1, 0, 0, 0], [0, 0, 0, 0, 0, 0, 0, 0, 0, 0, 0, 1, 0, 0, 0, 0, 0, 0, 0, 0, 0, 0, 0, 0, 0, 0, 0, 0, 0, 0, 0, 0, 1, 0, 0, 0, 0, 0, 0, 0, 0, 0, 0, 0, 0, 0, 0, 0, 0, 0, 0, 0, 0, 0, 0, 0, 0, 0, 0, 0, 0, 0, 0, 0, 0, 0, 0, 0, 0, 0, 0, 0, 0, 0, 0, 0, 0, 0, 0, 0, 0, 0, 0, 0, 0, 0, 0, 0, 1, 0, 0, 0, 0, 0, 0, 0, 0, 0, 0, 0, 0, 0, 0, 0, 0, 0, 0, 0, 0, 0, 0, 0, 0, 0, 0, 0, 1, 0, 1, 0, 0, 0, 0, 0, 0, 0, 0, 0, 0, 0, 0, 0, 0, 0, 0, 0, 0, 0, 0, 0, 0, 0, 0, 0, 0, 0, 0, 0, 0, 0, 0, 0, 0, 0, 0, 0, 0, 0, 0, 0, 0, 1, 0, 0, 0, 0, 0, 0, 0, 0, 0, 0, 0, 0, 0, 0, 0, 0, 0, 0, 1, 0, 0, 0, 0, 0, 0, 0, 0, 0, 0, 0, 0, 0, 0, 0, 0, 0, 0, 0, 0, 0, 1, 0, 0, 0, 0, 1, 1, 0, 0, 0, 0, 0, 0, 0, 0, 0, 0, 0, 0, 0, 0, 0, 0, 0, 0, 0, 0, 0, 0, 0, 0, 0, 0, 0, 0, 0, 0, 0, 0, 0, 0, 0, 0, 0, 0, 0, 0, 0, 0, 0, 0, 0, 0, 0, 0, 0, 0, 0, 0, 0, 0, 0, 0, 0, 0, 0, 0, 0, 0, 0, 0, 0, 0, 0, 0, 0, 0], [0, 0, 0, 0, 0, 0, 0, 0, 0, 0, 0, 0, 0, 0, 1, 0, 0, 0, 0, 0, 0, 0, 1, 1, 0, 0, 0, 0, 0, 0, 0, 0, 0, 0, 0, 0, 0, 0, 0, 0, 0, 0, 0, 0, 0, 0, 0, 0, 0, 0, 0, 0, 0, 0, 1, 0, 0, 0, 0, 0, 1, 0, 0, 0, 0, 0, 0, 0, 0, 0, 0, 0, 0, 0, 0, 0, 0, 0, 0, 0, 0, 0, 1, 0, 0, 0, 0, 0, 0, 0, 0, 0, 0, 0, 0, 0, 0, 0, 0, 0, 1, 0, 0, 0, 0, 0, 0, 0, 1, 0, 0, 0, 0, 0, 0, 0, 0, 0, 0, 1, 0, 0, 0, 0, 0, 0, 0, 0, 0, 0, 0, 0, 0, 0, 0, 0, 0, 0, 0, 0, 0, 0, 0, 0, 0, 0, 0, 0, 0, 0, 0, 1, 0, 1, 0, 0, 0, 0, 0, 0, 0, 0, 0, 0, 0, 1, 0, 0, 0, 0, 0, 0, 0, 0, 0, 0, 0, 0, 0, 0, 0, 0, 0, 0, 0, 0, 0, 0, 0, 0, 0, 0, 0, 0, 0, 0, 0, 0, 0, 0, 0, 0, 0, 0, 0, 0, 0, 0, 0, 1, 1, 1, 0, 0, 0, 0, 0, 0, 0, 0, 0, 0, 1, 0, 0, 0, 0, 0, 0, 0, 0, 0, 0, 0, 1, 0, 0, 1, 0, 0, 0, 0, 0, 0, 0, 0, 0, 0, 0, 0, 0, 0, 0, 0, 0, 0, 0, 0, 0, 0, 0, 0, 0, 0, 0, 0, 1, 0, 0, 1, 0, 1, 0, 0, 0, 0, 0, 1, 0], [0, 0, 0, 0, 0, 1, 0, 0, 0, 0, 0, 0, 0, 0, 0, 0, 0, 0, 0, 0, 1, 1, 0, 0, 0, 0, 0, 0, 0, 0, 1, 0, 0, 0, 0, 0, 0, 0, 0, 1, 0, 0, 0, 1, 0, 0, 0, 0, 1, 0, 0, 0, 0, 1, 0, 0, 0, 0, 0, 1, 0, 0, 0, 0, 0, 0, 0, 1, 0, 0, 1, 1, 0, 0, 0, 0, 1, 0, 0, 0, 0, 0, 0, 1, 0, 0, 0, 0, 0, 0, 0, 0, 0, 0, 0, 0, 1, 1, 0, 0, 0, 0, 1, 0, 0, 0, 1, 1, 0, 0, 0, 0, 0, 0, 0, 0, 0, 0, 0, 0, 0, 0, 0, 0, 1, 0, 0, 0, 0, 1, 0, 0, 0, 0, 0, 0, 1, 1, 0, 0, 0, 0, 0, 0, 0, 0, 0, 1, 0, 0, 0, 0, 0, 0, 0, 0, 0, 0, 0, 0, 0, 0, 1, 0, 0, 0, 0, 1, 0, 0, 0, 0, 0, 1, 0, 1, 1, 0, 0, 0, 0, 0, 0, 0, 0, 0, 0, 1, 1, 1, 1, 0, 0, 0, 0, 0, 0, 1, 0, 0, 0, 0, 0, 0, 1, 0, 1, 0, 0, 0, 0, 0, 0, 0, 0, 0, 1, 0, 0, 0, 0, 0, 0, 0, 0, 0, 1, 0, 0, 0, 0, 0, 1, 0, 0, 0, 0, 0, 1, 0, 1, 0, 0, 1, 0, 0, 1, 0, 1, 0, 0, 0, 0, 0, 1, 0, 0, 0, 0, 0, 0, 0, 0, 0, 1, 1, 0, 0, 0, 0, 0, 0, 0, 0, 0, 0, 0, 0, 0]]
====================================================
Total induction time of the MDEModel was: 19679 ms
====================================================
====================================================
Total inference time of the MDEModel was: 5174 ms
====================================================
====================================================
This was for: 279 queries.
====================================================
[INFO] Process ended (returncode 0)
[INFO] Finished: Run process 60.714 seconds
[WARNING] Exit:finished; Returncode:0; Time:60.71429
