[
{
  "ts": "2018-02-05T14:57:11.369013",
  "type": "SETTINGS",
  "values": {
    "date": "2018/02/05 15:57:11",
    "date_iso": "2018-02-05T15:57:11.368176",
    "params": null,
    "system": {
      "nodename": "gibson",
      "machine": "x86_64",
      "platform": "Linux-4.4.0-112-generic-x86_64-with-debian-stretch-sid",
      "processor": "x86_64",
      "version": "#135-Ubuntu SMP Fri Jan 19 11:48:36 UTC 2018",
      "system": "Linux",
      "cpu_count": 8,
      "cpu_times": {
        "user": 84426.3,
        "system": 18068.9,
        "idle": 7630554.01,
        "nice": 732.25
      },
      "cpu_percent": 99.9,
      "virtual_memory": {
        "total": 33618501632,
        "available": 24516218880,
        "percent": 27.1,
        "used": 8025313280,
        "free": 9009922048
      }
    },
    "process": {
      "username": "evgeniya",
      "cwd": "/cw/dtailocal/mercs_python/src/core",
      "create_time": 1517842621.57,
      "cpu_times": {
        "user": 0.62,
        "system": 0.1
      }
    },
    "logfile": "/cw/dtailocal/mercs_python/out/342/wq/logs/mercspython_Log_F02",
    "command": "python /cw/dtailocal/mercs_python/bin/mercspython.py /cw/dtailocal/mercs_python/out/342/wq/settings/mercspython_Settings_F02.s"
  }
},
{
  "ts": "2018-02-05T14:57:11.369136",
  "type": "INFO",
  "values": {
    "cmd": "python /cw/dtailocal/mercs_python/bin/mercspython.py /cw/dtailocal/mercs_python/out/342/wq/settings/mercspython_Settings_F02.s",
    "cwd": null
  }
},
{
  "ts": "2018-02-05T14:57:11.382106",
  "type": "INFO",
  "values": "Start: Run process"
},
{
  "ts": "2018-02-05T14:57:11.418101",
  "type": "INFO",
  "values": "Write log to /cw/dtailocal/mercs_python/out/342/wq/logs/mercspython_Log_F02.running.log"
},
{
  "ts": "2018-02-05T14:57:15.625851",
  "type": "INFO",
  "values": "Process ended (returncode 0)"
},
{
  "ts": "2018-02-05T14:57:15.625942",
  "type": "INFO",
  "values": "Finished: Run process 4.244 seconds"
},
{
  "ts": "2018-02-05T14:57:15.626025",
  "type": "WARNING",
  "values": {
    "Exit": "finished",
    "Returncode": 0,
    "Time": 4.243851661682129
  }
},
{
  "ts": "2018-02-05T14:57:15.635876",
  "type": "INFO",
  "values": "Closing /cw/dtailocal/mercs_python/out/342/wq/logs/mercspython_Log_F02.running.log"
}
]
