[
{
  "ts": "2018-02-07T10:16:40.309198",
  "type": "SETTINGS",
  "values": {
    "date": "2018/02/07 11:16:40",
    "date_iso": "2018-02-07T11:16:40.308281",
    "params": null,
    "system": {
      "nodename": "gibson",
      "machine": "x86_64",
      "platform": "Linux-4.4.0-112-generic-x86_64-with-debian-stretch-sid",
      "processor": "x86_64",
      "version": "#135-Ubuntu SMP Fri Jan 19 11:48:36 UTC 2018",
      "system": "Linux",
      "cpu_count": 8,
      "cpu_times": {
        "user": 377871.96,
        "system": 22371.06,
        "idle": 8577342.08,
        "nice": 898.04
      },
      "cpu_percent": 99.7,
      "virtual_memory": {
        "total": 33618501632,
        "available": 25131356160,
        "percent": 25.2,
        "used": 7618535424,
        "free": 11023196160
      }
    },
    "process": {
      "username": "evgeniya",
      "cwd": "/cw/dtailocal/mercs_python/src/core",
      "create_time": 1517998566.94,
      "cpu_times": {
        "user": 1.14,
        "system": 0.15
      }
    },
    "logfile": "/cw/dtailocal/mercs_python/out/720/wq/logs/mercspython_Log_F06",
    "command": "python /cw/dtailocal/mercs_python/bin/mercspython.py /cw/dtailocal/mercs_python/out/720/wq/settings/mercspython_Settings_F06.s"
  }
},
{
  "ts": "2018-02-07T10:16:40.309437",
  "type": "INFO",
  "values": {
    "cmd": "python /cw/dtailocal/mercs_python/bin/mercspython.py /cw/dtailocal/mercs_python/out/720/wq/settings/mercspython_Settings_F06.s",
    "cwd": null
  }
},
{
  "ts": "2018-02-07T10:16:40.329368",
  "type": "INFO",
  "values": "Start: Run process"
},
{
  "ts": "2018-02-07T10:16:40.351907",
  "type": "INFO",
  "values": "Write log to /cw/dtailocal/mercs_python/out/720/wq/logs/mercspython_Log_F06.running.log"
},
{
  "ts": "2018-02-07T10:16:45.574205",
  "type": "INFO",
  "values": "Process ended (returncode 0)"
},
{
  "ts": "2018-02-07T10:16:45.574283",
  "type": "INFO",
  "values": "Finished: Run process 5.245 seconds"
},
{
  "ts": "2018-02-07T10:16:45.574362",
  "type": "WARNING",
  "values": {
    "Exit": "finished",
    "Returncode": 0,
    "Time": 5.244947195053101
  }
},
{
  "ts": "2018-02-07T10:16:45.579249",
  "type": "INFO",
  "values": "Closing /cw/dtailocal/mercs_python/out/720/wq/logs/mercspython_Log_F06.running.log"
}
]
