[
{
  "ts": "2018-02-05T15:44:55.441199",
  "type": "SETTINGS",
  "values": {
    "date": "2018/02/05 16:44:55",
    "date_iso": "2018-02-05T16:44:55.440304",
    "params": null,
    "system": {
      "nodename": "gibson",
      "machine": "x86_64",
      "platform": "Linux-4.4.0-112-generic-x86_64-with-debian-stretch-sid",
      "processor": "x86_64",
      "version": "#135-Ubuntu SMP Fri Jan 19 11:48:36 UTC 2018",
      "system": "Linux",
      "cpu_count": 8,
      "cpu_times": {
        "user": 100415.32,
        "system": 18244.85,
        "idle": 7637227.19,
        "nice": 749.46
      },
      "cpu_percent": 99.1,
      "virtual_memory": {
        "total": 33618501632,
        "available": 24325279744,
        "percent": 27.6,
        "used": 8279584768,
        "free": 8137138176
      }
    },
    "process": {
      "username": "evgeniya",
      "cwd": "/cw/dtailocal/mercs_python/src/core",
      "create_time": 1517845477.57,
      "cpu_times": {
        "user": 0.82,
        "system": 0.14
      }
    },
    "logfile": "/cw/dtailocal/mercs_python/out/233/jura/logs/mercspython_Log_F04",
    "command": "python /cw/dtailocal/mercs_python/bin/mercspython.py /cw/dtailocal/mercs_python/out/233/jura/settings/mercspython_Settings_F04.s"
  }
},
{
  "ts": "2018-02-05T15:44:55.441337",
  "type": "INFO",
  "values": {
    "cmd": "python /cw/dtailocal/mercs_python/bin/mercspython.py /cw/dtailocal/mercs_python/out/233/jura/settings/mercspython_Settings_F04.s",
    "cwd": null
  }
},
{
  "ts": "2018-02-05T15:44:55.465532",
  "type": "INFO",
  "values": "Start: Run process"
},
{
  "ts": "2018-02-05T15:44:55.515829",
  "type": "INFO",
  "values": "Write log to /cw/dtailocal/mercs_python/out/233/jura/logs/mercspython_Log_F04.running.log"
},
{
  "ts": "2018-02-05T15:44:59.320461",
  "type": "INFO",
  "values": "Process ended (returncode 0)"
},
{
  "ts": "2018-02-05T15:44:59.320554",
  "type": "INFO",
  "values": "Finished: Run process 3.855 seconds"
},
{
  "ts": "2018-02-05T15:44:59.320661",
  "type": "WARNING",
  "values": {
    "Exit": "finished",
    "Returncode": 0,
    "Time": 3.8550446033477783
  }
}
]
