[
{
  "ts": "2018-02-07T10:15:22.245336",
  "type": "SETTINGS",
  "values": {
    "date": "2018/02/07 11:15:22",
    "date_iso": "2018-02-07T11:15:22.244373",
    "params": null,
    "system": {
      "nodename": "gibson",
      "machine": "x86_64",
      "platform": "Linux-4.4.0-112-generic-x86_64-with-debian-stretch-sid",
      "processor": "x86_64",
      "version": "#135-Ubuntu SMP Fri Jan 19 11:48:36 UTC 2018",
      "system": "Linux",
      "cpu_count": 8,
      "cpu_times": {
        "user": 377272.67,
        "system": 22350.93,
        "idle": 8577339.2,
        "nice": 898.04
      },
      "cpu_percent": 99.0,
      "virtual_memory": {
        "total": 33618501632,
        "available": 26458558464,
        "percent": 21.3,
        "used": 6291197952,
        "free": 12291026944
      }
    },
    "process": {
      "username": "evgeniya",
      "cwd": "/cw/dtailocal/mercs_python/src/core",
      "create_time": 1517998486.05,
      "cpu_times": {
        "user": 1.43,
        "system": 0.24
      }
    },
    "logfile": "/cw/dtailocal/mercs_python/out/702/jura/logs/mercspython_Log_F08",
    "command": "python /cw/dtailocal/mercs_python/bin/mercspython.py /cw/dtailocal/mercs_python/out/702/jura/settings/mercspython_Settings_F08.s"
  }
},
{
  "ts": "2018-02-07T10:15:22.245501",
  "type": "INFO",
  "values": {
    "cmd": "python /cw/dtailocal/mercs_python/bin/mercspython.py /cw/dtailocal/mercs_python/out/702/jura/settings/mercspython_Settings_F08.s",
    "cwd": null
  }
},
{
  "ts": "2018-02-07T10:15:22.269505",
  "type": "INFO",
  "values": "Start: Run process"
},
{
  "ts": "2018-02-07T10:15:22.279576",
  "type": "INFO",
  "values": "Write log to /cw/dtailocal/mercs_python/out/702/jura/logs/mercspython_Log_F08.running.log"
},
{
  "ts": "2018-02-07T10:15:26.091758",
  "type": "INFO",
  "values": "Process ended (returncode 0)"
},
{
  "ts": "2018-02-07T10:15:26.091837",
  "type": "INFO",
  "values": "Finished: Run process 3.822 seconds"
},
{
  "ts": "2018-02-07T10:15:26.091918",
  "type": "WARNING",
  "values": {
    "Exit": "finished",
    "Returncode": 0,
    "Time": 3.8223602771759033
  }
},
{
  "ts": "2018-02-07T10:15:26.095845",
  "type": "INFO",
  "values": "Closing /cw/dtailocal/mercs_python/out/702/jura/logs/mercspython_Log_F08.running.log"
}
]
