[
{
  "ts": "2018-02-07T10:15:00.915487",
  "type": "SETTINGS",
  "values": {
    "date": "2018/02/07 11:15:00",
    "date_iso": "2018-02-07T11:15:00.914567",
    "params": null,
    "system": {
      "nodename": "gibson",
      "machine": "x86_64",
      "platform": "Linux-4.4.0-112-generic-x86_64-with-debian-stretch-sid",
      "processor": "x86_64",
      "version": "#135-Ubuntu SMP Fri Jan 19 11:48:36 UTC 2018",
      "system": "Linux",
      "cpu_count": 8,
      "cpu_times": {
        "user": 377112.65,
        "system": 22342.7,
        "idle": 8577337.66,
        "nice": 898.04
      },
      "cpu_percent": 99.4,
      "virtual_memory": {
        "total": 33618501632,
        "available": 26436653056,
        "percent": 21.4,
        "used": 6312517632,
        "free": 12273156096
      }
    },
    "process": {
      "username": "evgeniya",
      "cwd": "/cw/dtailocal/mercs_python/src/core",
      "create_time": 1517998486.05,
      "cpu_times": {
        "user": 0.83,
        "system": 0.15
      }
    },
    "logfile": "/cw/dtailocal/mercs_python/out/702/jura/logs/mercspython_Log_F03",
    "command": "python /cw/dtailocal/mercs_python/bin/mercspython.py /cw/dtailocal/mercs_python/out/702/jura/settings/mercspython_Settings_F03.s"
  }
},
{
  "ts": "2018-02-07T10:15:00.915658",
  "type": "INFO",
  "values": {
    "cmd": "python /cw/dtailocal/mercs_python/bin/mercspython.py /cw/dtailocal/mercs_python/out/702/jura/settings/mercspython_Settings_F03.s",
    "cwd": null
  }
},
{
  "ts": "2018-02-07T10:15:00.938133",
  "type": "INFO",
  "values": "Start: Run process"
},
{
  "ts": "2018-02-07T10:15:00.946726",
  "type": "INFO",
  "values": "Write log to /cw/dtailocal/mercs_python/out/702/jura/logs/mercspython_Log_F03.running.log"
},
{
  "ts": "2018-02-07T10:15:05.151748",
  "type": "INFO",
  "values": "Process ended (returncode 0)"
},
{
  "ts": "2018-02-07T10:15:05.151838",
  "type": "INFO",
  "values": "Finished: Run process 4.214 seconds"
},
{
  "ts": "2018-02-07T10:15:05.151940",
  "type": "WARNING",
  "values": {
    "Exit": "finished",
    "Returncode": 0,
    "Time": 4.213733911514282
  }
},
{
  "ts": "2018-02-07T10:15:05.156961",
  "type": "INFO",
  "values": "Closing /cw/dtailocal/mercs_python/out/702/jura/logs/mercspython_Log_F03.running.log"
}
]
