[
{
  "ts": "2018-02-07T10:15:26.097332",
  "type": "SETTINGS",
  "values": {
    "date": "2018/02/07 11:15:26",
    "date_iso": "2018-02-07T11:15:26.096458",
    "params": null,
    "system": {
      "nodename": "gibson",
      "machine": "x86_64",
      "platform": "Linux-4.4.0-112-generic-x86_64-with-debian-stretch-sid",
      "processor": "x86_64",
      "version": "#135-Ubuntu SMP Fri Jan 19 11:48:36 UTC 2018",
      "system": "Linux",
      "cpu_count": 8,
      "cpu_times": {
        "user": 377301.51,
        "system": 22352.39,
        "idle": 8577339.53,
        "nice": 898.04
      },
      "cpu_percent": 98.9,
      "virtual_memory": {
        "total": 33618501632,
        "available": 26414678016,
        "percent": 21.4,
        "used": 6335078400,
        "free": 12277153792
      }
    },
    "process": {
      "username": "evgeniya",
      "cwd": "/cw/dtailocal/mercs_python/src/core",
      "create_time": 1517998486.05,
      "cpu_times": {
        "user": 1.48,
        "system": 0.24
      }
    },
    "logfile": "/cw/dtailocal/mercs_python/out/702/jura/logs/mercspython_Log_F09",
    "command": "python /cw/dtailocal/mercs_python/bin/mercspython.py /cw/dtailocal/mercs_python/out/702/jura/settings/mercspython_Settings_F09.s"
  }
},
{
  "ts": "2018-02-07T10:15:26.097489",
  "type": "INFO",
  "values": {
    "cmd": "python /cw/dtailocal/mercs_python/bin/mercspython.py /cw/dtailocal/mercs_python/out/702/jura/settings/mercspython_Settings_F09.s",
    "cwd": null
  }
},
{
  "ts": "2018-02-07T10:15:26.105287",
  "type": "INFO",
  "values": "Start: Run process"
},
{
  "ts": "2018-02-07T10:15:26.105787",
  "type": "INFO",
  "values": "Write log to /cw/dtailocal/mercs_python/out/702/jura/logs/mercspython_Log_F09.running.log"
},
{
  "ts": "2018-02-07T10:15:30.111319",
  "type": "INFO",
  "values": "Process ended (returncode 0)"
},
{
  "ts": "2018-02-07T10:15:30.111408",
  "type": "INFO",
  "values": "Finished: Run process 4.006 seconds"
},
{
  "ts": "2018-02-07T10:15:30.111499",
  "type": "WARNING",
  "values": {
    "Exit": "finished",
    "Returncode": 0,
    "Time": 4.006146430969238
  }
}
]
