[
{
  "ts": "2018-02-07T13:04:18.829310",
  "type": "SETTINGS",
  "values": {
    "date": "2018/02/07 14:04:18",
    "date_iso": "2018-02-07T14:04:18.828363",
    "params": null,
    "system": {
      "nodename": "gibson",
      "machine": "x86_64",
      "platform": "Linux-4.4.0-112-generic-x86_64-with-debian-stretch-sid",
      "processor": "x86_64",
      "version": "#135-Ubuntu SMP Fri Jan 19 11:48:36 UTC 2018",
      "system": "Linux",
      "cpu_count": 8,
      "cpu_times": {
        "user": 400118.32,
        "system": 23540.23,
        "idle": 8633956.62,
        "nice": 906.12
      },
      "cpu_percent": 98.9,
      "virtual_memory": {
        "total": 33618501632,
        "available": 25640898560,
        "percent": 23.7,
        "used": 7034896384,
        "free": 11347820544
      }
    },
    "process": {
      "username": "evgeniya",
      "cwd": "/cw/dtailocal/mercs_python/src/core",
      "create_time": 1518008621.83,
      "cpu_times": {
        "user": 1.42,
        "system": 0.24
      }
    },
    "logfile": "/cw/dtailocal/mercs_python/out/800/andro/logs/mercspython_Log_F08",
    "command": "python /cw/dtailocal/mercs_python/bin/mercspython.py /cw/dtailocal/mercs_python/out/800/andro/settings/mercspython_Settings_F08.s"
  }
},
{
  "ts": "2018-02-07T13:04:18.829482",
  "type": "INFO",
  "values": {
    "cmd": "python /cw/dtailocal/mercs_python/bin/mercspython.py /cw/dtailocal/mercs_python/out/800/andro/settings/mercspython_Settings_F08.s",
    "cwd": null
  }
},
{
  "ts": "2018-02-07T13:04:18.849563",
  "type": "INFO",
  "values": "Start: Run process"
},
{
  "ts": "2018-02-07T13:04:18.871928",
  "type": "INFO",
  "values": "Write log to /cw/dtailocal/mercs_python/out/800/andro/logs/mercspython_Log_F08.running.log"
},
{
  "ts": "2018-02-07T13:04:23.687593",
  "type": "INFO",
  "values": "Process ended (returncode 0)"
},
{
  "ts": "2018-02-07T13:04:23.687670",
  "type": "INFO",
  "values": "Finished: Run process 4.838 seconds"
},
{
  "ts": "2018-02-07T13:04:23.687741",
  "type": "WARNING",
  "values": {
    "Exit": "finished",
    "Returncode": 0,
    "Time": 4.83816385269165
  }
},
{
  "ts": "2018-02-07T13:04:23.688052",
  "type": "INFO",
  "values": "Closing /cw/dtailocal/mercs_python/out/800/andro/logs/mercspython_Log_F08.running.log"
}
]
