[
{
  "ts": "2018-02-05T16:17:47.485112",
  "type": "SETTINGS",
  "values": {
    "date": "2018/02/05 17:17:47",
    "date_iso": "2018-02-05T17:17:47.484224",
    "params": null,
    "system": {
      "nodename": "gibson",
      "machine": "x86_64",
      "platform": "Linux-4.4.0-112-generic-x86_64-with-debian-stretch-sid",
      "processor": "x86_64",
      "version": "#135-Ubuntu SMP Fri Jan 19 11:48:36 UTC 2018",
      "system": "Linux",
      "cpu_count": 8,
      "cpu_times": {
        "user": 115985.76,
        "system": 18439.21,
        "idle": 7637231.05,
        "nice": 749.46
      },
      "cpu_percent": 100.0,
      "virtual_memory": {
        "total": 33618501632,
        "available": 24813965312,
        "percent": 26.2,
        "used": 7909294080,
        "free": 8256720896
      }
    },
    "process": {
      "username": "evgeniya",
      "cwd": "/cw/dtailocal/mercs_python/src/core",
      "create_time": 1517846898.27,
      "cpu_times": {
        "user": 2.62,
        "system": 0.1
      }
    },
    "logfile": "/cw/dtailocal/mercs_python/out/264/oes10/logs/mercspython_Log_F07",
    "command": "python /cw/dtailocal/mercs_python/bin/mercspython.py /cw/dtailocal/mercs_python/out/264/oes10/settings/mercspython_Settings_F07.s"
  }
},
{
  "ts": "2018-02-05T16:17:47.485269",
  "type": "INFO",
  "values": {
    "cmd": "python /cw/dtailocal/mercs_python/bin/mercspython.py /cw/dtailocal/mercs_python/out/264/oes10/settings/mercspython_Settings_F07.s",
    "cwd": null
  }
},
{
  "ts": "2018-02-05T16:17:47.513487",
  "type": "INFO",
  "values": "Start: Run process"
},
{
  "ts": "2018-02-05T16:17:47.544731",
  "type": "INFO",
  "values": "Write log to /cw/dtailocal/mercs_python/out/264/oes10/logs/mercspython_Log_F07.running.log"
},
{
  "ts": "2018-02-05T16:19:09.451961",
  "type": "INFO",
  "values": "Process ended (returncode 0)"
},
{
  "ts": "2018-02-05T16:19:09.452041",
  "type": "INFO",
  "values": "Finished: Run process 81.939 seconds"
},
{
  "ts": "2018-02-05T16:19:09.452120",
  "type": "WARNING",
  "values": {
    "Exit": "finished",
    "Returncode": 0,
    "Time": 81.93858194351196
  }
}
]
