[
{
  "ts": "2018-02-05T14:49:08.621354",
  "type": "SETTINGS",
  "values": {
    "date": "2018/02/05 15:49:08",
    "date_iso": "2018-02-05T15:49:08.620407",
    "params": null,
    "system": {
      "nodename": "gibson",
      "machine": "x86_64",
      "platform": "Linux-4.4.0-112-generic-x86_64-with-debian-stretch-sid",
      "processor": "x86_64",
      "version": "#135-Ubuntu SMP Fri Jan 19 11:48:36 UTC 2018",
      "system": "Linux",
      "cpu_count": 8,
      "cpu_times": {
        "user": 80624.66,
        "system": 18019.17,
        "idle": 7630548.2,
        "nice": 732.25
      },
      "cpu_percent": 99.8,
      "virtual_memory": {
        "total": 33618501632,
        "available": 24646709248,
        "percent": 26.7,
        "used": 7894306816,
        "free": 9376083968
      }
    },
    "process": {
      "username": "evgeniya",
      "cwd": "/cw/dtailocal/mercs_python/src/core",
      "create_time": 1517842131.57,
      "cpu_times": {
        "user": 0.98,
        "system": 0.14
      }
    },
    "logfile": "/cw/dtailocal/mercs_python/out/320/enb/logs/mercspython_Log_F05",
    "command": "python /cw/dtailocal/mercs_python/bin/mercspython.py /cw/dtailocal/mercs_python/out/320/enb/settings/mercspython_Settings_F05.s"
  }
},
{
  "ts": "2018-02-05T14:49:08.621525",
  "type": "INFO",
  "values": {
    "cmd": "python /cw/dtailocal/mercs_python/bin/mercspython.py /cw/dtailocal/mercs_python/out/320/enb/settings/mercspython_Settings_F05.s",
    "cwd": null
  }
},
{
  "ts": "2018-02-05T14:49:08.644969",
  "type": "INFO",
  "values": "Start: Run process"
},
{
  "ts": "2018-02-05T14:49:08.682065",
  "type": "INFO",
  "values": "Write log to /cw/dtailocal/mercs_python/out/320/enb/logs/mercspython_Log_F05.running.log"
},
{
  "ts": "2018-02-05T14:49:11.688020",
  "type": "INFO",
  "values": "Process ended (returncode 0)"
},
{
  "ts": "2018-02-05T14:49:11.688101",
  "type": "INFO",
  "values": "Finished: Run process 3.043 seconds"
},
{
  "ts": "2018-02-05T14:49:11.688181",
  "type": "WARNING",
  "values": {
    "Exit": "finished",
    "Returncode": 0,
    "Time": 3.0431621074676514
  }
},
{
  "ts": "2018-02-05T14:49:11.707805",
  "type": "INFO",
  "values": "Closing /cw/dtailocal/mercs_python/out/320/enb/logs/mercspython_Log_F05.running.log"
}
]
