[
{
  "ts": "2018-02-05T14:48:59.049090",
  "type": "SETTINGS",
  "values": {
    "date": "2018/02/05 15:48:59",
    "date_iso": "2018-02-05T15:48:59.048243",
    "params": null,
    "system": {
      "nodename": "gibson",
      "machine": "x86_64",
      "platform": "Linux-4.4.0-112-generic-x86_64-with-debian-stretch-sid",
      "processor": "x86_64",
      "version": "#135-Ubuntu SMP Fri Jan 19 11:48:36 UTC 2018",
      "system": "Linux",
      "cpu_count": 8,
      "cpu_times": {
        "user": 80549.82,
        "system": 18017.78,
        "idle": 7630547.98,
        "nice": 732.25
      },
      "cpu_percent": 100.0,
      "virtual_memory": {
        "total": 33618501632,
        "available": 24952872960,
        "percent": 25.8,
        "used": 7588012032,
        "free": 9683439616
      }
    },
    "process": {
      "username": "evgeniya",
      "cwd": "/cw/dtailocal/mercs_python/src/core",
      "create_time": 1517842131.57,
      "cpu_times": {
        "user": 0.76,
        "system": 0.08
      }
    },
    "logfile": "/cw/dtailocal/mercs_python/out/320/enb/logs/mercspython_Log_F02",
    "command": "python /cw/dtailocal/mercs_python/bin/mercspython.py /cw/dtailocal/mercs_python/out/320/enb/settings/mercspython_Settings_F02.s"
  }
},
{
  "ts": "2018-02-05T14:48:59.049248",
  "type": "INFO",
  "values": {
    "cmd": "python /cw/dtailocal/mercs_python/bin/mercspython.py /cw/dtailocal/mercs_python/out/320/enb/settings/mercspython_Settings_F02.s",
    "cwd": null
  }
},
{
  "ts": "2018-02-05T14:48:59.068945",
  "type": "INFO",
  "values": "Start: Run process"
},
{
  "ts": "2018-02-05T14:48:59.091786",
  "type": "INFO",
  "values": "Write log to /cw/dtailocal/mercs_python/out/320/enb/logs/mercspython_Log_F02.running.log"
},
{
  "ts": "2018-02-05T14:49:02.096884",
  "type": "INFO",
  "values": "Process ended (returncode 0)"
},
{
  "ts": "2018-02-05T14:49:02.096959",
  "type": "INFO",
  "values": "Finished: Run process 3.028 seconds"
},
{
  "ts": "2018-02-05T14:49:02.097035",
  "type": "WARNING",
  "values": {
    "Exit": "finished",
    "Returncode": 0,
    "Time": 3.0280351638793945
  }
},
{
  "ts": "2018-02-05T14:49:02.097426",
  "type": "INFO",
  "values": "Closing /cw/dtailocal/mercs_python/out/320/enb/logs/mercspython_Log_F02.running.log"
}
]
