[
{
  "ts": "2018-02-05T14:49:21.517256",
  "type": "SETTINGS",
  "values": {
    "date": "2018/02/05 15:49:21",
    "date_iso": "2018-02-05T15:49:21.516344",
    "params": null,
    "system": {
      "nodename": "gibson",
      "machine": "x86_64",
      "platform": "Linux-4.4.0-112-generic-x86_64-with-debian-stretch-sid",
      "processor": "x86_64",
      "version": "#135-Ubuntu SMP Fri Jan 19 11:48:36 UTC 2018",
      "system": "Linux",
      "cpu_count": 8,
      "cpu_times": {
        "user": 80725.29,
        "system": 18021.07,
        "idle": 7630548.52,
        "nice": 732.25
      },
      "cpu_percent": 99.9,
      "virtual_memory": {
        "total": 33618501632,
        "available": 24388579328,
        "percent": 27.5,
        "used": 8161988608,
        "free": 9114316800
      }
    },
    "process": {
      "username": "evgeniya",
      "cwd": "/cw/dtailocal/mercs_python/src/core",
      "create_time": 1517842131.57,
      "cpu_times": {
        "user": 1.3,
        "system": 0.17
      }
    },
    "logfile": "/cw/dtailocal/mercs_python/out/320/enb/logs/mercspython_Log_F09",
    "command": "python /cw/dtailocal/mercs_python/bin/mercspython.py /cw/dtailocal/mercs_python/out/320/enb/settings/mercspython_Settings_F09.s"
  }
},
{
  "ts": "2018-02-05T14:49:21.517414",
  "type": "INFO",
  "values": {
    "cmd": "python /cw/dtailocal/mercs_python/bin/mercspython.py /cw/dtailocal/mercs_python/out/320/enb/settings/mercspython_Settings_F09.s",
    "cwd": null
  }
},
{
  "ts": "2018-02-05T14:49:21.541279",
  "type": "INFO",
  "values": "Start: Run process"
},
{
  "ts": "2018-02-05T14:49:21.571998",
  "type": "INFO",
  "values": "Write log to /cw/dtailocal/mercs_python/out/320/enb/logs/mercspython_Log_F09.running.log"
},
{
  "ts": "2018-02-05T14:49:24.776439",
  "type": "INFO",
  "values": "Process ended (returncode 0)"
},
{
  "ts": "2018-02-05T14:49:24.776529",
  "type": "INFO",
  "values": "Finished: Run process 3.235 seconds"
},
{
  "ts": "2018-02-05T14:49:24.776623",
  "type": "WARNING",
  "values": {
    "Exit": "finished",
    "Returncode": 0,
    "Time": 3.235269784927368
  }
},
{
  "ts": "2018-02-05T14:49:24.783823",
  "type": "INFO",
  "values": "Closing /cw/dtailocal/mercs_python/out/320/enb/logs/mercspython_Log_F09.running.log"
}
]
