[
{
  "ts": "2018-02-05T14:48:55.785305",
  "type": "SETTINGS",
  "values": {
    "date": "2018/02/05 15:48:55",
    "date_iso": "2018-02-05T15:48:55.784465",
    "params": null,
    "system": {
      "nodename": "gibson",
      "machine": "x86_64",
      "platform": "Linux-4.4.0-112-generic-x86_64-with-debian-stretch-sid",
      "processor": "x86_64",
      "version": "#135-Ubuntu SMP Fri Jan 19 11:48:36 UTC 2018",
      "system": "Linux",
      "cpu_count": 8,
      "cpu_times": {
        "user": 80524.31,
        "system": 18017.25,
        "idle": 7630547.98,
        "nice": 732.25
      },
      "cpu_percent": 98.5,
      "virtual_memory": {
        "total": 33618501632,
        "available": 25082560512,
        "percent": 25.4,
        "used": 7458312192,
        "free": 9813540864
      }
    },
    "process": {
      "username": "evgeniya",
      "cwd": "/cw/dtailocal/mercs_python/src/core",
      "create_time": 1517842131.57,
      "cpu_times": {
        "user": 0.62,
        "system": 0.07
      }
    },
    "logfile": "/cw/dtailocal/mercs_python/out/320/enb/logs/mercspython_Log_F01",
    "command": "python /cw/dtailocal/mercs_python/bin/mercspython.py /cw/dtailocal/mercs_python/out/320/enb/settings/mercspython_Settings_F01.s"
  }
},
{
  "ts": "2018-02-05T14:48:55.785455",
  "type": "INFO",
  "values": {
    "cmd": "python /cw/dtailocal/mercs_python/bin/mercspython.py /cw/dtailocal/mercs_python/out/320/enb/settings/mercspython_Settings_F01.s",
    "cwd": null
  }
},
{
  "ts": "2018-02-05T14:48:55.797876",
  "type": "INFO",
  "values": "Start: Run process"
},
{
  "ts": "2018-02-05T14:48:55.823822",
  "type": "INFO",
  "values": "Write log to /cw/dtailocal/mercs_python/out/320/enb/logs/mercspython_Log_F01.running.log"
},
{
  "ts": "2018-02-05T14:48:59.027711",
  "type": "INFO",
  "values": "Process ended (returncode 0)"
},
{
  "ts": "2018-02-05T14:48:59.027790",
  "type": "INFO",
  "values": "Finished: Run process 3.230 seconds"
},
{
  "ts": "2018-02-05T14:48:59.027872",
  "type": "WARNING",
  "values": {
    "Exit": "finished",
    "Returncode": 0,
    "Time": 3.2299423217773438
  }
}
]
