[
{
  "ts": "2018-02-05T16:06:20.797161",
  "type": "SETTINGS",
  "values": {
    "date": "2018/02/05 17:06:20",
    "date_iso": "2018-02-05T17:06:20.796310",
    "params": null,
    "system": {
      "nodename": "gibson",
      "machine": "x86_64",
      "platform": "Linux-4.4.0-112-generic-x86_64-with-debian-stretch-sid",
      "processor": "x86_64",
      "version": "#135-Ubuntu SMP Fri Jan 19 11:48:36 UTC 2018",
      "system": "Linux",
      "cpu_count": 8,
      "cpu_times": {
        "user": 110575.55,
        "system": 18361.25,
        "idle": 7637229.44,
        "nice": 749.46
      },
      "cpu_percent": 100.0,
      "virtual_memory": {
        "total": 33618501632,
        "available": 23766650880,
        "percent": 29.3,
        "used": 8919318528,
        "free": 7331975168
      }
    },
    "process": {
      "username": "evgeniya",
      "cwd": "/cw/dtailocal/mercs_python/src/core",
      "create_time": 1517846205.91,
      "cpu_times": {
        "user": 1.49,
        "system": 0.22
      }
    },
    "logfile": "/cw/dtailocal/mercs_python/out/256/rf1/logs/mercspython_Log_F09",
    "command": "python /cw/dtailocal/mercs_python/bin/mercspython.py /cw/dtailocal/mercs_python/out/256/rf1/settings/mercspython_Settings_F09.s"
  }
},
{
  "ts": "2018-02-05T16:06:20.797311",
  "type": "INFO",
  "values": {
    "cmd": "python /cw/dtailocal/mercs_python/bin/mercspython.py /cw/dtailocal/mercs_python/out/256/rf1/settings/mercspython_Settings_F09.s",
    "cwd": null
  }
},
{
  "ts": "2018-02-05T16:06:20.821918",
  "type": "INFO",
  "values": "Start: Run process"
},
{
  "ts": "2018-02-05T16:06:20.875791",
  "type": "INFO",
  "values": "Write log to /cw/dtailocal/mercs_python/out/256/rf1/logs/mercspython_Log_F09.running.log"
},
{
  "ts": "2018-02-05T16:07:26.153915",
  "type": "INFO",
  "values": "Process ended (returncode 0)"
},
{
  "ts": "2018-02-05T16:07:26.154016",
  "type": "INFO",
  "values": "Finished: Run process 65.332 seconds"
},
{
  "ts": "2018-02-05T16:07:26.154094",
  "type": "WARNING",
  "values": {
    "Exit": "finished",
    "Returncode": 0,
    "Time": 65.33212423324585
  }
},
{
  "ts": "2018-02-05T16:07:26.159912",
  "type": "INFO",
  "values": "Closing /cw/dtailocal/mercs_python/out/256/rf1/logs/mercspython_Log_F09.running.log"
}
]
