[
{
  "ts": "2018-02-05T16:05:17.274254",
  "type": "SETTINGS",
  "values": {
    "date": "2018/02/05 17:05:17",
    "date_iso": "2018-02-05T17:05:17.273457",
    "params": null,
    "system": {
      "nodename": "gibson",
      "machine": "x86_64",
      "platform": "Linux-4.4.0-112-generic-x86_64-with-debian-stretch-sid",
      "processor": "x86_64",
      "version": "#135-Ubuntu SMP Fri Jan 19 11:48:36 UTC 2018",
      "system": "Linux",
      "cpu_count": 8,
      "cpu_times": {
        "user": 110075.32,
        "system": 18353.47,
        "idle": 7637229.35,
        "nice": 749.46
      },
      "cpu_percent": 100.0,
      "virtual_memory": {
        "total": 33618501632,
        "available": 22983151616,
        "percent": 31.6,
        "used": 9663524864,
        "free": 6555516928
      }
    },
    "process": {
      "username": "evgeniya",
      "cwd": "/cw/dtailocal/mercs_python/src/core",
      "create_time": 1517846205.91,
      "cpu_times": {
        "user": 1.35,
        "system": 0.2
      }
    },
    "logfile": "/cw/dtailocal/mercs_python/out/256/rf1/logs/mercspython_Log_F08",
    "command": "python /cw/dtailocal/mercs_python/bin/mercspython.py /cw/dtailocal/mercs_python/out/256/rf1/settings/mercspython_Settings_F08.s"
  }
},
{
  "ts": "2018-02-05T16:05:17.274401",
  "type": "INFO",
  "values": {
    "cmd": "python /cw/dtailocal/mercs_python/bin/mercspython.py /cw/dtailocal/mercs_python/out/256/rf1/settings/mercspython_Settings_F08.s",
    "cwd": null
  }
},
{
  "ts": "2018-02-05T16:05:17.293536",
  "type": "INFO",
  "values": "Start: Run process"
},
{
  "ts": "2018-02-05T16:05:17.300089",
  "type": "INFO",
  "values": "Write log to /cw/dtailocal/mercs_python/out/256/rf1/logs/mercspython_Log_F08.running.log"
},
{
  "ts": "2018-02-05T16:06:20.787694",
  "type": "INFO",
  "values": "Process ended (returncode 0)"
},
{
  "ts": "2018-02-05T16:06:20.787785",
  "type": "INFO",
  "values": "Finished: Run process 63.494 seconds"
},
{
  "ts": "2018-02-05T16:06:20.787872",
  "type": "WARNING",
  "values": {
    "Exit": "finished",
    "Returncode": 0,
    "Time": 63.49428391456604
  }
},
{
  "ts": "2018-02-05T16:06:20.795805",
  "type": "INFO",
  "values": "Closing /cw/dtailocal/mercs_python/out/256/rf1/logs/mercspython_Log_F08.running.log"
}
]
