[
{
  "ts": "2018-02-05T16:03:11.381017",
  "type": "SETTINGS",
  "values": {
    "date": "2018/02/05 17:03:11",
    "date_iso": "2018-02-05T17:03:11.380193",
    "params": null,
    "system": {
      "nodename": "gibson",
      "machine": "x86_64",
      "platform": "Linux-4.4.0-112-generic-x86_64-with-debian-stretch-sid",
      "processor": "x86_64",
      "version": "#135-Ubuntu SMP Fri Jan 19 11:48:36 UTC 2018",
      "system": "Linux",
      "cpu_count": 8,
      "cpu_times": {
        "user": 109084.18,
        "system": 18337.68,
        "idle": 7637229.34,
        "nice": 749.46
      },
      "cpu_percent": 100.0,
      "virtual_memory": {
        "total": 33618501632,
        "available": 24364519424,
        "percent": 27.5,
        "used": 8282185728,
        "free": 7953932288
      }
    },
    "process": {
      "username": "evgeniya",
      "cwd": "/cw/dtailocal/mercs_python/src/core",
      "create_time": 1517846205.91,
      "cpu_times": {
        "user": 1.25,
        "system": 0.18
      }
    },
    "logfile": "/cw/dtailocal/mercs_python/out/256/rf1/logs/mercspython_Log_F06",
    "command": "python /cw/dtailocal/mercs_python/bin/mercspython.py /cw/dtailocal/mercs_python/out/256/rf1/settings/mercspython_Settings_F06.s"
  }
},
{
  "ts": "2018-02-05T16:03:11.381169",
  "type": "INFO",
  "values": {
    "cmd": "python /cw/dtailocal/mercs_python/bin/mercspython.py /cw/dtailocal/mercs_python/out/256/rf1/settings/mercspython_Settings_F06.s",
    "cwd": null
  }
},
{
  "ts": "2018-02-05T16:03:11.385797",
  "type": "INFO",
  "values": "Start: Run process"
},
{
  "ts": "2018-02-05T16:03:11.427933",
  "type": "INFO",
  "values": "Write log to /cw/dtailocal/mercs_python/out/256/rf1/logs/mercspython_Log_F06.running.log"
},
{
  "ts": "2018-02-05T16:04:14.703111",
  "type": "INFO",
  "values": "Process ended (returncode 0)"
},
{
  "ts": "2018-02-05T16:04:14.703195",
  "type": "INFO",
  "values": "Finished: Run process 63.317 seconds"
},
{
  "ts": "2018-02-05T16:04:14.703291",
  "type": "WARNING",
  "values": {
    "Exit": "finished",
    "Returncode": 0,
    "Time": 63.31742024421692
  }
}
]
