[
{
  "ts": "2018-02-05T17:19:01.533305",
  "type": "SETTINGS",
  "values": {
    "date": "2018/02/05 18:19:01",
    "date_iso": "2018-02-05T18:19:01.532440",
    "params": null,
    "system": {
      "nodename": "gibson",
      "machine": "x86_64",
      "platform": "Linux-4.4.0-112-generic-x86_64-with-debian-stretch-sid",
      "processor": "x86_64",
      "version": "#135-Ubuntu SMP Fri Jan 19 11:48:36 UTC 2018",
      "system": "Linux",
      "cpu_count": 8,
      "cpu_times": {
        "user": 145082.73,
        "system": 18708.92,
        "idle": 7637235.42,
        "nice": 751.59
      },
      "cpu_percent": 99.9,
      "virtual_memory": {
        "total": 33618501632,
        "available": 24737918976,
        "percent": 26.4,
        "used": 7887859712,
        "free": 7457837056
      }
    },
    "process": {
      "username": "evgeniya",
      "cwd": "/cw/dtailocal/mercs_python/src/core",
      "create_time": 1517850988.72,
      "cpu_times": {
        "user": 1.1,
        "system": 0.21
      }
    },
    "logfile": "/cw/dtailocal/mercs_python/out/348/rf1/logs/mercspython_Log_F05",
    "command": "python /cw/dtailocal/mercs_python/bin/mercspython.py /cw/dtailocal/mercs_python/out/348/rf1/settings/mercspython_Settings_F05.s"
  }
},
{
  "ts": "2018-02-05T17:19:01.533458",
  "type": "INFO",
  "values": {
    "cmd": "python /cw/dtailocal/mercs_python/bin/mercspython.py /cw/dtailocal/mercs_python/out/348/rf1/settings/mercspython_Settings_F05.s",
    "cwd": null
  }
},
{
  "ts": "2018-02-05T17:19:01.550604",
  "type": "INFO",
  "values": "Start: Run process"
},
{
  "ts": "2018-02-05T17:19:01.575810",
  "type": "INFO",
  "values": "Write log to /cw/dtailocal/mercs_python/out/348/rf1/logs/mercspython_Log_F05.running.log"
},
{
  "ts": "2018-02-05T17:19:30.811177",
  "type": "INFO",
  "values": "Process ended (returncode 0)"
},
{
  "ts": "2018-02-05T17:19:30.811255",
  "type": "INFO",
  "values": "Finished: Run process 29.261 seconds"
},
{
  "ts": "2018-02-05T17:19:30.811335",
  "type": "WARNING",
  "values": {
    "Exit": "finished",
    "Returncode": 0,
    "Time": 29.260680437088013
  }
},
{
  "ts": "2018-02-05T17:19:30.823804",
  "type": "INFO",
  "values": "Closing /cw/dtailocal/mercs_python/out/348/rf1/logs/mercspython_Log_F05.running.log"
}
]
