[
{
  "ts": "2018-02-05T17:17:01.309285",
  "type": "SETTINGS",
  "values": {
    "date": "2018/02/05 18:17:01",
    "date_iso": "2018-02-05T18:17:01.308418",
    "params": null,
    "system": {
      "nodename": "gibson",
      "machine": "x86_64",
      "platform": "Linux-4.4.0-112-generic-x86_64-with-debian-stretch-sid",
      "processor": "x86_64",
      "version": "#135-Ubuntu SMP Fri Jan 19 11:48:36 UTC 2018",
      "system": "Linux",
      "cpu_count": 8,
      "cpu_times": {
        "user": 144134.94,
        "system": 18695.68,
        "idle": 7637235.06,
        "nice": 751.59
      },
      "cpu_percent": 100.0,
      "virtual_memory": {
        "total": 33618501632,
        "available": 25943461888,
        "percent": 22.8,
        "used": 6684475392,
        "free": 8670384128
      }
    },
    "process": {
      "username": "evgeniya",
      "cwd": "/cw/dtailocal/mercs_python/src/core",
      "create_time": 1517850988.72,
      "cpu_times": {
        "user": 0.83,
        "system": 0.17
      }
    },
    "logfile": "/cw/dtailocal/mercs_python/out/348/rf1/logs/mercspython_Log_F01",
    "command": "python /cw/dtailocal/mercs_python/bin/mercspython.py /cw/dtailocal/mercs_python/out/348/rf1/settings/mercspython_Settings_F01.s"
  }
},
{
  "ts": "2018-02-05T17:17:01.309442",
  "type": "INFO",
  "values": {
    "cmd": "python /cw/dtailocal/mercs_python/bin/mercspython.py /cw/dtailocal/mercs_python/out/348/rf1/settings/mercspython_Settings_F01.s",
    "cwd": null
  }
},
{
  "ts": "2018-02-05T17:17:01.329867",
  "type": "INFO",
  "values": "Start: Run process"
},
{
  "ts": "2018-02-05T17:17:01.371912",
  "type": "INFO",
  "values": "Write log to /cw/dtailocal/mercs_python/out/348/rf1/logs/mercspython_Log_F01.running.log"
},
{
  "ts": "2018-02-05T17:17:34.413388",
  "type": "INFO",
  "values": "Process ended (returncode 0)"
},
{
  "ts": "2018-02-05T17:17:34.413475",
  "type": "INFO",
  "values": "Finished: Run process 33.084 seconds"
},
{
  "ts": "2018-02-05T17:17:34.413559",
  "type": "WARNING",
  "values": {
    "Exit": "finished",
    "Returncode": 0,
    "Time": 33.083630323410034
  }
},
{
  "ts": "2018-02-05T17:17:34.423892",
  "type": "INFO",
  "values": "Closing /cw/dtailocal/mercs_python/out/348/rf1/logs/mercspython_Log_F01.running.log"
}
]
