[
{
  "ts": "2018-02-07T13:04:30.013407",
  "type": "SETTINGS",
  "values": {
    "date": "2018/02/07 14:04:30",
    "date_iso": "2018-02-07T14:04:30.010960",
    "params": null,
    "system": {
      "nodename": "gibson",
      "machine": "x86_64",
      "platform": "Linux-4.4.0-112-generic-x86_64-with-debian-stretch-sid",
      "processor": "x86_64",
      "version": "#135-Ubuntu SMP Fri Jan 19 11:48:36 UTC 2018",
      "system": "Linux",
      "cpu_count": 8,
      "cpu_times": {
        "user": 400201.23,
        "system": 23544.4,
        "idle": 8633958.49,
        "nice": 906.12
      },
      "cpu_percent": 99.6,
      "virtual_memory": {
        "total": 33618501632,
        "available": 25582198784,
        "percent": 23.9,
        "used": 7092027392,
        "free": 11279892480
      }
    },
    "process": {
      "username": "evgeniya",
      "cwd": "/cw/dtailocal/mercs_python/src/core",
      "create_time": 1518008668.32,
      "cpu_times": {
        "user": 0.58,
        "system": 0.04
      }
    },
    "logfile": "/cw/dtailocal/mercs_python/out/814/andro/logs/mercspython_Log_F00",
    "command": "python /cw/dtailocal/mercs_python/bin/mercspython.py /cw/dtailocal/mercs_python/out/814/andro/settings/mercspython_Settings_F00.s"
  }
},
{
  "ts": "2018-02-07T13:04:30.013647",
  "type": "INFO",
  "values": {
    "cmd": "python /cw/dtailocal/mercs_python/bin/mercspython.py /cw/dtailocal/mercs_python/out/814/andro/settings/mercspython_Settings_F00.s",
    "cwd": null
  }
},
{
  "ts": "2018-02-07T13:04:30.017529",
  "type": "INFO",
  "values": "Start: Run process"
},
{
  "ts": "2018-02-07T13:04:30.032934",
  "type": "INFO",
  "values": "Write log to /cw/dtailocal/mercs_python/out/814/andro/logs/mercspython_Log_F00.running.log"
},
{
  "ts": "2018-02-07T13:04:33.637985",
  "type": "INFO",
  "values": "Process ended (returncode 0)"
},
{
  "ts": "2018-02-07T13:04:33.638067",
  "type": "INFO",
  "values": "Finished: Run process 3.621 seconds"
},
{
  "ts": "2018-02-07T13:04:33.638149",
  "type": "WARNING",
  "values": {
    "Exit": "finished",
    "Returncode": 0,
    "Time": 3.6205790042877197
  }
}
]
