[
{
  "ts": "2018-02-07T13:04:52.633303",
  "type": "SETTINGS",
  "values": {
    "date": "2018/02/07 14:04:52",
    "date_iso": "2018-02-07T14:04:52.632345",
    "params": null,
    "system": {
      "nodename": "gibson",
      "machine": "x86_64",
      "platform": "Linux-4.4.0-112-generic-x86_64-with-debian-stretch-sid",
      "processor": "x86_64",
      "version": "#135-Ubuntu SMP Fri Jan 19 11:48:36 UTC 2018",
      "system": "Linux",
      "cpu_count": 8,
      "cpu_times": {
        "user": 400376.51,
        "system": 23548.47,
        "idle": 8633959.47,
        "nice": 906.12
      },
      "cpu_percent": 99.7,
      "virtual_memory": {
        "total": 33618501632,
        "available": 25173766144,
        "percent": 25.1,
        "used": 7501217792,
        "free": 10867687424
      }
    },
    "process": {
      "username": "evgeniya",
      "cwd": "/cw/dtailocal/mercs_python/src/core",
      "create_time": 1518008668.32,
      "cpu_times": {
        "user": 1.04,
        "system": 0.12
      }
    },
    "logfile": "/cw/dtailocal/mercs_python/out/814/andro/logs/mercspython_Log_F06",
    "command": "python /cw/dtailocal/mercs_python/bin/mercspython.py /cw/dtailocal/mercs_python/out/814/andro/settings/mercspython_Settings_F06.s"
  }
},
{
  "ts": "2018-02-07T13:04:52.633454",
  "type": "INFO",
  "values": {
    "cmd": "python /cw/dtailocal/mercs_python/bin/mercspython.py /cw/dtailocal/mercs_python/out/814/andro/settings/mercspython_Settings_F06.s",
    "cwd": null
  }
},
{
  "ts": "2018-02-07T13:04:52.645499",
  "type": "INFO",
  "values": "Start: Run process"
},
{
  "ts": "2018-02-07T13:04:52.701225",
  "type": "INFO",
  "values": "Write log to /cw/dtailocal/mercs_python/out/814/andro/logs/mercspython_Log_F06.running.log"
},
{
  "ts": "2018-02-07T13:04:56.108159",
  "type": "INFO",
  "values": "Process ended (returncode 0)"
},
{
  "ts": "2018-02-07T13:04:56.108238",
  "type": "INFO",
  "values": "Finished: Run process 3.463 seconds"
},
{
  "ts": "2018-02-07T13:04:56.108329",
  "type": "WARNING",
  "values": {
    "Exit": "finished",
    "Returncode": 0,
    "Time": 3.4627580642700195
  }
},
{
  "ts": "2018-02-07T13:04:56.115809",
  "type": "INFO",
  "values": "Closing /cw/dtailocal/mercs_python/out/814/andro/logs/mercspython_Log_F06.running.log"
}
]
