[
{
  "ts": "2018-02-07T13:04:44.665245",
  "type": "SETTINGS",
  "values": {
    "date": "2018/02/07 14:04:44",
    "date_iso": "2018-02-07T14:04:44.664300",
    "params": null,
    "system": {
      "nodename": "gibson",
      "machine": "x86_64",
      "platform": "Linux-4.4.0-112-generic-x86_64-with-debian-stretch-sid",
      "processor": "x86_64",
      "version": "#135-Ubuntu SMP Fri Jan 19 11:48:36 UTC 2018",
      "system": "Linux",
      "cpu_count": 8,
      "cpu_times": {
        "user": 400314.74,
        "system": 23547.07,
        "idle": 8633959.11,
        "nice": 906.12
      },
      "cpu_percent": 99.6,
      "virtual_memory": {
        "total": 33618501632,
        "available": 25257398272,
        "percent": 24.9,
        "used": 7417528320,
        "free": 10952654848
      }
    },
    "process": {
      "username": "evgeniya",
      "cwd": "/cw/dtailocal/mercs_python/src/core",
      "create_time": 1518008668.32,
      "cpu_times": {
        "user": 0.86,
        "system": 0.1
      }
    },
    "logfile": "/cw/dtailocal/mercs_python/out/814/andro/logs/mercspython_Log_F04",
    "command": "python /cw/dtailocal/mercs_python/bin/mercspython.py /cw/dtailocal/mercs_python/out/814/andro/settings/mercspython_Settings_F04.s"
  }
},
{
  "ts": "2018-02-07T13:04:44.665393",
  "type": "INFO",
  "values": {
    "cmd": "python /cw/dtailocal/mercs_python/bin/mercspython.py /cw/dtailocal/mercs_python/out/814/andro/settings/mercspython_Settings_F04.s",
    "cwd": null
  }
},
{
  "ts": "2018-02-07T13:04:44.681336",
  "type": "INFO",
  "values": "Start: Run process"
},
{
  "ts": "2018-02-07T13:04:44.719778",
  "type": "INFO",
  "values": "Write log to /cw/dtailocal/mercs_python/out/814/andro/logs/mercspython_Log_F04.running.log"
},
{
  "ts": "2018-02-07T13:04:48.525363",
  "type": "INFO",
  "values": "Process ended (returncode 0)"
},
{
  "ts": "2018-02-07T13:04:48.525443",
  "type": "INFO",
  "values": "Finished: Run process 3.844 seconds"
},
{
  "ts": "2018-02-07T13:04:48.525521",
  "type": "WARNING",
  "values": {
    "Exit": "finished",
    "Returncode": 0,
    "Time": 3.844130277633667
  }
},
{
  "ts": "2018-02-07T13:04:48.535965",
  "type": "INFO",
  "values": "Closing /cw/dtailocal/mercs_python/out/814/andro/logs/mercspython_Log_F04.running.log"
}
]
