[
{
  "ts": "2018-02-06T09:59:20.602786",
  "type": "SETTINGS",
  "values": {
    "date": "2018/02/06 10:59:20",
    "date_iso": "2018-02-06T10:59:20.601889",
    "params": null,
    "system": {
      "nodename": "gibson",
      "machine": "x86_64",
      "platform": "Linux-4.4.0-112-generic-x86_64-with-debian-stretch-sid",
      "processor": "x86_64",
      "version": "#135-Ubuntu SMP Fri Jan 19 11:48:36 UTC 2018",
      "system": "Linux",
      "cpu_count": 8,
      "cpu_times": {
        "user": 314317.12,
        "system": 20411.15,
        "idle": 7945358.8,
        "nice": 819.07
      },
      "cpu_percent": 76.4,
      "virtual_memory": {
        "total": 33618501632,
        "available": 25338519552,
        "percent": 24.6,
        "used": 7333339136,
        "free": 14241120256
      }
    },
    "process": {
      "username": "evgeniya",
      "cwd": "/cw/dtailocal/mercs_python/src/core",
      "create_time": 1517910907.54,
      "cpu_times": {
        "user": 1.0,
        "system": 0.17
      }
    },
    "logfile": "/cw/dtailocal/mercs_python/out/515/rf1/logs/mercspython_Log_F03",
    "command": "python /cw/dtailocal/mercs_python/bin/mercspython.py /cw/dtailocal/mercs_python/out/515/rf1/settings/mercspython_Settings_F03.s"
  }
},
{
  "ts": "2018-02-06T09:59:20.602953",
  "type": "INFO",
  "values": {
    "cmd": "python /cw/dtailocal/mercs_python/bin/mercspython.py /cw/dtailocal/mercs_python/out/515/rf1/settings/mercspython_Settings_F03.s",
    "cwd": null
  }
},
{
  "ts": "2018-02-06T09:59:20.606573",
  "type": "INFO",
  "values": "Start: Run process"
},
{
  "ts": "2018-02-06T09:59:20.607147",
  "type": "INFO",
  "values": "Write log to /cw/dtailocal/mercs_python/out/515/rf1/logs/mercspython_Log_F03.running.log"
},
{
  "ts": "2018-02-06T10:00:43.717677",
  "type": "INFO",
  "values": "Process ended (returncode 0)"
},
{
  "ts": "2018-02-06T10:00:43.717755",
  "type": "INFO",
  "values": "Finished: Run process 83.111 seconds"
},
{
  "ts": "2018-02-06T10:00:43.717836",
  "type": "WARNING",
  "values": {
    "Exit": "finished",
    "Returncode": 0,
    "Time": 83.11120963096619
  }
},
{
  "ts": "2018-02-06T10:00:43.718123",
  "type": "INFO",
  "values": "Closing /cw/dtailocal/mercs_python/out/515/rf1/logs/mercspython_Log_F03.running.log"
}
]
