[
{
  "ts": "2018-02-05T16:17:33.377105",
  "type": "SETTINGS",
  "values": {
    "date": "2018/02/05 17:17:33",
    "date_iso": "2018-02-05T17:17:33.376241",
    "params": null,
    "system": {
      "nodename": "gibson",
      "machine": "x86_64",
      "platform": "Linux-4.4.0-112-generic-x86_64-with-debian-stretch-sid",
      "processor": "x86_64",
      "version": "#135-Ubuntu SMP Fri Jan 19 11:48:36 UTC 2018",
      "system": "Linux",
      "cpu_count": 8,
      "cpu_times": {
        "user": 115874.02,
        "system": 18438.2,
        "idle": 7637231.04,
        "nice": 749.46
      },
      "cpu_percent": 100.0,
      "virtual_memory": {
        "total": 33618501632,
        "available": 23701487616,
        "percent": 29.5,
        "used": 9013256192,
        "free": 7149453312
      }
    },
    "process": {
      "username": "evgeniya",
      "cwd": "/cw/dtailocal/mercs_python/src/core",
      "create_time": 1517847431.64,
      "cpu_times": {
        "user": 0.89,
        "system": 0.14
      }
    },
    "logfile": "/cw/dtailocal/mercs_python/out/283/jura/logs/mercspython_Log_F04",
    "command": "python /cw/dtailocal/mercs_python/bin/mercspython.py /cw/dtailocal/mercs_python/out/283/jura/settings/mercspython_Settings_F04.s"
  }
},
{
  "ts": "2018-02-05T16:17:33.377260",
  "type": "INFO",
  "values": {
    "cmd": "python /cw/dtailocal/mercs_python/bin/mercspython.py /cw/dtailocal/mercs_python/out/283/jura/settings/mercspython_Settings_F04.s",
    "cwd": null
  }
},
{
  "ts": "2018-02-05T16:17:33.399801",
  "type": "INFO",
  "values": "Start: Run process"
},
{
  "ts": "2018-02-05T16:17:33.435786",
  "type": "INFO",
  "values": "Write log to /cw/dtailocal/mercs_python/out/283/jura/logs/mercspython_Log_F04.running.log"
},
{
  "ts": "2018-02-05T16:17:38.248905",
  "type": "INFO",
  "values": "Process ended (returncode 0)"
},
{
  "ts": "2018-02-05T16:17:38.248983",
  "type": "INFO",
  "values": "Finished: Run process 4.849 seconds"
},
{
  "ts": "2018-02-05T16:17:38.249070",
  "type": "WARNING",
  "values": {
    "Exit": "finished",
    "Returncode": 0,
    "Time": 4.849207401275635
  }
}
]
