[SETTINGS] {
  "date": "2018/02/05 17:13:26",
  "date_iso": "2018-02-05T17:13:26.356315",
  "params": null,
  "system": {
    "nodename": "gibson",
    "machine": "x86_64",
    "platform": "Linux-4.4.0-112-generic-x86_64-with-debian-stretch-sid",
    "processor": "x86_64",
    "version": "#135-Ubuntu SMP Fri Jan 19 11:48:36 UTC 2018",
    "system": "Linux",
    "cpu_count": 8,
    "cpu_times": {
      "user": 113921.68,
      "system": 18416.41,
      "idle": 7637230.4,
      "nice": 749.46
    },
    "cpu_percent": 100.0,
    "virtual_memory": {
      "total": 33618501632,
      "available": 22991155200,
      "percent": 31.6,
      "used": 9732423680,
      "free": 6483656704
    }
  },
  "process": {
    "username": "evgeniya",
    "cwd": "/cw/dtailocal/mercs_python/src/core",
    "create_time": 1517847175.93,
    "cpu_times": {
      "user": 1.01,
      "system": 0.16
    }
  },
  "logfile": "/cw/dtailocal/mercs_python/out/272/enb/logs/mercspython_Log_F06",
  "command": "python /cw/dtailocal/mercs_python/bin/mercspython.py /cw/dtailocal/mercs_python/out/272/enb/settings/mercspython_Settings_F06.s"
}
[INFO] cmd:python /cw/dtailocal/mercs_python/bin/mercspython.py /cw/dtailocal/mercs_python/out/272/enb/settings/mercspython_Settings_F06.s; cwd:None
[INFO] Start: Run process
[INFO] Write log to /cw/dtailocal/mercs_python/out/272/enb/logs/mercspython_Log_F06.running.log
[STDERR] /cw/dtailocal/mercs_python/bin/mercspython.py:479: DataConversionWarning: A column-vector y was passed when a 1d array was expected. Please change the shape of y to (n_samples,), for example using ravel().
[STDERR]   rf.fit(X, y)
[STDERR] /cw/dtailocal/mercs_python/bin/mercspython.py:479: DataConversionWarning: A column-vector y was passed when a 1d array was expected. Please change the shape of y to (n_samples,), for example using ravel().
[STDERR]   rf.fit(X, y)
[STDERR] /cw/dtailocal/mercs_python/bin/mercspython.py:479: DataConversionWarning: A column-vector y was passed when a 1d array was expected. Please change the shape of y to (n_samples,), for example using ravel().
[STDERR]   rf.fit(X, y)
[STDERR] /cw/dtailocal/mercs_python/bin/mercspython.py:479: DataConversionWarning: A column-vector y was passed when a 1d array was expected. Please change the shape of y to (n_samples,), for example using ravel().
[STDERR]   rf.fit(X, y)
[STDERR] /cw/dtailocal/mercs_python/bin/mercspython.py:479: DataConversionWarning: A column-vector y was passed when a 1d array was expected. Please change the shape of y to (n_samples,), for example using ravel().
[STDERR]   rf.fit(X, y)
[STDERR] /cw/dtailocal/mercs_python/bin/mercspython.py:479: DataConversionWarning: A column-vector y was passed when a 1d array was expected. Please change the shape of y to (n_samples,), for example using ravel().
[STDERR]   rf.fit(X, y)
[STDERR] /cw/dtailocal/mercs_python/bin/mercspython.py:479: DataConversionWarning: A column-vector y was passed when a 1d array was expected. Please change the shape of y to (n_samples,), for example using ravel().
[STDERR]   rf.fit(X, y)
[STDERR] /cw/dtailocal/mercs_python/bin/mercspython.py:479: DataConversionWarning: A column-vector y was passed when a 1d array was expected. Please change the shape of y to (n_samples,), for example using ravel().
[STDERR]   rf.fit(X, y)
[STDERR] /cw/dtailocal/mercs_python/bin/mercspython.py:479: DataConversionWarning: A column-vector y was passed when a 1d array was expected. Please change the shape of y to (n_samples,), for example using ravel().
[STDERR]   rf.fit(X, y)
[STDERR] /cw/dtailocal/mercs_python/bin/mercspython.py:479: DataConversionWarning: A column-vector y was passed when a 1d array was expected. Please change the shape of y to (n_samples,), for example using ravel().
[STDERR]   rf.fit(X, y)
[STDERR] /cw/dtailocal/mercs_python/bin/mercspython.py:123: DataConversionWarning: A column-vector y was passed when a 1d array was expected. Please change the shape of y to (n_samples,), for example using ravel().
[STDERR]   models[i].fit(X, Y)
[STDERR] /cw/dtailocal/mercs_python/bin/mercspython.py:123: DataConversionWarning: A column-vector y was passed when a 1d array was expected. Please change the shape of y to (n_samples,), for example using ravel().
[STDERR]   models[i].fit(X, Y)
[STDERR] /cw/dtailocal/mercs_python/bin/mercspython.py:123: DataConversionWarning: A column-vector y was passed when a 1d array was expected. Please change the shape of y to (n_samples,), for example using ravel().
[STDERR]   models[i].fit(X, Y)
[STDERR] /cw/dtailocal/mercs_python/bin/mercspython.py:123: DataConversionWarning: A column-vector y was passed when a 1d array was expected. Please change the shape of y to (n_samples,), for example using ravel().
[STDERR]   models[i].fit(X, Y)
[STDERR] /cw/dtailocal/mercs_python/bin/mercspython.py:123: DataConversionWarning: A column-vector y was passed when a 1d array was expected. Please change the shape of y to (n_samples,), for example using ravel().
[STDERR]   models[i].fit(X, Y)
[STDERR] /cw/dtailocal/mercs_python/bin/mercspython.py:123: DataConversionWarning: A column-vector y was passed when a 1d array was expected. Please change the shape of y to (n_samples,), for example using ravel().
[STDERR]   models[i].fit(X, Y)
[STDERR] /cw/dtailocal/mercs_python/bin/mercspython.py:123: DataConversionWarning: A column-vector y was passed when a 1d array was expected. Please change the shape of y to (n_samples,), for example using ravel().
[STDERR]   models[i].fit(X, Y)
[[0, 0, 0, 0, 1, 0, 0, 0, 0, 0], [0, 0, 0, 0, 0, 1, 1, 1, 0, 0], [0, 0, 0, 1, 0, 0, 0, 0, 0, 0], [0, 0, 0, 0, 0, 0, 0, 0, 0, 1], [0, 0, 1, 0, 0, 0, 0, 0, 0, 0], [0, 0, 0, 0, 0, 0, 0, 0, 1, 0], [1, 0, 0, 0, 0, 0, 0, 0, 0, 0], [0, 1, 0, 0, 0, 0, 0, 0, 0, 0]]
====================================================
Total induction time of the MDEModel was: 1388 ms
====================================================
====================================================
Total inference time of the MDEModel was: 104 ms
====================================================
====================================================
This was for: 10 queries.
====================================================
[INFO] Process ended (returncode 0)
[INFO] Finished: Run process 4.448 seconds
[WARNING] Exit:finished; Returncode:0; Time:4.44811
