[
{
  "ts": "2018-02-05T15:44:24.699200",
  "type": "SETTINGS",
  "values": {
    "date": "2018/02/05 16:44:24",
    "date_iso": "2018-02-05T16:44:24.698349",
    "params": null,
    "system": {
      "nodename": "gibson",
      "machine": "x86_64",
      "platform": "Linux-4.4.0-112-generic-x86_64-with-debian-stretch-sid",
      "processor": "x86_64",
      "version": "#135-Ubuntu SMP Fri Jan 19 11:48:36 UTC 2018",
      "system": "Linux",
      "cpu_count": 8,
      "cpu_times": {
        "user": 100176.62,
        "system": 18239.13,
        "idle": 7637226.34,
        "nice": 749.46
      },
      "cpu_percent": 98.8,
      "virtual_memory": {
        "total": 33618501632,
        "available": 26345598976,
        "percent": 21.6,
        "used": 6256959488,
        "free": 10158731264
      }
    },
    "process": {
      "username": "evgeniya",
      "cwd": "/cw/dtailocal/mercs_python/src/core",
      "create_time": 1517845436.94,
      "cpu_times": {
        "user": 1.29,
        "system": 0.23
      }
    },
    "logfile": "/cw/dtailocal/mercs_python/out/242/enb/logs/mercspython_Log_F08",
    "command": "python /cw/dtailocal/mercs_python/bin/mercspython.py /cw/dtailocal/mercs_python/out/242/enb/settings/mercspython_Settings_F08.s"
  }
},
{
  "ts": "2018-02-05T15:44:24.699353",
  "type": "INFO",
  "values": {
    "cmd": "python /cw/dtailocal/mercs_python/bin/mercspython.py /cw/dtailocal/mercs_python/out/242/enb/settings/mercspython_Settings_F08.s",
    "cwd": null
  }
},
{
  "ts": "2018-02-05T15:44:24.713679",
  "type": "INFO",
  "values": "Start: Run process"
},
{
  "ts": "2018-02-05T15:44:24.743777",
  "type": "INFO",
  "values": "Write log to /cw/dtailocal/mercs_python/out/242/enb/logs/mercspython_Log_F08.running.log"
},
{
  "ts": "2018-02-05T15:44:28.351067",
  "type": "INFO",
  "values": "Process ended (returncode 0)"
},
{
  "ts": "2018-02-05T15:44:28.351158",
  "type": "INFO",
  "values": "Finished: Run process 3.637 seconds"
},
{
  "ts": "2018-02-05T15:44:28.351244",
  "type": "WARNING",
  "values": {
    "Exit": "finished",
    "Returncode": 0,
    "Time": 3.6374969482421875
  }
},
{
  "ts": "2018-02-05T15:44:28.359899",
  "type": "INFO",
  "values": "Closing /cw/dtailocal/mercs_python/out/242/enb/logs/mercspython_Log_F08.running.log"
}
]
