[
{
  "ts": "2018-02-05T15:44:21.241171",
  "type": "SETTINGS",
  "values": {
    "date": "2018/02/05 16:44:21",
    "date_iso": "2018-02-05T16:44:21.240273",
    "params": null,
    "system": {
      "nodename": "gibson",
      "machine": "x86_64",
      "platform": "Linux-4.4.0-112-generic-x86_64-with-debian-stretch-sid",
      "processor": "x86_64",
      "version": "#135-Ubuntu SMP Fri Jan 19 11:48:36 UTC 2018",
      "system": "Linux",
      "cpu_count": 8,
      "cpu_times": {
        "user": 100149.82,
        "system": 18238.68,
        "idle": 7637226.01,
        "nice": 749.46
      },
      "cpu_percent": 99.1,
      "virtual_memory": {
        "total": 33618501632,
        "available": 26384228352,
        "percent": 21.5,
        "used": 6218330112,
        "free": 10197438464
      }
    },
    "process": {
      "username": "evgeniya",
      "cwd": "/cw/dtailocal/mercs_python/src/core",
      "create_time": 1517845436.94,
      "cpu_times": {
        "user": 1.2,
        "system": 0.21
      }
    },
    "logfile": "/cw/dtailocal/mercs_python/out/242/enb/logs/mercspython_Log_F07",
    "command": "python /cw/dtailocal/mercs_python/bin/mercspython.py /cw/dtailocal/mercs_python/out/242/enb/settings/mercspython_Settings_F07.s"
  }
},
{
  "ts": "2018-02-05T15:44:21.241333",
  "type": "INFO",
  "values": {
    "cmd": "python /cw/dtailocal/mercs_python/bin/mercspython.py /cw/dtailocal/mercs_python/out/242/enb/settings/mercspython_Settings_F07.s",
    "cwd": null
  }
},
{
  "ts": "2018-02-05T15:44:21.253612",
  "type": "INFO",
  "values": "Start: Run process"
},
{
  "ts": "2018-02-05T15:44:21.278749",
  "type": "INFO",
  "values": "Write log to /cw/dtailocal/mercs_python/out/242/enb/logs/mercspython_Log_F07.running.log"
},
{
  "ts": "2018-02-05T15:44:24.691725",
  "type": "INFO",
  "values": "Process ended (returncode 0)"
},
{
  "ts": "2018-02-05T15:44:24.691804",
  "type": "INFO",
  "values": "Finished: Run process 3.438 seconds"
},
{
  "ts": "2018-02-05T15:44:24.691882",
  "type": "WARNING",
  "values": {
    "Exit": "finished",
    "Returncode": 0,
    "Time": 3.4382197856903076
  }
}
]
