[
{
  "ts": "2018-02-06T11:45:41.497148",
  "type": "SETTINGS",
  "values": {
    "date": "2018/02/06 12:45:41",
    "date_iso": "2018-02-06T12:45:41.496562",
    "params": null,
    "system": {
      "nodename": "gibson",
      "machine": "x86_64",
      "platform": "Linux-4.4.0-112-generic-x86_64-with-debian-stretch-sid",
      "processor": "x86_64",
      "version": "#135-Ubuntu SMP Fri Jan 19 11:48:36 UTC 2018",
      "system": "Linux",
      "cpu_count": 8,
      "cpu_times": {
        "user": 338702.58,
        "system": 20799.04,
        "idle": 7971448.9,
        "nice": 821.4
      },
      "cpu_percent": 25.9,
      "virtual_memory": {
        "total": 33618501632,
        "available": 25266933760,
        "percent": 24.8,
        "used": 7365857280,
        "free": 13225230336
      }
    },
    "process": {
      "username": "evgeniya",
      "cwd": "/cw/dtailocal/mercs_python/src/core",
      "create_time": 1517916972.77,
      "cpu_times": {
        "user": 1.56,
        "system": 0.76
      }
    },
    "logfile": "/cw/dtailocal/mercs_python/out/554/scm20d/logs/mercspython_Log_F09",
    "command": "python /cw/dtailocal/mercs_python/bin/mercspython.py /cw/dtailocal/mercs_python/out/554/scm20d/settings/mercspython_Settings_F09.s"
  }
},
{
  "ts": "2018-02-06T11:45:41.497239",
  "type": "INFO",
  "values": {
    "cmd": "python /cw/dtailocal/mercs_python/bin/mercspython.py /cw/dtailocal/mercs_python/out/554/scm20d/settings/mercspython_Settings_F09.s",
    "cwd": null
  }
},
{
  "ts": "2018-02-06T11:45:41.500539",
  "type": "INFO",
  "values": "Start: Run process"
},
{
  "ts": "2018-02-06T11:45:41.500982",
  "type": "INFO",
  "values": "Write log to /cw/dtailocal/mercs_python/out/554/scm20d/logs/mercspython_Log_F09.running.log"
},
{
  "ts": "2018-02-06T11:46:43.984036",
  "type": "INFO",
  "values": "Process ended (returncode 0)"
},
{
  "ts": "2018-02-06T11:46:43.984100",
  "type": "INFO",
  "values": "Finished: Run process 62.484 seconds"
},
{
  "ts": "2018-02-06T11:46:43.984156",
  "type": "WARNING",
  "values": {
    "Exit": "finished",
    "Returncode": 0,
    "Time": 62.4836003780365
  }
},
{
  "ts": "2018-02-06T11:46:43.984455",
  "type": "INFO",
  "values": "Closing /cw/dtailocal/mercs_python/out/554/scm20d/logs/mercspython_Log_F09.running.log"
}
]
