[
{
  "ts": "2018-02-06T11:39:24.946288",
  "type": "SETTINGS",
  "values": {
    "date": "2018/02/06 12:39:24",
    "date_iso": "2018-02-06T12:39:24.945670",
    "params": null,
    "system": {
      "nodename": "gibson",
      "machine": "x86_64",
      "platform": "Linux-4.4.0-112-generic-x86_64-with-debian-stretch-sid",
      "processor": "x86_64",
      "version": "#135-Ubuntu SMP Fri Jan 19 11:48:36 UTC 2018",
      "system": "Linux",
      "cpu_count": 8,
      "cpu_times": {
        "user": 337907.34,
        "system": 20786.74,
        "idle": 7969246.79,
        "nice": 821.4
      },
      "cpu_percent": 28.8,
      "virtual_memory": {
        "total": 33618501632,
        "available": 23600644096,
        "percent": 29.8,
        "used": 8964362240,
        "free": 11577540608
      }
    },
    "process": {
      "username": "evgeniya",
      "cwd": "/cw/dtailocal/mercs_python/src/core",
      "create_time": 1517916972.77,
      "cpu_times": {
        "user": 0.82,
        "system": 0.26
      }
    },
    "logfile": "/cw/dtailocal/mercs_python/out/554/scm20d/logs/mercspython_Log_F03",
    "command": "python /cw/dtailocal/mercs_python/bin/mercspython.py /cw/dtailocal/mercs_python/out/554/scm20d/settings/mercspython_Settings_F03.s"
  }
},
{
  "ts": "2018-02-06T11:39:24.946379",
  "type": "INFO",
  "values": {
    "cmd": "python /cw/dtailocal/mercs_python/bin/mercspython.py /cw/dtailocal/mercs_python/out/554/scm20d/settings/mercspython_Settings_F03.s",
    "cwd": null
  }
},
{
  "ts": "2018-02-06T11:39:24.949904",
  "type": "INFO",
  "values": "Start: Run process"
},
{
  "ts": "2018-02-06T11:39:24.950299",
  "type": "INFO",
  "values": "Write log to /cw/dtailocal/mercs_python/out/554/scm20d/logs/mercspython_Log_F03.running.log"
},
{
  "ts": "2018-02-06T11:40:29.245789",
  "type": "INFO",
  "values": "Process ended (returncode 0)"
},
{
  "ts": "2018-02-06T11:40:29.245854",
  "type": "INFO",
  "values": "Finished: Run process 64.296 seconds"
},
{
  "ts": "2018-02-06T11:40:29.245908",
  "type": "WARNING",
  "values": {
    "Exit": "finished",
    "Returncode": 0,
    "Time": 64.29597854614258
  }
},
{
  "ts": "2018-02-06T11:40:29.246174",
  "type": "INFO",
  "values": "Closing /cw/dtailocal/mercs_python/out/554/scm20d/logs/mercspython_Log_F03.running.log"
}
]
