[
{
  "ts": "2018-02-06T11:42:35.025528",
  "type": "SETTINGS",
  "values": {
    "date": "2018/02/06 12:42:35",
    "date_iso": "2018-02-06T12:42:35.024925",
    "params": null,
    "system": {
      "nodename": "gibson",
      "machine": "x86_64",
      "platform": "Linux-4.4.0-112-generic-x86_64-with-debian-stretch-sid",
      "processor": "x86_64",
      "version": "#135-Ubuntu SMP Fri Jan 19 11:48:36 UTC 2018",
      "system": "Linux",
      "cpu_count": 8,
      "cpu_times": {
        "user": 338324.93,
        "system": 20796.56,
        "idle": 7970341.58,
        "nice": 821.4
      },
      "cpu_percent": 26.5,
      "virtual_memory": {
        "total": 33618501632,
        "available": 26191060992,
        "percent": 22.1,
        "used": 6417842176,
        "free": 14154309632
      }
    },
    "process": {
      "username": "evgeniya",
      "cwd": "/cw/dtailocal/mercs_python/src/core",
      "create_time": 1517916972.77,
      "cpu_times": {
        "user": 1.24,
        "system": 0.51
      }
    },
    "logfile": "/cw/dtailocal/mercs_python/out/554/scm20d/logs/mercspython_Log_F06",
    "command": "python /cw/dtailocal/mercs_python/bin/mercspython.py /cw/dtailocal/mercs_python/out/554/scm20d/settings/mercspython_Settings_F06.s"
  }
},
{
  "ts": "2018-02-06T11:42:35.025618",
  "type": "INFO",
  "values": {
    "cmd": "python /cw/dtailocal/mercs_python/bin/mercspython.py /cw/dtailocal/mercs_python/out/554/scm20d/settings/mercspython_Settings_F06.s",
    "cwd": null
  }
},
{
  "ts": "2018-02-06T11:42:35.028844",
  "type": "INFO",
  "values": "Start: Run process"
},
{
  "ts": "2018-02-06T11:42:35.029289",
  "type": "INFO",
  "values": "Write log to /cw/dtailocal/mercs_python/out/554/scm20d/logs/mercspython_Log_F06.running.log"
},
{
  "ts": "2018-02-06T11:43:36.711774",
  "type": "INFO",
  "values": "Process ended (returncode 0)"
},
{
  "ts": "2018-02-06T11:43:36.711835",
  "type": "INFO",
  "values": "Finished: Run process 61.683 seconds"
},
{
  "ts": "2018-02-06T11:43:36.711890",
  "type": "WARNING",
  "values": {
    "Exit": "finished",
    "Returncode": 0,
    "Time": 61.68303298950195
  }
},
{
  "ts": "2018-02-06T11:43:36.712138",
  "type": "INFO",
  "values": "Closing /cw/dtailocal/mercs_python/out/554/scm20d/logs/mercspython_Log_F06.running.log"
}
]
