[
{
  "ts": "2018-02-06T10:01:59.141687",
  "type": "SETTINGS",
  "values": {
    "date": "2018/02/06 11:01:59",
    "date_iso": "2018-02-06T11:01:59.140843",
    "params": null,
    "system": {
      "nodename": "gibson",
      "machine": "x86_64",
      "platform": "Linux-4.4.0-112-generic-x86_64-with-debian-stretch-sid",
      "processor": "x86_64",
      "version": "#135-Ubuntu SMP Fri Jan 19 11:48:36 UTC 2018",
      "system": "Linux",
      "cpu_count": 8,
      "cpu_times": {
        "user": 315268.86,
        "system": 20448.42,
        "idle": 7945626.15,
        "nice": 819.07
      },
      "cpu_percent": 77.1,
      "virtual_memory": {
        "total": 33618501632,
        "available": 25580888064,
        "percent": 23.9,
        "used": 7084240896,
        "free": 14420275200
      }
    },
    "process": {
      "username": "evgeniya",
      "cwd": "/cw/dtailocal/mercs_python/src/core",
      "create_time": 1517911314.93,
      "cpu_times": {
        "user": 0.61,
        "system": 0.12
      }
    },
    "logfile": "/cw/dtailocal/mercs_python/out/537/slump/logs/mercspython_Log_F02",
    "command": "python /cw/dtailocal/mercs_python/bin/mercspython.py /cw/dtailocal/mercs_python/out/537/slump/settings/mercspython_Settings_F02.s"
  }
},
{
  "ts": "2018-02-06T10:01:59.141933",
  "type": "INFO",
  "values": {
    "cmd": "python /cw/dtailocal/mercs_python/bin/mercspython.py /cw/dtailocal/mercs_python/out/537/slump/settings/mercspython_Settings_F02.s",
    "cwd": null
  }
},
{
  "ts": "2018-02-06T10:01:59.145586",
  "type": "INFO",
  "values": "Start: Run process"
},
{
  "ts": "2018-02-06T10:01:59.146096",
  "type": "INFO",
  "values": "Write log to /cw/dtailocal/mercs_python/out/537/slump/logs/mercspython_Log_F02.running.log"
},
{
  "ts": "2018-02-06T10:02:00.749779",
  "type": "INFO",
  "values": "Process ended (returncode 0)"
},
{
  "ts": "2018-02-06T10:02:00.749859",
  "type": "INFO",
  "values": "Finished: Run process 1.604 seconds"
},
{
  "ts": "2018-02-06T10:02:00.749937",
  "type": "WARNING",
  "values": {
    "Exit": "finished",
    "Returncode": 0,
    "Time": 1.6043121814727783
  }
},
{
  "ts": "2018-02-06T10:02:00.750280",
  "type": "INFO",
  "values": "Closing /cw/dtailocal/mercs_python/out/537/slump/logs/mercspython_Log_F02.running.log"
}
]
