[
{
  "ts": "2018-02-06T09:56:20.333103",
  "type": "SETTINGS",
  "values": {
    "date": "2018/02/06 10:56:20",
    "date_iso": "2018-02-06T10:56:20.332501",
    "params": null,
    "system": {
      "nodename": "gibson",
      "machine": "x86_64",
      "platform": "Linux-4.4.0-112-generic-x86_64-with-debian-stretch-sid",
      "processor": "x86_64",
      "version": "#135-Ubuntu SMP Fri Jan 19 11:48:36 UTC 2018",
      "system": "Linux",
      "cpu_count": 8,
      "cpu_times": {
        "user": 313185.05,
        "system": 20377.8,
        "idle": 7945101.45,
        "nice": 819.07
      },
      "cpu_percent": 86.3,
      "virtual_memory": {
        "total": 33618501632,
        "available": 23967645696,
        "percent": 28.7,
        "used": 8657223680,
        "free": 13275136000
      }
    },
    "process": {
      "username": "evgeniya",
      "cwd": "/cw/dtailocal/mercs_python/src/core",
      "create_time": 1517910971.5,
      "cpu_times": {
        "user": 0.82,
        "system": 0.27
      }
    },
    "logfile": "/cw/dtailocal/mercs_python/out/538/wq/logs/mercspython_Log_F03",
    "command": "python /cw/dtailocal/mercs_python/bin/mercspython.py /cw/dtailocal/mercs_python/out/538/wq/settings/mercspython_Settings_F03.s"
  }
},
{
  "ts": "2018-02-06T09:56:20.333195",
  "type": "INFO",
  "values": {
    "cmd": "python /cw/dtailocal/mercs_python/bin/mercspython.py /cw/dtailocal/mercs_python/out/538/wq/settings/mercspython_Settings_F03.s",
    "cwd": null
  }
},
{
  "ts": "2018-02-06T09:56:20.335573",
  "type": "INFO",
  "values": "Start: Run process"
},
{
  "ts": "2018-02-06T09:56:20.336021",
  "type": "INFO",
  "values": "Write log to /cw/dtailocal/mercs_python/out/538/wq/logs/mercspython_Log_F03.running.log"
},
{
  "ts": "2018-02-06T09:56:23.139578",
  "type": "INFO",
  "values": "Process ended (returncode 0)"
},
{
  "ts": "2018-02-06T09:56:23.139671",
  "type": "INFO",
  "values": "Finished: Run process 2.804 seconds"
},
{
  "ts": "2018-02-06T09:56:23.139758",
  "type": "WARNING",
  "values": {
    "Exit": "finished",
    "Returncode": 0,
    "Time": 2.8041276931762695
  }
},
{
  "ts": "2018-02-06T09:56:23.140285",
  "type": "INFO",
  "values": "Closing /cw/dtailocal/mercs_python/out/538/wq/logs/mercspython_Log_F03.running.log"
}
]
