[
{
  "ts": "2018-02-05T17:09:16.501405",
  "type": "SETTINGS",
  "values": {
    "date": "2018/02/05 18:09:16",
    "date_iso": "2018-02-05T18:09:16.500552",
    "params": null,
    "system": {
      "nodename": "gibson",
      "machine": "x86_64",
      "platform": "Linux-4.4.0-112-generic-x86_64-with-debian-stretch-sid",
      "processor": "x86_64",
      "version": "#135-Ubuntu SMP Fri Jan 19 11:48:36 UTC 2018",
      "system": "Linux",
      "cpu_count": 8,
      "cpu_times": {
        "user": 140466.62,
        "system": 18649.12,
        "idle": 7637234.63,
        "nice": 751.58
      },
      "cpu_percent": 100.0,
      "virtual_memory": {
        "total": 33618501632,
        "available": 22939668480,
        "percent": 31.8,
        "used": 9698852864,
        "free": 5723590656
      }
    },
    "process": {
      "username": "evgeniya",
      "cwd": "/cw/dtailocal/mercs_python/src/core",
      "create_time": 1517850535.36,
      "cpu_times": {
        "user": 0.96,
        "system": 0.13
      }
    },
    "logfile": "/cw/dtailocal/mercs_python/out/335/andro/logs/mercspython_Log_F05",
    "command": "python /cw/dtailocal/mercs_python/bin/mercspython.py /cw/dtailocal/mercs_python/out/335/andro/settings/mercspython_Settings_F05.s"
  }
},
{
  "ts": "2018-02-05T17:09:16.501554",
  "type": "INFO",
  "values": {
    "cmd": "python /cw/dtailocal/mercs_python/bin/mercspython.py /cw/dtailocal/mercs_python/out/335/andro/settings/mercspython_Settings_F05.s",
    "cwd": null
  }
},
{
  "ts": "2018-02-05T17:09:16.521765",
  "type": "INFO",
  "values": "Start: Run process"
},
{
  "ts": "2018-02-05T17:09:16.572077",
  "type": "INFO",
  "values": "Write log to /cw/dtailocal/mercs_python/out/335/andro/logs/mercspython_Log_F05.running.log"
},
{
  "ts": "2018-02-05T17:09:20.978384",
  "type": "INFO",
  "values": "Process ended (returncode 0)"
},
{
  "ts": "2018-02-05T17:09:20.978485",
  "type": "INFO",
  "values": "Finished: Run process 4.457 seconds"
},
{
  "ts": "2018-02-05T17:09:20.978574",
  "type": "WARNING",
  "values": {
    "Exit": "finished",
    "Returncode": 0,
    "Time": 4.456739187240601
  }
}
]
