[
{
  "ts": "2018-02-05T17:09:12.832262",
  "type": "SETTINGS",
  "values": {
    "date": "2018/02/05 18:09:12",
    "date_iso": "2018-02-05T18:09:12.831265",
    "params": null,
    "system": {
      "nodename": "gibson",
      "machine": "x86_64",
      "platform": "Linux-4.4.0-112-generic-x86_64-with-debian-stretch-sid",
      "processor": "x86_64",
      "version": "#135-Ubuntu SMP Fri Jan 19 11:48:36 UTC 2018",
      "system": "Linux",
      "cpu_count": 8,
      "cpu_times": {
        "user": 140437.69,
        "system": 18648.71,
        "idle": 7637234.63,
        "nice": 751.58
      },
      "cpu_percent": 100.0,
      "virtual_memory": {
        "total": 33618501632,
        "available": 23084818432,
        "percent": 31.3,
        "used": 9553289216,
        "free": 5869285376
      }
    },
    "process": {
      "username": "evgeniya",
      "cwd": "/cw/dtailocal/mercs_python/src/core",
      "create_time": 1517850535.36,
      "cpu_times": {
        "user": 0.9,
        "system": 0.12
      }
    },
    "logfile": "/cw/dtailocal/mercs_python/out/335/andro/logs/mercspython_Log_F04",
    "command": "python /cw/dtailocal/mercs_python/bin/mercspython.py /cw/dtailocal/mercs_python/out/335/andro/settings/mercspython_Settings_F04.s"
  }
},
{
  "ts": "2018-02-05T17:09:12.832524",
  "type": "INFO",
  "values": {
    "cmd": "python /cw/dtailocal/mercs_python/bin/mercspython.py /cw/dtailocal/mercs_python/out/335/andro/settings/mercspython_Settings_F04.s",
    "cwd": null
  }
},
{
  "ts": "2018-02-05T17:09:12.841756",
  "type": "INFO",
  "values": "Start: Run process"
},
{
  "ts": "2018-02-05T17:09:12.872642",
  "type": "INFO",
  "values": "Write log to /cw/dtailocal/mercs_python/out/335/andro/logs/mercspython_Log_F04.running.log"
},
{
  "ts": "2018-02-05T17:09:16.482593",
  "type": "INFO",
  "values": "Process ended (returncode 0)"
},
{
  "ts": "2018-02-05T17:09:16.482698",
  "type": "INFO",
  "values": "Finished: Run process 3.641 seconds"
},
{
  "ts": "2018-02-05T17:09:16.482788",
  "type": "WARNING",
  "values": {
    "Exit": "finished",
    "Returncode": 0,
    "Time": 3.640957832336426
  }
},
{
  "ts": "2018-02-05T17:09:16.500028",
  "type": "INFO",
  "values": "Closing /cw/dtailocal/mercs_python/out/335/andro/logs/mercspython_Log_F04.running.log"
}
]
