[
{
  "ts": "2018-02-06T10:07:35.829626",
  "type": "SETTINGS",
  "values": {
    "date": "2018/02/06 11:07:35",
    "date_iso": "2018-02-06T11:07:35.828559",
    "params": null,
    "system": {
      "nodename": "gibson",
      "machine": "x86_64",
      "platform": "Linux-4.4.0-112-generic-x86_64-with-debian-stretch-sid",
      "processor": "x86_64",
      "version": "#135-Ubuntu SMP Fri Jan 19 11:48:36 UTC 2018",
      "system": "Linux",
      "cpu_count": 8,
      "cpu_times": {
        "user": 317302.49,
        "system": 20508.28,
        "idle": 7946209.38,
        "nice": 819.07
      },
      "cpu_percent": 77.8,
      "virtual_memory": {
        "total": 33618501632,
        "available": 23567331328,
        "percent": 29.9,
        "used": 9086652416,
        "free": 12293423104
      }
    },
    "process": {
      "username": "evgeniya",
      "cwd": "/cw/dtailocal/mercs_python/src/core",
      "create_time": 1517911541.13,
      "cpu_times": {
        "user": 2.79,
        "system": 0.55
      }
    },
    "logfile": "/cw/dtailocal/mercs_python/out/548/oes10/logs/mercspython_Log_F06",
    "command": "python /cw/dtailocal/mercs_python/bin/mercspython.py /cw/dtailocal/mercs_python/out/548/oes10/settings/mercspython_Settings_F06.s"
  }
},
{
  "ts": "2018-02-06T10:07:35.829790",
  "type": "INFO",
  "values": {
    "cmd": "python /cw/dtailocal/mercs_python/bin/mercspython.py /cw/dtailocal/mercs_python/out/548/oes10/settings/mercspython_Settings_F06.s",
    "cwd": null
  }
},
{
  "ts": "2018-02-06T10:07:35.833531",
  "type": "INFO",
  "values": "Start: Run process"
},
{
  "ts": "2018-02-06T10:07:35.834197",
  "type": "INFO",
  "values": "Write log to /cw/dtailocal/mercs_python/out/548/oes10/logs/mercspython_Log_F06.running.log"
},
{
  "ts": "2018-02-06T10:07:55.264368",
  "type": "INFO",
  "values": "Process ended (returncode 0)"
},
{
  "ts": "2018-02-06T10:07:55.264453",
  "type": "INFO",
  "values": "Finished: Run process 19.431 seconds"
},
{
  "ts": "2018-02-06T10:07:55.264531",
  "type": "WARNING",
  "values": {
    "Exit": "finished",
    "Returncode": 0,
    "Time": 19.430968046188354
  }
}
]
