[SETTINGS] {
  "date": "2018/02/05 18:18:56",
  "date_iso": "2018-02-05T18:18:56.712369",
  "params": null,
  "system": {
    "nodename": "gibson",
    "machine": "x86_64",
    "platform": "Linux-4.4.0-112-generic-x86_64-with-debian-stretch-sid",
    "processor": "x86_64",
    "version": "#135-Ubuntu SMP Fri Jan 19 11:48:36 UTC 2018",
    "system": "Linux",
    "cpu_count": 8,
    "cpu_times": {
      "user": 145044.84,
      "system": 18708.27,
      "idle": 7637235.42,
      "nice": 751.59
    },
    "cpu_percent": 99.9,
    "virtual_memory": {
      "total": 33618501632,
      "available": 24339857408,
      "percent": 27.6,
      "used": 8285896704,
      "free": 7061446656
    }
  },
  "process": {
    "username": "evgeniya",
    "cwd": "/cw/dtailocal/mercs_python/src/core",
    "create_time": 1517851055.61,
    "cpu_times": {
      "user": 2.19,
      "system": 0.12
    }
  },
  "logfile": "/cw/dtailocal/mercs_python/out/314/oes10/logs/mercspython_Log_F02",
  "command": "python /cw/dtailocal/mercs_python/bin/mercspython.py /cw/dtailocal/mercs_python/out/314/oes10/settings/mercspython_Settings_F02.s"
}
[INFO] cmd:python /cw/dtailocal/mercs_python/bin/mercspython.py /cw/dtailocal/mercs_python/out/314/oes10/settings/mercspython_Settings_F02.s; cwd:None
[INFO] Start: Run process
[INFO] Write log to /cw/dtailocal/mercs_python/out/314/oes10/logs/mercspython_Log_F02.running.log
[STDERR] /cw/dtailocal/mercs_python/bin/mercspython.py:78: VisibleDeprecationWarning: converting an array with ndim > 0 to an index will result in an error in the future
[STDERR]   while((np.sum(codes[partition * nb_models_it + model]) >= nb_out_atts)):
[STDERR] /cw/dtailocal/mercs_python/bin/mercspython.py:81: VisibleDeprecationWarning: converting an array with ndim > 0 to an index will result in an error in the future
[STDERR]   codes[partition * nb_models_it + model][attribute] = 1
[[0 0 0 ..., 0 0 0]
 [0 0 0 ..., 0 0 0]
 [0 0 0 ..., 0 0 0]
 ..., 
 [0 0 1 ..., 0 0 0]
 [1 0 0 ..., 0 0 0]
 [0 1 0 ..., 0 0 0]]
====================================================
Total induction time of the MDEModel was: 28308 ms
====================================================
====================================================
Total inference time of the MDEModel was: 6132 ms
====================================================
====================================================
This was for: 314 queries.
====================================================
[INFO] Process ended (returncode 0)
[INFO] Finished: Run process 37.901 seconds
[WARNING] Exit:finished; Returncode:0; Time:37.90059
