[
{
  "ts": "2018-02-05T15:44:56.706540",
  "type": "SETTINGS",
  "values": {
    "date": "2018/02/05 16:44:56",
    "date_iso": "2018-02-05T16:44:56.705427",
    "params": null,
    "system": {
      "nodename": "gibson",
      "machine": "x86_64",
      "platform": "Linux-4.4.0-112-generic-x86_64-with-debian-stretch-sid",
      "processor": "x86_64",
      "version": "#135-Ubuntu SMP Fri Jan 19 11:48:36 UTC 2018",
      "system": "Linux",
      "cpu_count": 8,
      "cpu_times": {
        "user": 100425.11,
        "system": 18245.11,
        "idle": 7637227.22,
        "nice": 749.46
      },
      "cpu_percent": 99.3,
      "virtual_memory": {
        "total": 33618501632,
        "available": 24572092416,
        "percent": 26.9,
        "used": 8042557440,
        "free": 8383819776
      }
    },
    "process": {
      "username": "evgeniya",
      "cwd": "/cw/dtailocal/mercs_python/src/core",
      "create_time": 1517845490.66,
      "cpu_times": {
        "user": 0.66,
        "system": 0.12
      }
    },
    "logfile": "/cw/dtailocal/mercs_python/out/213/jura/logs/mercspython_Log_F01",
    "command": "python /cw/dtailocal/mercs_python/bin/mercspython.py /cw/dtailocal/mercs_python/out/213/jura/settings/mercspython_Settings_F01.s"
  }
},
{
  "ts": "2018-02-05T15:44:56.706702",
  "type": "INFO",
  "values": {
    "cmd": "python /cw/dtailocal/mercs_python/bin/mercspython.py /cw/dtailocal/mercs_python/out/213/jura/settings/mercspython_Settings_F01.s",
    "cwd": null
  }
},
{
  "ts": "2018-02-05T15:44:56.721319",
  "type": "INFO",
  "values": "Start: Run process"
},
{
  "ts": "2018-02-05T15:44:56.743792",
  "type": "INFO",
  "values": "Write log to /cw/dtailocal/mercs_python/out/213/jura/logs/mercspython_Log_F01.running.log"
},
{
  "ts": "2018-02-05T15:45:01.149168",
  "type": "INFO",
  "values": "Process ended (returncode 0)"
},
{
  "ts": "2018-02-05T15:45:01.149249",
  "type": "INFO",
  "values": "Finished: Run process 4.428 seconds"
},
{
  "ts": "2018-02-05T15:45:01.149341",
  "type": "WARNING",
  "values": {
    "Exit": "finished",
    "Returncode": 0,
    "Time": 4.427952289581299
  }
},
{
  "ts": "2018-02-05T15:45:01.163527",
  "type": "INFO",
  "values": "Closing /cw/dtailocal/mercs_python/out/213/jura/logs/mercspython_Log_F01.running.log"
}
]
