[
{
  "ts": "2018-02-05T15:45:09.897064",
  "type": "SETTINGS",
  "values": {
    "date": "2018/02/05 16:45:09",
    "date_iso": "2018-02-05T16:45:09.896216",
    "params": null,
    "system": {
      "nodename": "gibson",
      "machine": "x86_64",
      "platform": "Linux-4.4.0-112-generic-x86_64-with-debian-stretch-sid",
      "processor": "x86_64",
      "version": "#135-Ubuntu SMP Fri Jan 19 11:48:36 UTC 2018",
      "system": "Linux",
      "cpu_count": 8,
      "cpu_times": {
        "user": 100528.04,
        "system": 18247.06,
        "idle": 7637227.62,
        "nice": 749.46
      },
      "cpu_percent": 99.6,
      "virtual_memory": {
        "total": 33618501632,
        "available": 24444108800,
        "percent": 27.3,
        "used": 8184008704,
        "free": 8251514880
      }
    },
    "process": {
      "username": "evgeniya",
      "cwd": "/cw/dtailocal/mercs_python/src/core",
      "create_time": 1517845490.66,
      "cpu_times": {
        "user": 0.88,
        "system": 0.15
      }
    },
    "logfile": "/cw/dtailocal/mercs_python/out/213/jura/logs/mercspython_Log_F04",
    "command": "python /cw/dtailocal/mercs_python/bin/mercspython.py /cw/dtailocal/mercs_python/out/213/jura/settings/mercspython_Settings_F04.s"
  }
},
{
  "ts": "2018-02-05T15:45:09.897216",
  "type": "INFO",
  "values": {
    "cmd": "python /cw/dtailocal/mercs_python/bin/mercspython.py /cw/dtailocal/mercs_python/out/213/jura/settings/mercspython_Settings_F04.s",
    "cwd": null
  }
},
{
  "ts": "2018-02-05T15:45:09.913273",
  "type": "INFO",
  "values": "Start: Run process"
},
{
  "ts": "2018-02-05T15:45:09.913810",
  "type": "INFO",
  "values": "Write log to /cw/dtailocal/mercs_python/out/213/jura/logs/mercspython_Log_F04.running.log"
},
{
  "ts": "2018-02-05T15:45:14.727684",
  "type": "INFO",
  "values": "Process ended (returncode 0)"
},
{
  "ts": "2018-02-05T15:45:14.727752",
  "type": "INFO",
  "values": "Finished: Run process 4.815 seconds"
},
{
  "ts": "2018-02-05T15:45:14.727825",
  "type": "WARNING",
  "values": {
    "Exit": "finished",
    "Returncode": 0,
    "Time": 4.814507961273193
  }
}
]
