[
{
  "ts": "2018-02-05T15:00:34.933031",
  "type": "SETTINGS",
  "values": {
    "date": "2018/02/05 16:00:34",
    "date_iso": "2018-02-05T16:00:34.932196",
    "params": null,
    "system": {
      "nodename": "gibson",
      "machine": "x86_64",
      "platform": "Linux-4.4.0-112-generic-x86_64-with-debian-stretch-sid",
      "processor": "x86_64",
      "version": "#135-Ubuntu SMP Fri Jan 19 11:48:36 UTC 2018",
      "system": "Linux",
      "cpu_count": 8,
      "cpu_times": {
        "user": 86036.83,
        "system": 18085.36,
        "idle": 7630554.46,
        "nice": 732.25
      },
      "cpu_percent": 100.0,
      "virtual_memory": {
        "total": 33618501632,
        "available": 23115182080,
        "percent": 31.2,
        "used": 9386553344,
        "free": 7556018176
      }
    },
    "process": {
      "username": "evgeniya",
      "cwd": "/cw/dtailocal/mercs_python/src/core",
      "create_time": 1517842755.66,
      "cpu_times": {
        "user": 2.17,
        "system": 0.19
      }
    },
    "logfile": "/cw/dtailocal/mercs_python/out/347/oes97/logs/mercspython_Log_F05",
    "command": "python /cw/dtailocal/mercs_python/bin/mercspython.py /cw/dtailocal/mercs_python/out/347/oes97/settings/mercspython_Settings_F05.s"
  }
},
{
  "ts": "2018-02-05T15:00:34.933184",
  "type": "INFO",
  "values": {
    "cmd": "python /cw/dtailocal/mercs_python/bin/mercspython.py /cw/dtailocal/mercs_python/out/347/oes97/settings/mercspython_Settings_F05.s",
    "cwd": null
  }
},
{
  "ts": "2018-02-05T15:00:34.960159",
  "type": "INFO",
  "values": "Start: Run process"
},
{
  "ts": "2018-02-05T15:00:34.999782",
  "type": "INFO",
  "values": "Write log to /cw/dtailocal/mercs_python/out/347/oes97/logs/mercspython_Log_F05.running.log"
},
{
  "ts": "2018-02-05T15:00:50.217863",
  "type": "INFO",
  "values": "Process ended (returncode 0)"
},
{
  "ts": "2018-02-05T15:00:50.217945",
  "type": "INFO",
  "values": "Finished: Run process 15.258 seconds"
},
{
  "ts": "2018-02-05T15:00:50.218023",
  "type": "WARNING",
  "values": {
    "Exit": "finished",
    "Returncode": 0,
    "Time": 15.257813215255737
  }
},
{
  "ts": "2018-02-05T15:00:50.223822",
  "type": "INFO",
  "values": "Closing /cw/dtailocal/mercs_python/out/347/oes97/logs/mercspython_Log_F05.running.log"
}
]
