[
{
  "ts": "2018-02-05T15:00:03.149159",
  "type": "SETTINGS",
  "values": {
    "date": "2018/02/05 16:00:03",
    "date_iso": "2018-02-05T16:00:03.148323",
    "params": null,
    "system": {
      "nodename": "gibson",
      "machine": "x86_64",
      "platform": "Linux-4.4.0-112-generic-x86_64-with-debian-stretch-sid",
      "processor": "x86_64",
      "version": "#135-Ubuntu SMP Fri Jan 19 11:48:36 UTC 2018",
      "system": "Linux",
      "cpu_count": 8,
      "cpu_times": {
        "user": 85784.55,
        "system": 18083.46,
        "idle": 7630554.44,
        "nice": 732.25
      },
      "cpu_percent": 100.0,
      "virtual_memory": {
        "total": 33618501632,
        "available": 23915593728,
        "percent": 28.9,
        "used": 8586141696,
        "free": 8362942464
      }
    },
    "process": {
      "username": "evgeniya",
      "cwd": "/cw/dtailocal/mercs_python/src/core",
      "create_time": 1517842755.66,
      "cpu_times": {
        "user": 1.94,
        "system": 0.11
      }
    },
    "logfile": "/cw/dtailocal/mercs_python/out/347/oes97/logs/mercspython_Log_F03",
    "command": "python /cw/dtailocal/mercs_python/bin/mercspython.py /cw/dtailocal/mercs_python/out/347/oes97/settings/mercspython_Settings_F03.s"
  }
},
{
  "ts": "2018-02-05T15:00:03.149310",
  "type": "INFO",
  "values": {
    "cmd": "python /cw/dtailocal/mercs_python/bin/mercspython.py /cw/dtailocal/mercs_python/out/347/oes97/settings/mercspython_Settings_F03.s",
    "cwd": null
  }
},
{
  "ts": "2018-02-05T15:00:03.168051",
  "type": "INFO",
  "values": "Start: Run process"
},
{
  "ts": "2018-02-05T15:00:03.207780",
  "type": "INFO",
  "values": "Write log to /cw/dtailocal/mercs_python/out/347/oes97/logs/mercspython_Log_F03.running.log"
},
{
  "ts": "2018-02-05T15:00:19.226858",
  "type": "INFO",
  "values": "Process ended (returncode 0)"
},
{
  "ts": "2018-02-05T15:00:19.226937",
  "type": "INFO",
  "values": "Finished: Run process 16.059 seconds"
},
{
  "ts": "2018-02-05T15:00:19.227019",
  "type": "WARNING",
  "values": {
    "Exit": "finished",
    "Returncode": 0,
    "Time": 16.058919429779053
  }
},
{
  "ts": "2018-02-05T15:00:19.243817",
  "type": "INFO",
  "values": "Closing /cw/dtailocal/mercs_python/out/347/oes97/logs/mercspython_Log_F03.running.log"
}
]
