[
{
  "ts": "2018-02-07T13:07:01.621528",
  "type": "SETTINGS",
  "values": {
    "date": "2018/02/07 14:07:01",
    "date_iso": "2018-02-07T14:07:01.620586",
    "params": null,
    "system": {
      "nodename": "gibson",
      "machine": "x86_64",
      "platform": "Linux-4.4.0-112-generic-x86_64-with-debian-stretch-sid",
      "processor": "x86_64",
      "version": "#135-Ubuntu SMP Fri Jan 19 11:48:36 UTC 2018",
      "system": "Linux",
      "cpu_count": 8,
      "cpu_times": {
        "user": 401373.52,
        "system": 23579.45,
        "idle": 8633961.35,
        "nice": 906.12
      },
      "cpu_percent": 99.9,
      "virtual_memory": {
        "total": 33618501632,
        "available": 24377331712,
        "percent": 27.5,
        "used": 8296894464,
        "free": 10027118592
      }
    },
    "process": {
      "username": "evgeniya",
      "cwd": "/cw/dtailocal/mercs_python/src/core",
      "create_time": 1518008808.16,
      "cpu_times": {
        "user": 0.76,
        "system": 0.13
      }
    },
    "logfile": "/cw/dtailocal/mercs_python/out/828/andro/logs/mercspython_Log_F04",
    "command": "python /cw/dtailocal/mercs_python/bin/mercspython.py /cw/dtailocal/mercs_python/out/828/andro/settings/mercspython_Settings_F04.s"
  }
},
{
  "ts": "2018-02-07T13:07:01.621678",
  "type": "INFO",
  "values": {
    "cmd": "python /cw/dtailocal/mercs_python/bin/mercspython.py /cw/dtailocal/mercs_python/out/828/andro/settings/mercspython_Settings_F04.s",
    "cwd": null
  }
},
{
  "ts": "2018-02-07T13:07:01.649532",
  "type": "INFO",
  "values": "Start: Run process"
},
{
  "ts": "2018-02-07T13:07:01.685314",
  "type": "INFO",
  "values": "Write log to /cw/dtailocal/mercs_python/out/828/andro/logs/mercspython_Log_F04.running.log"
},
{
  "ts": "2018-02-07T13:07:04.688905",
  "type": "INFO",
  "values": "Process ended (returncode 0)"
},
{
  "ts": "2018-02-07T13:07:04.688982",
  "type": "INFO",
  "values": "Finished: Run process 3.039 seconds"
},
{
  "ts": "2018-02-07T13:07:04.689061",
  "type": "WARNING",
  "values": {
    "Exit": "finished",
    "Returncode": 0,
    "Time": 3.0394787788391113
  }
},
{
  "ts": "2018-02-07T13:07:04.695801",
  "type": "INFO",
  "values": "Closing /cw/dtailocal/mercs_python/out/828/andro/logs/mercspython_Log_F04.running.log"
}
]
