[
{
  "ts": "2018-02-07T13:06:58.765103",
  "type": "SETTINGS",
  "values": {
    "date": "2018/02/07 14:06:58",
    "date_iso": "2018-02-07T14:06:58.764232",
    "params": null,
    "system": {
      "nodename": "gibson",
      "machine": "x86_64",
      "platform": "Linux-4.4.0-112-generic-x86_64-with-debian-stretch-sid",
      "processor": "x86_64",
      "version": "#135-Ubuntu SMP Fri Jan 19 11:48:36 UTC 2018",
      "system": "Linux",
      "cpu_count": 8,
      "cpu_times": {
        "user": 401351.85,
        "system": 23578.36,
        "idle": 8633961.32,
        "nice": 906.12
      },
      "cpu_percent": 100.0,
      "virtual_memory": {
        "total": 33618501632,
        "available": 24754143232,
        "percent": 26.4,
        "used": 7920091136,
        "free": 10404352000
      }
    },
    "process": {
      "username": "evgeniya",
      "cwd": "/cw/dtailocal/mercs_python/src/core",
      "create_time": 1518008808.16,
      "cpu_times": {
        "user": 0.68,
        "system": 0.11
      }
    },
    "logfile": "/cw/dtailocal/mercs_python/out/828/andro/logs/mercspython_Log_F03",
    "command": "python /cw/dtailocal/mercs_python/bin/mercspython.py /cw/dtailocal/mercs_python/out/828/andro/settings/mercspython_Settings_F03.s"
  }
},
{
  "ts": "2018-02-07T13:06:58.765267",
  "type": "INFO",
  "values": {
    "cmd": "python /cw/dtailocal/mercs_python/bin/mercspython.py /cw/dtailocal/mercs_python/out/828/andro/settings/mercspython_Settings_F03.s",
    "cwd": null
  }
},
{
  "ts": "2018-02-07T13:06:58.781440",
  "type": "INFO",
  "values": "Start: Run process"
},
{
  "ts": "2018-02-07T13:06:58.811784",
  "type": "INFO",
  "values": "Write log to /cw/dtailocal/mercs_python/out/828/andro/logs/mercspython_Log_F03.running.log"
},
{
  "ts": "2018-02-07T13:07:01.619679",
  "type": "INFO",
  "values": "Process ended (returncode 0)"
},
{
  "ts": "2018-02-07T13:07:01.619739",
  "type": "INFO",
  "values": "Finished: Run process 2.838 seconds"
},
{
  "ts": "2018-02-07T13:07:01.619800",
  "type": "WARNING",
  "values": {
    "Exit": "finished",
    "Returncode": 0,
    "Time": 2.8383281230926514
  }
},
{
  "ts": "2018-02-07T13:07:01.620101",
  "type": "INFO",
  "values": "Closing /cw/dtailocal/mercs_python/out/828/andro/logs/mercspython_Log_F03.running.log"
}
]
