[
{
  "ts": "2018-02-05T16:28:25.230118",
  "type": "SETTINGS",
  "values": {
    "date": "2018/02/05 17:28:25",
    "date_iso": "2018-02-05T17:28:25.224124",
    "params": null,
    "system": {
      "nodename": "gibson",
      "machine": "x86_64",
      "platform": "Linux-4.4.0-112-generic-x86_64-with-debian-stretch-sid",
      "processor": "x86_64",
      "version": "#135-Ubuntu SMP Fri Jan 19 11:48:36 UTC 2018",
      "system": "Linux",
      "cpu_count": 8,
      "cpu_times": {
        "user": 121036.53,
        "system": 18483.27,
        "idle": 7637233.04,
        "nice": 751.58
      },
      "cpu_percent": 100.0,
      "virtual_memory": {
        "total": 33618501632,
        "available": 25986457600,
        "percent": 22.7,
        "used": 6690123776,
        "free": 9386917888
      }
    },
    "process": {
      "username": "evgeniya",
      "cwd": "/cw/dtailocal/mercs_python/src/core",
      "create_time": 1517848103.14,
      "cpu_times": {
        "user": 0.8,
        "system": 0.09
      }
    },
    "logfile": "/cw/dtailocal/mercs_python/out/308/scm20d/logs/mercspython_Log_F00",
    "command": "python /cw/dtailocal/mercs_python/bin/mercspython.py /cw/dtailocal/mercs_python/out/308/scm20d/settings/mercspython_Settings_F00.s"
  }
},
{
  "ts": "2018-02-05T16:28:25.230276",
  "type": "INFO",
  "values": {
    "cmd": "python /cw/dtailocal/mercs_python/bin/mercspython.py /cw/dtailocal/mercs_python/out/308/scm20d/settings/mercspython_Settings_F00.s",
    "cwd": null
  }
},
{
  "ts": "2018-02-05T16:28:25.249216",
  "type": "INFO",
  "values": "Start: Run process"
},
{
  "ts": "2018-02-05T16:28:25.287833",
  "type": "INFO",
  "values": "Write log to /cw/dtailocal/mercs_python/out/308/scm20d/logs/mercspython_Log_F00.running.log"
},
{
  "ts": "2018-02-05T16:31:50.533004",
  "type": "INFO",
  "values": "Process ended (returncode 0)"
},
{
  "ts": "2018-02-05T16:31:50.533087",
  "type": "INFO",
  "values": "Finished: Run process 205.284 seconds"
},
{
  "ts": "2018-02-05T16:31:50.533177",
  "type": "WARNING",
  "values": {
    "Exit": "finished",
    "Returncode": 0,
    "Time": 205.28391432762146
  }
},
{
  "ts": "2018-02-05T16:31:50.555960",
  "type": "INFO",
  "values": "Closing /cw/dtailocal/mercs_python/out/308/scm20d/logs/mercspython_Log_F00.running.log"
}
]
