[
{
  "ts": "2018-02-05T16:56:30.897392",
  "type": "SETTINGS",
  "values": {
    "date": "2018/02/05 17:56:30",
    "date_iso": "2018-02-05T17:56:30.896549",
    "params": null,
    "system": {
      "nodename": "gibson",
      "machine": "x86_64",
      "platform": "Linux-4.4.0-112-generic-x86_64-with-debian-stretch-sid",
      "processor": "x86_64",
      "version": "#135-Ubuntu SMP Fri Jan 19 11:48:36 UTC 2018",
      "system": "Linux",
      "cpu_count": 8,
      "cpu_times": {
        "user": 134406.53,
        "system": 18588.44,
        "idle": 7637234.44,
        "nice": 751.58
      },
      "cpu_percent": 100.0,
      "virtual_memory": {
        "total": 33618501632,
        "available": 22874451968,
        "percent": 32.0,
        "used": 9751486464,
        "free": 5692059648
      }
    },
    "process": {
      "username": "evgeniya",
      "cwd": "/cw/dtailocal/mercs_python/src/core",
      "create_time": 1517848103.14,
      "cpu_times": {
        "user": 1.9,
        "system": 0.31
      }
    },
    "logfile": "/cw/dtailocal/mercs_python/out/308/scm20d/logs/mercspython_Log_F08",
    "command": "python /cw/dtailocal/mercs_python/bin/mercspython.py /cw/dtailocal/mercs_python/out/308/scm20d/settings/mercspython_Settings_F08.s"
  }
},
{
  "ts": "2018-02-05T16:56:30.897541",
  "type": "INFO",
  "values": {
    "cmd": "python /cw/dtailocal/mercs_python/bin/mercspython.py /cw/dtailocal/mercs_python/out/308/scm20d/settings/mercspython_Settings_F08.s",
    "cwd": null
  }
},
{
  "ts": "2018-02-05T16:56:30.915022",
  "type": "INFO",
  "values": "Start: Run process"
},
{
  "ts": "2018-02-05T16:56:30.948568",
  "type": "INFO",
  "values": "Write log to /cw/dtailocal/mercs_python/out/308/scm20d/logs/mercspython_Log_F08.running.log"
},
{
  "ts": "2018-02-05T16:59:59.604208",
  "type": "INFO",
  "values": "Process ended (returncode 0)"
},
{
  "ts": "2018-02-05T16:59:59.604289",
  "type": "INFO",
  "values": "Finished: Run process 208.689 seconds"
},
{
  "ts": "2018-02-05T16:59:59.604368",
  "type": "WARNING",
  "values": {
    "Exit": "finished",
    "Returncode": 0,
    "Time": 208.68929314613342
  }
}
]
