[
{
  "ts": "2018-02-05T19:26:35.269214",
  "type": "SETTINGS",
  "values": {
    "date": "2018/02/05 20:26:35",
    "date_iso": "2018-02-05T20:26:35.268369",
    "params": null,
    "system": {
      "nodename": "gibson",
      "machine": "x86_64",
      "platform": "Linux-4.4.0-112-generic-x86_64-with-debian-stretch-sid",
      "processor": "x86_64",
      "version": "#135-Ubuntu SMP Fri Jan 19 11:48:36 UTC 2018",
      "system": "Linux",
      "cpu_count": 8,
      "cpu_times": {
        "user": 199478.02,
        "system": 19161.36,
        "idle": 7643521.32,
        "nice": 757.38
      },
      "cpu_percent": 100.0,
      "virtual_memory": {
        "total": 33618501632,
        "available": 18604208128,
        "percent": 44.7,
        "used": 13993549824,
        "free": 10115317760
      }
    },
    "process": {
      "username": "evgeniya",
      "cwd": "/cw/dtailocal/mercs_python/src/core",
      "create_time": 1517855920.63,
      "cpu_times": {
        "user": 3.52,
        "system": 0.36
      }
    },
    "logfile": "/cw/dtailocal/mercs_python/out/359/scm1d/logs/mercspython_Log_F06",
    "command": "python /cw/dtailocal/mercs_python/bin/mercspython.py /cw/dtailocal/mercs_python/out/359/scm1d/settings/mercspython_Settings_F06.s"
  }
},
{
  "ts": "2018-02-05T19:26:35.269511",
  "type": "INFO",
  "values": {
    "cmd": "python /cw/dtailocal/mercs_python/bin/mercspython.py /cw/dtailocal/mercs_python/out/359/scm1d/settings/mercspython_Settings_F06.s",
    "cwd": null
  }
},
{
  "ts": "2018-02-05T19:26:35.302086",
  "type": "INFO",
  "values": "Start: Run process"
},
{
  "ts": "2018-02-05T19:26:35.329035",
  "type": "INFO",
  "values": "Write log to /cw/dtailocal/mercs_python/out/359/scm1d/logs/mercspython_Log_F06.running.log"
},
{
  "ts": "2018-02-05T19:34:40.315968",
  "type": "INFO",
  "values": "Process ended (returncode 0)"
},
{
  "ts": "2018-02-05T19:34:40.316055",
  "type": "INFO",
  "values": "Finished: Run process 485.014 seconds"
},
{
  "ts": "2018-02-05T19:34:40.316129",
  "type": "WARNING",
  "values": {
    "Exit": "finished",
    "Returncode": 0,
    "Time": 485.0140173435211
  }
},
{
  "ts": "2018-02-05T19:34:40.323863",
  "type": "INFO",
  "values": "Closing /cw/dtailocal/mercs_python/out/359/scm1d/logs/mercspython_Log_F06.running.log"
}
]
