[
{
  "ts": "2018-02-05T19:18:36.217020",
  "type": "SETTINGS",
  "values": {
    "date": "2018/02/05 20:18:36",
    "date_iso": "2018-02-05T20:18:36.216204",
    "params": null,
    "system": {
      "nodename": "gibson",
      "machine": "x86_64",
      "platform": "Linux-4.4.0-112-generic-x86_64-with-debian-stretch-sid",
      "processor": "x86_64",
      "version": "#135-Ubuntu SMP Fri Jan 19 11:48:36 UTC 2018",
      "system": "Linux",
      "cpu_count": 8,
      "cpu_times": {
        "user": 195670.19,
        "system": 19139.28,
        "idle": 7643521.1,
        "nice": 755.49
      },
      "cpu_percent": 100.0,
      "virtual_memory": {
        "total": 33618501632,
        "available": 19495645184,
        "percent": 42.0,
        "used": 13102112768,
        "free": 11093479424
      }
    },
    "process": {
      "username": "evgeniya",
      "cwd": "/cw/dtailocal/mercs_python/src/core",
      "create_time": 1517855920.63,
      "cpu_times": {
        "user": 3.37,
        "system": 0.33
      }
    },
    "logfile": "/cw/dtailocal/mercs_python/out/359/scm1d/logs/mercspython_Log_F05",
    "command": "python /cw/dtailocal/mercs_python/bin/mercspython.py /cw/dtailocal/mercs_python/out/359/scm1d/settings/mercspython_Settings_F05.s"
  }
},
{
  "ts": "2018-02-05T19:18:36.217159",
  "type": "INFO",
  "values": {
    "cmd": "python /cw/dtailocal/mercs_python/bin/mercspython.py /cw/dtailocal/mercs_python/out/359/scm1d/settings/mercspython_Settings_F05.s",
    "cwd": null
  }
},
{
  "ts": "2018-02-05T19:18:36.230859",
  "type": "INFO",
  "values": "Start: Run process"
},
{
  "ts": "2018-02-05T19:18:36.271780",
  "type": "INFO",
  "values": "Write log to /cw/dtailocal/mercs_python/out/359/scm1d/logs/mercspython_Log_F05.running.log"
},
{
  "ts": "2018-02-05T19:26:35.259765",
  "type": "INFO",
  "values": "Process ended (returncode 0)"
},
{
  "ts": "2018-02-05T19:26:35.259859",
  "type": "INFO",
  "values": "Finished: Run process 479.029 seconds"
},
{
  "ts": "2018-02-05T19:26:35.259941",
  "type": "WARNING",
  "values": {
    "Exit": "finished",
    "Returncode": 0,
    "Time": 479.02902245521545
  }
},
{
  "ts": "2018-02-05T19:26:35.267839",
  "type": "INFO",
  "values": "Closing /cw/dtailocal/mercs_python/out/359/scm1d/logs/mercspython_Log_F05.running.log"
}
]
