[
{
  "ts": "2018-02-05T15:09:12.141061",
  "type": "SETTINGS",
  "values": {
    "date": "2018/02/05 16:09:12",
    "date_iso": "2018-02-05T16:09:12.140205",
    "params": null,
    "system": {
      "nodename": "gibson",
      "machine": "x86_64",
      "platform": "Linux-4.4.0-112-generic-x86_64-with-debian-stretch-sid",
      "processor": "x86_64",
      "version": "#135-Ubuntu SMP Fri Jan 19 11:48:36 UTC 2018",
      "system": "Linux",
      "cpu_count": 8,
      "cpu_times": {
        "user": 90134.1,
        "system": 18120.36,
        "idle": 7630557.52,
        "nice": 732.25
      },
      "cpu_percent": 99.6,
      "virtual_memory": {
        "total": 33618501632,
        "available": 25656528896,
        "percent": 23.7,
        "used": 6843637760,
        "free": 9954574336
      }
    },
    "process": {
      "username": "evgeniya",
      "cwd": "/cw/dtailocal/mercs_python/src/core",
      "create_time": 1517843169.94,
      "cpu_times": {
        "user": 2.76,
        "system": 0.16
      }
    },
    "logfile": "/cw/dtailocal/mercs_python/out/338/oes10/logs/mercspython_Log_F08",
    "command": "python /cw/dtailocal/mercs_python/bin/mercspython.py /cw/dtailocal/mercs_python/out/338/oes10/settings/mercspython_Settings_F08.s"
  }
},
{
  "ts": "2018-02-05T15:09:12.141213",
  "type": "INFO",
  "values": {
    "cmd": "python /cw/dtailocal/mercs_python/bin/mercspython.py /cw/dtailocal/mercs_python/out/338/oes10/settings/mercspython_Settings_F08.s",
    "cwd": null
  }
},
{
  "ts": "2018-02-05T15:09:12.165380",
  "type": "INFO",
  "values": "Start: Run process"
},
{
  "ts": "2018-02-05T15:09:12.168162",
  "type": "INFO",
  "values": "Write log to /cw/dtailocal/mercs_python/out/338/oes10/logs/mercspython_Log_F08.running.log"
},
{
  "ts": "2018-02-05T15:09:28.591703",
  "type": "INFO",
  "values": "Process ended (returncode 0)"
},
{
  "ts": "2018-02-05T15:09:28.591786",
  "type": "INFO",
  "values": "Finished: Run process 16.426 seconds"
},
{
  "ts": "2018-02-05T15:09:28.591866",
  "type": "WARNING",
  "values": {
    "Exit": "finished",
    "Returncode": 0,
    "Time": 16.42643094062805
  }
},
{
  "ts": "2018-02-05T15:09:28.592189",
  "type": "INFO",
  "values": "Closing /cw/dtailocal/mercs_python/out/338/oes10/logs/mercspython_Log_F08.running.log"
}
]
