[
{
  "ts": "2018-02-06T12:14:41.956224",
  "type": "SETTINGS",
  "values": {
    "date": "2018/02/06 13:14:41",
    "date_iso": "2018-02-06T13:14:41.955349",
    "params": null,
    "system": {
      "nodename": "gibson",
      "machine": "x86_64",
      "platform": "Linux-4.4.0-112-generic-x86_64-with-debian-stretch-sid",
      "processor": "x86_64",
      "version": "#135-Ubuntu SMP Fri Jan 19 11:48:36 UTC 2018",
      "system": "Linux",
      "cpu_count": 8,
      "cpu_times": {
        "user": 345282.08,
        "system": 20938.4,
        "idle": 7978600.94,
        "nice": 821.4
      },
      "cpu_percent": 85.0,
      "virtual_memory": {
        "total": 33618501632,
        "available": 22213009408,
        "percent": 33.9,
        "used": 10406866944,
        "free": 9956311040
      }
    },
    "process": {
      "username": "evgeniya",
      "cwd": "/cw/dtailocal/mercs_python/src/core",
      "create_time": 1517919188.18,
      "cpu_times": {
        "user": 1.88,
        "system": 0.2
      }
    },
    "logfile": "/cw/dtailocal/mercs_python/out/620/oes97/logs/mercspython_Log_F04",
    "command": "python /cw/dtailocal/mercs_python/bin/mercspython.py /cw/dtailocal/mercs_python/out/620/oes97/settings/mercspython_Settings_F04.s"
  }
},
{
  "ts": "2018-02-06T12:14:41.956375",
  "type": "INFO",
  "values": {
    "cmd": "python /cw/dtailocal/mercs_python/bin/mercspython.py /cw/dtailocal/mercs_python/out/620/oes97/settings/mercspython_Settings_F04.s",
    "cwd": null
  }
},
{
  "ts": "2018-02-06T12:14:41.960350",
  "type": "INFO",
  "values": "Start: Run process"
},
{
  "ts": "2018-02-06T12:14:41.960850",
  "type": "INFO",
  "values": "Write log to /cw/dtailocal/mercs_python/out/620/oes97/logs/mercspython_Log_F04.running.log"
},
{
  "ts": "2018-02-06T12:15:05.832767",
  "type": "INFO",
  "values": "Process ended (returncode 0)"
},
{
  "ts": "2018-02-06T12:15:05.832826",
  "type": "INFO",
  "values": "Finished: Run process 23.873 seconds"
},
{
  "ts": "2018-02-06T12:15:05.832884",
  "type": "WARNING",
  "values": {
    "Exit": "finished",
    "Returncode": 0,
    "Time": 23.872501134872437
  }
},
{
  "ts": "2018-02-06T12:15:05.833151",
  "type": "INFO",
  "values": "Closing /cw/dtailocal/mercs_python/out/620/oes97/logs/mercspython_Log_F04.running.log"
}
]
