[
{
  "ts": "2018-02-06T12:06:48.452575",
  "type": "SETTINGS",
  "values": {
    "date": "2018/02/06 13:06:48",
    "date_iso": "2018-02-06T13:06:48.451718",
    "params": null,
    "system": {
      "nodename": "gibson",
      "machine": "x86_64",
      "platform": "Linux-4.4.0-112-generic-x86_64-with-debian-stretch-sid",
      "processor": "x86_64",
      "version": "#135-Ubuntu SMP Fri Jan 19 11:48:36 UTC 2018",
      "system": "Linux",
      "cpu_count": 8,
      "cpu_times": {
        "user": 342060.95,
        "system": 20880.12,
        "idle": 7978098.37,
        "nice": 821.4
      },
      "cpu_percent": 86.2,
      "virtual_memory": {
        "total": 33618501632,
        "available": 23397502976,
        "percent": 30.4,
        "used": 9184018432,
        "free": 11293036544
      }
    },
    "process": {
      "username": "evgeniya",
      "cwd": "/cw/dtailocal/mercs_python/src/core",
      "create_time": 1517918789.58,
      "cpu_times": {
        "user": 1.23,
        "system": 0.23
      }
    },
    "logfile": "/cw/dtailocal/mercs_python/out/600/andro/logs/mercspython_Log_F06",
    "command": "python /cw/dtailocal/mercs_python/bin/mercspython.py /cw/dtailocal/mercs_python/out/600/andro/settings/mercspython_Settings_F06.s"
  }
},
{
  "ts": "2018-02-06T12:06:48.452732",
  "type": "INFO",
  "values": {
    "cmd": "python /cw/dtailocal/mercs_python/bin/mercspython.py /cw/dtailocal/mercs_python/out/600/andro/settings/mercspython_Settings_F06.s",
    "cwd": null
  }
},
{
  "ts": "2018-02-06T12:06:48.458742",
  "type": "INFO",
  "values": "Start: Run process"
},
{
  "ts": "2018-02-06T12:06:48.460590",
  "type": "INFO",
  "values": "Write log to /cw/dtailocal/mercs_python/out/600/andro/logs/mercspython_Log_F06.running.log"
},
{
  "ts": "2018-02-06T12:06:50.863612",
  "type": "INFO",
  "values": "Process ended (returncode 0)"
},
{
  "ts": "2018-02-06T12:06:50.863694",
  "type": "INFO",
  "values": "Finished: Run process 2.405 seconds"
},
{
  "ts": "2018-02-06T12:06:50.863776",
  "type": "WARNING",
  "values": {
    "Exit": "finished",
    "Returncode": 0,
    "Time": 2.4049789905548096
  }
}
]
