[
{
  "ts": "2018-02-05T16:20:41.881095",
  "type": "SETTINGS",
  "values": {
    "date": "2018/02/05 17:20:41",
    "date_iso": "2018-02-05T17:20:41.880251",
    "params": null,
    "system": {
      "nodename": "gibson",
      "machine": "x86_64",
      "platform": "Linux-4.4.0-112-generic-x86_64-with-debian-stretch-sid",
      "processor": "x86_64",
      "version": "#135-Ubuntu SMP Fri Jan 19 11:48:36 UTC 2018",
      "system": "Linux",
      "cpu_count": 8,
      "cpu_times": {
        "user": 117371.26,
        "system": 18448.32,
        "idle": 7637231.17,
        "nice": 749.46
      },
      "cpu_percent": 100.0,
      "virtual_memory": {
        "total": 33618501632,
        "available": 25031712768,
        "percent": 25.5,
        "used": 7683051520,
        "free": 8471187456
      }
    },
    "process": {
      "username": "evgeniya",
      "cwd": "/cw/dtailocal/mercs_python/src/core",
      "create_time": 1517847634.41,
      "cpu_times": {
        "user": 0.67,
        "system": 0.06
      }
    },
    "logfile": "/cw/dtailocal/mercs_python/out/291/andro/logs/mercspython_Log_F01",
    "command": "python /cw/dtailocal/mercs_python/bin/mercspython.py /cw/dtailocal/mercs_python/out/291/andro/settings/mercspython_Settings_F01.s"
  }
},
{
  "ts": "2018-02-05T16:20:41.881241",
  "type": "INFO",
  "values": {
    "cmd": "python /cw/dtailocal/mercs_python/bin/mercspython.py /cw/dtailocal/mercs_python/out/291/andro/settings/mercspython_Settings_F01.s",
    "cwd": null
  }
},
{
  "ts": "2018-02-05T16:20:41.901399",
  "type": "INFO",
  "values": "Start: Run process"
},
{
  "ts": "2018-02-05T16:20:41.931803",
  "type": "INFO",
  "values": "Write log to /cw/dtailocal/mercs_python/out/291/andro/logs/mercspython_Log_F01.running.log"
},
{
  "ts": "2018-02-05T16:20:47.542402",
  "type": "INFO",
  "values": "Process ended (returncode 0)"
},
{
  "ts": "2018-02-05T16:20:47.542478",
  "type": "INFO",
  "values": "Finished: Run process 5.641 seconds"
},
{
  "ts": "2018-02-05T16:20:47.542559",
  "type": "WARNING",
  "values": {
    "Exit": "finished",
    "Returncode": 0,
    "Time": 5.641106605529785
  }
}
]
