[
{
  "ts": "2018-02-05T16:21:25.026471",
  "type": "SETTINGS",
  "values": {
    "date": "2018/02/05 17:21:25",
    "date_iso": "2018-02-05T17:21:25.025558",
    "params": null,
    "system": {
      "nodename": "gibson",
      "machine": "x86_64",
      "platform": "Linux-4.4.0-112-generic-x86_64-with-debian-stretch-sid",
      "processor": "x86_64",
      "version": "#135-Ubuntu SMP Fri Jan 19 11:48:36 UTC 2018",
      "system": "Linux",
      "cpu_count": 8,
      "cpu_times": {
        "user": 117712.97,
        "system": 18451.28,
        "idle": 7637231.38,
        "nice": 749.46
      },
      "cpu_percent": 100.0,
      "virtual_memory": {
        "total": 33618501632,
        "available": 23798898688,
        "percent": 29.2,
        "used": 8915865600,
        "free": 7235141632
      }
    },
    "process": {
      "username": "evgeniya",
      "cwd": "/cw/dtailocal/mercs_python/src/core",
      "create_time": 1517847634.41,
      "cpu_times": {
        "user": 1.33,
        "system": 0.16
      }
    },
    "logfile": "/cw/dtailocal/mercs_python/out/291/andro/logs/mercspython_Log_F09",
    "command": "python /cw/dtailocal/mercs_python/bin/mercspython.py /cw/dtailocal/mercs_python/out/291/andro/settings/mercspython_Settings_F09.s"
  }
},
{
  "ts": "2018-02-05T16:21:25.026630",
  "type": "INFO",
  "values": {
    "cmd": "python /cw/dtailocal/mercs_python/bin/mercspython.py /cw/dtailocal/mercs_python/out/291/andro/settings/mercspython_Settings_F09.s",
    "cwd": null
  }
},
{
  "ts": "2018-02-05T16:21:25.041414",
  "type": "INFO",
  "values": "Start: Run process"
},
{
  "ts": "2018-02-05T16:21:25.079772",
  "type": "INFO",
  "values": "Write log to /cw/dtailocal/mercs_python/out/291/andro/logs/mercspython_Log_F09.running.log"
},
{
  "ts": "2018-02-05T16:21:30.886606",
  "type": "INFO",
  "values": "Process ended (returncode 0)"
},
{
  "ts": "2018-02-05T16:21:30.886689",
  "type": "INFO",
  "values": "Finished: Run process 5.845 seconds"
},
{
  "ts": "2018-02-05T16:21:30.886776",
  "type": "WARNING",
  "values": {
    "Exit": "finished",
    "Returncode": 0,
    "Time": 5.845303058624268
  }
},
{
  "ts": "2018-02-05T16:21:30.891823",
  "type": "INFO",
  "values": "Closing /cw/dtailocal/mercs_python/out/291/andro/logs/mercspython_Log_F09.running.log"
}
]
