[
{
  "ts": "2018-02-07T10:20:22.289063",
  "type": "SETTINGS",
  "values": {
    "date": "2018/02/07 11:20:22",
    "date_iso": "2018-02-07T11:20:22.288272",
    "params": null,
    "system": {
      "nodename": "gibson",
      "machine": "x86_64",
      "platform": "Linux-4.4.0-112-generic-x86_64-with-debian-stretch-sid",
      "processor": "x86_64",
      "version": "#135-Ubuntu SMP Fri Jan 19 11:48:36 UTC 2018",
      "system": "Linux",
      "cpu_count": 8,
      "cpu_times": {
        "user": 379620.95,
        "system": 22395.27,
        "idle": 8577343.15,
        "nice": 898.04
      },
      "cpu_percent": 100.0,
      "virtual_memory": {
        "total": 33618501632,
        "available": 24938196992,
        "percent": 25.8,
        "used": 7813042176,
        "free": 10849558528
      }
    },
    "process": {
      "username": "evgeniya",
      "cwd": "/cw/dtailocal/mercs_python/src/core",
      "create_time": 1517998602.46,
      "cpu_times": {
        "user": 2.26,
        "system": 0.16
      }
    },
    "logfile": "/cw/dtailocal/mercs_python/out/724/oes97/logs/mercspython_Log_F05",
    "command": "python /cw/dtailocal/mercs_python/bin/mercspython.py /cw/dtailocal/mercs_python/out/724/oes97/settings/mercspython_Settings_F05.s"
  }
},
{
  "ts": "2018-02-07T10:20:22.289200",
  "type": "INFO",
  "values": {
    "cmd": "python /cw/dtailocal/mercs_python/bin/mercspython.py /cw/dtailocal/mercs_python/out/724/oes97/settings/mercspython_Settings_F05.s",
    "cwd": null
  }
},
{
  "ts": "2018-02-07T10:20:22.305089",
  "type": "INFO",
  "values": "Start: Run process"
},
{
  "ts": "2018-02-07T10:20:22.343811",
  "type": "INFO",
  "values": "Write log to /cw/dtailocal/mercs_python/out/724/oes97/logs/mercspython_Log_F05.running.log"
},
{
  "ts": "2018-02-07T10:21:05.995065",
  "type": "INFO",
  "values": "Process ended (returncode 0)"
},
{
  "ts": "2018-02-07T10:21:05.995140",
  "type": "INFO",
  "values": "Finished: Run process 43.690 seconds"
},
{
  "ts": "2018-02-07T10:21:05.995220",
  "type": "WARNING",
  "values": {
    "Exit": "finished",
    "Returncode": 0,
    "Time": 43.69007611274719
  }
},
{
  "ts": "2018-02-07T10:21:06.003790",
  "type": "INFO",
  "values": "Closing /cw/dtailocal/mercs_python/out/724/oes97/logs/mercspython_Log_F05.running.log"
}
]
