[
{
  "ts": "2018-02-05T16:27:35.185969",
  "type": "SETTINGS",
  "values": {
    "date": "2018/02/05 17:27:35",
    "date_iso": "2018-02-05T17:27:35.185030",
    "params": null,
    "system": {
      "nodename": "gibson",
      "machine": "x86_64",
      "platform": "Linux-4.4.0-112-generic-x86_64-with-debian-stretch-sid",
      "processor": "x86_64",
      "version": "#135-Ubuntu SMP Fri Jan 19 11:48:36 UTC 2018",
      "system": "Linux",
      "cpu_count": 8,
      "cpu_times": {
        "user": 120639.33,
        "system": 18480.48,
        "idle": 7637232.86,
        "nice": 751.58
      },
      "cpu_percent": 99.9,
      "virtual_memory": {
        "total": 33618501632,
        "available": 25506627584,
        "percent": 24.1,
        "used": 7179857920,
        "free": 8885940224
      }
    },
    "process": {
      "username": "evgeniya",
      "cwd": "/cw/dtailocal/mercs_python/src/core",
      "create_time": 1517847936.86,
      "cpu_times": {
        "user": 1.9,
        "system": 0.08
      }
    },
    "logfile": "/cw/dtailocal/mercs_python/out/275/oes97/logs/mercspython_Log_F02",
    "command": "python /cw/dtailocal/mercs_python/bin/mercspython.py /cw/dtailocal/mercs_python/out/275/oes97/settings/mercspython_Settings_F02.s"
  }
},
{
  "ts": "2018-02-05T16:27:35.186140",
  "type": "INFO",
  "values": {
    "cmd": "python /cw/dtailocal/mercs_python/bin/mercspython.py /cw/dtailocal/mercs_python/out/275/oes97/settings/mercspython_Settings_F02.s",
    "cwd": null
  }
},
{
  "ts": "2018-02-05T16:27:35.221480",
  "type": "INFO",
  "values": "Start: Run process"
},
{
  "ts": "2018-02-05T16:27:35.247808",
  "type": "INFO",
  "values": "Write log to /cw/dtailocal/mercs_python/out/275/oes97/logs/mercspython_Log_F02.running.log"
},
{
  "ts": "2018-02-05T16:28:32.315242",
  "type": "INFO",
  "values": "Process ended (returncode 0)"
},
{
  "ts": "2018-02-05T16:28:32.315322",
  "type": "INFO",
  "values": "Finished: Run process 57.094 seconds"
},
{
  "ts": "2018-02-05T16:28:32.315405",
  "type": "WARNING",
  "values": {
    "Exit": "finished",
    "Returncode": 0,
    "Time": 57.09387230873108
  }
},
{
  "ts": "2018-02-05T16:28:32.327888",
  "type": "INFO",
  "values": "Closing /cw/dtailocal/mercs_python/out/275/oes97/logs/mercspython_Log_F02.running.log"
}
]
