[
{
  "ts": "2018-02-05T16:32:41.105515",
  "type": "SETTINGS",
  "values": {
    "date": "2018/02/05 17:32:41",
    "date_iso": "2018-02-05T17:32:41.104461",
    "params": null,
    "system": {
      "nodename": "gibson",
      "machine": "x86_64",
      "platform": "Linux-4.4.0-112-generic-x86_64-with-debian-stretch-sid",
      "processor": "x86_64",
      "version": "#135-Ubuntu SMP Fri Jan 19 11:48:36 UTC 2018",
      "system": "Linux",
      "cpu_count": 8,
      "cpu_times": {
        "user": 123059.16,
        "system": 18504.29,
        "idle": 7637233.46,
        "nice": 751.58
      },
      "cpu_percent": 100.0,
      "virtual_memory": {
        "total": 33618501632,
        "available": 25584582656,
        "percent": 23.9,
        "used": 7047622656,
        "free": 8660520960
      }
    },
    "process": {
      "username": "evgeniya",
      "cwd": "/cw/dtailocal/mercs_python/src/core",
      "create_time": 1517847936.86,
      "cpu_times": {
        "user": 2.44,
        "system": 0.18
      }
    },
    "logfile": "/cw/dtailocal/mercs_python/out/275/oes97/logs/mercspython_Log_F07",
    "command": "python /cw/dtailocal/mercs_python/bin/mercspython.py /cw/dtailocal/mercs_python/out/275/oes97/settings/mercspython_Settings_F07.s"
  }
},
{
  "ts": "2018-02-05T16:32:41.105669",
  "type": "INFO",
  "values": {
    "cmd": "python /cw/dtailocal/mercs_python/bin/mercspython.py /cw/dtailocal/mercs_python/out/275/oes97/settings/mercspython_Settings_F07.s",
    "cwd": null
  }
},
{
  "ts": "2018-02-05T16:32:41.121793",
  "type": "INFO",
  "values": "Start: Run process"
},
{
  "ts": "2018-02-05T16:32:41.183817",
  "type": "INFO",
  "values": "Write log to /cw/dtailocal/mercs_python/out/275/oes97/logs/mercspython_Log_F07.running.log"
},
{
  "ts": "2018-02-05T16:33:47.869420",
  "type": "INFO",
  "values": "Process ended (returncode 0)"
},
{
  "ts": "2018-02-05T16:33:47.869500",
  "type": "INFO",
  "values": "Finished: Run process 66.748 seconds"
},
{
  "ts": "2018-02-05T16:33:47.869580",
  "type": "WARNING",
  "values": {
    "Exit": "finished",
    "Returncode": 0,
    "Time": 66.74773263931274
  }
},
{
  "ts": "2018-02-05T16:33:47.875831",
  "type": "INFO",
  "values": "Closing /cw/dtailocal/mercs_python/out/275/oes97/logs/mercspython_Log_F07.running.log"
}
]
