[SETTINGS] {
  "date": "2018/02/06 13:07:16",
  "date_iso": "2018-02-06T13:07:16.670364",
  "params": null,
  "system": {
    "nodename": "gibson",
    "machine": "x86_64",
    "platform": "Linux-4.4.0-112-generic-x86_64-with-debian-stretch-sid",
    "processor": "x86_64",
    "version": "#135-Ubuntu SMP Fri Jan 19 11:48:36 UTC 2018",
    "system": "Linux",
    "cpu_count": 8,
    "cpu_times": {
      "user": 342244.94,
      "system": 20889.16,
      "idle": 7978132.11,
      "nice": 821.4
    },
    "cpu_percent": 84.9,
    "virtual_memory": {
      "total": 33618501632,
      "available": 23014318080,
      "percent": 31.5,
      "used": 9563688960,
      "free": 10902110208
    }
  },
  "process": {
    "username": "evgeniya",
    "cwd": "/cw/dtailocal/mercs_python/src/core",
    "create_time": 1517918819.54,
    "cpu_times": {
      "user": 1.18,
      "system": 0.43
    }
  },
  "logfile": "/cw/dtailocal/mercs_python/out/601/enb/logs/mercspython_Log_F06",
  "command": "python /cw/dtailocal/mercs_python/bin/mercspython.py /cw/dtailocal/mercs_python/out/601/enb/settings/mercspython_Settings_F06.s"
}
[INFO] cmd:python /cw/dtailocal/mercs_python/bin/mercspython.py /cw/dtailocal/mercs_python/out/601/enb/settings/mercspython_Settings_F06.s; cwd:None
[INFO] Start: Run process
[INFO] Write log to /cw/dtailocal/mercs_python/out/601/enb/logs/mercspython_Log_F06.running.log
[STDERR] /cw/dtailocal/mercs_python/bin/mercspython.py:122: DataConversionWarning: A column-vector y was passed when a 1d array was expected. Please change the shape of y to (n_samples,), for example using ravel().
[STDERR]   models[i].fit(X, Y)
[STDERR] /cw/dtailocal/mercs_python/bin/mercspython.py:122: DataConversionWarning: A column-vector y was passed when a 1d array was expected. Please change the shape of y to (n_samples,), for example using ravel().
[STDERR]   models[i].fit(X, Y)
[STDERR] /cw/dtailocal/mercs_python/bin/mercspython.py:122: DataConversionWarning: A column-vector y was passed when a 1d array was expected. Please change the shape of y to (n_samples,), for example using ravel().
[STDERR]   models[i].fit(X, Y)
[STDERR] /cw/dtailocal/mercs_python/bin/mercspython.py:122: DataConversionWarning: A column-vector y was passed when a 1d array was expected. Please change the shape of y to (n_samples,), for example using ravel().
[STDERR]   models[i].fit(X, Y)
[STDERR] /cw/dtailocal/mercs_python/bin/mercspython.py:122: DataConversionWarning: A column-vector y was passed when a 1d array was expected. Please change the shape of y to (n_samples,), for example using ravel().
[STDERR]   models[i].fit(X, Y)
[STDERR] /cw/dtailocal/mercs_python/bin/mercspython.py:122: DataConversionWarning: A column-vector y was passed when a 1d array was expected. Please change the shape of y to (n_samples,), for example using ravel().
[STDERR]   models[i].fit(X, Y)
[STDERR] /cw/dtailocal/mercs_python/bin/mercspython.py:122: DataConversionWarning: A column-vector y was passed when a 1d array was expected. Please change the shape of y to (n_samples,), for example using ravel().
[STDERR]   models[i].fit(X, Y)
[STDERR] /cw/dtailocal/mercs_python/bin/mercspython.py:122: DataConversionWarning: A column-vector y was passed when a 1d array was expected. Please change the shape of y to (n_samples,), for example using ravel().
[STDERR]   models[i].fit(X, Y)
[STDERR] /cw/dtailocal/mercs_python/bin/mercspython.py:122: DataConversionWarning: A column-vector y was passed when a 1d array was expected. Please change the shape of y to (n_samples,), for example using ravel().
[STDERR]   models[i].fit(X, Y)
[STDERR] /cw/dtailocal/mercs_python/bin/mercspython.py:122: DataConversionWarning: A column-vector y was passed when a 1d array was expected. Please change the shape of y to (n_samples,), for example using ravel().
[STDERR]   models[i].fit(X, Y)
[[0, 0, 0, 0, 0, 0, 0, 0, 0, 1], [0, 0, 0, 0, 0, 0, 0, 0, 1, 0], [0, 0, 0, 0, 0, 0, 1, 0, 0, 0], [0, 0, 0, 0, 0, 0, 0, 1, 0, 0], [0, 0, 0, 0, 0, 1, 0, 0, 0, 0], [0, 0, 0, 1, 0, 0, 0, 0, 0, 0], [0, 0, 1, 0, 0, 0, 0, 0, 0, 0], [1, 0, 0, 0, 0, 0, 0, 0, 0, 0], [0, 1, 0, 0, 0, 0, 0, 0, 0, 0], [0, 0, 0, 0, 1, 0, 0, 0, 0, 0]]
====================================================
Total induction time of the MDEModel was: 1346 ms
====================================================
====================================================
Total inference time of the MDEModel was: 67 ms
====================================================
====================================================
This was for: 10 queries.
====================================================
[INFO] Process ended (returncode 0)
[INFO] Finished: Run process 2.622 seconds
[WARNING] Exit:finished; Returncode:0; Time:2.62151
