[
{
  "ts": "2018-02-05T16:49:52.137269",
  "type": "SETTINGS",
  "values": {
    "date": "2018/02/05 17:49:52",
    "date_iso": "2018-02-05T17:49:52.136363",
    "params": null,
    "system": {
      "nodename": "gibson",
      "machine": "x86_64",
      "platform": "Linux-4.4.0-112-generic-x86_64-with-debian-stretch-sid",
      "processor": "x86_64",
      "version": "#135-Ubuntu SMP Fri Jan 19 11:48:36 UTC 2018",
      "system": "Linux",
      "cpu_count": 8,
      "cpu_times": {
        "user": 131234.94,
        "system": 18570.68,
        "idle": 7637234.38,
        "nice": 751.58
      },
      "cpu_percent": 100.0,
      "virtual_memory": {
        "total": 33618501632,
        "available": 24768806912,
        "percent": 26.3,
        "used": 7825883136,
        "free": 7616634880
      }
    },
    "process": {
      "username": "evgeniya",
      "cwd": "/cw/dtailocal/mercs_python/src/core",
      "create_time": 1517849061.24,
      "cpu_times": {
        "user": 1.08,
        "system": 0.1
      }
    },
    "logfile": "/cw/dtailocal/mercs_python/out/296/rf1/logs/mercspython_Log_F02",
    "command": "python /cw/dtailocal/mercs_python/bin/mercspython.py /cw/dtailocal/mercs_python/out/296/rf1/settings/mercspython_Settings_F02.s"
  }
},
{
  "ts": "2018-02-05T16:49:52.137454",
  "type": "INFO",
  "values": {
    "cmd": "python /cw/dtailocal/mercs_python/bin/mercspython.py /cw/dtailocal/mercs_python/out/296/rf1/settings/mercspython_Settings_F02.s",
    "cwd": null
  }
},
{
  "ts": "2018-02-05T16:49:52.163050",
  "type": "INFO",
  "values": "Start: Run process"
},
{
  "ts": "2018-02-05T16:49:52.199823",
  "type": "INFO",
  "values": "Write log to /cw/dtailocal/mercs_python/out/296/rf1/logs/mercspython_Log_F02.running.log"
},
{
  "ts": "2018-02-05T16:52:20.779780",
  "type": "INFO",
  "values": "Process ended (returncode 0)"
},
{
  "ts": "2018-02-05T16:52:20.779866",
  "type": "INFO",
  "values": "Finished: Run process 148.617 seconds"
},
{
  "ts": "2018-02-05T16:52:20.779948",
  "type": "WARNING",
  "values": {
    "Exit": "finished",
    "Returncode": 0,
    "Time": 148.61684608459473
  }
},
{
  "ts": "2018-02-05T16:52:20.787818",
  "type": "INFO",
  "values": "Closing /cw/dtailocal/mercs_python/out/296/rf1/logs/mercspython_Log_F02.running.log"
}
]
