[
{
  "ts": "2018-02-05T16:47:18.673380",
  "type": "SETTINGS",
  "values": {
    "date": "2018/02/05 17:47:18",
    "date_iso": "2018-02-05T17:47:18.672450",
    "params": null,
    "system": {
      "nodename": "gibson",
      "machine": "x86_64",
      "platform": "Linux-4.4.0-112-generic-x86_64-with-debian-stretch-sid",
      "processor": "x86_64",
      "version": "#135-Ubuntu SMP Fri Jan 19 11:48:36 UTC 2018",
      "system": "Linux",
      "cpu_count": 8,
      "cpu_times": {
        "user": 130016.22,
        "system": 18562.12,
        "idle": 7637234.34,
        "nice": 751.58
      },
      "cpu_percent": 100.0,
      "virtual_memory": {
        "total": 33618501632,
        "available": 23208968192,
        "percent": 31.0,
        "used": 9386246144,
        "free": 6059859968
      }
    },
    "process": {
      "username": "evgeniya",
      "cwd": "/cw/dtailocal/mercs_python/src/core",
      "create_time": 1517849061.24,
      "cpu_times": {
        "user": 1.0,
        "system": 0.1
      }
    },
    "logfile": "/cw/dtailocal/mercs_python/out/296/rf1/logs/mercspython_Log_F01",
    "command": "python /cw/dtailocal/mercs_python/bin/mercspython.py /cw/dtailocal/mercs_python/out/296/rf1/settings/mercspython_Settings_F01.s"
  }
},
{
  "ts": "2018-02-05T16:47:18.673541",
  "type": "INFO",
  "values": {
    "cmd": "python /cw/dtailocal/mercs_python/bin/mercspython.py /cw/dtailocal/mercs_python/out/296/rf1/settings/mercspython_Settings_F01.s",
    "cwd": null
  }
},
{
  "ts": "2018-02-05T16:47:18.705913",
  "type": "INFO",
  "values": "Start: Run process"
},
{
  "ts": "2018-02-05T16:47:18.735907",
  "type": "INFO",
  "values": "Write log to /cw/dtailocal/mercs_python/out/296/rf1/logs/mercspython_Log_F01.running.log"
},
{
  "ts": "2018-02-05T16:49:52.126412",
  "type": "INFO",
  "values": "Process ended (returncode 0)"
},
{
  "ts": "2018-02-05T16:49:52.126497",
  "type": "INFO",
  "values": "Finished: Run process 153.421 seconds"
},
{
  "ts": "2018-02-05T16:49:52.126579",
  "type": "WARNING",
  "values": {
    "Exit": "finished",
    "Returncode": 0,
    "Time": 153.42060923576355
  }
},
{
  "ts": "2018-02-05T16:49:52.135844",
  "type": "INFO",
  "values": "Closing /cw/dtailocal/mercs_python/out/296/rf1/logs/mercspython_Log_F01.running.log"
}
]
