[
{
  "ts": "2018-02-06T12:19:38.581171",
  "type": "SETTINGS",
  "values": {
    "date": "2018/02/06 13:19:38",
    "date_iso": "2018-02-06T13:19:38.580589",
    "params": null,
    "system": {
      "nodename": "gibson",
      "machine": "x86_64",
      "platform": "Linux-4.4.0-112-generic-x86_64-with-debian-stretch-sid",
      "processor": "x86_64",
      "version": "#135-Ubuntu SMP Fri Jan 19 11:48:36 UTC 2018",
      "system": "Linux",
      "cpu_count": 8,
      "cpu_times": {
        "user": 347319.6,
        "system": 20966.99,
        "idle": 7978901.82,
        "nice": 821.4
      },
      "cpu_percent": 87.3,
      "virtual_memory": {
        "total": 33618501632,
        "available": 24818970624,
        "percent": 26.2,
        "used": 7724371968,
        "free": 12483592192
      }
    },
    "process": {
      "username": "evgeniya",
      "cwd": "/cw/dtailocal/mercs_python/src/core",
      "create_time": 1517918575.93,
      "cpu_times": {
        "user": 1.75,
        "system": 0.77
      }
    },
    "logfile": "/cw/dtailocal/mercs_python/out/552/scm20d/logs/mercspython_Log_F08",
    "command": "python /cw/dtailocal/mercs_python/bin/mercspython.py /cw/dtailocal/mercs_python/out/552/scm20d/settings/mercspython_Settings_F08.s"
  }
},
{
  "ts": "2018-02-06T12:19:38.581259",
  "type": "INFO",
  "values": {
    "cmd": "python /cw/dtailocal/mercs_python/bin/mercspython.py /cw/dtailocal/mercs_python/out/552/scm20d/settings/mercspython_Settings_F08.s",
    "cwd": null
  }
},
{
  "ts": "2018-02-06T12:19:38.583917",
  "type": "INFO",
  "values": "Start: Run process"
},
{
  "ts": "2018-02-06T12:19:38.584381",
  "type": "INFO",
  "values": "Write log to /cw/dtailocal/mercs_python/out/552/scm20d/logs/mercspython_Log_F08.running.log"
},
{
  "ts": "2018-02-06T12:21:52.544220",
  "type": "INFO",
  "values": "Process ended (returncode 0)"
},
{
  "ts": "2018-02-06T12:21:52.544296",
  "type": "INFO",
  "values": "Finished: Run process 133.960 seconds"
},
{
  "ts": "2018-02-06T12:21:52.544380",
  "type": "WARNING",
  "values": {
    "Exit": "finished",
    "Returncode": 0,
    "Time": 133.9604127407074
  }
}
]
