[
{
  "ts": "2018-02-07T10:16:19.553559",
  "type": "SETTINGS",
  "values": {
    "date": "2018/02/07 11:16:19",
    "date_iso": "2018-02-07T11:16:19.552687",
    "params": null,
    "system": {
      "nodename": "gibson",
      "machine": "x86_64",
      "platform": "Linux-4.4.0-112-generic-x86_64-with-debian-stretch-sid",
      "processor": "x86_64",
      "version": "#135-Ubuntu SMP Fri Jan 19 11:48:36 UTC 2018",
      "system": "Linux",
      "cpu_count": 8,
      "cpu_times": {
        "user": 377711.43,
        "system": 22366.38,
        "idle": 8577341.63,
        "nice": 898.04
      },
      "cpu_percent": 99.9,
      "virtual_memory": {
        "total": 33618501632,
        "available": 25726771200,
        "percent": 23.5,
        "used": 7022862336,
        "free": 11620298752
      }
    },
    "process": {
      "username": "evgeniya",
      "cwd": "/cw/dtailocal/mercs_python/src/core",
      "create_time": 1517998568.11,
      "cpu_times": {
        "user": 0.9,
        "system": 0.14
      }
    },
    "logfile": "/cw/dtailocal/mercs_python/out/721/andro/logs/mercspython_Log_F03",
    "command": "python /cw/dtailocal/mercs_python/bin/mercspython.py /cw/dtailocal/mercs_python/out/721/andro/settings/mercspython_Settings_F03.s"
  }
},
{
  "ts": "2018-02-07T10:16:19.553714",
  "type": "INFO",
  "values": {
    "cmd": "python /cw/dtailocal/mercs_python/bin/mercspython.py /cw/dtailocal/mercs_python/out/721/andro/settings/mercspython_Settings_F03.s",
    "cwd": null
  }
},
{
  "ts": "2018-02-07T10:16:19.565503",
  "type": "INFO",
  "values": "Start: Run process"
},
{
  "ts": "2018-02-07T10:16:19.566684",
  "type": "INFO",
  "values": "Write log to /cw/dtailocal/mercs_python/out/721/andro/logs/mercspython_Log_F03.running.log"
},
{
  "ts": "2018-02-07T10:16:22.770601",
  "type": "INFO",
  "values": "Process ended (returncode 0)"
},
{
  "ts": "2018-02-07T10:16:22.770680",
  "type": "INFO",
  "values": "Finished: Run process 3.205 seconds"
},
{
  "ts": "2018-02-07T10:16:22.770765",
  "type": "WARNING",
  "values": {
    "Exit": "finished",
    "Returncode": 0,
    "Time": 3.205200433731079
  }
}
]
