[
{
  "ts": "2018-02-07T10:16:34.974354",
  "type": "SETTINGS",
  "values": {
    "date": "2018/02/07 11:16:34",
    "date_iso": "2018-02-07T11:16:34.973498",
    "params": null,
    "system": {
      "nodename": "gibson",
      "machine": "x86_64",
      "platform": "Linux-4.4.0-112-generic-x86_64-with-debian-stretch-sid",
      "processor": "x86_64",
      "version": "#135-Ubuntu SMP Fri Jan 19 11:48:36 UTC 2018",
      "system": "Linux",
      "cpu_count": 8,
      "cpu_times": {
        "user": 377830.9,
        "system": 22369.68,
        "idle": 8577341.95,
        "nice": 898.04
      },
      "cpu_percent": 99.8,
      "virtual_memory": {
        "total": 33618501632,
        "available": 25375342592,
        "percent": 24.5,
        "used": 7374569472,
        "free": 11266658304
      }
    },
    "process": {
      "username": "evgeniya",
      "cwd": "/cw/dtailocal/mercs_python/src/core",
      "create_time": 1517998568.11,
      "cpu_times": {
        "user": 1.51,
        "system": 0.22
      }
    },
    "logfile": "/cw/dtailocal/mercs_python/out/721/andro/logs/mercspython_Log_F08",
    "command": "python /cw/dtailocal/mercs_python/bin/mercspython.py /cw/dtailocal/mercs_python/out/721/andro/settings/mercspython_Settings_F08.s"
  }
},
{
  "ts": "2018-02-07T10:16:34.974505",
  "type": "INFO",
  "values": {
    "cmd": "python /cw/dtailocal/mercs_python/bin/mercspython.py /cw/dtailocal/mercs_python/out/721/andro/settings/mercspython_Settings_F08.s",
    "cwd": null
  }
},
{
  "ts": "2018-02-07T10:16:35.001443",
  "type": "INFO",
  "values": "Start: Run process"
},
{
  "ts": "2018-02-07T10:16:35.039810",
  "type": "INFO",
  "values": "Write log to /cw/dtailocal/mercs_python/out/721/andro/logs/mercspython_Log_F08.running.log"
},
{
  "ts": "2018-02-07T10:16:38.253373",
  "type": "INFO",
  "values": "Process ended (returncode 0)"
},
{
  "ts": "2018-02-07T10:16:38.253461",
  "type": "INFO",
  "values": "Finished: Run process 3.252 seconds"
},
{
  "ts": "2018-02-07T10:16:38.253544",
  "type": "WARNING",
  "values": {
    "Exit": "finished",
    "Returncode": 0,
    "Time": 3.2520432472229004
  }
},
{
  "ts": "2018-02-07T10:16:38.267809",
  "type": "INFO",
  "values": "Closing /cw/dtailocal/mercs_python/out/721/andro/logs/mercspython_Log_F08.running.log"
}
]
