[
{
  "ts": "2018-02-07T10:23:28.505116",
  "type": "SETTINGS",
  "values": {
    "date": "2018/02/07 11:23:28",
    "date_iso": "2018-02-07T11:23:28.504268",
    "params": null,
    "system": {
      "nodename": "gibson",
      "machine": "x86_64",
      "platform": "Linux-4.4.0-112-generic-x86_64-with-debian-stretch-sid",
      "processor": "x86_64",
      "version": "#135-Ubuntu SMP Fri Jan 19 11:48:36 UTC 2018",
      "system": "Linux",
      "cpu_count": 8,
      "cpu_times": {
        "user": 381096.9,
        "system": 22405.08,
        "idle": 8577343.43,
        "nice": 901.26
      },
      "cpu_percent": 100.0,
      "virtual_memory": {
        "total": 33618501632,
        "available": 24494919680,
        "percent": 27.1,
        "used": 8254746624,
        "free": 10358640640
      }
    },
    "process": {
      "username": "evgeniya",
      "cwd": "/cw/dtailocal/mercs_python/src/core",
      "create_time": 1517998996.6,
      "cpu_times": {
        "user": 1.08,
        "system": 0.14
      }
    },
    "logfile": "/cw/dtailocal/mercs_python/out/733/slump/logs/mercspython_Log_F04",
    "command": "python /cw/dtailocal/mercs_python/bin/mercspython.py /cw/dtailocal/mercs_python/out/733/slump/settings/mercspython_Settings_F04.s"
  }
},
{
  "ts": "2018-02-07T10:23:28.505272",
  "type": "INFO",
  "values": {
    "cmd": "python /cw/dtailocal/mercs_python/bin/mercspython.py /cw/dtailocal/mercs_python/out/733/slump/settings/mercspython_Settings_F04.s",
    "cwd": null
  }
},
{
  "ts": "2018-02-07T10:23:28.537344",
  "type": "INFO",
  "values": "Start: Run process"
},
{
  "ts": "2018-02-07T10:23:28.575802",
  "type": "INFO",
  "values": "Write log to /cw/dtailocal/mercs_python/out/733/slump/logs/mercspython_Log_F04.running.log"
},
{
  "ts": "2018-02-07T10:23:30.980076",
  "type": "INFO",
  "values": "Process ended (returncode 0)"
},
{
  "ts": "2018-02-07T10:23:30.980172",
  "type": "INFO",
  "values": "Finished: Run process 2.443 seconds"
},
{
  "ts": "2018-02-07T10:23:30.980260",
  "type": "WARNING",
  "values": {
    "Exit": "finished",
    "Returncode": 0,
    "Time": 2.442859172821045
  }
},
{
  "ts": "2018-02-07T10:23:30.987819",
  "type": "INFO",
  "values": "Closing /cw/dtailocal/mercs_python/out/733/slump/logs/mercspython_Log_F04.running.log"
}
]
