[
{
  "ts": "2018-02-07T13:04:19.545277",
  "type": "SETTINGS",
  "values": {
    "date": "2018/02/07 14:04:19",
    "date_iso": "2018-02-07T14:04:19.544430",
    "params": null,
    "system": {
      "nodename": "gibson",
      "machine": "x86_64",
      "platform": "Linux-4.4.0-112-generic-x86_64-with-debian-stretch-sid",
      "processor": "x86_64",
      "version": "#135-Ubuntu SMP Fri Jan 19 11:48:36 UTC 2018",
      "system": "Linux",
      "cpu_count": 8,
      "cpu_times": {
        "user": 400123.76,
        "system": 23540.48,
        "idle": 8633956.64,
        "nice": 906.12
      },
      "cpu_percent": 99.1,
      "virtual_memory": {
        "total": 33618501632,
        "available": 25820422144,
        "percent": 23.2,
        "used": 6855372800,
        "free": 11527020544
      }
    },
    "process": {
      "username": "evgeniya",
      "cwd": "/cw/dtailocal/mercs_python/src/core",
      "create_time": 1518008621.83,
      "cpu_times": {
        "user": 1.43,
        "system": 0.22
      }
    },
    "logfile": "/cw/dtailocal/mercs_python/out/802/jura/logs/mercspython_Log_F08",
    "command": "python /cw/dtailocal/mercs_python/bin/mercspython.py /cw/dtailocal/mercs_python/out/802/jura/settings/mercspython_Settings_F08.s"
  }
},
{
  "ts": "2018-02-07T13:04:19.545428",
  "type": "INFO",
  "values": {
    "cmd": "python /cw/dtailocal/mercs_python/bin/mercspython.py /cw/dtailocal/mercs_python/out/802/jura/settings/mercspython_Settings_F08.s",
    "cwd": null
  }
},
{
  "ts": "2018-02-07T13:04:19.573303",
  "type": "INFO",
  "values": "Start: Run process"
},
{
  "ts": "2018-02-07T13:04:19.607783",
  "type": "INFO",
  "values": "Write log to /cw/dtailocal/mercs_python/out/802/jura/logs/mercspython_Log_F08.running.log"
},
{
  "ts": "2018-02-07T13:04:24.213768",
  "type": "INFO",
  "values": "Process ended (returncode 0)"
},
{
  "ts": "2018-02-07T13:04:24.213856",
  "type": "INFO",
  "values": "Finished: Run process 4.641 seconds"
},
{
  "ts": "2018-02-07T13:04:24.214151",
  "type": "WARNING",
  "values": {
    "Exit": "finished",
    "Returncode": 0,
    "Time": 4.640584468841553
  }
},
{
  "ts": "2018-02-07T13:04:24.214545",
  "type": "INFO",
  "values": "Closing /cw/dtailocal/mercs_python/out/802/jura/logs/mercspython_Log_F08.running.log"
}
]
