[
{
  "ts": "2018-02-07T13:03:52.305967",
  "type": "SETTINGS",
  "values": {
    "date": "2018/02/07 14:03:52",
    "date_iso": "2018-02-07T14:03:52.305039",
    "params": null,
    "system": {
      "nodename": "gibson",
      "machine": "x86_64",
      "platform": "Linux-4.4.0-112-generic-x86_64-with-debian-stretch-sid",
      "processor": "x86_64",
      "version": "#135-Ubuntu SMP Fri Jan 19 11:48:36 UTC 2018",
      "system": "Linux",
      "cpu_count": 8,
      "cpu_times": {
        "user": 399918.3,
        "system": 23531.58,
        "idle": 8633954.27,
        "nice": 906.12
      },
      "cpu_percent": 97.5,
      "virtual_memory": {
        "total": 33618501632,
        "available": 26154983424,
        "percent": 22.2,
        "used": 6510612480,
        "free": 11867381760
      }
    },
    "process": {
      "username": "evgeniya",
      "cwd": "/cw/dtailocal/mercs_python/src/core",
      "create_time": 1518008621.83,
      "cpu_times": {
        "user": 0.72,
        "system": 0.11
      }
    },
    "logfile": "/cw/dtailocal/mercs_python/out/802/jura/logs/mercspython_Log_F02",
    "command": "python /cw/dtailocal/mercs_python/bin/mercspython.py /cw/dtailocal/mercs_python/out/802/jura/settings/mercspython_Settings_F02.s"
  }
},
{
  "ts": "2018-02-07T13:03:52.306127",
  "type": "INFO",
  "values": {
    "cmd": "python /cw/dtailocal/mercs_python/bin/mercspython.py /cw/dtailocal/mercs_python/out/802/jura/settings/mercspython_Settings_F02.s",
    "cwd": null
  }
},
{
  "ts": "2018-02-07T13:03:52.311143",
  "type": "INFO",
  "values": "Start: Run process"
},
{
  "ts": "2018-02-07T13:03:52.316804",
  "type": "INFO",
  "values": "Write log to /cw/dtailocal/mercs_python/out/802/jura/logs/mercspython_Log_F02.running.log"
},
{
  "ts": "2018-02-07T13:03:57.122889",
  "type": "INFO",
  "values": "Process ended (returncode 0)"
},
{
  "ts": "2018-02-07T13:03:57.122978",
  "type": "INFO",
  "values": "Finished: Run process 4.812 seconds"
},
{
  "ts": "2018-02-07T13:03:57.123068",
  "type": "WARNING",
  "values": {
    "Exit": "finished",
    "Returncode": 0,
    "Time": 4.811879634857178
  }
}
]
