[
{
  "ts": "2018-02-06T09:54:38.260073",
  "type": "SETTINGS",
  "values": {
    "date": "2018/02/06 10:54:38",
    "date_iso": "2018-02-06T10:54:38.259048",
    "params": null,
    "system": {
      "nodename": "gibson",
      "machine": "x86_64",
      "platform": "Linux-4.4.0-112-generic-x86_64-with-debian-stretch-sid",
      "processor": "x86_64",
      "version": "#135-Ubuntu SMP Fri Jan 19 11:48:36 UTC 2018",
      "system": "Linux",
      "cpu_count": 8,
      "cpu_times": {
        "user": 312670.8,
        "system": 20365.3,
        "idle": 7944819.02,
        "nice": 819.07
      },
      "cpu_percent": 62.6,
      "virtual_memory": {
        "total": 33618501632,
        "available": 25818734592,
        "percent": 23.2,
        "used": 6699896832,
        "free": 15189098496
      }
    },
    "process": {
      "username": "evgeniya",
      "cwd": "/cw/dtailocal/mercs_python/src/core",
      "create_time": 1517910870.3,
      "cpu_times": {
        "user": 0.82,
        "system": 0.26
      }
    },
    "logfile": "/cw/dtailocal/mercs_python/out/534/jura/logs/mercspython_Log_F04",
    "command": "python /cw/dtailocal/mercs_python/bin/mercspython.py /cw/dtailocal/mercs_python/out/534/jura/settings/mercspython_Settings_F04.s"
  }
},
{
  "ts": "2018-02-06T09:54:38.260241",
  "type": "INFO",
  "values": {
    "cmd": "python /cw/dtailocal/mercs_python/bin/mercspython.py /cw/dtailocal/mercs_python/out/534/jura/settings/mercspython_Settings_F04.s",
    "cwd": null
  }
},
{
  "ts": "2018-02-06T09:54:38.263585",
  "type": "INFO",
  "values": "Start: Run process"
},
{
  "ts": "2018-02-06T09:54:38.264269",
  "type": "INFO",
  "values": "Write log to /cw/dtailocal/mercs_python/out/534/jura/logs/mercspython_Log_F04.running.log"
},
{
  "ts": "2018-02-06T09:54:40.066621",
  "type": "INFO",
  "values": "Process ended (returncode 0)"
},
{
  "ts": "2018-02-06T09:54:40.066693",
  "type": "INFO",
  "values": "Finished: Run process 1.803 seconds"
},
{
  "ts": "2018-02-06T09:54:40.066771",
  "type": "WARNING",
  "values": {
    "Exit": "finished",
    "Returncode": 0,
    "Time": 1.803149938583374
  }
},
{
  "ts": "2018-02-06T09:54:40.067091",
  "type": "INFO",
  "values": "Closing /cw/dtailocal/mercs_python/out/534/jura/logs/mercspython_Log_F04.running.log"
}
]
