[
{
  "ts": "2018-02-06T09:54:40.068325",
  "type": "SETTINGS",
  "values": {
    "date": "2018/02/06 10:54:40",
    "date_iso": "2018-02-06T10:54:40.067526",
    "params": null,
    "system": {
      "nodename": "gibson",
      "machine": "x86_64",
      "platform": "Linux-4.4.0-112-generic-x86_64-with-debian-stretch-sid",
      "processor": "x86_64",
      "version": "#135-Ubuntu SMP Fri Jan 19 11:48:36 UTC 2018",
      "system": "Linux",
      "cpu_count": 8,
      "cpu_times": {
        "user": 312679.65,
        "system": 20365.52,
        "idle": 7944824.14,
        "nice": 819.07
      },
      "cpu_percent": 63.1,
      "virtual_memory": {
        "total": 33618501632,
        "available": 25774837760,
        "percent": 23.3,
        "used": 6743670784,
        "free": 15143272448
      }
    },
    "process": {
      "username": "evgeniya",
      "cwd": "/cw/dtailocal/mercs_python/src/core",
      "create_time": 1517910870.3,
      "cpu_times": {
        "user": 0.92,
        "system": 0.36
      }
    },
    "logfile": "/cw/dtailocal/mercs_python/out/534/jura/logs/mercspython_Log_F05",
    "command": "python /cw/dtailocal/mercs_python/bin/mercspython.py /cw/dtailocal/mercs_python/out/534/jura/settings/mercspython_Settings_F05.s"
  }
},
{
  "ts": "2018-02-06T09:54:40.068464",
  "type": "INFO",
  "values": {
    "cmd": "python /cw/dtailocal/mercs_python/bin/mercspython.py /cw/dtailocal/mercs_python/out/534/jura/settings/mercspython_Settings_F05.s",
    "cwd": null
  }
},
{
  "ts": "2018-02-06T09:54:40.072205",
  "type": "INFO",
  "values": "Start: Run process"
},
{
  "ts": "2018-02-06T09:54:40.072648",
  "type": "INFO",
  "values": "Write log to /cw/dtailocal/mercs_python/out/534/jura/logs/mercspython_Log_F05.running.log"
},
{
  "ts": "2018-02-06T09:54:41.875008",
  "type": "INFO",
  "values": "Process ended (returncode 0)"
},
{
  "ts": "2018-02-06T09:54:41.875092",
  "type": "INFO",
  "values": "Finished: Run process 1.803 seconds"
},
{
  "ts": "2018-02-06T09:54:41.875192",
  "type": "WARNING",
  "values": {
    "Exit": "finished",
    "Returncode": 0,
    "Time": 1.802907943725586
  }
}
]
