[
{
  "ts": "2018-02-05T16:18:20.096293",
  "type": "SETTINGS",
  "values": {
    "date": "2018/02/05 17:18:20",
    "date_iso": "2018-02-05T17:18:20.095444",
    "params": null,
    "system": {
      "nodename": "gibson",
      "machine": "x86_64",
      "platform": "Linux-4.4.0-112-generic-x86_64-with-debian-stretch-sid",
      "processor": "x86_64",
      "version": "#135-Ubuntu SMP Fri Jan 19 11:48:36 UTC 2018",
      "system": "Linux",
      "cpu_count": 8,
      "cpu_times": {
        "user": 116244.33,
        "system": 18441.29,
        "idle": 7637231.13,
        "nice": 749.46
      },
      "cpu_percent": 100.0,
      "virtual_memory": {
        "total": 33618501632,
        "available": 25736773632,
        "percent": 23.4,
        "used": 6977941504,
        "free": 9192497152
      }
    },
    "process": {
      "username": "evgeniya",
      "cwd": "/cw/dtailocal/mercs_python/src/core",
      "create_time": 1517846332.89,
      "cpu_times": {
        "user": 1.73,
        "system": 0.26
      }
    },
    "logfile": "/cw/dtailocal/mercs_python/out/226/rf1/logs/mercspython_Log_F09",
    "command": "python /cw/dtailocal/mercs_python/bin/mercspython.py /cw/dtailocal/mercs_python/out/226/rf1/settings/mercspython_Settings_F09.s"
  }
},
{
  "ts": "2018-02-05T16:18:20.096443",
  "type": "INFO",
  "values": {
    "cmd": "python /cw/dtailocal/mercs_python/bin/mercspython.py /cw/dtailocal/mercs_python/out/226/rf1/settings/mercspython_Settings_F09.s",
    "cwd": null
  }
},
{
  "ts": "2018-02-05T16:18:20.105411",
  "type": "INFO",
  "values": "Start: Run process"
},
{
  "ts": "2018-02-05T16:18:20.117926",
  "type": "INFO",
  "values": "Write log to /cw/dtailocal/mercs_python/out/226/rf1/logs/mercspython_Log_F09.running.log"
},
{
  "ts": "2018-02-05T16:20:33.494970",
  "type": "INFO",
  "values": "Process ended (returncode 0)"
},
{
  "ts": "2018-02-05T16:20:33.495053",
  "type": "INFO",
  "values": "Finished: Run process 133.390 seconds"
},
{
  "ts": "2018-02-05T16:20:33.495132",
  "type": "WARNING",
  "values": {
    "Exit": "finished",
    "Returncode": 0,
    "Time": 133.3896598815918
  }
},
{
  "ts": "2018-02-05T16:20:33.499845",
  "type": "INFO",
  "values": "Closing /cw/dtailocal/mercs_python/out/226/rf1/logs/mercspython_Log_F09.running.log"
}
]
