[
{
  "ts": "2018-02-05T16:07:46.045155",
  "type": "SETTINGS",
  "values": {
    "date": "2018/02/05 17:07:46",
    "date_iso": "2018-02-05T17:07:46.044254",
    "params": null,
    "system": {
      "nodename": "gibson",
      "machine": "x86_64",
      "platform": "Linux-4.4.0-112-generic-x86_64-with-debian-stretch-sid",
      "processor": "x86_64",
      "version": "#135-Ubuntu SMP Fri Jan 19 11:48:36 UTC 2018",
      "system": "Linux",
      "cpu_count": 8,
      "cpu_times": {
        "user": 111240.29,
        "system": 18377.66,
        "idle": 7637229.66,
        "nice": 749.46
      },
      "cpu_percent": 100.0,
      "virtual_memory": {
        "total": 33618501632,
        "available": 21689159680,
        "percent": 35.5,
        "used": 11012456448,
        "free": 5243510784
      }
    },
    "process": {
      "username": "evgeniya",
      "cwd": "/cw/dtailocal/mercs_python/src/core",
      "create_time": 1517846332.89,
      "cpu_times": {
        "user": 1.22,
        "system": 0.18
      }
    },
    "logfile": "/cw/dtailocal/mercs_python/out/226/rf1/logs/mercspython_Log_F04",
    "command": "python /cw/dtailocal/mercs_python/bin/mercspython.py /cw/dtailocal/mercs_python/out/226/rf1/settings/mercspython_Settings_F04.s"
  }
},
{
  "ts": "2018-02-05T16:07:46.045314",
  "type": "INFO",
  "values": {
    "cmd": "python /cw/dtailocal/mercs_python/bin/mercspython.py /cw/dtailocal/mercs_python/out/226/rf1/settings/mercspython_Settings_F04.s",
    "cwd": null
  }
},
{
  "ts": "2018-02-05T16:07:46.057873",
  "type": "INFO",
  "values": "Start: Run process"
},
{
  "ts": "2018-02-05T16:07:46.095788",
  "type": "INFO",
  "values": "Write log to /cw/dtailocal/mercs_python/out/226/rf1/logs/mercspython_Log_F04.running.log"
},
{
  "ts": "2018-02-05T16:09:54.059000",
  "type": "INFO",
  "values": "Process ended (returncode 0)"
},
{
  "ts": "2018-02-05T16:09:54.059085",
  "type": "INFO",
  "values": "Finished: Run process 128.001 seconds"
},
{
  "ts": "2018-02-05T16:09:54.059164",
  "type": "WARNING",
  "values": {
    "Exit": "finished",
    "Returncode": 0,
    "Time": 128.0012331008911
  }
}
]
