[
{
  "ts": "2018-02-06T12:28:50.723312",
  "type": "SETTINGS",
  "values": {
    "date": "2018/02/06 13:28:50",
    "date_iso": "2018-02-06T13:28:50.722478",
    "params": null,
    "system": {
      "nodename": "gibson",
      "machine": "x86_64",
      "platform": "Linux-4.4.0-112-generic-x86_64-with-debian-stretch-sid",
      "processor": "x86_64",
      "version": "#135-Ubuntu SMP Fri Jan 19 11:48:36 UTC 2018",
      "system": "Linux",
      "cpu_count": 8,
      "cpu_times": {
        "user": 350849.29,
        "system": 21035.96,
        "idle": 7979702.08,
        "nice": 823.12
      },
      "cpu_percent": 71.3,
      "virtual_memory": {
        "total": 33618501632,
        "available": 25656266752,
        "percent": 23.7,
        "used": 6925410304,
        "free": 13202595840
      }
    },
    "process": {
      "username": "evgeniya",
      "cwd": "/cw/dtailocal/mercs_python/src/core",
      "create_time": 1517920116.49,
      "cpu_times": {
        "user": 1.07,
        "system": 0.42
      }
    },
    "logfile": "/cw/dtailocal/mercs_python/out/631/wq/logs/mercspython_Log_F04",
    "command": "python /cw/dtailocal/mercs_python/bin/mercspython.py /cw/dtailocal/mercs_python/out/631/wq/settings/mercspython_Settings_F04.s"
  }
},
{
  "ts": "2018-02-06T12:28:50.723572",
  "type": "INFO",
  "values": {
    "cmd": "python /cw/dtailocal/mercs_python/bin/mercspython.py /cw/dtailocal/mercs_python/out/631/wq/settings/mercspython_Settings_F04.s",
    "cwd": null
  }
},
{
  "ts": "2018-02-06T12:28:50.727312",
  "type": "INFO",
  "values": "Start: Run process"
},
{
  "ts": "2018-02-06T12:28:50.727808",
  "type": "INFO",
  "values": "Write log to /cw/dtailocal/mercs_python/out/631/wq/logs/mercspython_Log_F04.running.log"
},
{
  "ts": "2018-02-06T12:28:53.931769",
  "type": "INFO",
  "values": "Process ended (returncode 0)"
},
{
  "ts": "2018-02-06T12:28:53.931854",
  "type": "INFO",
  "values": "Finished: Run process 3.205 seconds"
},
{
  "ts": "2018-02-06T12:28:53.931942",
  "type": "WARNING",
  "values": {
    "Exit": "finished",
    "Returncode": 0,
    "Time": 3.2045795917510986
  }
}
]
