[
{
  "ts": "2018-02-06T12:29:07.594236",
  "type": "SETTINGS",
  "values": {
    "date": "2018/02/06 13:29:07",
    "date_iso": "2018-02-06T13:29:07.593419",
    "params": null,
    "system": {
      "nodename": "gibson",
      "machine": "x86_64",
      "platform": "Linux-4.4.0-112-generic-x86_64-with-debian-stretch-sid",
      "processor": "x86_64",
      "version": "#135-Ubuntu SMP Fri Jan 19 11:48:36 UTC 2018",
      "system": "Linux",
      "cpu_count": 8,
      "cpu_times": {
        "user": 350946.21,
        "system": 21040.27,
        "idle": 7979734.26,
        "nice": 823.12
      },
      "cpu_percent": 76.4,
      "virtual_memory": {
        "total": 33618501632,
        "available": 25551601664,
        "percent": 24.0,
        "used": 7024955392,
        "free": 13088927744
      }
    },
    "process": {
      "username": "evgeniya",
      "cwd": "/cw/dtailocal/mercs_python/src/core",
      "create_time": 1517920116.49,
      "cpu_times": {
        "user": 1.69,
        "system": 0.94
      }
    },
    "logfile": "/cw/dtailocal/mercs_python/out/631/wq/logs/mercspython_Log_F09",
    "command": "python /cw/dtailocal/mercs_python/bin/mercspython.py /cw/dtailocal/mercs_python/out/631/wq/settings/mercspython_Settings_F09.s"
  }
},
{
  "ts": "2018-02-06T12:29:07.594385",
  "type": "INFO",
  "values": {
    "cmd": "python /cw/dtailocal/mercs_python/bin/mercspython.py /cw/dtailocal/mercs_python/out/631/wq/settings/mercspython_Settings_F09.s",
    "cwd": null
  }
},
{
  "ts": "2018-02-06T12:29:07.598233",
  "type": "INFO",
  "values": "Start: Run process"
},
{
  "ts": "2018-02-06T12:29:07.598684",
  "type": "INFO",
  "values": "Write log to /cw/dtailocal/mercs_python/out/631/wq/logs/mercspython_Log_F09.running.log"
},
{
  "ts": "2018-02-06T12:29:11.002846",
  "type": "INFO",
  "values": "Process ended (returncode 0)"
},
{
  "ts": "2018-02-06T12:29:11.002929",
  "type": "INFO",
  "values": "Finished: Run process 3.405 seconds"
},
{
  "ts": "2018-02-06T12:29:11.003025",
  "type": "WARNING",
  "values": {
    "Exit": "finished",
    "Returncode": 0,
    "Time": 3.4047138690948486
  }
},
{
  "ts": "2018-02-06T12:29:11.003335",
  "type": "INFO",
  "values": "Closing /cw/dtailocal/mercs_python/out/631/wq/logs/mercspython_Log_F09.running.log"
}
]
