[
{
  "ts": "2018-02-07T10:15:34.553252",
  "type": "SETTINGS",
  "values": {
    "date": "2018/02/07 11:15:34",
    "date_iso": "2018-02-07T11:15:34.552396",
    "params": null,
    "system": {
      "nodename": "gibson",
      "machine": "x86_64",
      "platform": "Linux-4.4.0-112-generic-x86_64-with-debian-stretch-sid",
      "processor": "x86_64",
      "version": "#135-Ubuntu SMP Fri Jan 19 11:48:36 UTC 2018",
      "system": "Linux",
      "cpu_count": 8,
      "cpu_times": {
        "user": 377365.68,
        "system": 22354.98,
        "idle": 8577340.08,
        "nice": 898.04
      },
      "cpu_percent": 99.6,
      "virtual_memory": {
        "total": 33618501632,
        "available": 26093862912,
        "percent": 22.4,
        "used": 6655909888,
        "free": 11960496128
      }
    },
    "process": {
      "username": "evgeniya",
      "cwd": "/cw/dtailocal/mercs_python/src/core",
      "create_time": 1517998529.69,
      "cpu_times": {
        "user": 0.73,
        "system": 0.1
      }
    },
    "logfile": "/cw/dtailocal/mercs_python/out/715/enb/logs/mercspython_Log_F01",
    "command": "python /cw/dtailocal/mercs_python/bin/mercspython.py /cw/dtailocal/mercs_python/out/715/enb/settings/mercspython_Settings_F01.s"
  }
},
{
  "ts": "2018-02-07T10:15:34.553404",
  "type": "INFO",
  "values": {
    "cmd": "python /cw/dtailocal/mercs_python/bin/mercspython.py /cw/dtailocal/mercs_python/out/715/enb/settings/mercspython_Settings_F01.s",
    "cwd": null
  }
},
{
  "ts": "2018-02-07T10:15:34.569397",
  "type": "INFO",
  "values": "Start: Run process"
},
{
  "ts": "2018-02-07T10:15:34.601396",
  "type": "INFO",
  "values": "Write log to /cw/dtailocal/mercs_python/out/715/enb/logs/mercspython_Log_F01.running.log"
},
{
  "ts": "2018-02-07T10:15:37.609098",
  "type": "INFO",
  "values": "Process ended (returncode 0)"
},
{
  "ts": "2018-02-07T10:15:37.609192",
  "type": "INFO",
  "values": "Finished: Run process 3.040 seconds"
},
{
  "ts": "2018-02-07T10:15:37.609284",
  "type": "WARNING",
  "values": {
    "Exit": "finished",
    "Returncode": 0,
    "Time": 3.0398125648498535
  }
}
]
