[
{
  "ts": "2018-02-07T10:16:00.571099",
  "type": "SETTINGS",
  "values": {
    "date": "2018/02/07 11:16:00",
    "date_iso": "2018-02-07T11:16:00.570011",
    "params": null,
    "system": {
      "nodename": "gibson",
      "machine": "x86_64",
      "platform": "Linux-4.4.0-112-generic-x86_64-with-debian-stretch-sid",
      "processor": "x86_64",
      "version": "#135-Ubuntu SMP Fri Jan 19 11:48:36 UTC 2018",
      "system": "Linux",
      "cpu_count": 8,
      "cpu_times": {
        "user": 377564.9,
        "system": 22361.88,
        "idle": 8577341.24,
        "nice": 898.04
      },
      "cpu_percent": 99.0,
      "virtual_memory": {
        "total": 33618501632,
        "available": 26056671232,
        "percent": 22.5,
        "used": 6692802560,
        "free": 11936423936
      }
    },
    "process": {
      "username": "evgeniya",
      "cwd": "/cw/dtailocal/mercs_python/src/core",
      "create_time": 1517998529.69,
      "cpu_times": {
        "user": 1.61,
        "system": 0.23
      }
    },
    "logfile": "/cw/dtailocal/mercs_python/out/715/enb/logs/mercspython_Log_F09",
    "command": "python /cw/dtailocal/mercs_python/bin/mercspython.py /cw/dtailocal/mercs_python/out/715/enb/settings/mercspython_Settings_F09.s"
  }
},
{
  "ts": "2018-02-07T10:16:00.571263",
  "type": "INFO",
  "values": {
    "cmd": "python /cw/dtailocal/mercs_python/bin/mercspython.py /cw/dtailocal/mercs_python/out/715/enb/settings/mercspython_Settings_F09.s",
    "cwd": null
  }
},
{
  "ts": "2018-02-07T10:16:00.593634",
  "type": "INFO",
  "values": "Start: Run process"
},
{
  "ts": "2018-02-07T10:16:00.627793",
  "type": "INFO",
  "values": "Write log to /cw/dtailocal/mercs_python/out/715/enb/logs/mercspython_Log_F09.running.log"
},
{
  "ts": "2018-02-07T10:16:03.631539",
  "type": "INFO",
  "values": "Process ended (returncode 0)"
},
{
  "ts": "2018-02-07T10:16:03.631623",
  "type": "INFO",
  "values": "Finished: Run process 3.038 seconds"
},
{
  "ts": "2018-02-07T10:16:03.631718",
  "type": "WARNING",
  "values": {
    "Exit": "finished",
    "Returncode": 0,
    "Time": 3.0380117893218994
  }
},
{
  "ts": "2018-02-07T10:16:03.639814",
  "type": "INFO",
  "values": "Closing /cw/dtailocal/mercs_python/out/715/enb/logs/mercspython_Log_F09.running.log"
}
]
