[
{
  "ts": "2018-02-07T10:15:37.610997",
  "type": "SETTINGS",
  "values": {
    "date": "2018/02/07 11:15:37",
    "date_iso": "2018-02-07T11:15:37.610089",
    "params": null,
    "system": {
      "nodename": "gibson",
      "machine": "x86_64",
      "platform": "Linux-4.4.0-112-generic-x86_64-with-debian-stretch-sid",
      "processor": "x86_64",
      "version": "#135-Ubuntu SMP Fri Jan 19 11:48:36 UTC 2018",
      "system": "Linux",
      "cpu_count": 8,
      "cpu_times": {
        "user": 377388.94,
        "system": 22355.93,
        "idle": 8577340.22,
        "nice": 898.04
      },
      "cpu_percent": 99.4,
      "virtual_memory": {
        "total": 33618501632,
        "available": 26093944832,
        "percent": 22.4,
        "used": 6655799296,
        "free": 11959889920
      }
    },
    "process": {
      "username": "evgeniya",
      "cwd": "/cw/dtailocal/mercs_python/src/core",
      "create_time": 1517998529.69,
      "cpu_times": {
        "user": 0.88,
        "system": 0.12
      }
    },
    "logfile": "/cw/dtailocal/mercs_python/out/715/enb/logs/mercspython_Log_F02",
    "command": "python /cw/dtailocal/mercs_python/bin/mercspython.py /cw/dtailocal/mercs_python/out/715/enb/settings/mercspython_Settings_F02.s"
  }
},
{
  "ts": "2018-02-07T10:15:37.611166",
  "type": "INFO",
  "values": {
    "cmd": "python /cw/dtailocal/mercs_python/bin/mercspython.py /cw/dtailocal/mercs_python/out/715/enb/settings/mercspython_Settings_F02.s",
    "cwd": null
  }
},
{
  "ts": "2018-02-07T10:15:37.627449",
  "type": "INFO",
  "values": "Start: Run process"
},
{
  "ts": "2018-02-07T10:15:37.648877",
  "type": "INFO",
  "values": "Write log to /cw/dtailocal/mercs_python/out/715/enb/logs/mercspython_Log_F02.running.log"
},
{
  "ts": "2018-02-07T10:15:40.653883",
  "type": "INFO",
  "values": "Process ended (returncode 0)"
},
{
  "ts": "2018-02-07T10:15:40.653977",
  "type": "INFO",
  "values": "Finished: Run process 3.027 seconds"
},
{
  "ts": "2018-02-07T10:15:40.654058",
  "type": "WARNING",
  "values": {
    "Exit": "finished",
    "Returncode": 0,
    "Time": 3.026563882827759
  }
},
{
  "ts": "2018-02-07T10:15:40.654438",
  "type": "INFO",
  "values": "Closing /cw/dtailocal/mercs_python/out/715/enb/logs/mercspython_Log_F02.running.log"
}
]
