[
{
  "ts": "2018-02-06T09:53:54.625897",
  "type": "SETTINGS",
  "values": {
    "date": "2018/02/06 10:53:54",
    "date_iso": "2018-02-06T10:53:54.623554",
    "params": null,
    "system": {
      "nodename": "gibson",
      "machine": "x86_64",
      "platform": "Linux-4.4.0-112-generic-x86_64-with-debian-stretch-sid",
      "processor": "x86_64",
      "version": "#135-Ubuntu SMP Fri Jan 19 11:48:36 UTC 2018",
      "system": "Linux",
      "cpu_count": 8,
      "cpu_times": {
        "user": 312465.57,
        "system": 20355.34,
        "idle": 7944688.86,
        "nice": 819.07
      },
      "cpu_percent": 59.2,
      "virtual_memory": {
        "total": 33618501632,
        "available": 26294448128,
        "percent": 21.8,
        "used": 6244737024,
        "free": 15689441280
      }
    },
    "process": {
      "username": "evgeniya",
      "cwd": "/cw/dtailocal/mercs_python/src/core",
      "create_time": 1517910833.67,
      "cpu_times": {
        "user": 0.5,
        "system": 0.05
      }
    },
    "logfile": "/cw/dtailocal/mercs_python/out/532/andro/logs/mercspython_Log_F00",
    "command": "python /cw/dtailocal/mercs_python/bin/mercspython.py /cw/dtailocal/mercs_python/out/532/andro/settings/mercspython_Settings_F00.s"
  }
},
{
  "ts": "2018-02-06T09:53:54.626119",
  "type": "INFO",
  "values": {
    "cmd": "python /cw/dtailocal/mercs_python/bin/mercspython.py /cw/dtailocal/mercs_python/out/532/andro/settings/mercspython_Settings_F00.s",
    "cwd": null
  }
},
{
  "ts": "2018-02-06T09:53:54.629667",
  "type": "INFO",
  "values": "Start: Run process"
},
{
  "ts": "2018-02-06T09:53:54.634598",
  "type": "INFO",
  "values": "Write log to /cw/dtailocal/mercs_python/out/532/andro/logs/mercspython_Log_F00.running.log"
},
{
  "ts": "2018-02-06T09:53:56.239041",
  "type": "INFO",
  "values": "Process ended (returncode 0)"
},
{
  "ts": "2018-02-06T09:53:56.239124",
  "type": "INFO",
  "values": "Finished: Run process 1.610 seconds"
},
{
  "ts": "2018-02-06T09:53:56.239208",
  "type": "WARNING",
  "values": {
    "Exit": "finished",
    "Returncode": 0,
    "Time": 1.6095032691955566
  }
},
{
  "ts": "2018-02-06T09:53:56.239614",
  "type": "INFO",
  "values": "Closing /cw/dtailocal/mercs_python/out/532/andro/logs/mercspython_Log_F00.running.log"
}
]
