[SETTINGS] {
  "date": "2018/02/06 10:53:56",
  "date_iso": "2018-02-06T10:53:56.240112",
  "params": null,
  "system": {
    "nodename": "gibson",
    "machine": "x86_64",
    "platform": "Linux-4.4.0-112-generic-x86_64-with-debian-stretch-sid",
    "processor": "x86_64",
    "version": "#135-Ubuntu SMP Fri Jan 19 11:48:36 UTC 2018",
    "system": "Linux",
    "cpu_count": 8,
    "cpu_times": {
      "user": 312472.98,
      "system": 20355.7,
      "idle": 7944693.84,
      "nice": 819.07
    },
    "cpu_percent": 60.7,
    "virtual_memory": {
      "total": 33618501632,
      "available": 26126618624,
      "percent": 22.3,
      "used": 6411825152,
      "free": 15521107968
    }
  },
  "process": {
    "username": "evgeniya",
    "cwd": "/cw/dtailocal/mercs_python/src/core",
    "create_time": 1517910833.67,
    "cpu_times": {
      "user": 0.67,
      "system": 0.17
    }
  },
  "logfile": "/cw/dtailocal/mercs_python/out/532/andro/logs/mercspython_Log_F01",
  "command": "python /cw/dtailocal/mercs_python/bin/mercspython.py /cw/dtailocal/mercs_python/out/532/andro/settings/mercspython_Settings_F01.s"
}
[INFO] cmd:python /cw/dtailocal/mercs_python/bin/mercspython.py /cw/dtailocal/mercs_python/out/532/andro/settings/mercspython_Settings_F01.s; cwd:None
[INFO] Start: Run process
[INFO] Write log to /cw/dtailocal/mercs_python/out/532/andro/logs/mercspython_Log_F01.running.log
[STDERR] /cw/dtailocal/mercs_python/bin/mercspython.py:78: VisibleDeprecationWarning: converting an array with ndim > 0 to an index will result in an error in the future
[STDERR]   while((np.sum(codes[partition * nb_models_it + model]) >= nb_out_atts)):
[STDERR] /cw/dtailocal/mercs_python/bin/mercspython.py:81: VisibleDeprecationWarning: converting an array with ndim > 0 to an index will result in an error in the future
[STDERR]   codes[partition * nb_models_it + model][attribute] = 1
[[0 1 0 1 1 0 0 0 1 1 0 0 0 0 1 1 0 0 1 0 0 1 1 1 0 0 0 1 0 0 0 0 1 0 1 0]
 [1 0 0 0 0 0 0 0 0 0 0 0 0 0 0 0 0 0 0 0 0 0 0 0 0 0 1 0 1 1 1 1 0 1 0 1]
 [0 0 1 0 0 1 1 1 0 0 1 1 1 1 0 0 1 1 0 1 1 0 0 0 1 1 0 0 0 0 0 0 0 0 0 0]]
====================================================
Total induction time of the MDEModel was: 267 ms
====================================================
====================================================
Total inference time of the MDEModel was: 217 ms
====================================================
====================================================
This was for: 36 queries.
====================================================
[INFO] Process ended (returncode 0)
[INFO] Finished: Run process 1.603 seconds
[WARNING] Exit:finished; Returncode:0; Time:1.60261
