[
{
  "ts": "2018-02-06T09:53:57.848773",
  "type": "SETTINGS",
  "values": {
    "date": "2018/02/06 10:53:57",
    "date_iso": "2018-02-06T10:53:57.847828",
    "params": null,
    "system": {
      "nodename": "gibson",
      "machine": "x86_64",
      "platform": "Linux-4.4.0-112-generic-x86_64-with-debian-stretch-sid",
      "processor": "x86_64",
      "version": "#135-Ubuntu SMP Fri Jan 19 11:48:36 UTC 2018",
      "system": "Linux",
      "cpu_count": 8,
      "cpu_times": {
        "user": 312480.6,
        "system": 20356.02,
        "idle": 7944698.6,
        "nice": 819.07
      },
      "cpu_percent": 62.4,
      "virtual_memory": {
        "total": 33618501632,
        "available": 26030190592,
        "percent": 22.6,
        "used": 6507790336,
        "free": 15424495616
      }
    },
    "process": {
      "username": "evgeniya",
      "cwd": "/cw/dtailocal/mercs_python/src/core",
      "create_time": 1517910833.67,
      "cpu_times": {
        "user": 0.78,
        "system": 0.24
      }
    },
    "logfile": "/cw/dtailocal/mercs_python/out/532/andro/logs/mercspython_Log_F02",
    "command": "python /cw/dtailocal/mercs_python/bin/mercspython.py /cw/dtailocal/mercs_python/out/532/andro/settings/mercspython_Settings_F02.s"
  }
},
{
  "ts": "2018-02-06T09:53:57.848922",
  "type": "INFO",
  "values": {
    "cmd": "python /cw/dtailocal/mercs_python/bin/mercspython.py /cw/dtailocal/mercs_python/out/532/andro/settings/mercspython_Settings_F02.s",
    "cwd": null
  }
},
{
  "ts": "2018-02-06T09:53:57.852227",
  "type": "INFO",
  "values": "Start: Run process"
},
{
  "ts": "2018-02-06T09:53:57.852711",
  "type": "INFO",
  "values": "Write log to /cw/dtailocal/mercs_python/out/532/andro/logs/mercspython_Log_F02.running.log"
},
{
  "ts": "2018-02-06T09:53:59.669833",
  "type": "INFO",
  "values": "Process ended (returncode 0)"
},
{
  "ts": "2018-02-06T09:53:59.669913",
  "type": "INFO",
  "values": "Finished: Run process 1.818 seconds"
},
{
  "ts": "2018-02-06T09:53:59.669993",
  "type": "WARNING",
  "values": {
    "Exit": "finished",
    "Returncode": 0,
    "Time": 1.8177287578582764
  }
},
{
  "ts": "2018-02-06T09:53:59.670344",
  "type": "INFO",
  "values": "Closing /cw/dtailocal/mercs_python/out/532/andro/logs/mercspython_Log_F02.running.log"
}
]
