[
{
  "ts": "2018-02-06T09:54:01.481649",
  "type": "SETTINGS",
  "values": {
    "date": "2018/02/06 10:54:01",
    "date_iso": "2018-02-06T10:54:01.480820",
    "params": null,
    "system": {
      "nodename": "gibson",
      "machine": "x86_64",
      "platform": "Linux-4.4.0-112-generic-x86_64-with-debian-stretch-sid",
      "processor": "x86_64",
      "version": "#135-Ubuntu SMP Fri Jan 19 11:48:36 UTC 2018",
      "system": "Linux",
      "cpu_count": 8,
      "cpu_times": {
        "user": 312497.56,
        "system": 20356.94,
        "idle": 7944709.48,
        "nice": 819.07
      },
      "cpu_percent": 62.7,
      "virtual_memory": {
        "total": 33618501632,
        "available": 25850527744,
        "percent": 23.1,
        "used": 6687354880,
        "free": 15243214848
      }
    },
    "process": {
      "username": "evgeniya",
      "cwd": "/cw/dtailocal/mercs_python/src/core",
      "create_time": 1517910833.67,
      "cpu_times": {
        "user": 1.06,
        "system": 0.5
      }
    },
    "logfile": "/cw/dtailocal/mercs_python/out/532/andro/logs/mercspython_Log_F04",
    "command": "python /cw/dtailocal/mercs_python/bin/mercspython.py /cw/dtailocal/mercs_python/out/532/andro/settings/mercspython_Settings_F04.s"
  }
},
{
  "ts": "2018-02-06T09:54:01.481796",
  "type": "INFO",
  "values": {
    "cmd": "python /cw/dtailocal/mercs_python/bin/mercspython.py /cw/dtailocal/mercs_python/out/532/andro/settings/mercspython_Settings_F04.s",
    "cwd": null
  }
},
{
  "ts": "2018-02-06T09:54:01.485107",
  "type": "INFO",
  "values": "Start: Run process"
},
{
  "ts": "2018-02-06T09:54:01.485600",
  "type": "INFO",
  "values": "Write log to /cw/dtailocal/mercs_python/out/532/andro/logs/mercspython_Log_F04.running.log"
},
{
  "ts": "2018-02-06T09:54:03.087717",
  "type": "INFO",
  "values": "Process ended (returncode 0)"
},
{
  "ts": "2018-02-06T09:54:03.087796",
  "type": "INFO",
  "values": "Finished: Run process 1.603 seconds"
},
{
  "ts": "2018-02-06T09:54:03.087878",
  "type": "WARNING",
  "values": {
    "Exit": "finished",
    "Returncode": 0,
    "Time": 1.602724552154541
  }
},
{
  "ts": "2018-02-06T09:54:03.088162",
  "type": "INFO",
  "values": "Closing /cw/dtailocal/mercs_python/out/532/andro/logs/mercspython_Log_F04.running.log"
}
]
