[
{
  "ts": "2018-02-06T09:53:18.089005",
  "type": "SETTINGS",
  "values": {
    "date": "2018/02/06 10:53:18",
    "date_iso": "2018-02-06T10:53:18.088045",
    "params": null,
    "system": {
      "nodename": "gibson",
      "machine": "x86_64",
      "platform": "Linux-4.4.0-112-generic-x86_64-with-debian-stretch-sid",
      "processor": "x86_64",
      "version": "#135-Ubuntu SMP Fri Jan 19 11:48:36 UTC 2018",
      "system": "Linux",
      "cpu_count": 8,
      "cpu_times": {
        "user": 312300.48,
        "system": 20344.77,
        "idle": 7944575.56,
        "nice": 819.07
      },
      "cpu_percent": 70.3,
      "virtual_memory": {
        "total": 33618501632,
        "available": 26780028928,
        "percent": 20.3,
        "used": 5776781312,
        "free": 16190656512
      }
    },
    "process": {
      "username": "evgeniya",
      "cwd": "/cw/dtailocal/mercs_python/src/core",
      "create_time": 1517910793.27,
      "cpu_times": {
        "user": 0.58,
        "system": 0.15
      }
    },
    "logfile": "/cw/dtailocal/mercs_python/out/518/andro/logs/mercspython_Log_F02",
    "command": "python /cw/dtailocal/mercs_python/bin/mercspython.py /cw/dtailocal/mercs_python/out/518/andro/settings/mercspython_Settings_F02.s"
  }
},
{
  "ts": "2018-02-06T09:53:18.089183",
  "type": "INFO",
  "values": {
    "cmd": "python /cw/dtailocal/mercs_python/bin/mercspython.py /cw/dtailocal/mercs_python/out/518/andro/settings/mercspython_Settings_F02.s",
    "cwd": null
  }
},
{
  "ts": "2018-02-06T09:53:18.095593",
  "type": "INFO",
  "values": "Start: Run process"
},
{
  "ts": "2018-02-06T09:53:18.097892",
  "type": "INFO",
  "values": "Write log to /cw/dtailocal/mercs_python/out/518/andro/logs/mercspython_Log_F02.running.log"
},
{
  "ts": "2018-02-06T09:53:20.101575",
  "type": "INFO",
  "values": "Process ended (returncode 0)"
},
{
  "ts": "2018-02-06T09:53:20.101655",
  "type": "INFO",
  "values": "Finished: Run process 2.006 seconds"
},
{
  "ts": "2018-02-06T09:53:20.101749",
  "type": "WARNING",
  "values": {
    "Exit": "finished",
    "Returncode": 0,
    "Time": 2.0060813426971436
  }
},
{
  "ts": "2018-02-06T09:53:20.102069",
  "type": "INFO",
  "values": "Closing /cw/dtailocal/mercs_python/out/518/andro/logs/mercspython_Log_F02.running.log"
}
]
