[
{
  "ts": "2018-02-06T09:53:14.067897",
  "type": "SETTINGS",
  "values": {
    "date": "2018/02/06 10:53:14",
    "date_iso": "2018-02-06T10:53:14.066131",
    "params": null,
    "system": {
      "nodename": "gibson",
      "machine": "x86_64",
      "platform": "Linux-4.4.0-112-generic-x86_64-with-debian-stretch-sid",
      "processor": "x86_64",
      "version": "#135-Ubuntu SMP Fri Jan 19 11:48:36 UTC 2018",
      "system": "Linux",
      "cpu_count": 8,
      "cpu_times": {
        "user": 312281.87,
        "system": 20343.08,
        "idle": 7944564.62,
        "nice": 819.07
      },
      "cpu_percent": 50.2,
      "virtual_memory": {
        "total": 33618501632,
        "available": 26631368704,
        "percent": 20.8,
        "used": 5909794816,
        "free": 16045735936
      }
    },
    "process": {
      "username": "evgeniya",
      "cwd": "/cw/dtailocal/mercs_python/src/core",
      "create_time": 1517910793.27,
      "cpu_times": {
        "user": 0.37,
        "system": 0.05
      }
    },
    "logfile": "/cw/dtailocal/mercs_python/out/518/andro/logs/mercspython_Log_F00",
    "command": "python /cw/dtailocal/mercs_python/bin/mercspython.py /cw/dtailocal/mercs_python/out/518/andro/settings/mercspython_Settings_F00.s"
  }
},
{
  "ts": "2018-02-06T09:53:14.068110",
  "type": "INFO",
  "values": {
    "cmd": "python /cw/dtailocal/mercs_python/bin/mercspython.py /cw/dtailocal/mercs_python/out/518/andro/settings/mercspython_Settings_F00.s",
    "cwd": null
  }
},
{
  "ts": "2018-02-06T09:53:14.070877",
  "type": "INFO",
  "values": "Start: Run process"
},
{
  "ts": "2018-02-06T09:53:14.075297",
  "type": "INFO",
  "values": "Write log to /cw/dtailocal/mercs_python/out/518/andro/logs/mercspython_Log_F00.running.log"
},
{
  "ts": "2018-02-06T09:53:15.878713",
  "type": "INFO",
  "values": "Process ended (returncode 0)"
},
{
  "ts": "2018-02-06T09:53:15.878817",
  "type": "INFO",
  "values": "Finished: Run process 1.808 seconds"
},
{
  "ts": "2018-02-06T09:53:15.878885",
  "type": "WARNING",
  "values": {
    "Exit": "finished",
    "Returncode": 0,
    "Time": 1.8079748153686523
  }
},
{
  "ts": "2018-02-06T09:53:15.879246",
  "type": "INFO",
  "values": "Closing /cw/dtailocal/mercs_python/out/518/andro/logs/mercspython_Log_F00.running.log"
}
]
