[
{
  "ts": "2018-02-05T16:10:44.437227",
  "type": "SETTINGS",
  "values": {
    "date": "2018/02/05 17:10:44",
    "date_iso": "2018-02-05T17:10:44.436287",
    "params": null,
    "system": {
      "nodename": "gibson",
      "machine": "x86_64",
      "platform": "Linux-4.4.0-112-generic-x86_64-with-debian-stretch-sid",
      "processor": "x86_64",
      "version": "#135-Ubuntu SMP Fri Jan 19 11:48:36 UTC 2018",
      "system": "Linux",
      "cpu_count": 8,
      "cpu_times": {
        "user": 112642.89,
        "system": 18400.7,
        "idle": 7637230.2,
        "nice": 749.46
      },
      "cpu_percent": 100.0,
      "virtual_memory": {
        "total": 33618501632,
        "available": 23821578240,
        "percent": 29.1,
        "used": 8902025216,
        "free": 7341236224
      }
    },
    "process": {
      "username": "evgeniya",
      "cwd": "/cw/dtailocal/mercs_python/src/core",
      "create_time": 1517847021.59,
      "cpu_times": {
        "user": 1.28,
        "system": 0.14
      }
    },
    "logfile": "/cw/dtailocal/mercs_python/out/249/slump/logs/mercspython_Log_F07",
    "command": "python /cw/dtailocal/mercs_python/bin/mercspython.py /cw/dtailocal/mercs_python/out/249/slump/settings/mercspython_Settings_F07.s"
  }
},
{
  "ts": "2018-02-05T16:10:44.437398",
  "type": "INFO",
  "values": {
    "cmd": "python /cw/dtailocal/mercs_python/bin/mercspython.py /cw/dtailocal/mercs_python/out/249/slump/settings/mercspython_Settings_F07.s",
    "cwd": null
  }
},
{
  "ts": "2018-02-05T16:10:44.461383",
  "type": "INFO",
  "values": "Start: Run process"
},
{
  "ts": "2018-02-05T16:10:44.483772",
  "type": "INFO",
  "values": "Write log to /cw/dtailocal/mercs_python/out/249/slump/logs/mercspython_Log_F07.running.log"
},
{
  "ts": "2018-02-05T16:10:47.487576",
  "type": "INFO",
  "values": "Process ended (returncode 0)"
},
{
  "ts": "2018-02-05T16:10:47.487666",
  "type": "INFO",
  "values": "Finished: Run process 3.026 seconds"
},
{
  "ts": "2018-02-05T16:10:47.487749",
  "type": "WARNING",
  "values": {
    "Exit": "finished",
    "Returncode": 0,
    "Time": 3.0263092517852783
  }
}
]
