[
{
  "ts": "2018-02-06T12:08:14.543974",
  "type": "SETTINGS",
  "values": {
    "date": "2018/02/06 13:08:14",
    "date_iso": "2018-02-06T13:08:14.543050",
    "params": null,
    "system": {
      "nodename": "gibson",
      "machine": "x86_64",
      "platform": "Linux-4.4.0-112-generic-x86_64-with-debian-stretch-sid",
      "processor": "x86_64",
      "version": "#135-Ubuntu SMP Fri Jan 19 11:48:36 UTC 2018",
      "system": "Linux",
      "cpu_count": 8,
      "cpu_times": {
        "user": 342630.94,
        "system": 20900.1,
        "idle": 7978196.12,
        "nice": 821.4
      },
      "cpu_percent": 88.4,
      "virtual_memory": {
        "total": 33618501632,
        "available": 22336466944,
        "percent": 33.6,
        "used": 10283249664,
        "free": 10191675392
      }
    },
    "process": {
      "username": "evgeniya",
      "cwd": "/cw/dtailocal/mercs_python/src/core",
      "create_time": 1517918789.58,
      "cpu_times": {
        "user": 1.88,
        "system": 0.26
      }
    },
    "logfile": "/cw/dtailocal/mercs_python/out/612/oes97/logs/mercspython_Log_F04",
    "command": "python /cw/dtailocal/mercs_python/bin/mercspython.py /cw/dtailocal/mercs_python/out/612/oes97/settings/mercspython_Settings_F04.s"
  }
},
{
  "ts": "2018-02-06T12:08:14.544128",
  "type": "INFO",
  "values": {
    "cmd": "python /cw/dtailocal/mercs_python/bin/mercspython.py /cw/dtailocal/mercs_python/out/612/oes97/settings/mercspython_Settings_F04.s",
    "cwd": null
  }
},
{
  "ts": "2018-02-06T12:08:14.547829",
  "type": "INFO",
  "values": "Start: Run process"
},
{
  "ts": "2018-02-06T12:08:14.548312",
  "type": "INFO",
  "values": "Write log to /cw/dtailocal/mercs_python/out/612/oes97/logs/mercspython_Log_F04.running.log"
},
{
  "ts": "2018-02-06T12:08:41.387702",
  "type": "INFO",
  "values": "Process ended (returncode 0)"
},
{
  "ts": "2018-02-06T12:08:41.387781",
  "type": "INFO",
  "values": "Finished: Run process 26.840 seconds"
},
{
  "ts": "2018-02-06T12:08:41.387857",
  "type": "WARNING",
  "values": {
    "Exit": "finished",
    "Returncode": 0,
    "Time": 26.839971780776978
  }
}
]
