[
{
  "ts": "2018-02-06T12:08:41.389558",
  "type": "SETTINGS",
  "values": {
    "date": "2018/02/06 13:08:41",
    "date_iso": "2018-02-06T13:08:41.388616",
    "params": null,
    "system": {
      "nodename": "gibson",
      "machine": "x86_64",
      "platform": "Linux-4.4.0-112-generic-x86_64-with-debian-stretch-sid",
      "processor": "x86_64",
      "version": "#135-Ubuntu SMP Fri Jan 19 11:48:36 UTC 2018",
      "system": "Linux",
      "cpu_count": 8,
      "cpu_times": {
        "user": 342813.8,
        "system": 20903.67,
        "idle": 7978223.93,
        "nice": 821.4
      },
      "cpu_percent": 86.9,
      "virtual_memory": {
        "total": 33618501632,
        "available": 26064760832,
        "percent": 22.5,
        "used": 6564696064,
        "free": 13905195008
      }
    },
    "process": {
      "username": "evgeniya",
      "cwd": "/cw/dtailocal/mercs_python/src/core",
      "create_time": 1517918789.58,
      "cpu_times": {
        "user": 1.94,
        "system": 0.3
      }
    },
    "logfile": "/cw/dtailocal/mercs_python/out/612/oes97/logs/mercspython_Log_F05",
    "command": "python /cw/dtailocal/mercs_python/bin/mercspython.py /cw/dtailocal/mercs_python/out/612/oes97/settings/mercspython_Settings_F05.s"
  }
},
{
  "ts": "2018-02-06T12:08:41.389697",
  "type": "INFO",
  "values": {
    "cmd": "python /cw/dtailocal/mercs_python/bin/mercspython.py /cw/dtailocal/mercs_python/out/612/oes97/settings/mercspython_Settings_F05.s",
    "cwd": null
  }
},
{
  "ts": "2018-02-06T12:08:41.392976",
  "type": "INFO",
  "values": "Start: Run process"
},
{
  "ts": "2018-02-06T12:08:41.393412",
  "type": "INFO",
  "values": "Write log to /cw/dtailocal/mercs_python/out/612/oes97/logs/mercspython_Log_F05.running.log"
},
{
  "ts": "2018-02-06T12:09:06.422811",
  "type": "INFO",
  "values": "Process ended (returncode 0)"
},
{
  "ts": "2018-02-06T12:09:06.422894",
  "type": "INFO",
  "values": "Finished: Run process 25.030 seconds"
},
{
  "ts": "2018-02-06T12:09:06.422972",
  "type": "WARNING",
  "values": {
    "Exit": "finished",
    "Returncode": 0,
    "Time": 25.029937028884888
  }
},
{
  "ts": "2018-02-06T12:09:06.423322",
  "type": "INFO",
  "values": "Closing /cw/dtailocal/mercs_python/out/612/oes97/logs/mercspython_Log_F05.running.log"
}
]
