[
{
  "ts": "2018-02-05T16:22:57.672444",
  "type": "SETTINGS",
  "values": {
    "date": "2018/02/05 17:22:57",
    "date_iso": "2018-02-05T17:22:57.671521",
    "params": null,
    "system": {
      "nodename": "gibson",
      "machine": "x86_64",
      "platform": "Linux-4.4.0-112-generic-x86_64-with-debian-stretch-sid",
      "processor": "x86_64",
      "version": "#135-Ubuntu SMP Fri Jan 19 11:48:36 UTC 2018",
      "system": "Linux",
      "cpu_count": 8,
      "cpu_times": {
        "user": 118443.56,
        "system": 18459.47,
        "idle": 7637231.73,
        "nice": 750.76
      },
      "cpu_percent": 100.0,
      "virtual_memory": {
        "total": 33618501632,
        "available": 26353139712,
        "percent": 21.6,
        "used": 6362083328,
        "free": 9761103872
      }
    },
    "process": {
      "username": "evgeniya",
      "cwd": "/cw/dtailocal/mercs_python/src/core",
      "create_time": 1517847735.18,
      "cpu_times": {
        "user": 1.3,
        "system": 0.19
      }
    },
    "logfile": "/cw/dtailocal/mercs_python/out/293/jura/logs/mercspython_Log_F09",
    "command": "python /cw/dtailocal/mercs_python/bin/mercspython.py /cw/dtailocal/mercs_python/out/293/jura/settings/mercspython_Settings_F09.s"
  }
},
{
  "ts": "2018-02-05T16:22:57.672610",
  "type": "INFO",
  "values": {
    "cmd": "python /cw/dtailocal/mercs_python/bin/mercspython.py /cw/dtailocal/mercs_python/out/293/jura/settings/mercspython_Settings_F09.s",
    "cwd": null
  }
},
{
  "ts": "2018-02-05T16:22:57.685186",
  "type": "INFO",
  "values": "Start: Run process"
},
{
  "ts": "2018-02-05T16:22:57.700144",
  "type": "INFO",
  "values": "Write log to /cw/dtailocal/mercs_python/out/293/jura/logs/mercspython_Log_F09.running.log"
},
{
  "ts": "2018-02-05T16:23:03.106650",
  "type": "INFO",
  "values": "Process ended (returncode 0)"
},
{
  "ts": "2018-02-05T16:23:03.106735",
  "type": "INFO",
  "values": "Finished: Run process 5.422 seconds"
},
{
  "ts": "2018-02-05T16:23:03.106826",
  "type": "WARNING",
  "values": {
    "Exit": "finished",
    "Returncode": 0,
    "Time": 5.421574354171753
  }
},
{
  "ts": "2018-02-05T16:23:03.123825",
  "type": "INFO",
  "values": "Closing /cw/dtailocal/mercs_python/out/293/jura/logs/mercspython_Log_F09.running.log"
}
]
