[
{
  "ts": "2018-02-05T16:22:25.385303",
  "type": "SETTINGS",
  "values": {
    "date": "2018/02/05 17:22:25",
    "date_iso": "2018-02-05T17:22:25.384330",
    "params": null,
    "system": {
      "nodename": "gibson",
      "machine": "x86_64",
      "platform": "Linux-4.4.0-112-generic-x86_64-with-debian-stretch-sid",
      "processor": "x86_64",
      "version": "#135-Ubuntu SMP Fri Jan 19 11:48:36 UTC 2018",
      "system": "Linux",
      "cpu_count": 8,
      "cpu_times": {
        "user": 118190.56,
        "system": 18455.75,
        "idle": 7637231.66,
        "nice": 749.46
      },
      "cpu_percent": 99.9,
      "virtual_memory": {
        "total": 33618501632,
        "available": 25130917888,
        "percent": 25.2,
        "used": 7583821824,
        "free": 8552525824
      }
    },
    "process": {
      "username": "evgeniya",
      "cwd": "/cw/dtailocal/mercs_python/src/core",
      "create_time": 1517847735.18,
      "cpu_times": {
        "user": 0.64,
        "system": 0.06
      }
    },
    "logfile": "/cw/dtailocal/mercs_python/out/293/jura/logs/mercspython_Log_F02",
    "command": "python /cw/dtailocal/mercs_python/bin/mercspython.py /cw/dtailocal/mercs_python/out/293/jura/settings/mercspython_Settings_F02.s"
  }
},
{
  "ts": "2018-02-05T16:22:25.385448",
  "type": "INFO",
  "values": {
    "cmd": "python /cw/dtailocal/mercs_python/bin/mercspython.py /cw/dtailocal/mercs_python/out/293/jura/settings/mercspython_Settings_F02.s",
    "cwd": null
  }
},
{
  "ts": "2018-02-05T16:22:25.405493",
  "type": "INFO",
  "values": "Start: Run process"
},
{
  "ts": "2018-02-05T16:22:25.447771",
  "type": "INFO",
  "values": "Write log to /cw/dtailocal/mercs_python/out/293/jura/logs/mercspython_Log_F02.running.log"
},
{
  "ts": "2018-02-05T16:22:30.654143",
  "type": "INFO",
  "values": "Process ended (returncode 0)"
},
{
  "ts": "2018-02-05T16:22:30.654223",
  "type": "INFO",
  "values": "Finished: Run process 5.249 seconds"
},
{
  "ts": "2018-02-05T16:22:30.654301",
  "type": "WARNING",
  "values": {
    "Exit": "finished",
    "Returncode": 0,
    "Time": 5.248759031295776
  }
}
]
