[
{
  "ts": "2018-02-05T17:24:27.849938",
  "type": "SETTINGS",
  "values": {
    "date": "2018/02/05 18:24:27",
    "date_iso": "2018-02-05T18:24:27.849123",
    "params": null,
    "system": {
      "nodename": "gibson",
      "machine": "x86_64",
      "platform": "Linux-4.4.0-112-generic-x86_64-with-debian-stretch-sid",
      "processor": "x86_64",
      "version": "#135-Ubuntu SMP Fri Jan 19 11:48:36 UTC 2018",
      "system": "Linux",
      "cpu_count": 8,
      "cpu_times": {
        "user": 147612.98,
        "system": 18737.14,
        "idle": 7637282.28,
        "nice": 753.62
      },
      "cpu_percent": 86.8,
      "virtual_memory": {
        "total": 33618501632,
        "available": 26550501376,
        "percent": 21.0,
        "used": 6077779968,
        "free": 9223651328
      }
    },
    "process": {
      "username": "evgeniya",
      "cwd": "/cw/dtailocal/mercs_python/src/core",
      "create_time": 1517851270.59,
      "cpu_times": {
        "user": 2.96,
        "system": 0.4
      }
    },
    "logfile": "/cw/dtailocal/mercs_python/out/322/oes10/logs/mercspython_Log_F08",
    "command": "python /cw/dtailocal/mercs_python/bin/mercspython.py /cw/dtailocal/mercs_python/out/322/oes10/settings/mercspython_Settings_F08.s"
  }
},
{
  "ts": "2018-02-05T17:24:27.850084",
  "type": "INFO",
  "values": {
    "cmd": "python /cw/dtailocal/mercs_python/bin/mercspython.py /cw/dtailocal/mercs_python/out/322/oes10/settings/mercspython_Settings_F08.s",
    "cwd": null
  }
},
{
  "ts": "2018-02-05T17:24:27.853948",
  "type": "INFO",
  "values": "Start: Run process"
},
{
  "ts": "2018-02-05T17:24:27.859915",
  "type": "INFO",
  "values": "Write log to /cw/dtailocal/mercs_python/out/322/oes10/logs/mercspython_Log_F08.running.log"
},
{
  "ts": "2018-02-05T17:24:48.490865",
  "type": "INFO",
  "values": "Process ended (returncode 0)"
},
{
  "ts": "2018-02-05T17:24:48.490947",
  "type": "INFO",
  "values": "Finished: Run process 20.637 seconds"
},
{
  "ts": "2018-02-05T17:24:48.491029",
  "type": "WARNING",
  "values": {
    "Exit": "finished",
    "Returncode": 0,
    "Time": 20.63703680038452
  }
}
]
