[
{
  "ts": "2018-02-05T15:44:21.037220",
  "type": "SETTINGS",
  "values": {
    "date": "2018/02/05 16:44:21",
    "date_iso": "2018-02-05T16:44:21.036362",
    "params": null,
    "system": {
      "nodename": "gibson",
      "machine": "x86_64",
      "platform": "Linux-4.4.0-112-generic-x86_64-with-debian-stretch-sid",
      "processor": "x86_64",
      "version": "#135-Ubuntu SMP Fri Jan 19 11:48:36 UTC 2018",
      "system": "Linux",
      "cpu_count": 8,
      "cpu_times": {
        "user": 100148.24,
        "system": 18238.64,
        "idle": 7637226.01,
        "nice": 749.46
      },
      "cpu_percent": 99.1,
      "virtual_memory": {
        "total": 33618501632,
        "available": 26323546112,
        "percent": 21.7,
        "used": 6279012352,
        "free": 10136760320
      }
    },
    "process": {
      "username": "evgeniya",
      "cwd": "/cw/dtailocal/mercs_python/src/core",
      "create_time": 1517845438.75,
      "cpu_times": {
        "user": 1.09,
        "system": 0.15
      }
    },
    "logfile": "/cw/dtailocal/mercs_python/out/232/enb/logs/mercspython_Log_F06",
    "command": "python /cw/dtailocal/mercs_python/bin/mercspython.py /cw/dtailocal/mercs_python/out/232/enb/settings/mercspython_Settings_F06.s"
  }
},
{
  "ts": "2018-02-05T15:44:21.037376",
  "type": "INFO",
  "values": {
    "cmd": "python /cw/dtailocal/mercs_python/bin/mercspython.py /cw/dtailocal/mercs_python/out/232/enb/settings/mercspython_Settings_F06.s",
    "cwd": null
  }
},
{
  "ts": "2018-02-05T15:44:21.057640",
  "type": "INFO",
  "values": "Start: Run process"
},
{
  "ts": "2018-02-05T15:44:21.120813",
  "type": "INFO",
  "values": "Write log to /cw/dtailocal/mercs_python/out/232/enb/logs/mercspython_Log_F06.running.log"
},
{
  "ts": "2018-02-05T15:44:24.725154",
  "type": "INFO",
  "values": "Process ended (returncode 0)"
},
{
  "ts": "2018-02-05T15:44:24.725232",
  "type": "INFO",
  "values": "Finished: Run process 3.668 seconds"
},
{
  "ts": "2018-02-05T15:44:24.725310",
  "type": "WARNING",
  "values": {
    "Exit": "finished",
    "Returncode": 0,
    "Time": 3.6676206588745117
  }
},
{
  "ts": "2018-02-05T15:44:24.732667",
  "type": "INFO",
  "values": "Closing /cw/dtailocal/mercs_python/out/232/enb/logs/mercspython_Log_F06.running.log"
}
]
