[
{
  "ts": "2018-02-05T15:44:17.577200",
  "type": "SETTINGS",
  "values": {
    "date": "2018/02/05 16:44:17",
    "date_iso": "2018-02-05T16:44:17.576321",
    "params": null,
    "system": {
      "nodename": "gibson",
      "machine": "x86_64",
      "platform": "Linux-4.4.0-112-generic-x86_64-with-debian-stretch-sid",
      "processor": "x86_64",
      "version": "#135-Ubuntu SMP Fri Jan 19 11:48:36 UTC 2018",
      "system": "Linux",
      "cpu_count": 8,
      "cpu_times": {
        "user": 100121.52,
        "system": 18238.05,
        "idle": 7637225.76,
        "nice": 749.46
      },
      "cpu_percent": 99.2,
      "virtual_memory": {
        "total": 33618501632,
        "available": 26386997248,
        "percent": 21.5,
        "used": 6215557120,
        "free": 10200547328
      }
    },
    "process": {
      "username": "evgeniya",
      "cwd": "/cw/dtailocal/mercs_python/src/core",
      "create_time": 1517845438.75,
      "cpu_times": {
        "user": 1.0,
        "system": 0.14
      }
    },
    "logfile": "/cw/dtailocal/mercs_python/out/232/enb/logs/mercspython_Log_F05",
    "command": "python /cw/dtailocal/mercs_python/bin/mercspython.py /cw/dtailocal/mercs_python/out/232/enb/settings/mercspython_Settings_F05.s"
  }
},
{
  "ts": "2018-02-05T15:44:17.577362",
  "type": "INFO",
  "values": {
    "cmd": "python /cw/dtailocal/mercs_python/bin/mercspython.py /cw/dtailocal/mercs_python/out/232/enb/settings/mercspython_Settings_F05.s",
    "cwd": null
  }
},
{
  "ts": "2018-02-05T15:44:17.590591",
  "type": "INFO",
  "values": "Start: Run process"
},
{
  "ts": "2018-02-05T15:44:17.623771",
  "type": "INFO",
  "values": "Write log to /cw/dtailocal/mercs_python/out/232/enb/logs/mercspython_Log_F05.running.log"
},
{
  "ts": "2018-02-05T15:44:21.028791",
  "type": "INFO",
  "values": "Process ended (returncode 0)"
},
{
  "ts": "2018-02-05T15:44:21.028871",
  "type": "INFO",
  "values": "Finished: Run process 3.438 seconds"
},
{
  "ts": "2018-02-05T15:44:21.028952",
  "type": "WARNING",
  "values": {
    "Exit": "finished",
    "Returncode": 0,
    "Time": 3.438297748565674
  }
},
{
  "ts": "2018-02-05T15:44:21.035833",
  "type": "INFO",
  "values": "Closing /cw/dtailocal/mercs_python/out/232/enb/logs/mercspython_Log_F05.running.log"
}
]
