[
{
  "ts": "2018-02-05T17:00:25.385187",
  "type": "SETTINGS",
  "values": {
    "date": "2018/02/05 18:00:25",
    "date_iso": "2018-02-05T18:00:25.384343",
    "params": null,
    "system": {
      "nodename": "gibson",
      "machine": "x86_64",
      "platform": "Linux-4.4.0-112-generic-x86_64-with-debian-stretch-sid",
      "processor": "x86_64",
      "version": "#135-Ubuntu SMP Fri Jan 19 11:48:36 UTC 2018",
      "system": "Linux",
      "cpu_count": 8,
      "cpu_times": {
        "user": 136264.98,
        "system": 18604.98,
        "idle": 7637234.49,
        "nice": 751.58
      },
      "cpu_percent": 100.0,
      "virtual_memory": {
        "total": 33618501632,
        "available": 24093945856,
        "percent": 28.3,
        "used": 8505294848,
        "free": 6902059008
      }
    },
    "process": {
      "username": "evgeniya",
      "cwd": "/cw/dtailocal/mercs_python/src/core",
      "create_time": 1517849266.33,
      "cpu_times": {
        "user": 1.46,
        "system": 0.21
      }
    },
    "logfile": "/cw/dtailocal/mercs_python/out/306/rf1/logs/mercspython_Log_F06",
    "command": "python /cw/dtailocal/mercs_python/bin/mercspython.py /cw/dtailocal/mercs_python/out/306/rf1/settings/mercspython_Settings_F06.s"
  }
},
{
  "ts": "2018-02-05T17:00:25.385339",
  "type": "INFO",
  "values": {
    "cmd": "python /cw/dtailocal/mercs_python/bin/mercspython.py /cw/dtailocal/mercs_python/out/306/rf1/settings/mercspython_Settings_F06.s",
    "cwd": null
  }
},
{
  "ts": "2018-02-05T17:00:25.409712",
  "type": "INFO",
  "values": "Start: Run process"
},
{
  "ts": "2018-02-05T17:00:25.447780",
  "type": "INFO",
  "values": "Write log to /cw/dtailocal/mercs_python/out/306/rf1/logs/mercspython_Log_F06.running.log"
},
{
  "ts": "2018-02-05T17:03:21.459959",
  "type": "INFO",
  "values": "Process ended (returncode 0)"
},
{
  "ts": "2018-02-05T17:03:21.460042",
  "type": "INFO",
  "values": "Finished: Run process 176.050 seconds"
},
{
  "ts": "2018-02-05T17:03:21.460125",
  "type": "WARNING",
  "values": {
    "Exit": "finished",
    "Returncode": 0,
    "Time": 176.05035018920898
  }
},
{
  "ts": "2018-02-05T17:03:21.475798",
  "type": "INFO",
  "values": "Closing /cw/dtailocal/mercs_python/out/306/rf1/logs/mercspython_Log_F06.running.log"
}
]
