[
{
  "ts": "2018-02-06T09:57:19.044422",
  "type": "SETTINGS",
  "values": {
    "date": "2018/02/06 10:57:19",
    "date_iso": "2018-02-06T10:57:19.043547",
    "params": null,
    "system": {
      "nodename": "gibson",
      "machine": "x86_64",
      "platform": "Linux-4.4.0-112-generic-x86_64-with-debian-stretch-sid",
      "processor": "x86_64",
      "version": "#135-Ubuntu SMP Fri Jan 19 11:48:36 UTC 2018",
      "system": "Linux",
      "cpu_count": 8,
      "cpu_times": {
        "user": 313568.72,
        "system": 20389.5,
        "idle": 7945168.01,
        "nice": 819.07
      },
      "cpu_percent": 79.6,
      "virtual_memory": {
        "total": 33618501632,
        "available": 24826793984,
        "percent": 26.2,
        "used": 7797776384,
        "free": 13917106176
      }
    },
    "process": {
      "username": "evgeniya",
      "cwd": "/cw/dtailocal/mercs_python/src/core",
      "create_time": 1517911023.72,
      "cpu_times": {
        "user": 1.33,
        "system": 0.3
      }
    },
    "logfile": "/cw/dtailocal/mercs_python/out/540/enb/logs/mercspython_Log_F08",
    "command": "python /cw/dtailocal/mercs_python/bin/mercspython.py /cw/dtailocal/mercs_python/out/540/enb/settings/mercspython_Settings_F08.s"
  }
},
{
  "ts": "2018-02-06T09:57:19.044571",
  "type": "INFO",
  "values": {
    "cmd": "python /cw/dtailocal/mercs_python/bin/mercspython.py /cw/dtailocal/mercs_python/out/540/enb/settings/mercspython_Settings_F08.s",
    "cwd": null
  }
},
{
  "ts": "2018-02-06T09:57:19.048014",
  "type": "INFO",
  "values": "Start: Run process"
},
{
  "ts": "2018-02-06T09:57:19.048407",
  "type": "INFO",
  "values": "Write log to /cw/dtailocal/mercs_python/out/540/enb/logs/mercspython_Log_F08.running.log"
},
{
  "ts": "2018-02-06T09:57:20.850834",
  "type": "INFO",
  "values": "Process ended (returncode 0)"
},
{
  "ts": "2018-02-06T09:57:20.850917",
  "type": "INFO",
  "values": "Finished: Run process 1.803 seconds"
},
{
  "ts": "2018-02-06T09:57:20.851000",
  "type": "WARNING",
  "values": {
    "Exit": "finished",
    "Returncode": 0,
    "Time": 1.802934169769287
  }
}
]
