[
{
  "ts": "2018-02-06T09:57:20.852576",
  "type": "SETTINGS",
  "values": {
    "date": "2018/02/06 10:57:20",
    "date_iso": "2018-02-06T10:57:20.851729",
    "params": null,
    "system": {
      "nodename": "gibson",
      "machine": "x86_64",
      "platform": "Linux-4.4.0-112-generic-x86_64-with-debian-stretch-sid",
      "processor": "x86_64",
      "version": "#135-Ubuntu SMP Fri Jan 19 11:48:36 UTC 2018",
      "system": "Linux",
      "cpu_count": 8,
      "cpu_times": {
        "user": 313580.43,
        "system": 20390.14,
        "idle": 7945170.18,
        "nice": 819.07
      },
      "cpu_percent": 84.7,
      "virtual_memory": {
        "total": 33618501632,
        "available": 24700219392,
        "percent": 26.5,
        "used": 7924244480,
        "free": 13784248320
      }
    },
    "process": {
      "username": "evgeniya",
      "cwd": "/cw/dtailocal/mercs_python/src/core",
      "create_time": 1517911023.72,
      "cpu_times": {
        "user": 1.48,
        "system": 0.39
      }
    },
    "logfile": "/cw/dtailocal/mercs_python/out/540/enb/logs/mercspython_Log_F09",
    "command": "python /cw/dtailocal/mercs_python/bin/mercspython.py /cw/dtailocal/mercs_python/out/540/enb/settings/mercspython_Settings_F09.s"
  }
},
{
  "ts": "2018-02-06T09:57:20.852724",
  "type": "INFO",
  "values": {
    "cmd": "python /cw/dtailocal/mercs_python/bin/mercspython.py /cw/dtailocal/mercs_python/out/540/enb/settings/mercspython_Settings_F09.s",
    "cwd": null
  }
},
{
  "ts": "2018-02-06T09:57:20.856223",
  "type": "INFO",
  "values": "Start: Run process"
},
{
  "ts": "2018-02-06T09:57:20.856647",
  "type": "INFO",
  "values": "Write log to /cw/dtailocal/mercs_python/out/540/enb/logs/mercspython_Log_F09.running.log"
},
{
  "ts": "2018-02-06T09:57:22.859322",
  "type": "INFO",
  "values": "Process ended (returncode 0)"
},
{
  "ts": "2018-02-06T09:57:22.859409",
  "type": "INFO",
  "values": "Finished: Run process 2.003 seconds"
},
{
  "ts": "2018-02-06T09:57:22.859495",
  "type": "WARNING",
  "values": {
    "Exit": "finished",
    "Returncode": 0,
    "Time": 2.003206491470337
  }
}
]
