[
{
  "ts": "2018-02-06T09:53:15.665415",
  "type": "SETTINGS",
  "values": {
    "date": "2018/02/06 10:53:15",
    "date_iso": "2018-02-06T10:53:15.664523",
    "params": null,
    "system": {
      "nodename": "gibson",
      "machine": "x86_64",
      "platform": "Linux-4.4.0-112-generic-x86_64-with-debian-stretch-sid",
      "processor": "x86_64",
      "version": "#135-Ubuntu SMP Fri Jan 19 11:48:36 UTC 2018",
      "system": "Linux",
      "cpu_count": 8,
      "cpu_times": {
        "user": 312288.58,
        "system": 20343.59,
        "idle": 7944569.84,
        "nice": 819.07
      },
      "cpu_percent": 62.2,
      "virtual_memory": {
        "total": 33618501632,
        "available": 26782769152,
        "percent": 20.3,
        "used": 5758554112,
        "free": 16195420160
      }
    },
    "process": {
      "username": "evgeniya",
      "cwd": "/cw/dtailocal/mercs_python/src/core",
      "create_time": 1517910768.89,
      "cpu_times": {
        "user": 1.26,
        "system": 0.14
      }
    },
    "logfile": "/cw/dtailocal/mercs_python/out/521/oes97/logs/mercspython_Log_F02",
    "command": "python /cw/dtailocal/mercs_python/bin/mercspython.py /cw/dtailocal/mercs_python/out/521/oes97/settings/mercspython_Settings_F02.s"
  }
},
{
  "ts": "2018-02-06T09:53:15.665579",
  "type": "INFO",
  "values": {
    "cmd": "python /cw/dtailocal/mercs_python/bin/mercspython.py /cw/dtailocal/mercs_python/out/521/oes97/settings/mercspython_Settings_F02.s",
    "cwd": null
  }
},
{
  "ts": "2018-02-06T09:53:15.668503",
  "type": "INFO",
  "values": "Start: Run process"
},
{
  "ts": "2018-02-06T09:53:15.669050",
  "type": "INFO",
  "values": "Write log to /cw/dtailocal/mercs_python/out/521/oes97/logs/mercspython_Log_F02.running.log"
},
{
  "ts": "2018-02-06T09:53:28.086102",
  "type": "INFO",
  "values": "Process ended (returncode 0)"
},
{
  "ts": "2018-02-06T09:53:28.086159",
  "type": "INFO",
  "values": "Finished: Run process 12.418 seconds"
},
{
  "ts": "2018-02-06T09:53:28.086350",
  "type": "WARNING",
  "values": {
    "Exit": "finished",
    "Returncode": 0,
    "Time": 12.41770339012146
  }
},
{
  "ts": "2018-02-06T09:53:28.086595",
  "type": "INFO",
  "values": "Closing /cw/dtailocal/mercs_python/out/521/oes97/logs/mercspython_Log_F02.running.log"
}
]
