[
{
  "ts": "2018-02-06T09:52:51.214705",
  "type": "SETTINGS",
  "values": {
    "date": "2018/02/06 10:52:51",
    "date_iso": "2018-02-06T10:52:51.213066",
    "params": null,
    "system": {
      "nodename": "gibson",
      "machine": "x86_64",
      "platform": "Linux-4.4.0-112-generic-x86_64-with-debian-stretch-sid",
      "processor": "x86_64",
      "version": "#135-Ubuntu SMP Fri Jan 19 11:48:36 UTC 2018",
      "system": "Linux",
      "cpu_count": 8,
      "cpu_times": {
        "user": 312173.53,
        "system": 20337.71,
        "idle": 7944497.73,
        "nice": 819.07
      },
      "cpu_percent": 54.3,
      "virtual_memory": {
        "total": 33618501632,
        "available": 26819026944,
        "percent": 20.2,
        "used": 5698260992,
        "free": 16240324608
      }
    },
    "process": {
      "username": "evgeniya",
      "cwd": "/cw/dtailocal/mercs_python/src/core",
      "create_time": 1517910768.89,
      "cpu_times": {
        "user": 1.06,
        "system": 0.05
      }
    },
    "logfile": "/cw/dtailocal/mercs_python/out/521/oes97/logs/mercspython_Log_F00",
    "command": "python /cw/dtailocal/mercs_python/bin/mercspython.py /cw/dtailocal/mercs_python/out/521/oes97/settings/mercspython_Settings_F00.s"
  }
},
{
  "ts": "2018-02-06T09:52:51.214803",
  "type": "INFO",
  "values": {
    "cmd": "python /cw/dtailocal/mercs_python/bin/mercspython.py /cw/dtailocal/mercs_python/out/521/oes97/settings/mercspython_Settings_F00.s",
    "cwd": null
  }
},
{
  "ts": "2018-02-06T09:52:51.217657",
  "type": "INFO",
  "values": "Start: Run process"
},
{
  "ts": "2018-02-06T09:52:51.219915",
  "type": "INFO",
  "values": "Write log to /cw/dtailocal/mercs_python/out/521/oes97/logs/mercspython_Log_F00.running.log"
},
{
  "ts": "2018-02-06T09:53:03.435775",
  "type": "INFO",
  "values": "Process ended (returncode 0)"
},
{
  "ts": "2018-02-06T09:53:03.435857",
  "type": "INFO",
  "values": "Finished: Run process 12.218 seconds"
},
{
  "ts": "2018-02-06T09:53:03.435946",
  "type": "WARNING",
  "values": {
    "Exit": "finished",
    "Returncode": 0,
    "Time": 12.21824049949646
  }
}
]
