[
{
  "ts": "2018-02-05T17:07:51.644717",
  "type": "SETTINGS",
  "values": {
    "date": "2018/02/05 18:07:51",
    "date_iso": "2018-02-05T18:07:51.633955",
    "params": null,
    "system": {
      "nodename": "gibson",
      "machine": "x86_64",
      "platform": "Linux-4.4.0-112-generic-x86_64-with-debian-stretch-sid",
      "processor": "x86_64",
      "version": "#135-Ubuntu SMP Fri Jan 19 11:48:36 UTC 2018",
      "system": "Linux",
      "cpu_count": 8,
      "cpu_times": {
        "user": 139796.41,
        "system": 18641.07,
        "idle": 7637234.62,
        "nice": 751.58
      },
      "cpu_percent": 100.0,
      "virtual_memory": {
        "total": 33618501632,
        "available": 21831081984,
        "percent": 35.1,
        "used": 10797260800,
        "free": 4628389888
      }
    },
    "process": {
      "username": "evgeniya",
      "cwd": "/cw/dtailocal/mercs_python/src/core",
      "create_time": 1517850469.65,
      "cpu_times": {
        "user": 0.56,
        "system": 0.06
      }
    },
    "logfile": "/cw/dtailocal/mercs_python/out/299/slump/logs/mercspython_Log_F00",
    "command": "python /cw/dtailocal/mercs_python/bin/mercspython.py /cw/dtailocal/mercs_python/out/299/slump/settings/mercspython_Settings_F00.s"
  }
},
{
  "ts": "2018-02-05T17:07:51.644890",
  "type": "INFO",
  "values": {
    "cmd": "python /cw/dtailocal/mercs_python/bin/mercspython.py /cw/dtailocal/mercs_python/out/299/slump/settings/mercspython_Settings_F00.s",
    "cwd": null
  }
},
{
  "ts": "2018-02-05T17:07:51.661745",
  "type": "INFO",
  "values": "Start: Run process"
},
{
  "ts": "2018-02-05T17:07:51.691917",
  "type": "INFO",
  "values": "Write log to /cw/dtailocal/mercs_python/out/299/slump/logs/mercspython_Log_F00.running.log"
},
{
  "ts": "2018-02-05T17:07:56.117695",
  "type": "INFO",
  "values": "Process ended (returncode 0)"
},
{
  "ts": "2018-02-05T17:07:56.117774",
  "type": "INFO",
  "values": "Finished: Run process 4.456 seconds"
},
{
  "ts": "2018-02-05T17:07:56.117857",
  "type": "WARNING",
  "values": {
    "Exit": "finished",
    "Returncode": 0,
    "Time": 4.456072568893433
  }
}
]
