[
{
  "ts": "2018-02-07T10:26:08.060658",
  "type": "SETTINGS",
  "values": {
    "date": "2018/02/07 11:26:08",
    "date_iso": "2018-02-07T11:26:08.059784",
    "params": null,
    "system": {
      "nodename": "gibson",
      "machine": "x86_64",
      "platform": "Linux-4.4.0-112-generic-x86_64-with-debian-stretch-sid",
      "processor": "x86_64",
      "version": "#135-Ubuntu SMP Fri Jan 19 11:48:36 UTC 2018",
      "system": "Linux",
      "cpu_count": 8,
      "cpu_times": {
        "user": 382045.76,
        "system": 22415.14,
        "idle": 8577658.22,
        "nice": 901.26
      },
      "cpu_percent": 62.5,
      "virtual_memory": {
        "total": 33618501632,
        "available": 24763138048,
        "percent": 26.3,
        "used": 7987765248,
        "free": 10598391808
      }
    },
    "process": {
      "username": "evgeniya",
      "cwd": "/cw/dtailocal/mercs_python/src/core",
      "create_time": 1517998715.95,
      "cpu_times": {
        "user": 1.6,
        "system": 0.4
      }
    },
    "logfile": "/cw/dtailocal/mercs_python/out/732/rf1/logs/mercspython_Log_F08",
    "command": "python /cw/dtailocal/mercs_python/bin/mercspython.py /cw/dtailocal/mercs_python/out/732/rf1/settings/mercspython_Settings_F08.s"
  }
},
{
  "ts": "2018-02-07T10:26:08.060939",
  "type": "INFO",
  "values": {
    "cmd": "python /cw/dtailocal/mercs_python/bin/mercspython.py /cw/dtailocal/mercs_python/out/732/rf1/settings/mercspython_Settings_F08.s",
    "cwd": null
  }
},
{
  "ts": "2018-02-07T10:26:08.064672",
  "type": "INFO",
  "values": "Start: Run process"
},
{
  "ts": "2018-02-07T10:26:08.065258",
  "type": "INFO",
  "values": "Write log to /cw/dtailocal/mercs_python/out/732/rf1/logs/mercspython_Log_F08.running.log"
},
{
  "ts": "2018-02-07T10:26:47.118643",
  "type": "INFO",
  "values": "Process ended (returncode 0)"
},
{
  "ts": "2018-02-07T10:26:47.118725",
  "type": "INFO",
  "values": "Finished: Run process 39.054 seconds"
},
{
  "ts": "2018-02-07T10:26:47.118815",
  "type": "WARNING",
  "values": {
    "Exit": "finished",
    "Returncode": 0,
    "Time": 39.05408954620361
  }
},
{
  "ts": "2018-02-07T10:26:47.119135",
  "type": "INFO",
  "values": "Closing /cw/dtailocal/mercs_python/out/732/rf1/logs/mercspython_Log_F08.running.log"
}
]
