[
{
  "ts": "2018-02-06T03:19:37.449535",
  "type": "SETTINGS",
  "values": {
    "date": "2018/02/06 04:19:37",
    "date_iso": "2018-02-06T04:19:37.448953",
    "params": null,
    "system": {
      "nodename": "gibson",
      "machine": "x86_64",
      "platform": "Linux-4.4.0-112-generic-x86_64-with-debian-stretch-sid",
      "processor": "x86_64",
      "version": "#135-Ubuntu SMP Fri Jan 19 11:48:36 UTC 2018",
      "system": "Linux",
      "cpu_count": 8,
      "cpu_times": {
        "user": 304710.26,
        "system": 19872.96,
        "idle": 7764329.71,
        "nice": 767.06
      },
      "cpu_percent": 25.6,
      "virtual_memory": {
        "total": 33618501632,
        "available": 27275526144,
        "percent": 18.9,
        "used": 5321711616,
        "free": 17909796864
      }
    },
    "process": {
      "username": "evgeniya",
      "cwd": "/cw/dtailocal/mercs_python/src/core",
      "create_time": 1517877534.41,
      "cpu_times": {
        "user": 4.37,
        "system": 1.09
      }
    },
    "logfile": "/cw/dtailocal/mercs_python/out/277/scm1d/logs/mercspython_Log_F07",
    "command": "python /cw/dtailocal/mercs_python/bin/mercspython.py /cw/dtailocal/mercs_python/out/277/scm1d/settings/mercspython_Settings_F07.s"
  }
},
{
  "ts": "2018-02-06T03:19:37.449626",
  "type": "INFO",
  "values": {
    "cmd": "python /cw/dtailocal/mercs_python/bin/mercspython.py /cw/dtailocal/mercs_python/out/277/scm1d/settings/mercspython_Settings_F07.s",
    "cwd": null
  }
},
{
  "ts": "2018-02-06T03:19:37.453740",
  "type": "INFO",
  "values": "Start: Run process"
},
{
  "ts": "2018-02-06T03:19:37.454213",
  "type": "INFO",
  "values": "Write log to /cw/dtailocal/mercs_python/out/277/scm1d/logs/mercspython_Log_F07.running.log"
},
{
  "ts": "2018-02-06T03:42:35.548959",
  "type": "INFO",
  "values": "Process ended (returncode 0)"
},
{
  "ts": "2018-02-06T03:42:35.549018",
  "type": "INFO",
  "values": "Finished: Run process 1378.095 seconds"
},
{
  "ts": "2018-02-06T03:42:35.549075",
  "type": "WARNING",
  "values": {
    "Exit": "finished",
    "Returncode": 0,
    "Time": 1378.0953199863434
  }
},
{
  "ts": "2018-02-06T03:42:35.549339",
  "type": "INFO",
  "values": "Closing /cw/dtailocal/mercs_python/out/277/scm1d/logs/mercspython_Log_F07.running.log"
}
]
