[
{
  "ts": "2018-02-06T02:33:24.829066",
  "type": "SETTINGS",
  "values": {
    "date": "2018/02/06 03:33:24",
    "date_iso": "2018-02-06T03:33:24.828487",
    "params": null,
    "system": {
      "nodename": "gibson",
      "machine": "x86_64",
      "platform": "Linux-4.4.0-112-generic-x86_64-with-debian-stretch-sid",
      "processor": "x86_64",
      "version": "#135-Ubuntu SMP Fri Jan 19 11:48:36 UTC 2018",
      "system": "Linux",
      "cpu_count": 8,
      "cpu_times": {
        "user": 297714.24,
        "system": 19813.93,
        "idle": 7749235.38,
        "nice": 767.06
      },
      "cpu_percent": 38.0,
      "virtual_memory": {
        "total": 33618501632,
        "available": 27070656512,
        "percent": 19.5,
        "used": 5526171648,
        "free": 17755922432
      }
    },
    "process": {
      "username": "evgeniya",
      "cwd": "/cw/dtailocal/mercs_python/src/core",
      "create_time": 1517877534.41,
      "cpu_times": {
        "user": 3.5,
        "system": 0.76
      }
    },
    "logfile": "/cw/dtailocal/mercs_python/out/277/scm1d/logs/mercspython_Log_F05",
    "command": "python /cw/dtailocal/mercs_python/bin/mercspython.py /cw/dtailocal/mercs_python/out/277/scm1d/settings/mercspython_Settings_F05.s"
  }
},
{
  "ts": "2018-02-06T02:33:24.829157",
  "type": "INFO",
  "values": {
    "cmd": "python /cw/dtailocal/mercs_python/bin/mercspython.py /cw/dtailocal/mercs_python/out/277/scm1d/settings/mercspython_Settings_F05.s",
    "cwd": null
  }
},
{
  "ts": "2018-02-06T02:33:24.833153",
  "type": "INFO",
  "values": "Start: Run process"
},
{
  "ts": "2018-02-06T02:33:24.833647",
  "type": "INFO",
  "values": "Write log to /cw/dtailocal/mercs_python/out/277/scm1d/logs/mercspython_Log_F05.running.log"
},
{
  "ts": "2018-02-06T02:56:37.954327",
  "type": "INFO",
  "values": "Process ended (returncode 0)"
},
{
  "ts": "2018-02-06T02:56:37.954399",
  "type": "INFO",
  "values": "Finished: Run process 1393.121 seconds"
},
{
  "ts": "2018-02-06T02:56:37.954460",
  "type": "WARNING",
  "values": {
    "Exit": "finished",
    "Returncode": 0,
    "Time": 1393.1212847232819
  }
},
{
  "ts": "2018-02-06T02:56:37.954776",
  "type": "INFO",
  "values": "Closing /cw/dtailocal/mercs_python/out/277/scm1d/logs/mercspython_Log_F05.running.log"
}
]
