[
{
  "ts": "2018-02-07T10:15:51.457189",
  "type": "SETTINGS",
  "values": {
    "date": "2018/02/07 11:15:51",
    "date_iso": "2018-02-07T11:15:51.456354",
    "params": null,
    "system": {
      "nodename": "gibson",
      "machine": "x86_64",
      "platform": "Linux-4.4.0-112-generic-x86_64-with-debian-stretch-sid",
      "processor": "x86_64",
      "version": "#135-Ubuntu SMP Fri Jan 19 11:48:36 UTC 2018",
      "system": "Linux",
      "cpu_count": 8,
      "cpu_times": {
        "user": 377494.89,
        "system": 22359.76,
        "idle": 8577340.76,
        "nice": 898.04
      },
      "cpu_percent": 99.7,
      "virtual_memory": {
        "total": 33618501632,
        "available": 26226135040,
        "percent": 22.0,
        "used": 6523699200,
        "free": 12089221120
      }
    },
    "process": {
      "username": "evgeniya",
      "cwd": "/cw/dtailocal/mercs_python/src/core",
      "create_time": 1517998528.92,
      "cpu_times": {
        "user": 1.18,
        "system": 0.16
      }
    },
    "logfile": "/cw/dtailocal/mercs_python/out/714/andro/logs/mercspython_Log_F06",
    "command": "python /cw/dtailocal/mercs_python/bin/mercspython.py /cw/dtailocal/mercs_python/out/714/andro/settings/mercspython_Settings_F06.s"
  }
},
{
  "ts": "2018-02-07T10:15:51.457462",
  "type": "INFO",
  "values": {
    "cmd": "python /cw/dtailocal/mercs_python/bin/mercspython.py /cw/dtailocal/mercs_python/out/714/andro/settings/mercspython_Settings_F06.s",
    "cwd": null
  }
},
{
  "ts": "2018-02-07T10:15:51.476391",
  "type": "INFO",
  "values": "Start: Run process"
},
{
  "ts": "2018-02-07T10:15:51.499774",
  "type": "INFO",
  "values": "Write log to /cw/dtailocal/mercs_python/out/714/andro/logs/mercspython_Log_F06.running.log"
},
{
  "ts": "2018-02-07T10:15:54.907040",
  "type": "INFO",
  "values": "Process ended (returncode 0)"
},
{
  "ts": "2018-02-07T10:15:54.907121",
  "type": "INFO",
  "values": "Finished: Run process 3.431 seconds"
},
{
  "ts": "2018-02-07T10:15:54.907204",
  "type": "WARNING",
  "values": {
    "Exit": "finished",
    "Returncode": 0,
    "Time": 3.430756092071533
  }
},
{
  "ts": "2018-02-07T10:15:54.911816",
  "type": "INFO",
  "values": "Closing /cw/dtailocal/mercs_python/out/714/andro/logs/mercspython_Log_F06.running.log"
}
]
