[
{
  "ts": "2018-02-07T10:15:30.663362",
  "type": "SETTINGS",
  "values": {
    "date": "2018/02/07 11:15:30",
    "date_iso": "2018-02-07T11:15:30.659515",
    "params": null,
    "system": {
      "nodename": "gibson",
      "machine": "x86_64",
      "platform": "Linux-4.4.0-112-generic-x86_64-with-debian-stretch-sid",
      "processor": "x86_64",
      "version": "#135-Ubuntu SMP Fri Jan 19 11:48:36 UTC 2018",
      "system": "Linux",
      "cpu_count": 8,
      "cpu_times": {
        "user": 377335.9,
        "system": 22353.88,
        "idle": 8577339.96,
        "nice": 898.04
      },
      "cpu_percent": 99.6,
      "virtual_memory": {
        "total": 33618501632,
        "available": 26284539904,
        "percent": 21.8,
        "used": 6465159168,
        "free": 12149702656
      }
    },
    "process": {
      "username": "evgeniya",
      "cwd": "/cw/dtailocal/mercs_python/src/core",
      "create_time": 1517998528.92,
      "cpu_times": {
        "user": 0.59,
        "system": 0.05
      }
    },
    "logfile": "/cw/dtailocal/mercs_python/out/714/andro/logs/mercspython_Log_F00",
    "command": "python /cw/dtailocal/mercs_python/bin/mercspython.py /cw/dtailocal/mercs_python/out/714/andro/settings/mercspython_Settings_F00.s"
  }
},
{
  "ts": "2018-02-07T10:15:30.663620",
  "type": "INFO",
  "values": {
    "cmd": "python /cw/dtailocal/mercs_python/bin/mercspython.py /cw/dtailocal/mercs_python/out/714/andro/settings/mercspython_Settings_F00.s",
    "cwd": null
  }
},
{
  "ts": "2018-02-07T10:15:30.693262",
  "type": "INFO",
  "values": "Start: Run process"
},
{
  "ts": "2018-02-07T10:15:30.716514",
  "type": "INFO",
  "values": "Write log to /cw/dtailocal/mercs_python/out/714/andro/logs/mercspython_Log_F00.running.log"
},
{
  "ts": "2018-02-07T10:15:33.920436",
  "type": "INFO",
  "values": "Process ended (returncode 0)"
},
{
  "ts": "2018-02-07T10:15:33.920546",
  "type": "INFO",
  "values": "Finished: Run process 3.227 seconds"
},
{
  "ts": "2018-02-07T10:15:33.920635",
  "type": "WARNING",
  "values": {
    "Exit": "finished",
    "Returncode": 0,
    "Time": 3.2273356914520264
  }
},
{
  "ts": "2018-02-07T10:15:33.927802",
  "type": "INFO",
  "values": "Closing /cw/dtailocal/mercs_python/out/714/andro/logs/mercspython_Log_F00.running.log"
}
]
