[SETTINGS] {
  "date": "2018/02/05 17:14:58",
  "date_iso": "2018-02-05T17:14:58.763594",
  "params": null,
  "system": {
    "nodename": "gibson",
    "machine": "x86_64",
    "platform": "Linux-4.4.0-112-generic-x86_64-with-debian-stretch-sid",
    "processor": "x86_64",
    "version": "#135-Ubuntu SMP Fri Jan 19 11:48:36 UTC 2018",
    "system": "Linux",
    "cpu_count": 8,
    "cpu_times": {
      "user": 114650.79,
      "system": 18425.64,
      "idle": 7637230.7,
      "nice": 749.46
    },
    "cpu_percent": 100.0,
    "virtual_memory": {
      "total": 33618501632,
      "available": 23418331136,
      "percent": 30.3,
      "used": 9295835136,
      "free": 6895472640
    }
  },
  "process": {
    "username": "evgeniya",
    "cwd": "/cw/dtailocal/mercs_python/src/core",
    "create_time": 1517847140.28,
    "cpu_times": {
      "user": 2.26,
      "system": 0.08
    }
  },
  "logfile": "/cw/dtailocal/mercs_python/out/274/oes10/logs/mercspython_Log_F02",
  "command": "python /cw/dtailocal/mercs_python/bin/mercspython.py /cw/dtailocal/mercs_python/out/274/oes10/settings/mercspython_Settings_F02.s"
}
[INFO] cmd:python /cw/dtailocal/mercs_python/bin/mercspython.py /cw/dtailocal/mercs_python/out/274/oes10/settings/mercspython_Settings_F02.s; cwd:None
[INFO] Start: Run process
[INFO] Write log to /cw/dtailocal/mercs_python/out/274/oes10/logs/mercspython_Log_F02.running.log
[STDERR] /cw/dtailocal/mercs_python/bin/mercspython.py:479: DataConversionWarning: A column-vector y was passed when a 1d array was expected. Please change the shape of y to (n_samples,), for example using ravel().
[STDERR]   rf.fit(X, y)
[STDERR] /cw/dtailocal/mercs_python/bin/mercspython.py:479: DataConversionWarning: A column-vector y was passed when a 1d array was expected. Please change the shape of y to (n_samples,), for example using ravel().
[STDERR]   rf.fit(X, y)
[STDERR] /cw/dtailocal/mercs_python/bin/mercspython.py:479: DataConversionWarning: A column-vector y was passed when a 1d array was expected. Please change the shape of y to (n_samples,), for example using ravel().
[STDERR]   rf.fit(X, y)
[STDERR] /cw/dtailocal/mercs_python/bin/mercspython.py:479: DataConversionWarning: A column-vector y was passed when a 1d array was expected. Please change the shape of y to (n_samples,), for example using ravel().
[STDERR]   rf.fit(X, y)
[STDERR] /cw/dtailocal/mercs_python/bin/mercspython.py:479: DataConversionWarning: A column-vector y was passed when a 1d array was expected. Please change the shape of y to (n_samples,), for example using ravel().
[STDERR]   rf.fit(X, y)
[STDERR] /cw/dtailocal/mercs_python/bin/mercspython.py:479: DataConversionWarning: A column-vector y was passed when a 1d array was expected. Please change the shape of y to (n_samples,), for example using ravel().
[STDERR]   rf.fit(X, y)
[STDERR] /cw/dtailocal/mercs_python/bin/mercspython.py:479: DataConversionWarning: A column-vector y was passed when a 1d array was expected. Please change the shape of y to (n_samples,), for example using ravel().
[STDERR]   rf.fit(X, y)
[STDERR] /cw/dtailocal/mercs_python/bin/mercspython.py:479: DataConversionWarning: A column-vector y was passed when a 1d array was expected. Please change the shape of y to (n_samples,), for example using ravel().
[STDERR]   rf.fit(X, y)
[STDERR] /cw/dtailocal/mercs_python/bin/mercspython.py:479: DataConversionWarning: A column-vector y was passed when a 1d array was expected. Please change the shape of y to (n_samples,), for example using ravel().
[STDERR]   rf.fit(X, y)
[STDERR] /cw/dtailocal/mercs_python/bin/mercspython.py:479: DataConversionWarning: A column-vector y was passed when a 1d array was expected. Please change the shape of y to (n_samples,), for example using ravel().
[STDERR]   rf.fit(X, y)
[STDERR] /cw/dtailocal/mercs_python/bin/mercspython.py:479: DataConversionWarning: A column-vector y was passed when a 1d array was expected. Please change the shape of y to (n_samples,), for example using ravel().
[STDERR]   rf.fit(X, y)
[STDERR] /cw/dtailocal/mercs_python/bin/mercspython.py:479: DataConversionWarning: A column-vector y was passed when a 1d array was expected. Please change the shape of y to (n_samples,), for example using ravel().
[STDERR]   rf.fit(X, y)
[STDERR] /cw/dtailocal/mercs_python/bin/mercspython.py:479: DataConversionWarning: A column-vector y was passed when a 1d array was expected. Please change the shape of y to (n_samples,), for example using ravel().
[STDERR]   rf.fit(X, y)
[STDERR] /cw/dtailocal/mercs_python/bin/mercspython.py:479: DataConversionWarning: A column-vector y was passed when a 1d array was expected. Please change the shape of y to (n_samples,), for example using ravel().
[STDERR]   rf.fit(X, y)
[STDERR] /cw/dtailocal/mercs_python/bin/mercspython.py:479: DataConversionWarning: A column-vector y was passed when a 1d array was expected. Please change the shape of y to (n_samples,), for example using ravel().
[STDERR]   rf.fit(X, y)
[STDERR] /cw/dtailocal/mercs_python/bin/mercspython.py:479: DataConversionWarning: A column-vector y was passed when a 1d array was expected. Please change the shape of y to (n_samples,), for example using ravel().
[STDERR]   rf.fit(X, y)
[STDERR] /cw/dtailocal/mercs_python/bin/mercspython.py:479: DataConversionWarning: A column-vector y was passed when a 1d array was expected. Please change the shape of y to (n_samples,), for example using ravel().
[STDERR]   rf.fit(X, y)
[STDERR] /cw/dtailocal/mercs_python/bin/mercspython.py:479: DataConversionWarning: A column-vector y was passed when a 1d array was expected. Please change the shape of y to (n_samples,), for example using ravel().
[STDERR]   rf.fit(X, y)
[STDERR] /cw/dtailocal/mercs_python/bin/mercspython.py:479: DataConversionWarning: A column-vector y was passed when a 1d array was expected. Please change the shape of y to (n_samples,), for example using ravel().
[STDERR]   rf.fit(X, y)
[STDERR] /cw/dtailocal/mercs_python/bin/mercspython.py:479: DataConversionWarning: A column-vector y was passed when a 1d array was expected. Please change the shape of y to (n_samples,), for example using ravel().
[STDERR]   rf.fit(X, y)
[STDERR] /cw/dtailocal/mercs_python/bin/mercspython.py:479: DataConversionWarning: A column-vector y was passed when a 1d array was expected. Please change the shape of y to (n_samples,), for example using ravel().
[STDERR]   rf.fit(X, y)
[STDERR] /cw/dtailocal/mercs_python/bin/mercspython.py:479: DataConversionWarning: A column-vector y was passed when a 1d array was expected. Please change the shape of y to (n_samples,), for example using ravel().
[STDERR]   rf.fit(X, y)
[STDERR] /cw/dtailocal/mercs_python/bin/mercspython.py:479: DataConversionWarning: A column-vector y was passed when a 1d array was expected. Please change the shape of y to (n_samples,), for example using ravel().
[STDERR]   rf.fit(X, y)
[STDERR] /cw/dtailocal/mercs_python/bin/mercspython.py:479: DataConversionWarning: A column-vector y was passed when a 1d array was expected. Please change the shape of y to (n_samples,), for example using ravel().
[STDERR]   rf.fit(X, y)
[STDERR] /cw/dtailocal/mercs_python/bin/mercspython.py:479: DataConversionWarning: A column-vector y was passed when a 1d array was expected. Please change the shape of y to (n_samples,), for example using ravel().
[STDERR]   rf.fit(X, y)
[STDERR] /cw/dtailocal/mercs_python/bin/mercspython.py:479: DataConversionWarning: A column-vector y was passed when a 1d array was expected. Please change the shape of y to (n_samples,), for example using ravel().
[STDERR]   rf.fit(X, y)
[STDERR] /cw/dtailocal/mercs_python/bin/mercspython.py:479: DataConversionWarning: A column-vector y was passed when a 1d array was expected. Please change the shape of y to (n_samples,), for example using ravel().
[STDERR]   rf.fit(X, y)
[STDERR] /cw/dtailocal/mercs_python/bin/mercspython.py:479: DataConversionWarning: A column-vector y was passed when a 1d array was expected. Please change the shape of y to (n_samples,), for example using ravel().
[STDERR]   rf.fit(X, y)
[STDERR] /cw/dtailocal/mercs_python/bin/mercspython.py:479: DataConversionWarning: A column-vector y was passed when a 1d array was expected. Please change the shape of y to (n_samples,), for example using ravel().
[STDERR]   rf.fit(X, y)
[STDERR] /cw/dtailocal/mercs_python/bin/mercspython.py:479: DataConversionWarning: A column-vector y was passed when a 1d array was expected. Please change the shape of y to (n_samples,), for example using ravel().
[STDERR]   rf.fit(X, y)
[STDERR] /cw/dtailocal/mercs_python/bin/mercspython.py:479: DataConversionWarning: A column-vector y was passed when a 1d array was expected. Please change the shape of y to (n_samples,), for example using ravel().
[STDERR]   rf.fit(X, y)
[STDERR] /cw/dtailocal/mercs_python/bin/mercspython.py:479: DataConversionWarning: A column-vector y was passed when a 1d array was expected. Please change the shape of y to (n_samples,), for example using ravel().
[STDERR]   rf.fit(X, y)
[STDERR] /cw/dtailocal/mercs_python/bin/mercspython.py:479: DataConversionWarning: A column-vector y was passed when a 1d array was expected. Please change the shape of y to (n_samples,), for example using ravel().
[STDERR]   rf.fit(X, y)
[STDERR] /cw/dtailocal/mercs_python/bin/mercspython.py:479: DataConversionWarning: A column-vector y was passed when a 1d array was expected. Please change the shape of y to (n_samples,), for example using ravel().
[STDERR]   rf.fit(X, y)
[STDERR] /cw/dtailocal/mercs_python/bin/mercspython.py:479: DataConversionWarning: A column-vector y was passed when a 1d array was expected. Please change the shape of y to (n_samples,), for example using ravel().
[STDERR]   rf.fit(X, y)
[STDERR] /cw/dtailocal/mercs_python/bin/mercspython.py:479: DataConversionWarning: A column-vector y was passed when a 1d array was expected. Please change the shape of y to (n_samples,), for example using ravel().
[STDERR]   rf.fit(X, y)
[STDERR] /cw/dtailocal/mercs_python/bin/mercspython.py:479: DataConversionWarning: A column-vector y was passed when a 1d array was expected. Please change the shape of y to (n_samples,), for example using ravel().
[STDERR]   rf.fit(X, y)
[STDERR] /cw/dtailocal/mercs_python/bin/mercspython.py:479: DataConversionWarning: A column-vector y was passed when a 1d array was expected. Please change the shape of y to (n_samples,), for example using ravel().
[STDERR]   rf.fit(X, y)
[STDERR] /cw/dtailocal/mercs_python/bin/mercspython.py:479: DataConversionWarning: A column-vector y was passed when a 1d array was expected. Please change the shape of y to (n_samples,), for example using ravel().
[STDERR]   rf.fit(X, y)
[STDERR] /cw/dtailocal/mercs_python/bin/mercspython.py:479: DataConversionWarning: A column-vector y was passed when a 1d array was expected. Please change the shape of y to (n_samples,), for example using ravel().
[STDERR]   rf.fit(X, y)
[STDERR] /cw/dtailocal/mercs_python/bin/mercspython.py:479: DataConversionWarning: A column-vector y was passed when a 1d array was expected. Please change the shape of y to (n_samples,), for example using ravel().
[STDERR]   rf.fit(X, y)
[STDERR] /cw/dtailocal/mercs_python/bin/mercspython.py:479: DataConversionWarning: A column-vector y was passed when a 1d array was expected. Please change the shape of y to (n_samples,), for example using ravel().
[STDERR]   rf.fit(X, y)
[STDERR] /cw/dtailocal/mercs_python/bin/mercspython.py:479: DataConversionWarning: A column-vector y was passed when a 1d array was expected. Please change the shape of y to (n_samples,), for example using ravel().
[STDERR]   rf.fit(X, y)
[STDERR] /cw/dtailocal/mercs_python/bin/mercspython.py:479: DataConversionWarning: A column-vector y was passed when a 1d array was expected. Please change the shape of y to (n_samples,), for example using ravel().
[STDERR]   rf.fit(X, y)
[STDERR] /cw/dtailocal/mercs_python/bin/mercspython.py:479: DataConversionWarning: A column-vector y was passed when a 1d array was expected. Please change the shape of y to (n_samples,), for example using ravel().
[STDERR]   rf.fit(X, y)
[STDERR] /cw/dtailocal/mercs_python/bin/mercspython.py:479: DataConversionWarning: A column-vector y was passed when a 1d array was expected. Please change the shape of y to (n_samples,), for example using ravel().
[STDERR]   rf.fit(X, y)
[STDERR] /cw/dtailocal/mercs_python/bin/mercspython.py:479: DataConversionWarning: A column-vector y was passed when a 1d array was expected. Please change the shape of y to (n_samples,), for example using ravel().
[STDERR]   rf.fit(X, y)
[STDERR] /cw/dtailocal/mercs_python/bin/mercspython.py:479: DataConversionWarning: A column-vector y was passed when a 1d array was expected. Please change the shape of y to (n_samples,), for example using ravel().
[STDERR]   rf.fit(X, y)
[STDERR] /cw/dtailocal/mercs_python/bin/mercspython.py:479: DataConversionWarning: A column-vector y was passed when a 1d array was expected. Please change the shape of y to (n_samples,), for example using ravel().
[STDERR]   rf.fit(X, y)
[STDERR] /cw/dtailocal/mercs_python/bin/mercspython.py:479: DataConversionWarning: A column-vector y was passed when a 1d array was expected. Please change the shape of y to (n_samples,), for example using ravel().
[STDERR]   rf.fit(X, y)
[STDERR] /cw/dtailocal/mercs_python/bin/mercspython.py:479: DataConversionWarning: A column-vector y was passed when a 1d array was expected. Please change the shape of y to (n_samples,), for example using ravel().
[STDERR]   rf.fit(X, y)
[STDERR] /cw/dtailocal/mercs_python/bin/mercspython.py:479: DataConversionWarning: A column-vector y was passed when a 1d array was expected. Please change the shape of y to (n_samples,), for example using ravel().
[STDERR]   rf.fit(X, y)
[STDERR] /cw/dtailocal/mercs_python/bin/mercspython.py:479: DataConversionWarning: A column-vector y was passed when a 1d array was expected. Please change the shape of y to (n_samples,), for example using ravel().
[STDERR]   rf.fit(X, y)
[STDERR] /cw/dtailocal/mercs_python/bin/mercspython.py:479: DataConversionWarning: A column-vector y was passed when a 1d array was expected. Please change the shape of y to (n_samples,), for example using ravel().
[STDERR]   rf.fit(X, y)
[STDERR] /cw/dtailocal/mercs_python/bin/mercspython.py:479: DataConversionWarning: A column-vector y was passed when a 1d array was expected. Please change the shape of y to (n_samples,), for example using ravel().
[STDERR]   rf.fit(X, y)
[STDERR] /cw/dtailocal/mercs_python/bin/mercspython.py:479: DataConversionWarning: A column-vector y was passed when a 1d array was expected. Please change the shape of y to (n_samples,), for example using ravel().
[STDERR]   rf.fit(X, y)
[STDERR] /cw/dtailocal/mercs_python/bin/mercspython.py:479: DataConversionWarning: A column-vector y was passed when a 1d array was expected. Please change the shape of y to (n_samples,), for example using ravel().
[STDERR]   rf.fit(X, y)
[STDERR] /cw/dtailocal/mercs_python/bin/mercspython.py:479: DataConversionWarning: A column-vector y was passed when a 1d array was expected. Please change the shape of y to (n_samples,), for example using ravel().
[STDERR]   rf.fit(X, y)
[STDERR] /cw/dtailocal/mercs_python/bin/mercspython.py:479: DataConversionWarning: A column-vector y was passed when a 1d array was expected. Please change the shape of y to (n_samples,), for example using ravel().
[STDERR]   rf.fit(X, y)
[STDERR] /cw/dtailocal/mercs_python/bin/mercspython.py:479: DataConversionWarning: A column-vector y was passed when a 1d array was expected. Please change the shape of y to (n_samples,), for example using ravel().
[STDERR]   rf.fit(X, y)
[STDERR] /cw/dtailocal/mercs_python/bin/mercspython.py:479: DataConversionWarning: A column-vector y was passed when a 1d array was expected. Please change the shape of y to (n_samples,), for example using ravel().
[STDERR]   rf.fit(X, y)
[STDERR] /cw/dtailocal/mercs_python/bin/mercspython.py:479: DataConversionWarning: A column-vector y was passed when a 1d array was expected. Please change the shape of y to (n_samples,), for example using ravel().
[STDERR]   rf.fit(X, y)
[STDERR] /cw/dtailocal/mercs_python/bin/mercspython.py:479: DataConversionWarning: A column-vector y was passed when a 1d array was expected. Please change the shape of y to (n_samples,), for example using ravel().
[STDERR]   rf.fit(X, y)
[STDERR] /cw/dtailocal/mercs_python/bin/mercspython.py:479: DataConversionWarning: A column-vector y was passed when a 1d array was expected. Please change the shape of y to (n_samples,), for example using ravel().
[STDERR]   rf.fit(X, y)
[STDERR] /cw/dtailocal/mercs_python/bin/mercspython.py:479: DataConversionWarning: A column-vector y was passed when a 1d array was expected. Please change the shape of y to (n_samples,), for example using ravel().
[STDERR]   rf.fit(X, y)
[STDERR] /cw/dtailocal/mercs_python/bin/mercspython.py:479: DataConversionWarning: A column-vector y was passed when a 1d array was expected. Please change the shape of y to (n_samples,), for example using ravel().
[STDERR]   rf.fit(X, y)
[STDERR] /cw/dtailocal/mercs_python/bin/mercspython.py:479: DataConversionWarning: A column-vector y was passed when a 1d array was expected. Please change the shape of y to (n_samples,), for example using ravel().
[STDERR]   rf.fit(X, y)
[STDERR] /cw/dtailocal/mercs_python/bin/mercspython.py:479: DataConversionWarning: A column-vector y was passed when a 1d array was expected. Please change the shape of y to (n_samples,), for example using ravel().
[STDERR]   rf.fit(X, y)
[STDERR] /cw/dtailocal/mercs_python/bin/mercspython.py:479: DataConversionWarning: A column-vector y was passed when a 1d array was expected. Please change the shape of y to (n_samples,), for example using ravel().
[STDERR]   rf.fit(X, y)
[STDERR] /cw/dtailocal/mercs_python/bin/mercspython.py:479: DataConversionWarning: A column-vector y was passed when a 1d array was expected. Please change the shape of y to (n_samples,), for example using ravel().
[STDERR]   rf.fit(X, y)
[STDERR] /cw/dtailocal/mercs_python/bin/mercspython.py:479: DataConversionWarning: A column-vector y was passed when a 1d array was expected. Please change the shape of y to (n_samples,), for example using ravel().
[STDERR]   rf.fit(X, y)
[STDERR] /cw/dtailocal/mercs_python/bin/mercspython.py:479: DataConversionWarning: A column-vector y was passed when a 1d array was expected. Please change the shape of y to (n_samples,), for example using ravel().
[STDERR]   rf.fit(X, y)
[STDERR] /cw/dtailocal/mercs_python/bin/mercspython.py:479: DataConversionWarning: A column-vector y was passed when a 1d array was expected. Please change the shape of y to (n_samples,), for example using ravel().
[STDERR]   rf.fit(X, y)
[STDERR] /cw/dtailocal/mercs_python/bin/mercspython.py:479: DataConversionWarning: A column-vector y was passed when a 1d array was expected. Please change the shape of y to (n_samples,), for example using ravel().
[STDERR]   rf.fit(X, y)
[STDERR] /cw/dtailocal/mercs_python/bin/mercspython.py:479: DataConversionWarning: A column-vector y was passed when a 1d array was expected. Please change the shape of y to (n_samples,), for example using ravel().
[STDERR]   rf.fit(X, y)
[STDERR] /cw/dtailocal/mercs_python/bin/mercspython.py:479: DataConversionWarning: A column-vector y was passed when a 1d array was expected. Please change the shape of y to (n_samples,), for example using ravel().
[STDERR]   rf.fit(X, y)
[STDERR] /cw/dtailocal/mercs_python/bin/mercspython.py:479: DataConversionWarning: A column-vector y was passed when a 1d array was expected. Please change the shape of y to (n_samples,), for example using ravel().
[STDERR]   rf.fit(X, y)
[STDERR] /cw/dtailocal/mercs_python/bin/mercspython.py:479: DataConversionWarning: A column-vector y was passed when a 1d array was expected. Please change the shape of y to (n_samples,), for example using ravel().
[STDERR]   rf.fit(X, y)
[STDERR] /cw/dtailocal/mercs_python/bin/mercspython.py:479: DataConversionWarning: A column-vector y was passed when a 1d array was expected. Please change the shape of y to (n_samples,), for example using ravel().
[STDERR]   rf.fit(X, y)
[STDERR] /cw/dtailocal/mercs_python/bin/mercspython.py:479: DataConversionWarning: A column-vector y was passed when a 1d array was expected. Please change the shape of y to (n_samples,), for example using ravel().
[STDERR]   rf.fit(X, y)
[STDERR] /cw/dtailocal/mercs_python/bin/mercspython.py:479: DataConversionWarning: A column-vector y was passed when a 1d array was expected. Please change the shape of y to (n_samples,), for example using ravel().
[STDERR]   rf.fit(X, y)
[STDERR] /cw/dtailocal/mercs_python/bin/mercspython.py:479: DataConversionWarning: A column-vector y was passed when a 1d array was expected. Please change the shape of y to (n_samples,), for example using ravel().
[STDERR]   rf.fit(X, y)
[STDERR] /cw/dtailocal/mercs_python/bin/mercspython.py:479: DataConversionWarning: A column-vector y was passed when a 1d array was expected. Please change the shape of y to (n_samples,), for example using ravel().
[STDERR]   rf.fit(X, y)
[STDERR] /cw/dtailocal/mercs_python/bin/mercspython.py:479: DataConversionWarning: A column-vector y was passed when a 1d array was expected. Please change the shape of y to (n_samples,), for example using ravel().
[STDERR]   rf.fit(X, y)
[STDERR] /cw/dtailocal/mercs_python/bin/mercspython.py:479: DataConversionWarning: A column-vector y was passed when a 1d array was expected. Please change the shape of y to (n_samples,), for example using ravel().
[STDERR]   rf.fit(X, y)
[STDERR] /cw/dtailocal/mercs_python/bin/mercspython.py:479: DataConversionWarning: A column-vector y was passed when a 1d array was expected. Please change the shape of y to (n_samples,), for example using ravel().
[STDERR]   rf.fit(X, y)
[STDERR] /cw/dtailocal/mercs_python/bin/mercspython.py:479: DataConversionWarning: A column-vector y was passed when a 1d array was expected. Please change the shape of y to (n_samples,), for example using ravel().
[STDERR]   rf.fit(X, y)
[STDERR] /cw/dtailocal/mercs_python/bin/mercspython.py:479: DataConversionWarning: A column-vector y was passed when a 1d array was expected. Please change the shape of y to (n_samples,), for example using ravel().
[STDERR]   rf.fit(X, y)
[STDERR] /cw/dtailocal/mercs_python/bin/mercspython.py:479: DataConversionWarning: A column-vector y was passed when a 1d array was expected. Please change the shape of y to (n_samples,), for example using ravel().
[STDERR]   rf.fit(X, y)
[STDERR] /cw/dtailocal/mercs_python/bin/mercspython.py:479: DataConversionWarning: A column-vector y was passed when a 1d array was expected. Please change the shape of y to (n_samples,), for example using ravel().
[STDERR]   rf.fit(X, y)
[STDERR] /cw/dtailocal/mercs_python/bin/mercspython.py:479: DataConversionWarning: A column-vector y was passed when a 1d array was expected. Please change the shape of y to (n_samples,), for example using ravel().
[STDERR]   rf.fit(X, y)
[STDERR] /cw/dtailocal/mercs_python/bin/mercspython.py:479: DataConversionWarning: A column-vector y was passed when a 1d array was expected. Please change the shape of y to (n_samples,), for example using ravel().
[STDERR]   rf.fit(X, y)
[STDERR] /cw/dtailocal/mercs_python/bin/mercspython.py:479: DataConversionWarning: A column-vector y was passed when a 1d array was expected. Please change the shape of y to (n_samples,), for example using ravel().
[STDERR]   rf.fit(X, y)
[STDERR] /cw/dtailocal/mercs_python/bin/mercspython.py:479: DataConversionWarning: A column-vector y was passed when a 1d array was expected. Please change the shape of y to (n_samples,), for example using ravel().
[STDERR]   rf.fit(X, y)
[STDERR] /cw/dtailocal/mercs_python/bin/mercspython.py:479: DataConversionWarning: A column-vector y was passed when a 1d array was expected. Please change the shape of y to (n_samples,), for example using ravel().
[STDERR]   rf.fit(X, y)
[STDERR] /cw/dtailocal/mercs_python/bin/mercspython.py:479: DataConversionWarning: A column-vector y was passed when a 1d array was expected. Please change the shape of y to (n_samples,), for example using ravel().
[STDERR]   rf.fit(X, y)
[STDERR] /cw/dtailocal/mercs_python/bin/mercspython.py:479: DataConversionWarning: A column-vector y was passed when a 1d array was expected. Please change the shape of y to (n_samples,), for example using ravel().
[STDERR]   rf.fit(X, y)
[STDERR] /cw/dtailocal/mercs_python/bin/mercspython.py:479: DataConversionWarning: A column-vector y was passed when a 1d array was expected. Please change the shape of y to (n_samples,), for example using ravel().
[STDERR]   rf.fit(X, y)
[STDERR] /cw/dtailocal/mercs_python/bin/mercspython.py:479: DataConversionWarning: A column-vector y was passed when a 1d array was expected. Please change the shape of y to (n_samples,), for example using ravel().
[STDERR]   rf.fit(X, y)
[STDERR] /cw/dtailocal/mercs_python/bin/mercspython.py:479: DataConversionWarning: A column-vector y was passed when a 1d array was expected. Please change the shape of y to (n_samples,), for example using ravel().
[STDERR]   rf.fit(X, y)
[STDERR] /cw/dtailocal/mercs_python/bin/mercspython.py:479: DataConversionWarning: A column-vector y was passed when a 1d array was expected. Please change the shape of y to (n_samples,), for example using ravel().
[STDERR]   rf.fit(X, y)
[STDERR] /cw/dtailocal/mercs_python/bin/mercspython.py:479: DataConversionWarning: A column-vector y was passed when a 1d array was expected. Please change the shape of y to (n_samples,), for example using ravel().
[STDERR]   rf.fit(X, y)
[STDERR] /cw/dtailocal/mercs_python/bin/mercspython.py:479: DataConversionWarning: A column-vector y was passed when a 1d array was expected. Please change the shape of y to (n_samples,), for example using ravel().
[STDERR]   rf.fit(X, y)
[STDERR] /cw/dtailocal/mercs_python/bin/mercspython.py:479: DataConversionWarning: A column-vector y was passed when a 1d array was expected. Please change the shape of y to (n_samples,), for example using ravel().
[STDERR]   rf.fit(X, y)
[STDERR] /cw/dtailocal/mercs_python/bin/mercspython.py:479: DataConversionWarning: A column-vector y was passed when a 1d array was expected. Please change the shape of y to (n_samples,), for example using ravel().
[STDERR]   rf.fit(X, y)
[STDERR] /cw/dtailocal/mercs_python/bin/mercspython.py:479: DataConversionWarning: A column-vector y was passed when a 1d array was expected. Please change the shape of y to (n_samples,), for example using ravel().
[STDERR]   rf.fit(X, y)
[STDERR] /cw/dtailocal/mercs_python/bin/mercspython.py:479: DataConversionWarning: A column-vector y was passed when a 1d array was expected. Please change the shape of y to (n_samples,), for example using ravel().
[STDERR]   rf.fit(X, y)
[STDERR] /cw/dtailocal/mercs_python/bin/mercspython.py:479: DataConversionWarning: A column-vector y was passed when a 1d array was expected. Please change the shape of y to (n_samples,), for example using ravel().
[STDERR]   rf.fit(X, y)
[STDERR] /cw/dtailocal/mercs_python/bin/mercspython.py:479: DataConversionWarning: A column-vector y was passed when a 1d array was expected. Please change the shape of y to (n_samples,), for example using ravel().
[STDERR]   rf.fit(X, y)
[STDERR] /cw/dtailocal/mercs_python/bin/mercspython.py:479: DataConversionWarning: A column-vector y was passed when a 1d array was expected. Please change the shape of y to (n_samples,), for example using ravel().
[STDERR]   rf.fit(X, y)
[STDERR] /cw/dtailocal/mercs_python/bin/mercspython.py:479: DataConversionWarning: A column-vector y was passed when a 1d array was expected. Please change the shape of y to (n_samples,), for example using ravel().
[STDERR]   rf.fit(X, y)
[STDERR] /cw/dtailocal/mercs_python/bin/mercspython.py:479: DataConversionWarning: A column-vector y was passed when a 1d array was expected. Please change the shape of y to (n_samples,), for example using ravel().
[STDERR]   rf.fit(X, y)
[STDERR] /cw/dtailocal/mercs_python/bin/mercspython.py:479: DataConversionWarning: A column-vector y was passed when a 1d array was expected. Please change the shape of y to (n_samples,), for example using ravel().
[STDERR]   rf.fit(X, y)
[STDERR] /cw/dtailocal/mercs_python/bin/mercspython.py:479: DataConversionWarning: A column-vector y was passed when a 1d array was expected. Please change the shape of y to (n_samples,), for example using ravel().
[STDERR]   rf.fit(X, y)
[STDERR] /cw/dtailocal/mercs_python/bin/mercspython.py:479: DataConversionWarning: A column-vector y was passed when a 1d array was expected. Please change the shape of y to (n_samples,), for example using ravel().
[STDERR]   rf.fit(X, y)
[STDERR] /cw/dtailocal/mercs_python/bin/mercspython.py:479: DataConversionWarning: A column-vector y was passed when a 1d array was expected. Please change the shape of y to (n_samples,), for example using ravel().
[STDERR]   rf.fit(X, y)
[STDERR] /cw/dtailocal/mercs_python/bin/mercspython.py:479: DataConversionWarning: A column-vector y was passed when a 1d array was expected. Please change the shape of y to (n_samples,), for example using ravel().
[STDERR]   rf.fit(X, y)
[STDERR] /cw/dtailocal/mercs_python/bin/mercspython.py:479: DataConversionWarning: A column-vector y was passed when a 1d array was expected. Please change the shape of y to (n_samples,), for example using ravel().
[STDERR]   rf.fit(X, y)
[STDERR] /cw/dtailocal/mercs_python/bin/mercspython.py:479: DataConversionWarning: A column-vector y was passed when a 1d array was expected. Please change the shape of y to (n_samples,), for example using ravel().
[STDERR]   rf.fit(X, y)
[STDERR] /cw/dtailocal/mercs_python/bin/mercspython.py:479: DataConversionWarning: A column-vector y was passed when a 1d array was expected. Please change the shape of y to (n_samples,), for example using ravel().
[STDERR]   rf.fit(X, y)
[STDERR] /cw/dtailocal/mercs_python/bin/mercspython.py:479: DataConversionWarning: A column-vector y was passed when a 1d array was expected. Please change the shape of y to (n_samples,), for example using ravel().
[STDERR]   rf.fit(X, y)
[STDERR] /cw/dtailocal/mercs_python/bin/mercspython.py:479: DataConversionWarning: A column-vector y was passed when a 1d array was expected. Please change the shape of y to (n_samples,), for example using ravel().
[STDERR]   rf.fit(X, y)
[STDERR] /cw/dtailocal/mercs_python/bin/mercspython.py:479: DataConversionWarning: A column-vector y was passed when a 1d array was expected. Please change the shape of y to (n_samples,), for example using ravel().
[STDERR]   rf.fit(X, y)
[STDERR] /cw/dtailocal/mercs_python/bin/mercspython.py:479: DataConversionWarning: A column-vector y was passed when a 1d array was expected. Please change the shape of y to (n_samples,), for example using ravel().
[STDERR]   rf.fit(X, y)
[STDERR] /cw/dtailocal/mercs_python/bin/mercspython.py:479: DataConversionWarning: A column-vector y was passed when a 1d array was expected. Please change the shape of y to (n_samples,), for example using ravel().
[STDERR]   rf.fit(X, y)
[STDERR] /cw/dtailocal/mercs_python/bin/mercspython.py:479: DataConversionWarning: A column-vector y was passed when a 1d array was expected. Please change the shape of y to (n_samples,), for example using ravel().
[STDERR]   rf.fit(X, y)
[STDERR] /cw/dtailocal/mercs_python/bin/mercspython.py:479: DataConversionWarning: A column-vector y was passed when a 1d array was expected. Please change the shape of y to (n_samples,), for example using ravel().
[STDERR]   rf.fit(X, y)
[STDERR] /cw/dtailocal/mercs_python/bin/mercspython.py:479: DataConversionWarning: A column-vector y was passed when a 1d array was expected. Please change the shape of y to (n_samples,), for example using ravel().
[STDERR]   rf.fit(X, y)
[STDERR] /cw/dtailocal/mercs_python/bin/mercspython.py:479: DataConversionWarning: A column-vector y was passed when a 1d array was expected. Please change the shape of y to (n_samples,), for example using ravel().
[STDERR]   rf.fit(X, y)
[STDERR] /cw/dtailocal/mercs_python/bin/mercspython.py:479: DataConversionWarning: A column-vector y was passed when a 1d array was expected. Please change the shape of y to (n_samples,), for example using ravel().
[STDERR]   rf.fit(X, y)
[STDERR] /cw/dtailocal/mercs_python/bin/mercspython.py:479: DataConversionWarning: A column-vector y was passed when a 1d array was expected. Please change the shape of y to (n_samples,), for example using ravel().
[STDERR]   rf.fit(X, y)
[STDERR] /cw/dtailocal/mercs_python/bin/mercspython.py:479: DataConversionWarning: A column-vector y was passed when a 1d array was expected. Please change the shape of y to (n_samples,), for example using ravel().
[STDERR]   rf.fit(X, y)
[STDERR] /cw/dtailocal/mercs_python/bin/mercspython.py:479: DataConversionWarning: A column-vector y was passed when a 1d array was expected. Please change the shape of y to (n_samples,), for example using ravel().
[STDERR]   rf.fit(X, y)
[STDERR] /cw/dtailocal/mercs_python/bin/mercspython.py:479: DataConversionWarning: A column-vector y was passed when a 1d array was expected. Please change the shape of y to (n_samples,), for example using ravel().
[STDERR]   rf.fit(X, y)
[STDERR] /cw/dtailocal/mercs_python/bin/mercspython.py:479: DataConversionWarning: A column-vector y was passed when a 1d array was expected. Please change the shape of y to (n_samples,), for example using ravel().
[STDERR]   rf.fit(X, y)
[STDERR] /cw/dtailocal/mercs_python/bin/mercspython.py:479: DataConversionWarning: A column-vector y was passed when a 1d array was expected. Please change the shape of y to (n_samples,), for example using ravel().
[STDERR]   rf.fit(X, y)
[STDERR] /cw/dtailocal/mercs_python/bin/mercspython.py:479: DataConversionWarning: A column-vector y was passed when a 1d array was expected. Please change the shape of y to (n_samples,), for example using ravel().
[STDERR]   rf.fit(X, y)
[STDERR] /cw/dtailocal/mercs_python/bin/mercspython.py:479: DataConversionWarning: A column-vector y was passed when a 1d array was expected. Please change the shape of y to (n_samples,), for example using ravel().
[STDERR]   rf.fit(X, y)
[STDERR] /cw/dtailocal/mercs_python/bin/mercspython.py:479: DataConversionWarning: A column-vector y was passed when a 1d array was expected. Please change the shape of y to (n_samples,), for example using ravel().
[STDERR]   rf.fit(X, y)
[STDERR] /cw/dtailocal/mercs_python/bin/mercspython.py:479: DataConversionWarning: A column-vector y was passed when a 1d array was expected. Please change the shape of y to (n_samples,), for example using ravel().
[STDERR]   rf.fit(X, y)
[STDERR] /cw/dtailocal/mercs_python/bin/mercspython.py:479: DataConversionWarning: A column-vector y was passed when a 1d array was expected. Please change the shape of y to (n_samples,), for example using ravel().
[STDERR]   rf.fit(X, y)
[STDERR] /cw/dtailocal/mercs_python/bin/mercspython.py:479: DataConversionWarning: A column-vector y was passed when a 1d array was expected. Please change the shape of y to (n_samples,), for example using ravel().
[STDERR]   rf.fit(X, y)
[STDERR] /cw/dtailocal/mercs_python/bin/mercspython.py:479: DataConversionWarning: A column-vector y was passed when a 1d array was expected. Please change the shape of y to (n_samples,), for example using ravel().
[STDERR]   rf.fit(X, y)
[STDERR] /cw/dtailocal/mercs_python/bin/mercspython.py:479: DataConversionWarning: A column-vector y was passed when a 1d array was expected. Please change the shape of y to (n_samples,), for example using ravel().
[STDERR]   rf.fit(X, y)
[STDERR] /cw/dtailocal/mercs_python/bin/mercspython.py:479: DataConversionWarning: A column-vector y was passed when a 1d array was expected. Please change the shape of y to (n_samples,), for example using ravel().
[STDERR]   rf.fit(X, y)
[STDERR] /cw/dtailocal/mercs_python/bin/mercspython.py:479: DataConversionWarning: A column-vector y was passed when a 1d array was expected. Please change the shape of y to (n_samples,), for example using ravel().
[STDERR]   rf.fit(X, y)
[STDERR] /cw/dtailocal/mercs_python/bin/mercspython.py:479: DataConversionWarning: A column-vector y was passed when a 1d array was expected. Please change the shape of y to (n_samples,), for example using ravel().
[STDERR]   rf.fit(X, y)
[STDERR] /cw/dtailocal/mercs_python/bin/mercspython.py:479: DataConversionWarning: A column-vector y was passed when a 1d array was expected. Please change the shape of y to (n_samples,), for example using ravel().
[STDERR]   rf.fit(X, y)
[STDERR] /cw/dtailocal/mercs_python/bin/mercspython.py:479: DataConversionWarning: A column-vector y was passed when a 1d array was expected. Please change the shape of y to (n_samples,), for example using ravel().
[STDERR]   rf.fit(X, y)
[STDERR] /cw/dtailocal/mercs_python/bin/mercspython.py:479: DataConversionWarning: A column-vector y was passed when a 1d array was expected. Please change the shape of y to (n_samples,), for example using ravel().
[STDERR]   rf.fit(X, y)
[STDERR] /cw/dtailocal/mercs_python/bin/mercspython.py:479: DataConversionWarning: A column-vector y was passed when a 1d array was expected. Please change the shape of y to (n_samples,), for example using ravel().
[STDERR]   rf.fit(X, y)
[STDERR] /cw/dtailocal/mercs_python/bin/mercspython.py:479: DataConversionWarning: A column-vector y was passed when a 1d array was expected. Please change the shape of y to (n_samples,), for example using ravel().
[STDERR]   rf.fit(X, y)
[STDERR] /cw/dtailocal/mercs_python/bin/mercspython.py:479: DataConversionWarning: A column-vector y was passed when a 1d array was expected. Please change the shape of y to (n_samples,), for example using ravel().
[STDERR]   rf.fit(X, y)
[STDERR] /cw/dtailocal/mercs_python/bin/mercspython.py:479: DataConversionWarning: A column-vector y was passed when a 1d array was expected. Please change the shape of y to (n_samples,), for example using ravel().
[STDERR]   rf.fit(X, y)
[STDERR] /cw/dtailocal/mercs_python/bin/mercspython.py:479: DataConversionWarning: A column-vector y was passed when a 1d array was expected. Please change the shape of y to (n_samples,), for example using ravel().
[STDERR]   rf.fit(X, y)
[STDERR] /cw/dtailocal/mercs_python/bin/mercspython.py:479: DataConversionWarning: A column-vector y was passed when a 1d array was expected. Please change the shape of y to (n_samples,), for example using ravel().
[STDERR]   rf.fit(X, y)
[STDERR] /cw/dtailocal/mercs_python/bin/mercspython.py:479: DataConversionWarning: A column-vector y was passed when a 1d array was expected. Please change the shape of y to (n_samples,), for example using ravel().
[STDERR]   rf.fit(X, y)
[STDERR] /cw/dtailocal/mercs_python/bin/mercspython.py:479: DataConversionWarning: A column-vector y was passed when a 1d array was expected. Please change the shape of y to (n_samples,), for example using ravel().
[STDERR]   rf.fit(X, y)
[STDERR] /cw/dtailocal/mercs_python/bin/mercspython.py:479: DataConversionWarning: A column-vector y was passed when a 1d array was expected. Please change the shape of y to (n_samples,), for example using ravel().
[STDERR]   rf.fit(X, y)
[STDERR] /cw/dtailocal/mercs_python/bin/mercspython.py:479: DataConversionWarning: A column-vector y was passed when a 1d array was expected. Please change the shape of y to (n_samples,), for example using ravel().
[STDERR]   rf.fit(X, y)
[STDERR] /cw/dtailocal/mercs_python/bin/mercspython.py:479: DataConversionWarning: A column-vector y was passed when a 1d array was expected. Please change the shape of y to (n_samples,), for example using ravel().
[STDERR]   rf.fit(X, y)
[STDERR] /cw/dtailocal/mercs_python/bin/mercspython.py:479: DataConversionWarning: A column-vector y was passed when a 1d array was expected. Please change the shape of y to (n_samples,), for example using ravel().
[STDERR]   rf.fit(X, y)
[STDERR] /cw/dtailocal/mercs_python/bin/mercspython.py:479: DataConversionWarning: A column-vector y was passed when a 1d array was expected. Please change the shape of y to (n_samples,), for example using ravel().
[STDERR]   rf.fit(X, y)
[STDERR] /cw/dtailocal/mercs_python/bin/mercspython.py:479: DataConversionWarning: A column-vector y was passed when a 1d array was expected. Please change the shape of y to (n_samples,), for example using ravel().
[STDERR]   rf.fit(X, y)
[STDERR] /cw/dtailocal/mercs_python/bin/mercspython.py:479: DataConversionWarning: A column-vector y was passed when a 1d array was expected. Please change the shape of y to (n_samples,), for example using ravel().
[STDERR]   rf.fit(X, y)
[STDERR] /cw/dtailocal/mercs_python/bin/mercspython.py:479: DataConversionWarning: A column-vector y was passed when a 1d array was expected. Please change the shape of y to (n_samples,), for example using ravel().
[STDERR]   rf.fit(X, y)
[STDERR] /cw/dtailocal/mercs_python/bin/mercspython.py:479: DataConversionWarning: A column-vector y was passed when a 1d array was expected. Please change the shape of y to (n_samples,), for example using ravel().
[STDERR]   rf.fit(X, y)
[STDERR] /cw/dtailocal/mercs_python/bin/mercspython.py:479: DataConversionWarning: A column-vector y was passed when a 1d array was expected. Please change the shape of y to (n_samples,), for example using ravel().
[STDERR]   rf.fit(X, y)
[STDERR] /cw/dtailocal/mercs_python/bin/mercspython.py:479: DataConversionWarning: A column-vector y was passed when a 1d array was expected. Please change the shape of y to (n_samples,), for example using ravel().
[STDERR]   rf.fit(X, y)
[STDERR] /cw/dtailocal/mercs_python/bin/mercspython.py:479: DataConversionWarning: A column-vector y was passed when a 1d array was expected. Please change the shape of y to (n_samples,), for example using ravel().
[STDERR]   rf.fit(X, y)
[STDERR] /cw/dtailocal/mercs_python/bin/mercspython.py:479: DataConversionWarning: A column-vector y was passed when a 1d array was expected. Please change the shape of y to (n_samples,), for example using ravel().
[STDERR]   rf.fit(X, y)
[STDERR] /cw/dtailocal/mercs_python/bin/mercspython.py:479: DataConversionWarning: A column-vector y was passed when a 1d array was expected. Please change the shape of y to (n_samples,), for example using ravel().
[STDERR]   rf.fit(X, y)
[STDERR] /cw/dtailocal/mercs_python/bin/mercspython.py:479: DataConversionWarning: A column-vector y was passed when a 1d array was expected. Please change the shape of y to (n_samples,), for example using ravel().
[STDERR]   rf.fit(X, y)
[STDERR] /cw/dtailocal/mercs_python/bin/mercspython.py:479: DataConversionWarning: A column-vector y was passed when a 1d array was expected. Please change the shape of y to (n_samples,), for example using ravel().
[STDERR]   rf.fit(X, y)
[STDERR] /cw/dtailocal/mercs_python/bin/mercspython.py:479: DataConversionWarning: A column-vector y was passed when a 1d array was expected. Please change the shape of y to (n_samples,), for example using ravel().
[STDERR]   rf.fit(X, y)
[STDERR] /cw/dtailocal/mercs_python/bin/mercspython.py:479: DataConversionWarning: A column-vector y was passed when a 1d array was expected. Please change the shape of y to (n_samples,), for example using ravel().
[STDERR]   rf.fit(X, y)
[STDERR] /cw/dtailocal/mercs_python/bin/mercspython.py:479: DataConversionWarning: A column-vector y was passed when a 1d array was expected. Please change the shape of y to (n_samples,), for example using ravel().
[STDERR]   rf.fit(X, y)
[STDERR] /cw/dtailocal/mercs_python/bin/mercspython.py:479: DataConversionWarning: A column-vector y was passed when a 1d array was expected. Please change the shape of y to (n_samples,), for example using ravel().
[STDERR]   rf.fit(X, y)
[STDERR] /cw/dtailocal/mercs_python/bin/mercspython.py:479: DataConversionWarning: A column-vector y was passed when a 1d array was expected. Please change the shape of y to (n_samples,), for example using ravel().
[STDERR]   rf.fit(X, y)
[STDERR] /cw/dtailocal/mercs_python/bin/mercspython.py:479: DataConversionWarning: A column-vector y was passed when a 1d array was expected. Please change the shape of y to (n_samples,), for example using ravel().
[STDERR]   rf.fit(X, y)
[STDERR] /cw/dtailocal/mercs_python/bin/mercspython.py:479: DataConversionWarning: A column-vector y was passed when a 1d array was expected. Please change the shape of y to (n_samples,), for example using ravel().
[STDERR]   rf.fit(X, y)
[STDERR] /cw/dtailocal/mercs_python/bin/mercspython.py:479: DataConversionWarning: A column-vector y was passed when a 1d array was expected. Please change the shape of y to (n_samples,), for example using ravel().
[STDERR]   rf.fit(X, y)
[STDERR] /cw/dtailocal/mercs_python/bin/mercspython.py:479: DataConversionWarning: A column-vector y was passed when a 1d array was expected. Please change the shape of y to (n_samples,), for example using ravel().
[STDERR]   rf.fit(X, y)
[STDERR] /cw/dtailocal/mercs_python/bin/mercspython.py:479: DataConversionWarning: A column-vector y was passed when a 1d array was expected. Please change the shape of y to (n_samples,), for example using ravel().
[STDERR]   rf.fit(X, y)
[STDERR] /cw/dtailocal/mercs_python/bin/mercspython.py:479: DataConversionWarning: A column-vector y was passed when a 1d array was expected. Please change the shape of y to (n_samples,), for example using ravel().
[STDERR]   rf.fit(X, y)
[STDERR] /cw/dtailocal/mercs_python/bin/mercspython.py:479: DataConversionWarning: A column-vector y was passed when a 1d array was expected. Please change the shape of y to (n_samples,), for example using ravel().
[STDERR]   rf.fit(X, y)
[STDERR] /cw/dtailocal/mercs_python/bin/mercspython.py:479: DataConversionWarning: A column-vector y was passed when a 1d array was expected. Please change the shape of y to (n_samples,), for example using ravel().
[STDERR]   rf.fit(X, y)
[STDERR] /cw/dtailocal/mercs_python/bin/mercspython.py:479: DataConversionWarning: A column-vector y was passed when a 1d array was expected. Please change the shape of y to (n_samples,), for example using ravel().
[STDERR]   rf.fit(X, y)
[STDERR] /cw/dtailocal/mercs_python/bin/mercspython.py:479: DataConversionWarning: A column-vector y was passed when a 1d array was expected. Please change the shape of y to (n_samples,), for example using ravel().
[STDERR]   rf.fit(X, y)
[STDERR] /cw/dtailocal/mercs_python/bin/mercspython.py:479: DataConversionWarning: A column-vector y was passed when a 1d array was expected. Please change the shape of y to (n_samples,), for example using ravel().
[STDERR]   rf.fit(X, y)
[STDERR] /cw/dtailocal/mercs_python/bin/mercspython.py:479: DataConversionWarning: A column-vector y was passed when a 1d array was expected. Please change the shape of y to (n_samples,), for example using ravel().
[STDERR]   rf.fit(X, y)
[STDERR] /cw/dtailocal/mercs_python/bin/mercspython.py:479: DataConversionWarning: A column-vector y was passed when a 1d array was expected. Please change the shape of y to (n_samples,), for example using ravel().
[STDERR]   rf.fit(X, y)
[STDERR] /cw/dtailocal/mercs_python/bin/mercspython.py:479: DataConversionWarning: A column-vector y was passed when a 1d array was expected. Please change the shape of y to (n_samples,), for example using ravel().
[STDERR]   rf.fit(X, y)
[STDERR] /cw/dtailocal/mercs_python/bin/mercspython.py:479: DataConversionWarning: A column-vector y was passed when a 1d array was expected. Please change the shape of y to (n_samples,), for example using ravel().
[STDERR]   rf.fit(X, y)
[STDERR] /cw/dtailocal/mercs_python/bin/mercspython.py:479: DataConversionWarning: A column-vector y was passed when a 1d array was expected. Please change the shape of y to (n_samples,), for example using ravel().
[STDERR]   rf.fit(X, y)
[STDERR] /cw/dtailocal/mercs_python/bin/mercspython.py:479: DataConversionWarning: A column-vector y was passed when a 1d array was expected. Please change the shape of y to (n_samples,), for example using ravel().
[STDERR]   rf.fit(X, y)
[STDERR] /cw/dtailocal/mercs_python/bin/mercspython.py:479: DataConversionWarning: A column-vector y was passed when a 1d array was expected. Please change the shape of y to (n_samples,), for example using ravel().
[STDERR]   rf.fit(X, y)
[STDERR] /cw/dtailocal/mercs_python/bin/mercspython.py:479: DataConversionWarning: A column-vector y was passed when a 1d array was expected. Please change the shape of y to (n_samples,), for example using ravel().
[STDERR]   rf.fit(X, y)
[STDERR] /cw/dtailocal/mercs_python/bin/mercspython.py:479: DataConversionWarning: A column-vector y was passed when a 1d array was expected. Please change the shape of y to (n_samples,), for example using ravel().
[STDERR]   rf.fit(X, y)
[STDERR] /cw/dtailocal/mercs_python/bin/mercspython.py:479: DataConversionWarning: A column-vector y was passed when a 1d array was expected. Please change the shape of y to (n_samples,), for example using ravel().
[STDERR]   rf.fit(X, y)
[STDERR] /cw/dtailocal/mercs_python/bin/mercspython.py:479: DataConversionWarning: A column-vector y was passed when a 1d array was expected. Please change the shape of y to (n_samples,), for example using ravel().
[STDERR]   rf.fit(X, y)
[STDERR] /cw/dtailocal/mercs_python/bin/mercspython.py:479: DataConversionWarning: A column-vector y was passed when a 1d array was expected. Please change the shape of y to (n_samples,), for example using ravel().
[STDERR]   rf.fit(X, y)
[STDERR] /cw/dtailocal/mercs_python/bin/mercspython.py:479: DataConversionWarning: A column-vector y was passed when a 1d array was expected. Please change the shape of y to (n_samples,), for example using ravel().
[STDERR]   rf.fit(X, y)
[STDERR] /cw/dtailocal/mercs_python/bin/mercspython.py:479: DataConversionWarning: A column-vector y was passed when a 1d array was expected. Please change the shape of y to (n_samples,), for example using ravel().
[STDERR]   rf.fit(X, y)
[STDERR] /cw/dtailocal/mercs_python/bin/mercspython.py:479: DataConversionWarning: A column-vector y was passed when a 1d array was expected. Please change the shape of y to (n_samples,), for example using ravel().
[STDERR]   rf.fit(X, y)
[STDERR] /cw/dtailocal/mercs_python/bin/mercspython.py:479: DataConversionWarning: A column-vector y was passed when a 1d array was expected. Please change the shape of y to (n_samples,), for example using ravel().
[STDERR]   rf.fit(X, y)
[STDERR] /cw/dtailocal/mercs_python/bin/mercspython.py:479: DataConversionWarning: A column-vector y was passed when a 1d array was expected. Please change the shape of y to (n_samples,), for example using ravel().
[STDERR]   rf.fit(X, y)
[STDERR] /cw/dtailocal/mercs_python/bin/mercspython.py:479: DataConversionWarning: A column-vector y was passed when a 1d array was expected. Please change the shape of y to (n_samples,), for example using ravel().
[STDERR]   rf.fit(X, y)
[STDERR] /cw/dtailocal/mercs_python/bin/mercspython.py:479: DataConversionWarning: A column-vector y was passed when a 1d array was expected. Please change the shape of y to (n_samples,), for example using ravel().
[STDERR]   rf.fit(X, y)
[STDERR] /cw/dtailocal/mercs_python/bin/mercspython.py:479: DataConversionWarning: A column-vector y was passed when a 1d array was expected. Please change the shape of y to (n_samples,), for example using ravel().
[STDERR]   rf.fit(X, y)
[STDERR] /cw/dtailocal/mercs_python/bin/mercspython.py:479: DataConversionWarning: A column-vector y was passed when a 1d array was expected. Please change the shape of y to (n_samples,), for example using ravel().
[STDERR]   rf.fit(X, y)
[STDERR] /cw/dtailocal/mercs_python/bin/mercspython.py:479: DataConversionWarning: A column-vector y was passed when a 1d array was expected. Please change the shape of y to (n_samples,), for example using ravel().
[STDERR]   rf.fit(X, y)
[STDERR] /cw/dtailocal/mercs_python/bin/mercspython.py:479: DataConversionWarning: A column-vector y was passed when a 1d array was expected. Please change the shape of y to (n_samples,), for example using ravel().
[STDERR]   rf.fit(X, y)
[STDERR] /cw/dtailocal/mercs_python/bin/mercspython.py:479: DataConversionWarning: A column-vector y was passed when a 1d array was expected. Please change the shape of y to (n_samples,), for example using ravel().
[STDERR]   rf.fit(X, y)
[STDERR] /cw/dtailocal/mercs_python/bin/mercspython.py:479: DataConversionWarning: A column-vector y was passed when a 1d array was expected. Please change the shape of y to (n_samples,), for example using ravel().
[STDERR]   rf.fit(X, y)
[STDERR] /cw/dtailocal/mercs_python/bin/mercspython.py:479: DataConversionWarning: A column-vector y was passed when a 1d array was expected. Please change the shape of y to (n_samples,), for example using ravel().
[STDERR]   rf.fit(X, y)
[STDERR] /cw/dtailocal/mercs_python/bin/mercspython.py:479: DataConversionWarning: A column-vector y was passed when a 1d array was expected. Please change the shape of y to (n_samples,), for example using ravel().
[STDERR]   rf.fit(X, y)
[STDERR] /cw/dtailocal/mercs_python/bin/mercspython.py:479: DataConversionWarning: A column-vector y was passed when a 1d array was expected. Please change the shape of y to (n_samples,), for example using ravel().
[STDERR]   rf.fit(X, y)
[STDERR] /cw/dtailocal/mercs_python/bin/mercspython.py:479: DataConversionWarning: A column-vector y was passed when a 1d array was expected. Please change the shape of y to (n_samples,), for example using ravel().
[STDERR]   rf.fit(X, y)
[STDERR] /cw/dtailocal/mercs_python/bin/mercspython.py:479: DataConversionWarning: A column-vector y was passed when a 1d array was expected. Please change the shape of y to (n_samples,), for example using ravel().
[STDERR]   rf.fit(X, y)
[STDERR] /cw/dtailocal/mercs_python/bin/mercspython.py:479: DataConversionWarning: A column-vector y was passed when a 1d array was expected. Please change the shape of y to (n_samples,), for example using ravel().
[STDERR]   rf.fit(X, y)
[STDERR] /cw/dtailocal/mercs_python/bin/mercspython.py:479: DataConversionWarning: A column-vector y was passed when a 1d array was expected. Please change the shape of y to (n_samples,), for example using ravel().
[STDERR]   rf.fit(X, y)
[STDERR] /cw/dtailocal/mercs_python/bin/mercspython.py:479: DataConversionWarning: A column-vector y was passed when a 1d array was expected. Please change the shape of y to (n_samples,), for example using ravel().
[STDERR]   rf.fit(X, y)
[STDERR] /cw/dtailocal/mercs_python/bin/mercspython.py:479: DataConversionWarning: A column-vector y was passed when a 1d array was expected. Please change the shape of y to (n_samples,), for example using ravel().
[STDERR]   rf.fit(X, y)
[STDERR] /cw/dtailocal/mercs_python/bin/mercspython.py:479: DataConversionWarning: A column-vector y was passed when a 1d array was expected. Please change the shape of y to (n_samples,), for example using ravel().
[STDERR]   rf.fit(X, y)
[STDERR] /cw/dtailocal/mercs_python/bin/mercspython.py:479: DataConversionWarning: A column-vector y was passed when a 1d array was expected. Please change the shape of y to (n_samples,), for example using ravel().
[STDERR]   rf.fit(X, y)
[STDERR] /cw/dtailocal/mercs_python/bin/mercspython.py:479: DataConversionWarning: A column-vector y was passed when a 1d array was expected. Please change the shape of y to (n_samples,), for example using ravel().
[STDERR]   rf.fit(X, y)
[STDERR] /cw/dtailocal/mercs_python/bin/mercspython.py:479: DataConversionWarning: A column-vector y was passed when a 1d array was expected. Please change the shape of y to (n_samples,), for example using ravel().
[STDERR]   rf.fit(X, y)
[STDERR] /cw/dtailocal/mercs_python/bin/mercspython.py:479: DataConversionWarning: A column-vector y was passed when a 1d array was expected. Please change the shape of y to (n_samples,), for example using ravel().
[STDERR]   rf.fit(X, y)
[STDERR] /cw/dtailocal/mercs_python/bin/mercspython.py:479: DataConversionWarning: A column-vector y was passed when a 1d array was expected. Please change the shape of y to (n_samples,), for example using ravel().
[STDERR]   rf.fit(X, y)
[STDERR] /cw/dtailocal/mercs_python/bin/mercspython.py:479: DataConversionWarning: A column-vector y was passed when a 1d array was expected. Please change the shape of y to (n_samples,), for example using ravel().
[STDERR]   rf.fit(X, y)
[STDERR] /cw/dtailocal/mercs_python/bin/mercspython.py:479: DataConversionWarning: A column-vector y was passed when a 1d array was expected. Please change the shape of y to (n_samples,), for example using ravel().
[STDERR]   rf.fit(X, y)
[STDERR] /cw/dtailocal/mercs_python/bin/mercspython.py:479: DataConversionWarning: A column-vector y was passed when a 1d array was expected. Please change the shape of y to (n_samples,), for example using ravel().
[STDERR]   rf.fit(X, y)
[STDERR] /cw/dtailocal/mercs_python/bin/mercspython.py:479: DataConversionWarning: A column-vector y was passed when a 1d array was expected. Please change the shape of y to (n_samples,), for example using ravel().
[STDERR]   rf.fit(X, y)
[STDERR] /cw/dtailocal/mercs_python/bin/mercspython.py:479: DataConversionWarning: A column-vector y was passed when a 1d array was expected. Please change the shape of y to (n_samples,), for example using ravel().
[STDERR]   rf.fit(X, y)
[STDERR] /cw/dtailocal/mercs_python/bin/mercspython.py:479: DataConversionWarning: A column-vector y was passed when a 1d array was expected. Please change the shape of y to (n_samples,), for example using ravel().
[STDERR]   rf.fit(X, y)
[STDERR] /cw/dtailocal/mercs_python/bin/mercspython.py:479: DataConversionWarning: A column-vector y was passed when a 1d array was expected. Please change the shape of y to (n_samples,), for example using ravel().
[STDERR]   rf.fit(X, y)
[STDERR] /cw/dtailocal/mercs_python/bin/mercspython.py:479: DataConversionWarning: A column-vector y was passed when a 1d array was expected. Please change the shape of y to (n_samples,), for example using ravel().
[STDERR]   rf.fit(X, y)
[STDERR] /cw/dtailocal/mercs_python/bin/mercspython.py:479: DataConversionWarning: A column-vector y was passed when a 1d array was expected. Please change the shape of y to (n_samples,), for example using ravel().
[STDERR]   rf.fit(X, y)
[STDERR] /cw/dtailocal/mercs_python/bin/mercspython.py:479: DataConversionWarning: A column-vector y was passed when a 1d array was expected. Please change the shape of y to (n_samples,), for example using ravel().
[STDERR]   rf.fit(X, y)
[STDERR] /cw/dtailocal/mercs_python/bin/mercspython.py:479: DataConversionWarning: A column-vector y was passed when a 1d array was expected. Please change the shape of y to (n_samples,), for example using ravel().
[STDERR]   rf.fit(X, y)
[STDERR] /cw/dtailocal/mercs_python/bin/mercspython.py:479: DataConversionWarning: A column-vector y was passed when a 1d array was expected. Please change the shape of y to (n_samples,), for example using ravel().
[STDERR]   rf.fit(X, y)
[STDERR] /cw/dtailocal/mercs_python/bin/mercspython.py:479: DataConversionWarning: A column-vector y was passed when a 1d array was expected. Please change the shape of y to (n_samples,), for example using ravel().
[STDERR]   rf.fit(X, y)
[STDERR] /cw/dtailocal/mercs_python/bin/mercspython.py:479: DataConversionWarning: A column-vector y was passed when a 1d array was expected. Please change the shape of y to (n_samples,), for example using ravel().
[STDERR]   rf.fit(X, y)
[STDERR] /cw/dtailocal/mercs_python/bin/mercspython.py:479: DataConversionWarning: A column-vector y was passed when a 1d array was expected. Please change the shape of y to (n_samples,), for example using ravel().
[STDERR]   rf.fit(X, y)
[STDERR] /cw/dtailocal/mercs_python/bin/mercspython.py:479: DataConversionWarning: A column-vector y was passed when a 1d array was expected. Please change the shape of y to (n_samples,), for example using ravel().
[STDERR]   rf.fit(X, y)
[STDERR] /cw/dtailocal/mercs_python/bin/mercspython.py:479: DataConversionWarning: A column-vector y was passed when a 1d array was expected. Please change the shape of y to (n_samples,), for example using ravel().
[STDERR]   rf.fit(X, y)
[STDERR] /cw/dtailocal/mercs_python/bin/mercspython.py:479: DataConversionWarning: A column-vector y was passed when a 1d array was expected. Please change the shape of y to (n_samples,), for example using ravel().
[STDERR]   rf.fit(X, y)
[STDERR] /cw/dtailocal/mercs_python/bin/mercspython.py:479: DataConversionWarning: A column-vector y was passed when a 1d array was expected. Please change the shape of y to (n_samples,), for example using ravel().
[STDERR]   rf.fit(X, y)
[STDERR] /cw/dtailocal/mercs_python/bin/mercspython.py:479: DataConversionWarning: A column-vector y was passed when a 1d array was expected. Please change the shape of y to (n_samples,), for example using ravel().
[STDERR]   rf.fit(X, y)
[STDERR] /cw/dtailocal/mercs_python/bin/mercspython.py:479: DataConversionWarning: A column-vector y was passed when a 1d array was expected. Please change the shape of y to (n_samples,), for example using ravel().
[STDERR]   rf.fit(X, y)
[STDERR] /cw/dtailocal/mercs_python/bin/mercspython.py:479: DataConversionWarning: A column-vector y was passed when a 1d array was expected. Please change the shape of y to (n_samples,), for example using ravel().
[STDERR]   rf.fit(X, y)
[STDERR] /cw/dtailocal/mercs_python/bin/mercspython.py:479: DataConversionWarning: A column-vector y was passed when a 1d array was expected. Please change the shape of y to (n_samples,), for example using ravel().
[STDERR]   rf.fit(X, y)
[STDERR] /cw/dtailocal/mercs_python/bin/mercspython.py:479: DataConversionWarning: A column-vector y was passed when a 1d array was expected. Please change the shape of y to (n_samples,), for example using ravel().
[STDERR]   rf.fit(X, y)
[STDERR] /cw/dtailocal/mercs_python/bin/mercspython.py:479: DataConversionWarning: A column-vector y was passed when a 1d array was expected. Please change the shape of y to (n_samples,), for example using ravel().
[STDERR]   rf.fit(X, y)
[STDERR] /cw/dtailocal/mercs_python/bin/mercspython.py:479: DataConversionWarning: A column-vector y was passed when a 1d array was expected. Please change the shape of y to (n_samples,), for example using ravel().
[STDERR]   rf.fit(X, y)
[STDERR] /cw/dtailocal/mercs_python/bin/mercspython.py:479: DataConversionWarning: A column-vector y was passed when a 1d array was expected. Please change the shape of y to (n_samples,), for example using ravel().
[STDERR]   rf.fit(X, y)
[STDERR] /cw/dtailocal/mercs_python/bin/mercspython.py:479: DataConversionWarning: A column-vector y was passed when a 1d array was expected. Please change the shape of y to (n_samples,), for example using ravel().
[STDERR]   rf.fit(X, y)
[STDERR] /cw/dtailocal/mercs_python/bin/mercspython.py:479: DataConversionWarning: A column-vector y was passed when a 1d array was expected. Please change the shape of y to (n_samples,), for example using ravel().
[STDERR]   rf.fit(X, y)
[STDERR] /cw/dtailocal/mercs_python/bin/mercspython.py:479: DataConversionWarning: A column-vector y was passed when a 1d array was expected. Please change the shape of y to (n_samples,), for example using ravel().
[STDERR]   rf.fit(X, y)
[STDERR] /cw/dtailocal/mercs_python/bin/mercspython.py:479: DataConversionWarning: A column-vector y was passed when a 1d array was expected. Please change the shape of y to (n_samples,), for example using ravel().
[STDERR]   rf.fit(X, y)
[STDERR] /cw/dtailocal/mercs_python/bin/mercspython.py:479: DataConversionWarning: A column-vector y was passed when a 1d array was expected. Please change the shape of y to (n_samples,), for example using ravel().
[STDERR]   rf.fit(X, y)
[STDERR] /cw/dtailocal/mercs_python/bin/mercspython.py:479: DataConversionWarning: A column-vector y was passed when a 1d array was expected. Please change the shape of y to (n_samples,), for example using ravel().
[STDERR]   rf.fit(X, y)
[STDERR] /cw/dtailocal/mercs_python/bin/mercspython.py:479: DataConversionWarning: A column-vector y was passed when a 1d array was expected. Please change the shape of y to (n_samples,), for example using ravel().
[STDERR]   rf.fit(X, y)
[STDERR] /cw/dtailocal/mercs_python/bin/mercspython.py:479: DataConversionWarning: A column-vector y was passed when a 1d array was expected. Please change the shape of y to (n_samples,), for example using ravel().
[STDERR]   rf.fit(X, y)
[STDERR] /cw/dtailocal/mercs_python/bin/mercspython.py:479: DataConversionWarning: A column-vector y was passed when a 1d array was expected. Please change the shape of y to (n_samples,), for example using ravel().
[STDERR]   rf.fit(X, y)
[STDERR] /cw/dtailocal/mercs_python/bin/mercspython.py:479: DataConversionWarning: A column-vector y was passed when a 1d array was expected. Please change the shape of y to (n_samples,), for example using ravel().
[STDERR]   rf.fit(X, y)
[STDERR] /cw/dtailocal/mercs_python/bin/mercspython.py:479: DataConversionWarning: A column-vector y was passed when a 1d array was expected. Please change the shape of y to (n_samples,), for example using ravel().
[STDERR]   rf.fit(X, y)
[STDERR] /cw/dtailocal/mercs_python/bin/mercspython.py:479: DataConversionWarning: A column-vector y was passed when a 1d array was expected. Please change the shape of y to (n_samples,), for example using ravel().
[STDERR]   rf.fit(X, y)
[STDERR] /cw/dtailocal/mercs_python/bin/mercspython.py:479: DataConversionWarning: A column-vector y was passed when a 1d array was expected. Please change the shape of y to (n_samples,), for example using ravel().
[STDERR]   rf.fit(X, y)
[STDERR] /cw/dtailocal/mercs_python/bin/mercspython.py:479: DataConversionWarning: A column-vector y was passed when a 1d array was expected. Please change the shape of y to (n_samples,), for example using ravel().
[STDERR]   rf.fit(X, y)
[STDERR] /cw/dtailocal/mercs_python/bin/mercspython.py:479: DataConversionWarning: A column-vector y was passed when a 1d array was expected. Please change the shape of y to (n_samples,), for example using ravel().
[STDERR]   rf.fit(X, y)
[STDERR] /cw/dtailocal/mercs_python/bin/mercspython.py:479: DataConversionWarning: A column-vector y was passed when a 1d array was expected. Please change the shape of y to (n_samples,), for example using ravel().
[STDERR]   rf.fit(X, y)
[STDERR] /cw/dtailocal/mercs_python/bin/mercspython.py:479: DataConversionWarning: A column-vector y was passed when a 1d array was expected. Please change the shape of y to (n_samples,), for example using ravel().
[STDERR]   rf.fit(X, y)
[STDERR] /cw/dtailocal/mercs_python/bin/mercspython.py:479: DataConversionWarning: A column-vector y was passed when a 1d array was expected. Please change the shape of y to (n_samples,), for example using ravel().
[STDERR]   rf.fit(X, y)
[STDERR] /cw/dtailocal/mercs_python/bin/mercspython.py:479: DataConversionWarning: A column-vector y was passed when a 1d array was expected. Please change the shape of y to (n_samples,), for example using ravel().
[STDERR]   rf.fit(X, y)
[STDERR] /cw/dtailocal/mercs_python/bin/mercspython.py:479: DataConversionWarning: A column-vector y was passed when a 1d array was expected. Please change the shape of y to (n_samples,), for example using ravel().
[STDERR]   rf.fit(X, y)
[STDERR] /cw/dtailocal/mercs_python/bin/mercspython.py:479: DataConversionWarning: A column-vector y was passed when a 1d array was expected. Please change the shape of y to (n_samples,), for example using ravel().
[STDERR]   rf.fit(X, y)
[STDERR] /cw/dtailocal/mercs_python/bin/mercspython.py:479: DataConversionWarning: A column-vector y was passed when a 1d array was expected. Please change the shape of y to (n_samples,), for example using ravel().
[STDERR]   rf.fit(X, y)
[STDERR] /cw/dtailocal/mercs_python/bin/mercspython.py:479: DataConversionWarning: A column-vector y was passed when a 1d array was expected. Please change the shape of y to (n_samples,), for example using ravel().
[STDERR]   rf.fit(X, y)
[STDERR] /cw/dtailocal/mercs_python/bin/mercspython.py:479: DataConversionWarning: A column-vector y was passed when a 1d array was expected. Please change the shape of y to (n_samples,), for example using ravel().
[STDERR]   rf.fit(X, y)
[STDERR] /cw/dtailocal/mercs_python/bin/mercspython.py:479: DataConversionWarning: A column-vector y was passed when a 1d array was expected. Please change the shape of y to (n_samples,), for example using ravel().
[STDERR]   rf.fit(X, y)
[STDERR] /cw/dtailocal/mercs_python/bin/mercspython.py:479: DataConversionWarning: A column-vector y was passed when a 1d array was expected. Please change the shape of y to (n_samples,), for example using ravel().
[STDERR]   rf.fit(X, y)
[STDERR] /cw/dtailocal/mercs_python/bin/mercspython.py:479: DataConversionWarning: A column-vector y was passed when a 1d array was expected. Please change the shape of y to (n_samples,), for example using ravel().
[STDERR]   rf.fit(X, y)
[STDERR] /cw/dtailocal/mercs_python/bin/mercspython.py:479: DataConversionWarning: A column-vector y was passed when a 1d array was expected. Please change the shape of y to (n_samples,), for example using ravel().
[STDERR]   rf.fit(X, y)
[STDERR] /cw/dtailocal/mercs_python/bin/mercspython.py:479: DataConversionWarning: A column-vector y was passed when a 1d array was expected. Please change the shape of y to (n_samples,), for example using ravel().
[STDERR]   rf.fit(X, y)
[STDERR] /cw/dtailocal/mercs_python/bin/mercspython.py:479: DataConversionWarning: A column-vector y was passed when a 1d array was expected. Please change the shape of y to (n_samples,), for example using ravel().
[STDERR]   rf.fit(X, y)
[STDERR] /cw/dtailocal/mercs_python/bin/mercspython.py:479: DataConversionWarning: A column-vector y was passed when a 1d array was expected. Please change the shape of y to (n_samples,), for example using ravel().
[STDERR]   rf.fit(X, y)
[STDERR] /cw/dtailocal/mercs_python/bin/mercspython.py:479: DataConversionWarning: A column-vector y was passed when a 1d array was expected. Please change the shape of y to (n_samples,), for example using ravel().
[STDERR]   rf.fit(X, y)
[STDERR] /cw/dtailocal/mercs_python/bin/mercspython.py:479: DataConversionWarning: A column-vector y was passed when a 1d array was expected. Please change the shape of y to (n_samples,), for example using ravel().
[STDERR]   rf.fit(X, y)
[STDERR] /cw/dtailocal/mercs_python/bin/mercspython.py:479: DataConversionWarning: A column-vector y was passed when a 1d array was expected. Please change the shape of y to (n_samples,), for example using ravel().
[STDERR]   rf.fit(X, y)
[STDERR] /cw/dtailocal/mercs_python/bin/mercspython.py:479: DataConversionWarning: A column-vector y was passed when a 1d array was expected. Please change the shape of y to (n_samples,), for example using ravel().
[STDERR]   rf.fit(X, y)
[STDERR] /cw/dtailocal/mercs_python/bin/mercspython.py:479: DataConversionWarning: A column-vector y was passed when a 1d array was expected. Please change the shape of y to (n_samples,), for example using ravel().
[STDERR]   rf.fit(X, y)
[STDERR] /cw/dtailocal/mercs_python/bin/mercspython.py:479: DataConversionWarning: A column-vector y was passed when a 1d array was expected. Please change the shape of y to (n_samples,), for example using ravel().
[STDERR]   rf.fit(X, y)
[STDERR] /cw/dtailocal/mercs_python/bin/mercspython.py:479: DataConversionWarning: A column-vector y was passed when a 1d array was expected. Please change the shape of y to (n_samples,), for example using ravel().
[STDERR]   rf.fit(X, y)
[STDERR] /cw/dtailocal/mercs_python/bin/mercspython.py:479: DataConversionWarning: A column-vector y was passed when a 1d array was expected. Please change the shape of y to (n_samples,), for example using ravel().
[STDERR]   rf.fit(X, y)
[STDERR] /cw/dtailocal/mercs_python/bin/mercspython.py:479: DataConversionWarning: A column-vector y was passed when a 1d array was expected. Please change the shape of y to (n_samples,), for example using ravel().
[STDERR]   rf.fit(X, y)
[STDERR] /cw/dtailocal/mercs_python/bin/mercspython.py:479: DataConversionWarning: A column-vector y was passed when a 1d array was expected. Please change the shape of y to (n_samples,), for example using ravel().
[STDERR]   rf.fit(X, y)
[STDERR] /cw/dtailocal/mercs_python/bin/mercspython.py:479: DataConversionWarning: A column-vector y was passed when a 1d array was expected. Please change the shape of y to (n_samples,), for example using ravel().
[STDERR]   rf.fit(X, y)
[STDERR] /cw/dtailocal/mercs_python/bin/mercspython.py:479: DataConversionWarning: A column-vector y was passed when a 1d array was expected. Please change the shape of y to (n_samples,), for example using ravel().
[STDERR]   rf.fit(X, y)
[STDERR] /cw/dtailocal/mercs_python/bin/mercspython.py:479: DataConversionWarning: A column-vector y was passed when a 1d array was expected. Please change the shape of y to (n_samples,), for example using ravel().
[STDERR]   rf.fit(X, y)
[STDERR] /cw/dtailocal/mercs_python/bin/mercspython.py:479: DataConversionWarning: A column-vector y was passed when a 1d array was expected. Please change the shape of y to (n_samples,), for example using ravel().
[STDERR]   rf.fit(X, y)
[STDERR] /cw/dtailocal/mercs_python/bin/mercspython.py:479: DataConversionWarning: A column-vector y was passed when a 1d array was expected. Please change the shape of y to (n_samples,), for example using ravel().
[STDERR]   rf.fit(X, y)
[STDERR] /cw/dtailocal/mercs_python/bin/mercspython.py:479: DataConversionWarning: A column-vector y was passed when a 1d array was expected. Please change the shape of y to (n_samples,), for example using ravel().
[STDERR]   rf.fit(X, y)
[STDERR] /cw/dtailocal/mercs_python/bin/mercspython.py:479: DataConversionWarning: A column-vector y was passed when a 1d array was expected. Please change the shape of y to (n_samples,), for example using ravel().
[STDERR]   rf.fit(X, y)
[STDERR] /cw/dtailocal/mercs_python/bin/mercspython.py:479: DataConversionWarning: A column-vector y was passed when a 1d array was expected. Please change the shape of y to (n_samples,), for example using ravel().
[STDERR]   rf.fit(X, y)
[STDERR] /cw/dtailocal/mercs_python/bin/mercspython.py:479: DataConversionWarning: A column-vector y was passed when a 1d array was expected. Please change the shape of y to (n_samples,), for example using ravel().
[STDERR]   rf.fit(X, y)
[STDERR] /cw/dtailocal/mercs_python/bin/mercspython.py:479: DataConversionWarning: A column-vector y was passed when a 1d array was expected. Please change the shape of y to (n_samples,), for example using ravel().
[STDERR]   rf.fit(X, y)
[STDERR] /cw/dtailocal/mercs_python/bin/mercspython.py:479: DataConversionWarning: A column-vector y was passed when a 1d array was expected. Please change the shape of y to (n_samples,), for example using ravel().
[STDERR]   rf.fit(X, y)
[STDERR] /cw/dtailocal/mercs_python/bin/mercspython.py:479: DataConversionWarning: A column-vector y was passed when a 1d array was expected. Please change the shape of y to (n_samples,), for example using ravel().
[STDERR]   rf.fit(X, y)
[STDERR] /cw/dtailocal/mercs_python/bin/mercspython.py:479: DataConversionWarning: A column-vector y was passed when a 1d array was expected. Please change the shape of y to (n_samples,), for example using ravel().
[STDERR]   rf.fit(X, y)
[STDERR] /cw/dtailocal/mercs_python/bin/mercspython.py:479: DataConversionWarning: A column-vector y was passed when a 1d array was expected. Please change the shape of y to (n_samples,), for example using ravel().
[STDERR]   rf.fit(X, y)
[STDERR] /cw/dtailocal/mercs_python/bin/mercspython.py:479: DataConversionWarning: A column-vector y was passed when a 1d array was expected. Please change the shape of y to (n_samples,), for example using ravel().
[STDERR]   rf.fit(X, y)
[STDERR] /cw/dtailocal/mercs_python/bin/mercspython.py:479: DataConversionWarning: A column-vector y was passed when a 1d array was expected. Please change the shape of y to (n_samples,), for example using ravel().
[STDERR]   rf.fit(X, y)
[[1, 0, 0, 0, 0, 0, 0, 0, 0, 0, 0, 0, 0, 0, 0, 0, 0, 0, 0, 0, 0, 0, 0, 0, 1, 0, 0, 1, 0, 0, 1, 1, 0, 1, 0, 1, 0, 0, 0, 1, 0, 1, 1, 0, 0, 0, 1, 0, 1, 0, 0, 1, 0, 1, 0, 0, 1, 0, 1, 0, 0, 0, 1, 1, 0, 0, 0, 0, 0, 0, 1, 0, 1, 1, 0, 0, 0, 0, 0, 0, 0, 1, 1, 0, 0, 1, 0, 0, 1, 0, 0, 0, 1, 0, 0, 0, 0, 1, 0, 0, 0, 1, 0, 1, 0, 0, 0, 0, 1, 0, 0, 0, 0, 0, 0, 0, 0, 1, 0, 0, 0, 0, 1, 0, 0, 0, 0, 0, 1, 1, 1, 0, 0, 0, 1, 1, 0, 0, 0, 0, 1, 0, 0, 0, 0, 0, 0, 1, 0, 0, 0, 0, 0, 0, 0, 0, 0, 0, 0, 0, 0, 0, 0, 1, 0, 0, 0, 0, 1, 0, 0, 0, 0, 0, 0, 0, 1, 0, 0, 0, 0, 0, 1, 0, 0, 0, 0, 0, 0, 0, 0, 0, 0, 0, 0, 0, 0, 0, 0, 0, 0, 0, 0, 1, 0, 0, 0, 0, 0, 0, 0, 0, 0, 0, 1, 0, 0, 0, 0, 0, 1, 0, 0, 0, 0, 0, 0, 0, 1, 0, 1, 1, 0, 0, 0, 1, 0, 0, 0, 0, 1, 0, 1, 0, 0, 0, 0, 0, 0, 0, 0, 1, 1, 1, 1, 1, 1, 1, 0, 0, 0, 0, 0, 1, 0, 1, 1, 0, 0, 0, 1, 0, 0, 0, 0, 0, 0, 0, 0, 0, 0, 0, 1, 0, 0, 0, 0, 0, 1, 0, 0, 0, 0, 0, 0, 0, 0, 0, 0, 0, 0, 0, 0, 0, 1, 0, 0, 0, 0, 0, 0, 0, 1, 0], [0, 1, 0, 0, 0, 0, 0, 0, 1, 0, 0, 0, 0, 0, 0, 0, 0, 0, 0, 0, 0, 0, 0, 1, 0, 0, 0, 0, 1, 0, 0, 0, 0, 0, 0, 0, 0, 0, 0, 0, 0, 0, 0, 0, 0, 0, 0, 0, 0, 0, 0, 0, 0, 0, 0, 0, 0, 0, 0, 0, 0, 0, 0, 0, 0, 0, 0, 0, 0, 0, 0, 0, 0, 0, 0, 1, 0, 0, 1, 0, 0, 0, 0, 0, 0, 0, 0, 0, 0, 0, 0, 0, 0, 1, 0, 0, 0, 0, 0, 0, 0, 0, 0, 0, 0, 0, 1, 0, 0, 0, 1, 0, 1, 0, 0, 0, 0, 0, 0, 0, 0, 0, 0, 0, 0, 0, 0, 0, 0, 0, 0, 1, 0, 1, 0, 0, 0, 0, 0, 0, 0, 1, 0, 0, 0, 0, 0, 0, 0, 1, 0, 1, 0, 0, 0, 1, 1, 0, 0, 0, 0, 0, 0, 0, 0, 0, 0, 0, 0, 0, 0, 0, 0, 0, 0, 0, 0, 0, 0, 0, 0, 0, 0, 0, 0, 0, 0, 1, 0, 0, 0, 0, 1, 0, 0, 0, 0, 0, 0, 0, 0, 0, 0, 0, 0, 0, 0, 0, 1, 1, 0, 0, 0, 1, 0, 0, 0, 0, 1, 0, 0, 0, 0, 0, 1, 0, 0, 0, 0, 1, 0, 0, 0, 0, 0, 0, 0, 0, 0, 1, 0, 0, 0, 0, 0, 0, 0, 0, 0, 0, 0, 0, 0, 0, 0, 0, 0, 0, 0, 0, 0, 0, 0, 0, 0, 0, 0, 0, 0, 1, 0, 0, 0, 1, 1, 1, 0, 0, 0, 0, 0, 0, 0, 0, 0, 0, 0, 0, 0, 0, 0, 0, 1, 1, 0, 0, 0, 0, 0, 1, 0, 0, 0, 0, 0, 0, 0, 1, 0, 1, 0, 1, 0, 0], [0, 0, 0, 0, 0, 1, 0, 1, 0, 0, 0, 1, 1, 1, 1, 0, 0, 0, 0, 0, 0, 0, 1, 0, 0, 0, 0, 0, 0, 0, 0, 0, 0, 0, 0, 0, 0, 0, 0, 0, 0, 0, 0, 1, 0, 0, 0, 0, 0, 1, 0, 0, 0, 0, 1, 0, 0, 1, 0, 0, 0, 0, 0, 0, 0, 0, 0, 1, 0, 0, 0, 0, 0, 0, 0, 0, 0, 0, 0, 0, 0, 0, 0, 0, 1, 0, 0, 0, 0, 0, 0, 0, 0, 0, 0, 1, 0, 0, 0, 1, 0, 0, 0, 0, 0, 0, 0, 0, 0, 0, 0, 0, 0, 0, 1, 0, 0, 0, 0, 0, 0, 1, 0, 0, 0, 0, 0, 1, 0, 0, 0, 0, 0, 0, 0, 0, 0, 0, 0, 0, 0, 0, 0, 0, 1, 0, 0, 0, 0, 0, 0, 0, 0, 0, 1, 0, 0, 0, 0, 0, 0, 0, 1, 0, 0, 0, 1, 1, 0, 0, 1, 0, 0, 0, 0, 0, 0, 1, 0, 0, 0, 0, 0, 0, 0, 0, 1, 0, 0, 0, 0, 0, 0, 0, 0, 0, 0, 0, 0, 0, 0, 1, 0, 0, 0, 0, 1, 1, 0, 0, 0, 0, 1, 0, 0, 0, 0, 0, 0, 0, 0, 0, 0, 1, 0, 0, 0, 0, 0, 0, 0, 0, 0, 0, 0, 0, 0, 0, 0, 0, 0, 0, 0, 0, 1, 0, 0, 0, 1, 0, 1, 0, 0, 0, 0, 0, 0, 0, 0, 0, 1, 0, 0, 0, 0, 0, 0, 1, 0, 0, 0, 0, 0, 0, 0, 0, 0, 1, 1, 0, 0, 0, 0, 0, 0, 1, 0, 0, 0, 0, 0, 1, 0, 0, 0, 1, 1, 0, 0, 0, 1, 0, 0, 1, 0, 0, 1, 0, 0, 0, 0, 0, 0, 0], [0, 0, 0, 0, 0, 0, 0, 0, 0, 0, 0, 0, 0, 0, 0, 1, 0, 0, 0, 0, 0, 0, 0, 0, 0, 0, 0, 0, 0, 1, 0, 0, 0, 0, 0, 0, 0, 0, 1, 0, 0, 0, 0, 0, 0, 0, 0, 1, 0, 0, 0, 0, 0, 0, 0, 0, 0, 0, 0, 0, 0, 0, 0, 0, 0, 0, 0, 0, 0, 0, 0, 0, 0, 0, 0, 0, 0, 0, 0, 0, 0, 0, 0, 0, 0, 0, 0, 0, 0, 1, 0, 0, 0, 0, 0, 0, 0, 0, 0, 0, 0, 0, 1, 0, 0, 0, 0, 0, 0, 1, 0, 0, 0, 0, 0, 0, 0, 0, 0, 0, 0, 0, 0, 0, 0, 0, 1, 0, 0, 0, 0, 0, 1, 0, 0, 0, 0, 0, 0, 0, 0, 0, 0, 0, 0, 0, 0, 0, 1, 0, 0, 0, 0, 0, 0, 0, 0, 0, 0, 0, 0, 0, 0, 0, 0, 0, 0, 0, 0, 0, 0, 0, 0, 1, 0, 0, 0, 0, 0, 0, 0, 0, 0, 0, 0, 0, 0, 0, 1, 0, 0, 0, 0, 0, 0, 0, 0, 0, 0, 0, 0, 0, 0, 0, 0, 0, 0, 0, 0, 0, 0, 0, 0, 0, 0, 0, 0, 0, 0, 0, 0, 0, 0, 0, 0, 0, 1, 0, 0, 0, 0, 0, 0, 0, 0, 0, 0, 0, 0, 0, 0, 0, 0, 0, 0, 0, 0, 0, 0, 1, 0, 0, 0, 0, 0, 0, 0, 0, 0, 0, 0, 0, 1, 0, 0, 0, 0, 0, 0, 0, 0, 0, 0, 0, 0, 0, 0, 0, 0, 0, 0, 0, 0, 0, 0, 0, 0, 0, 0, 0, 0, 0, 0, 0, 0, 0, 0, 0, 0, 0, 0, 1, 1, 0, 0, 0, 0, 0, 0, 0, 1, 0, 0, 0], [0, 0, 0, 0, 0, 0, 1, 0, 0, 1, 1, 0, 0, 0, 0, 0, 0, 0, 0, 0, 0, 0, 0, 0, 0, 1, 0, 0, 0, 0, 0, 0, 0, 0, 0, 0, 0, 0, 0, 0, 0, 0, 0, 0, 0, 0, 0, 0, 0, 0, 0, 0, 0, 0, 0, 0, 0, 0, 0, 0, 0, 1, 0, 0, 0, 1, 1, 0, 1, 1, 0, 0, 0, 0, 0, 0, 0, 0, 0, 0, 0, 0, 0, 1, 0, 0, 1, 1, 0, 0, 0, 1, 0, 0, 0, 0, 0, 0, 0, 0, 0, 0, 0, 0, 0, 0, 0, 1, 0, 0, 0, 0, 0, 1, 0, 1, 0, 0, 1, 1, 0, 0, 0, 0, 0, 1, 0, 0, 0, 0, 0, 0, 0, 0, 0, 0, 0, 0, 0, 0, 0, 0, 0, 0, 0, 0, 0, 0, 0, 0, 0, 0, 0, 0, 0, 0, 0, 1, 0, 0, 0, 0, 0, 0, 0, 0, 0, 0, 0, 1, 0, 1, 0, 0, 0, 0, 0, 0, 0, 1, 0, 0, 0, 0, 0, 0, 0, 0, 0, 0, 1, 0, 0, 1, 0, 0, 1, 1, 0, 0, 1, 0, 0, 0, 0, 0, 0, 0, 0, 0, 0, 1, 0, 0, 0, 0, 0, 0, 0, 0, 0, 0, 0, 0, 0, 0, 0, 0, 0, 0, 0, 0, 1, 0, 1, 0, 1, 0, 1, 0, 0, 0, 0, 1, 0, 1, 1, 0, 0, 0, 0, 0, 0, 0, 0, 0, 0, 0, 0, 0, 0, 0, 0, 0, 1, 0, 0, 0, 0, 0, 0, 1, 1, 0, 0, 0, 0, 0, 0, 0, 1, 0, 0, 0, 0, 0, 0, 0, 0, 0, 0, 0, 0, 0, 1, 0, 0, 1, 0, 0, 0, 0, 0, 0, 0, 0, 0, 0, 0, 0, 0, 0, 0, 0], [0, 0, 1, 0, 0, 0, 0, 0, 0, 0, 0, 0, 0, 0, 0, 0, 1, 1, 1, 0, 0, 0, 0, 0, 0, 0, 1, 0, 0, 0, 0, 0, 1, 0, 0, 0, 0, 0, 0, 0, 1, 0, 0, 0, 1, 0, 0, 0, 0, 0, 0, 0, 0, 0, 0, 0, 0, 0, 0, 0, 1, 0, 0, 0, 1, 0, 0, 0, 0, 0, 0, 1, 0, 0, 0, 0, 0, 0, 0, 1, 0, 0, 0, 0, 0, 0, 0, 0, 0, 0, 0, 0, 0, 0, 0, 0, 0, 0, 0, 0, 1, 0, 0, 0, 1, 1, 0, 0, 0, 0, 0, 0, 0, 0, 0, 0, 1, 0, 0, 0, 0, 0, 0, 0, 0, 0, 0, 0, 0, 0, 0, 0, 0, 0, 0, 0, 1, 1, 1, 1, 0, 0, 0, 0, 0, 1, 1, 0, 0, 0, 1, 0, 0, 0, 0, 0, 0, 0, 0, 0, 0, 0, 0, 0, 0, 0, 0, 0, 0, 0, 0, 0, 0, 0, 1, 0, 0, 0, 1, 0, 1, 0, 0, 0, 1, 0, 0, 0, 0, 0, 0, 1, 0, 0, 1, 1, 0, 0, 1, 1, 0, 0, 1, 0, 1, 0, 0, 0, 0, 0, 1, 0, 0, 0, 0, 1, 0, 0, 0, 0, 0, 0, 0, 0, 0, 1, 0, 0, 0, 0, 0, 0, 0, 1, 0, 0, 0, 1, 0, 0, 0, 0, 0, 0, 0, 0, 0, 1, 0, 0, 0, 0, 0, 0, 0, 0, 0, 0, 0, 0, 0, 0, 0, 0, 0, 0, 0, 0, 0, 0, 0, 0, 0, 0, 0, 0, 0, 0, 0, 1, 0, 1, 0, 0, 1, 0, 0, 0, 0, 1, 0, 0, 0, 0, 0, 0, 0, 0, 1, 0, 0, 0, 0, 0, 0, 0, 0, 0, 0, 0, 0, 0, 0, 0], [0, 0, 0, 0, 0, 0, 0, 0, 0, 0, 0, 0, 0, 0, 0, 0, 0, 0, 0, 1, 0, 0, 0, 0, 0, 0, 0, 0, 0, 0, 0, 0, 0, 0, 1, 0, 0, 1, 0, 0, 0, 0, 0, 0, 0, 0, 0, 0, 0, 0, 0, 0, 0, 0, 0, 1, 0, 0, 0, 1, 0, 0, 0, 0, 0, 0, 0, 0, 0, 0, 0, 0, 0, 0, 0, 0, 0, 1, 0, 0, 0, 0, 0, 0, 0, 0, 0, 0, 0, 0, 0, 0, 0, 0, 0, 0, 1, 0, 1, 0, 0, 0, 0, 0, 0, 0, 0, 0, 0, 0, 0, 0, 0, 0, 0, 0, 0, 0, 0, 0, 1, 0, 0, 1, 1, 0, 0, 0, 0, 0, 0, 0, 0, 0, 0, 0, 0, 0, 0, 0, 0, 0, 0, 0, 0, 0, 0, 0, 0, 0, 0, 0, 0, 1, 0, 0, 0, 0, 0, 0, 0, 0, 0, 0, 1, 0, 0, 0, 0, 0, 0, 0, 0, 0, 0, 0, 0, 0, 0, 0, 0, 0, 0, 1, 0, 0, 0, 0, 0, 1, 0, 0, 0, 0, 0, 0, 0, 0, 0, 0, 0, 0, 0, 0, 0, 0, 0, 0, 0, 0, 0, 0, 0, 0, 0, 0, 1, 1, 0, 1, 0, 1, 0, 0, 0, 0, 0, 0, 0, 0, 0, 0, 0, 0, 0, 0, 0, 0, 0, 0, 0, 0, 0, 0, 0, 0, 0, 0, 0, 0, 0, 0, 0, 0, 0, 0, 0, 0, 1, 1, 0, 1, 0, 0, 0, 0, 0, 0, 0, 0, 0, 0, 0, 0, 0, 0, 0, 0, 0, 0, 0, 0, 0, 1, 0, 0, 1, 0, 0, 0, 0, 0, 0, 0, 0, 0, 0, 0, 0, 0, 0, 0, 0, 0, 0, 1, 0, 0, 0, 0, 0, 0, 0, 1], [0, 0, 0, 1, 1, 0, 0, 0, 0, 0, 0, 0, 0, 0, 0, 0, 0, 0, 0, 0, 1, 1, 0, 0, 0, 0, 0, 0, 0, 0, 0, 0, 0, 0, 0, 0, 1, 0, 0, 0, 0, 0, 0, 0, 0, 1, 0, 0, 0, 0, 1, 0, 1, 0, 0, 0, 0, 0, 0, 0, 0, 0, 0, 0, 0, 0, 0, 0, 0, 0, 0, 0, 0, 0, 1, 0, 1, 0, 0, 0, 1, 0, 0, 0, 0, 0, 0, 0, 0, 0, 1, 0, 0, 0, 1, 0, 0, 0, 0, 0, 0, 0, 0, 0, 0, 0, 0, 0, 0, 0, 0, 1, 0, 0, 0, 0, 0, 0, 0, 0, 0, 0, 0, 0, 0, 0, 0, 0, 0, 0, 0, 0, 0, 0, 0, 0, 0, 0, 0, 0, 0, 0, 1, 1, 0, 0, 0, 0, 0, 0, 0, 0, 1, 0, 0, 0, 0, 0, 1, 1, 1, 1, 0, 0, 0, 1, 0, 0, 0, 0, 0, 0, 1, 0, 0, 1, 0, 0, 0, 0, 0, 1, 0, 0, 0, 1, 0, 0, 0, 0, 0, 0, 0, 0, 0, 0, 0, 0, 0, 0, 0, 0, 0, 0, 0, 1, 0, 0, 0, 0, 0, 0, 0, 0, 0, 0, 0, 0, 0, 0, 0, 0, 1, 0, 0, 0, 0, 1, 0, 0, 0, 0, 0, 0, 0, 0, 0, 0, 0, 0, 0, 1, 0, 0, 0, 0, 0, 0, 0, 0, 0, 0, 0, 0, 0, 0, 0, 0, 0, 0, 0, 0, 0, 0, 0, 0, 0, 0, 1, 0, 0, 0, 0, 0, 0, 0, 1, 0, 0, 0, 0, 0, 0, 0, 0, 0, 0, 1, 0, 0, 1, 0, 0, 0, 0, 0, 0, 0, 0, 0, 0, 0, 0, 0, 0, 0, 0, 0, 1, 0, 0, 0, 0, 0]]
====================================================
Total induction time of the MDEModel was: 26269 ms
====================================================
====================================================
Total inference time of the MDEModel was: 4649 ms
====================================================
====================================================
This was for: 314 queries.
====================================================
[INFO] Process ended (returncode 0)
[INFO] Finished: Run process 75.710 seconds
[WARNING] Exit:finished; Returncode:0; Time:75.71016
