[
{
  "ts": "2018-02-06T00:58:50.370282",
  "type": "SETTINGS",
  "values": {
    "date": "2018/02/06 01:58:50",
    "date_iso": "2018-02-06T01:58:50.368475",
    "params": null,
    "system": {
      "nodename": "gibson",
      "machine": "x86_64",
      "platform": "Linux-4.4.0-112-generic-x86_64-with-debian-stretch-sid",
      "processor": "x86_64",
      "version": "#135-Ubuntu SMP Fri Jan 19 11:48:36 UTC 2018",
      "system": "Linux",
      "cpu_count": 8,
      "cpu_times": {
        "user": 280641.5,
        "system": 19665.86,
        "idle": 7721128.7,
        "nice": 764.54
      },
      "cpu_percent": 37.9,
      "virtual_memory": {
        "total": 33618501632,
        "available": 24555769856,
        "percent": 27.0,
        "used": 8041574400,
        "free": 15370416128
      }
    },
    "process": {
      "username": "evgeniya",
      "cwd": "/cw/dtailocal/mercs_python/src/core",
      "create_time": 1517876951.8,
      "cpu_times": {
        "user": 1.96,
        "system": 0.23
      }
    },
    "logfile": "/cw/dtailocal/mercs_python/out/247/scm1d/logs/mercspython_Log_F02",
    "command": "python /cw/dtailocal/mercs_python/bin/mercspython.py /cw/dtailocal/mercs_python/out/247/scm1d/settings/mercspython_Settings_F02.s"
  }
},
{
  "ts": "2018-02-06T00:58:50.370371",
  "type": "INFO",
  "values": {
    "cmd": "python /cw/dtailocal/mercs_python/bin/mercspython.py /cw/dtailocal/mercs_python/out/247/scm1d/settings/mercspython_Settings_F02.s",
    "cwd": null
  }
},
{
  "ts": "2018-02-06T00:58:50.374138",
  "type": "INFO",
  "values": "Start: Run process"
},
{
  "ts": "2018-02-06T00:58:50.374575",
  "type": "INFO",
  "values": "Write log to /cw/dtailocal/mercs_python/out/247/scm1d/logs/mercspython_Log_F02.running.log"
},
{
  "ts": "2018-02-06T01:13:33.419760",
  "type": "INFO",
  "values": "Process ended (returncode 0)"
},
{
  "ts": "2018-02-06T01:13:33.419821",
  "type": "INFO",
  "values": "Finished: Run process 883.046 seconds"
},
{
  "ts": "2018-02-06T01:13:33.419879",
  "type": "WARNING",
  "values": {
    "Exit": "finished",
    "Returncode": 0,
    "Time": 883.0457246303558
  }
},
{
  "ts": "2018-02-06T01:13:33.420143",
  "type": "INFO",
  "values": "Closing /cw/dtailocal/mercs_python/out/247/scm1d/logs/mercspython_Log_F02.running.log"
}
]
