[
{
  "ts": "2018-02-06T02:42:19.870396",
  "type": "SETTINGS",
  "values": {
    "date": "2018/02/06 03:42:19",
    "date_iso": "2018-02-06T03:42:19.869806",
    "params": null,
    "system": {
      "nodename": "gibson",
      "machine": "x86_64",
      "platform": "Linux-4.4.0-112-generic-x86_64-with-debian-stretch-sid",
      "processor": "x86_64",
      "version": "#135-Ubuntu SMP Fri Jan 19 11:48:36 UTC 2018",
      "system": "Linux",
      "cpu_count": 8,
      "cpu_times": {
        "user": 299316.8,
        "system": 19835.97,
        "idle": 7751885.2,
        "nice": 767.06
      },
      "cpu_percent": 37.9,
      "virtual_memory": {
        "total": 33618501632,
        "available": 27091582976,
        "percent": 19.4,
        "used": 5505736704,
        "free": 17762131968
      }
    },
    "process": {
      "username": "evgeniya",
      "cwd": "/cw/dtailocal/mercs_python/src/core",
      "create_time": 1517876951.8,
      "cpu_times": {
        "user": 4.05,
        "system": 1.08
      }
    },
    "logfile": "/cw/dtailocal/mercs_python/out/247/scm1d/logs/mercspython_Log_F09",
    "command": "python /cw/dtailocal/mercs_python/bin/mercspython.py /cw/dtailocal/mercs_python/out/247/scm1d/settings/mercspython_Settings_F09.s"
  }
},
{
  "ts": "2018-02-06T02:42:19.870571",
  "type": "INFO",
  "values": {
    "cmd": "python /cw/dtailocal/mercs_python/bin/mercspython.py /cw/dtailocal/mercs_python/out/247/scm1d/settings/mercspython_Settings_F09.s",
    "cwd": null
  }
},
{
  "ts": "2018-02-06T02:42:19.873584",
  "type": "INFO",
  "values": "Start: Run process"
},
{
  "ts": "2018-02-06T02:42:19.875564",
  "type": "INFO",
  "values": "Write log to /cw/dtailocal/mercs_python/out/247/scm1d/logs/mercspython_Log_F09.running.log"
},
{
  "ts": "2018-02-06T02:57:10.494716",
  "type": "INFO",
  "values": "Process ended (returncode 0)"
},
{
  "ts": "2018-02-06T02:57:10.494779",
  "type": "INFO",
  "values": "Finished: Run process 890.621 seconds"
},
{
  "ts": "2018-02-06T02:57:10.494837",
  "type": "WARNING",
  "values": {
    "Exit": "finished",
    "Returncode": 0,
    "Time": 890.6212358474731
  }
},
{
  "ts": "2018-02-06T02:57:10.495107",
  "type": "INFO",
  "values": "Closing /cw/dtailocal/mercs_python/out/247/scm1d/logs/mercspython_Log_F09.running.log"
}
]
