[
{
  "ts": "2018-02-05T15:43:30.215238",
  "type": "SETTINGS",
  "values": {
    "date": "2018/02/05 16:43:30",
    "date_iso": "2018-02-05T16:43:30.214417",
    "params": null,
    "system": {
      "nodename": "gibson",
      "machine": "x86_64",
      "platform": "Linux-4.4.0-112-generic-x86_64-with-debian-stretch-sid",
      "processor": "x86_64",
      "version": "#135-Ubuntu SMP Fri Jan 19 11:48:36 UTC 2018",
      "system": "Linux",
      "cpu_count": 8,
      "cpu_times": {
        "user": 99753.8,
        "system": 18229.66,
        "idle": 7637224.0,
        "nice": 749.46
      },
      "cpu_percent": 99.7,
      "virtual_memory": {
        "total": 33618501632,
        "available": 26333790208,
        "percent": 21.7,
        "used": 6263586816,
        "free": 10156974080
      }
    },
    "process": {
      "username": "evgeniya",
      "cwd": "/cw/dtailocal/mercs_python/src/core",
      "create_time": 1517845397.28,
      "cpu_times": {
        "user": 0.79,
        "system": 0.07
      }
    },
    "logfile": "/cw/dtailocal/mercs_python/out/221/andro/logs/mercspython_Log_F03",
    "command": "python /cw/dtailocal/mercs_python/bin/mercspython.py /cw/dtailocal/mercs_python/out/221/andro/settings/mercspython_Settings_F03.s"
  }
},
{
  "ts": "2018-02-05T15:43:30.215386",
  "type": "INFO",
  "values": {
    "cmd": "python /cw/dtailocal/mercs_python/bin/mercspython.py /cw/dtailocal/mercs_python/out/221/andro/settings/mercspython_Settings_F03.s",
    "cwd": null
  }
},
{
  "ts": "2018-02-05T15:43:30.242587",
  "type": "INFO",
  "values": "Start: Run process"
},
{
  "ts": "2018-02-05T15:43:30.267781",
  "type": "INFO",
  "values": "Write log to /cw/dtailocal/mercs_python/out/221/andro/logs/mercspython_Log_F03.running.log"
},
{
  "ts": "2018-02-05T15:43:34.273496",
  "type": "INFO",
  "values": "Process ended (returncode 0)"
},
{
  "ts": "2018-02-05T15:43:34.273577",
  "type": "INFO",
  "values": "Finished: Run process 4.031 seconds"
},
{
  "ts": "2018-02-05T15:43:34.273655",
  "type": "WARNING",
  "values": {
    "Exit": "finished",
    "Returncode": 0,
    "Time": 4.031014919281006
  }
}
]
