[
{
  "ts": "2018-02-05T15:43:38.309391",
  "type": "SETTINGS",
  "values": {
    "date": "2018/02/05 16:43:38",
    "date_iso": "2018-02-05T16:43:38.308562",
    "params": null,
    "system": {
      "nodename": "gibson",
      "machine": "x86_64",
      "platform": "Linux-4.4.0-112-generic-x86_64-with-debian-stretch-sid",
      "processor": "x86_64",
      "version": "#135-Ubuntu SMP Fri Jan 19 11:48:36 UTC 2018",
      "system": "Linux",
      "cpu_count": 8,
      "cpu_times": {
        "user": 99816.54,
        "system": 18231.29,
        "idle": 7637224.19,
        "nice": 749.46
      },
      "cpu_percent": 99.5,
      "virtual_memory": {
        "total": 33618501632,
        "available": 26330570752,
        "percent": 21.7,
        "used": 6256254976,
        "free": 10152448000
      }
    },
    "process": {
      "username": "evgeniya",
      "cwd": "/cw/dtailocal/mercs_python/src/core",
      "create_time": 1517845397.28,
      "cpu_times": {
        "user": 0.91,
        "system": 0.09
      }
    },
    "logfile": "/cw/dtailocal/mercs_python/out/221/andro/logs/mercspython_Log_F05",
    "command": "python /cw/dtailocal/mercs_python/bin/mercspython.py /cw/dtailocal/mercs_python/out/221/andro/settings/mercspython_Settings_F05.s"
  }
},
{
  "ts": "2018-02-05T15:43:38.309542",
  "type": "INFO",
  "values": {
    "cmd": "python /cw/dtailocal/mercs_python/bin/mercspython.py /cw/dtailocal/mercs_python/out/221/andro/settings/mercspython_Settings_F05.s",
    "cwd": null
  }
},
{
  "ts": "2018-02-05T15:43:38.339114",
  "type": "INFO",
  "values": "Start: Run process"
},
{
  "ts": "2018-02-05T15:43:38.357953",
  "type": "INFO",
  "values": "Write log to /cw/dtailocal/mercs_python/out/221/andro/logs/mercspython_Log_F05.running.log"
},
{
  "ts": "2018-02-05T15:43:42.365020",
  "type": "INFO",
  "values": "Process ended (returncode 0)"
},
{
  "ts": "2018-02-05T15:43:42.365102",
  "type": "INFO",
  "values": "Finished: Run process 4.026 seconds"
},
{
  "ts": "2018-02-05T15:43:42.365192",
  "type": "WARNING",
  "values": {
    "Exit": "finished",
    "Returncode": 0,
    "Time": 4.026017665863037
  }
},
{
  "ts": "2018-02-05T15:43:42.365567",
  "type": "INFO",
  "values": "Closing /cw/dtailocal/mercs_python/out/221/andro/logs/mercspython_Log_F05.running.log"
}
]
