ID,system,dataset,basetype,ensemble,ens_its,sel_num_targets,sel_heuristic,sel_its,prediction,query_keyword,query_param
3001,mercspython,andro,Ensemble,Rforest,30,2,mutual_info,1,Simple,basic,1
3002,mercspython,enb,Ensemble,Rforest,30,2,mutual_info,1,Simple,basic,1
3003,mercspython,jura,Ensemble,Rforest,30,2,mutual_info,1,Simple,basic,1
3004,mercspython,oes10,Ensemble,Rforest,30,2,mutual_info,1,Simple,basic,1
3005,mercspython,oes97,Ensemble,Rforest,30,2,mutual_info,1,Simple,basic,1
3006,mercspython,rf1,Ensemble,Rforest,30,2,mutual_info,1,Simple,basic,1
3007,mercspython,scm1d,Ensemble,Rforest,30,2,mutual_info,1,Simple,basic,1
3008,mercspython,scm20d,Ensemble,Rforest,30,2,mutual_info,1,Simple,basic,1
3009,mercspython,slump,Ensemble,Rforest,30,2,mutual_info,1,Simple,basic,1
3010,mercspython,wq,Ensemble,Rforest,30,2,mutual_info,1,Simple,basic,1
3011,mercspython,andro,Ensemble,Rforest,30,4,mutual_info,1,Simple,basic,1
3012,mercspython,enb,Ensemble,Rforest,30,4,mutual_info,1,Simple,basic,1
3013,mercspython,jura,Ensemble,Rforest,30,4,mutual_info,1,Simple,basic,1
3014,mercspython,oes10,Ensemble,Rforest,30,4,mutual_info,1,Simple,basic,1
3015,mercspython,oes97,Ensemble,Rforest,30,4,mutual_info,1,Simple,basic,1
3016,mercspython,rf1,Ensemble,Rforest,30,4,mutual_info,1,Simple,basic,1
3017,mercspython,scm1d,Ensemble,Rforest,30,4,mutual_info,1,Simple,basic,1
3018,mercspython,scm20d,Ensemble,Rforest,30,4,mutual_info,1,Simple,basic,1
3019,mercspython,slump,Ensemble,Rforest,30,4,mutual_info,1,Simple,basic,1
3020,mercspython,wq,Ensemble,Rforest,30,4,mutual_info,1,Simple,basic,1
3021,mercspython,andro,Ensemble,Rforest,30,6,mutual_info,1,Simple,basic,1
3022,mercspython,enb,Ensemble,Rforest,30,6,mutual_info,1,Simple,basic,1
3023,mercspython,jura,Ensemble,Rforest,30,6,mutual_info,1,Simple,basic,1
3024,mercspython,oes10,Ensemble,Rforest,30,6,mutual_info,1,Simple,basic,1
3025,mercspython,oes97,Ensemble,Rforest,30,6,mutual_info,1,Simple,basic,1
3026,mercspython,rf1,Ensemble,Rforest,30,6,mutual_info,1,Simple,basic,1
3027,mercspython,scm1d,Ensemble,Rforest,30,6,mutual_info,1,Simple,basic,1
3028,mercspython,scm20d,Ensemble,Rforest,30,6,mutual_info,1,Simple,basic,1
3029,mercspython,slump,Ensemble,Rforest,30,6,mutual_info,1,Simple,basic,1
3030,mercspython,wq,Ensemble,Rforest,30,6,mutual_info,1,Simple,basic,1
3031,mercspython,andro,Ensemble,Rforest,30,8,mutual_info,1,Simple,basic,1
3032,mercspython,enb,Ensemble,Rforest,30,8,mutual_info,1,Simple,basic,1
3033,mercspython,jura,Ensemble,Rforest,30,8,mutual_info,1,Simple,basic,1
3034,mercspython,oes10,Ensemble,Rforest,30,8,mutual_info,1,Simple,basic,1
3035,mercspython,oes97,Ensemble,Rforest,30,8,mutual_info,1,Simple,basic,1
3036,mercspython,rf1,Ensemble,Rforest,30,8,mutual_info,1,Simple,basic,1
3037,mercspython,scm1d,Ensemble,Rforest,30,8,mutual_info,1,Simple,basic,1
3038,mercspython,scm20d,Ensemble,Rforest,30,8,mutual_info,1,Simple,basic,1
3039,mercspython,slump,Ensemble,Rforest,30,8,mutual_info,1,Simple,basic,1
3040,mercspython,wq,Ensemble,Rforest,30,8,mutual_info,1,Simple,basic,1
3041,mercspython,andro,Ensemble,Rforest,30,10,mutual_info,1,Simple,basic,1
3042,mercspython,enb,Ensemble,Rforest,30,10,mutual_info,1,Simple,basic,1
3043,mercspython,jura,Ensemble,Rforest,30,10,mutual_info,1,Simple,basic,1
3044,mercspython,oes10,Ensemble,Rforest,30,10,mutual_info,1,Simple,basic,1
3045,mercspython,oes97,Ensemble,Rforest,30,10,mutual_info,1,Simple,basic,1
3046,mercspython,rf1,Ensemble,Rforest,30,10,mutual_info,1,Simple,basic,1
3047,mercspython,scm1d,Ensemble,Rforest,30,10,mutual_info,1,Simple,basic,1
3048,mercspython,scm20d,Ensemble,Rforest,30,10,mutual_info,1,Simple,basic,1
3049,mercspython,slump,Ensemble,Rforest,30,10,mutual_info,1,Simple,basic,1
3050,mercspython,wq,Ensemble,Rforest,30,10,mutual_info,1,Simple,basic,1
