[
{
  "ts": "2018-02-05T17:08:34.383826",
  "type": "SETTINGS",
  "values": {
    "date": "2018/02/05 18:08:34",
    "date_iso": "2018-02-05T18:08:34.382905",
    "params": null,
    "system": {
      "nodename": "gibson",
      "machine": "x86_64",
      "platform": "Linux-4.4.0-112-generic-x86_64-with-debian-stretch-sid",
      "processor": "x86_64",
      "version": "#135-Ubuntu SMP Fri Jan 19 11:48:36 UTC 2018",
      "system": "Linux",
      "cpu_count": 8,
      "cpu_times": {
        "user": 140134.15,
        "system": 18644.96,
        "idle": 7637234.63,
        "nice": 751.58
      },
      "cpu_percent": 100.0,
      "virtual_memory": {
        "total": 33618501632,
        "available": 21863292928,
        "percent": 35.0,
        "used": 10773532672,
        "free": 4652560384
      }
    },
    "process": {
      "username": "evgeniya",
      "cwd": "/cw/dtailocal/mercs_python/src/core",
      "create_time": 1517850253.83,
      "cpu_times": {
        "user": 2.43,
        "system": 0.16
      }
    },
    "logfile": "/cw/dtailocal/mercs_python/out/331/oes97/logs/mercspython_Log_F09",
    "command": "python /cw/dtailocal/mercs_python/bin/mercspython.py /cw/dtailocal/mercs_python/out/331/oes97/settings/mercspython_Settings_F09.s"
  }
},
{
  "ts": "2018-02-05T17:08:34.383994",
  "type": "INFO",
  "values": {
    "cmd": "python /cw/dtailocal/mercs_python/bin/mercspython.py /cw/dtailocal/mercs_python/out/331/oes97/settings/mercspython_Settings_F09.s",
    "cwd": null
  }
},
{
  "ts": "2018-02-05T17:08:34.406027",
  "type": "INFO",
  "values": "Start: Run process"
},
{
  "ts": "2018-02-05T17:08:34.479073",
  "type": "INFO",
  "values": "Write log to /cw/dtailocal/mercs_python/out/331/oes97/logs/mercspython_Log_F09.running.log"
},
{
  "ts": "2018-02-05T17:09:01.719901",
  "type": "INFO",
  "values": "Process ended (returncode 0)"
},
{
  "ts": "2018-02-05T17:09:01.719979",
  "type": "INFO",
  "values": "Finished: Run process 27.314 seconds"
},
{
  "ts": "2018-02-05T17:09:01.720065",
  "type": "WARNING",
  "values": {
    "Exit": "finished",
    "Returncode": 0,
    "Time": 27.313976287841797
  }
},
{
  "ts": "2018-02-05T17:09:01.728142",
  "type": "INFO",
  "values": "Closing /cw/dtailocal/mercs_python/out/331/oes97/logs/mercspython_Log_F09.running.log"
}
]
