[SETTINGS] {
  "date": "2018/02/05 18:06:40",
  "date_iso": "2018-02-05T18:06:40.732336",
  "params": null,
  "system": {
    "nodename": "gibson",
    "machine": "x86_64",
    "platform": "Linux-4.4.0-112-generic-x86_64-with-debian-stretch-sid",
    "processor": "x86_64",
    "version": "#135-Ubuntu SMP Fri Jan 19 11:48:36 UTC 2018",
    "system": "Linux",
    "cpu_count": 8,
    "cpu_times": {
      "user": 139233.91,
      "system": 18636.54,
      "idle": 7637234.62,
      "nice": 751.58
    },
    "cpu_percent": 100.0,
    "virtual_memory": {
      "total": 33618501632,
      "available": 22997114880,
      "percent": 31.6,
      "used": 9650343936,
      "free": 5789577216
    }
  },
  "process": {
    "username": "evgeniya",
    "cwd": "/cw/dtailocal/mercs_python/src/core",
    "create_time": 1517850253.83,
    "cpu_times": {
      "user": 2.13,
      "system": 0.13
    }
  },
  "logfile": "/cw/dtailocal/mercs_python/out/331/oes97/logs/mercspython_Log_F05",
  "command": "python /cw/dtailocal/mercs_python/bin/mercspython.py /cw/dtailocal/mercs_python/out/331/oes97/settings/mercspython_Settings_F05.s"
}
[INFO] cmd:python /cw/dtailocal/mercs_python/bin/mercspython.py /cw/dtailocal/mercs_python/out/331/oes97/settings/mercspython_Settings_F05.s; cwd:None
[INFO] Start: Run process
[INFO] Write log to /cw/dtailocal/mercs_python/out/331/oes97/logs/mercspython_Log_F05.running.log
[STDERR] /cw/dtailocal/mercs_python/bin/mercspython.py:78: VisibleDeprecationWarning: converting an array with ndim > 0 to an index will result in an error in the future
[STDERR]   while((np.sum(codes[partition * nb_models_it + model]) >= nb_out_atts)):
[STDERR] /cw/dtailocal/mercs_python/bin/mercspython.py:81: VisibleDeprecationWarning: converting an array with ndim > 0 to an index will result in an error in the future
[STDERR]   codes[partition * nb_models_it + model][attribute] = 1
[[0 0 0 ..., 1 1 1]
 [0 0 1 ..., 0 0 0]
 [1 0 0 ..., 0 0 0]
 [0 1 0 ..., 0 0 0]]
====================================================
Total induction time of the MDEModel was: 19055 ms
====================================================
====================================================
Total inference time of the MDEModel was: 6721 ms
====================================================
====================================================
This was for: 279 queries.
====================================================
[INFO] Process ended (returncode 0)
[INFO] Finished: Run process 30.092 seconds
[WARNING] Exit:finished; Returncode:0; Time:30.09197
