Var0,Var1,Var2,Var3,Var4,Var5,Var6,Var7,Var8,Var9,Var10,Var11,Var12,Var13,Var14,Var15,Var16,Var17
0.46353578685933616,0.28029423151374366,0.0,1.0,0.0,0.0,0.0,1.0,0.0,0.0,0.0,0.5530893821235753,0.5415853182350643,0.21043651357884258,0.20677908363140865,0.24028834601521826,0.4435111297774044,0.13023187266653566
0.5229171370512531,0.5464576074332171,0.0,1.0,0.0,0.0,0.0,0.0,1.0,0.0,0.0,0.6550689862027593,0.3791487700117141,0.04308261055026305,0.16947709078521547,0.2953544253103725,0.47501049979000415,0.03271762625270191
0.8787536689997741,0.10782036391792488,0.0,0.0,1.0,0.0,0.0,0.0,0.0,0.0,1.0,0.5278944211157768,0.4728621632174931,0.16962889236456707,0.2699710441151423,0.28634361233480177,0.7753044939101218,0.1889369227746119
0.7753443215172724,0.6312427409988386,0.0,0.0,1.0,0.0,0.0,0.0,0.0,0.0,1.0,0.4079184163167366,0.38617727450214756,0.14687899900469217,0.20183955033214107,0.15198237885462557,0.7102057958840823,0.1466889369227746
0.30503499661323097,0.09001161440185829,0.0,0.0,1.0,0.0,1.0,0.0,0.0,0.0,0.0,0.36952609478104376,0.18235064427957826,0.11986350063984075,0.13370805654913984,0.021025230276331595,0.1558168836623267,0.11524857535861661
0.7471212463310001,0.7847464188927603,0.0,0.0,1.0,0.0,1.0,0.0,0.0,0.0,0.0,0.6400719856028794,0.3838344396720031,0.09711360727996587,0.5033214103219213,0.748498197837405,0.4351112977740445,0.11475731970917664
0.49853240009031374,0.13066202090592335,1.0,0.0,0.0,0.0,1.0,0.0,0.0,0.0,0.0,0.5620875824835032,0.26825458805154234,0.13408218398976254,0.1779935275080906,0.25830997196635963,0.3154136917261654,0.03198074277854195
0.9616166177466697,0.1635694928377855,0.0,0.0,1.0,0.0,0.0,1.0,0.0,0.0,0.0,0.48410317936412717,0.42522452167122216,0.050618512725721605,0.1950264009538409,0.12815378454144974,0.5464090718185637,0.08626449204165848
0.41770151275683,0.6989934185056136,0.0,0.0,1.0,0.0,1.0,0.0,0.0,0.0,0.0,0.415116976604679,0.1721983600156189,0.08289492393004408,0.09282916027933913,0.09711653984781739,0.19781604367912642,0.09191393201021811
0.5274328290810566,0.60840108401084,0.0,0.0,1.0,0.0,0.0,0.0,0.0,0.0,1.0,0.25794841031793636,0.09176103084732525,0.00995307834494526,0.0008516436722875119,0.05306367641169404,0.16421671566568666,0.002505403812143839
0.5762023030029352,0.8068137824235385,0.0,0.0,1.0,0.0,1.0,0.0,0.0,0.0,0.0,0.32813437312537486,0.18235064427957826,0.03995450021328026,0.026911940044285473,0.09811774128954746,0.10415791684166316,0.028787581057182158
0.27003838338225333,0.12582268679829653,0.0,0.0,1.0,0.0,1.0,0.0,0.0,0.0,0.0,0.22615476904619072,0.09098008590394377,0.09995734394995023,0.0619996593425311,0.04405286343612334,0.10961780764384711,0.11058164668893691
0.393768344998871,0.3604336043360434,0.0,0.0,1.0,0.0,0.0,0.0,0.0,0.0,1.0,0.5584883023395321,0.4509957048028113,0.24882695862363147,0.3801737353091467,0.29034841810172207,0.5716085678286433,0.22921988602868934
0.5940392865206592,0.22667440960123886,0.0,0.0,1.0,0.0,0.0,1.0,0.0,0.0,0.0,0.6100779844031193,0.6392034361577509,0.19266315939144035,0.40572304547777216,0.35042050460552665,0.5968080638387232,0.19876203576341128
0.39015579137502815,0.4355400696864111,0.0,1.0,0.0,0.0,0.0,1.0,0.0,0.0,0.0,0.43731253749250143,0.5767278406872315,0.1345087444902602,0.19911429058082103,0.23327993592310775,0.6031079378412431,0.032226370603261945
0.6082637164145405,0.3035230352303523,0.0,0.0,1.0,0.0,0.0,1.0,0.0,0.0,0.0,0.4859028194361127,0.6446700507614213,0.08886677093701123,0.27967978197921994,0.2883460152182619,0.5065098698026039,0.1140204362350167
0.6825468503048091,0.8894696089818039,0.0,1.0,0.0,0.0,1.0,0.0,0.0,0.0,0.0,0.7300539892021595,0.38617727450214756,0.052182567894212994,0.5135411343893715,0.8121746095314377,0.40571188576228473,0.07324621733149932
0.8959132987130276,0.4065040650406504,1.0,0.0,0.0,0.0,0.0,1.0,0.0,0.0,0.0,0.23515296940611874,0.2705974228816868,0.05673254656618797,0.24612502129109182,0.2703243892671206,0.27761444771104576,0.04671841226174101
0.8688191465342063,0.18370112272551298,0.0,0.0,1.0,0.0,0.0,0.0,0.0,0.0,1.0,0.44091181763647264,0.32448262397500977,0.16394141902459833,0.2597513200476921,0.15618742490989188,0.48551028979420413,0.22258793476124972
1.0,0.17286101432442894,0.0,0.0,1.0,0.0,0.0,1.0,0.0,0.0,0.0,0.40431913617276544,0.390081999219055,0.07407934025309258,0.17629024016351563,0.11413696435722867,0.3679126417471651,0.0749656121045392
0.712801986904493,0.6302748741773131,0.0,0.0,1.0,0.0,0.0,1.0,0.0,0.0,0.0,0.37852429514097174,0.4385005857087075,0.1582539456846296,0.22568557315619148,0.09711653984781739,0.6619067618647627,0.2778541953232462
0.5951682095281101,0.2259001161440186,0.0,0.0,1.0,0.0,0.0,1.0,0.0,0.0,0.0,0.6280743851229754,0.6470128855915658,0.267453433812029,0.4208823028444899,0.36543852623147777,0.622007559848803,0.26753782668500686
0.6660645743960261,0.8120402632597754,0.0,1.0,0.0,0.0,0.0,0.0,0.0,0.0,1.0,0.8860227954409117,0.4353768059351815,0.13123844731977818,0.5390904445579969,0.6047256708049659,0.40571188576228473,0.2778541953232462
0.6423571912395574,0.7915214866434379,0.0,0.0,1.0,0.0,0.0,0.0,0.0,0.0,1.0,0.5278944211157768,0.4158531823506442,0.10848855395990332,0.24101515925736672,0.22927513015618745,0.22931541369172617,0.13146001179013558
0.7130277715059832,0.41618273325590394,1.0,0.0,0.0,0.0,0.0,1.0,0.0,0.0,0.0,0.3059388122375524,0.3073018352206169,0.14119152566472346,0.14052120592743997,0.3303964757709251,0.3091138177236455,0.037458243269797596
0.7640550914427635,0.8517228029423152,0.0,0.0,1.0,0.0,0.0,0.0,0.0,0.0,1.0,0.7300539892021595,0.48301444748145245,0.06014503057016921,0.4965082609436212,0.3524229074889868,0.5212095758084838,0.13342503438789546
0.47888913976066827,0.694928377855207,0.0,0.0,1.0,0.0,1.0,0.0,0.0,0.0,0.0,0.3599280143971205,0.1065989847715736,0.14119152566472346,0.0962357349684892,0.08710452543051661,0.17471650566988658,0.18574376105325208
0.41747572815533973,0.700154858691444,0.0,0.0,1.0,0.0,1.0,0.0,0.0,0.0,0.0,0.4859028194361127,0.1682936352987114,0.06469500924214419,0.12008175779253963,0.08109731678013617,0.20621587568248634,0.08503635291805854
0.7496048769473921,0.15369725125822686,0.0,0.0,1.0,0.0,0.0,1.0,0.0,0.0,0.0,0.49310137972405516,0.48067161265130803,0.07507464808758708,0.23760858456821668,0.12314777733279936,0.5800083998320033,0.07889565730005894
0.7157371867238653,0.6318234610917537,0.0,0.0,1.0,0.0,0.0,1.0,0.0,0.0,0.0,0.38332333533293333,0.36743459586099175,0.18100383904450446,0.21887242377789137,0.14817781337605127,0.6871062578748425,0.37856160345843975
0.8690449311356965,0.6217576461478901,0.0,1.0,0.0,0.0,0.0,0.0,1.0,0.0,0.0,0.4757048590281943,0.390081999219055,0.09711360727996587,0.23760858456821668,0.5372446936323588,0.5086098278034439,0.15700530556101394
0.5601715962971324,0.08981804103755323,0.0,1.0,0.0,0.0,0.0,0.0,1.0,0.0,0.0,0.9556088782243551,0.5251854744240531,0.7496089862078772,0.8274569919945496,0.7348818582298758,0.3994120117597648,0.6661917862055413
0.4052833596748701,0.49245063879210216,0.0,0.0,1.0,0.0,0.0,0.0,1.0,0.0,0.0,0.3599280143971205,0.21124560718469346,0.13479311815725864,0.17952648611820815,0.09411293552262714,0.42671146577068453,0.15504028296325406
0.2984872431700158,0.308168795973674,0.0,0.0,1.0,0.0,0.0,0.0,1.0,0.0,0.0,0.45230953809238145,0.36274892620070276,0.10706668562491113,0.3619485607221939,0.17380857028434119,0.5128097438051239,0.10837099626645705
0.652065929103635,0.732481610530391,0.0,0.0,1.0,0.0,0.0,0.0,0.0,0.0,1.0,0.6460707858428314,0.4455290901991409,0.06313095407365277,0.24953159598024188,0.35342410893071685,0.36581268374632503,0.04131460011790135
0.33280650259652295,0.4419279907084785,0.0,0.0,1.0,0.0,0.0,0.0,1.0,0.0,0.0,0.5740851829634073,0.43303397110503705,0.2523816294611119,0.3297564299097258,0.15218261914297157,0.5800083998320033,0.3510512870898015
0.6927071573718672,0.6746031746031746,0.0,1.0,0.0,0.0,0.0,0.0,1.0,0.0,0.0,0.8620275944811037,0.390081999219055,0.11844163230484857,0.3261795264861182,0.7779335202242691,0.24191516169676608,0.10763411279229709
0.4009934522465567,0.7094463801780875,0.0,0.0,1.0,0.0,1.0,0.0,0.0,0.0,0.0,0.4769046190761847,0.17844591956267078,0.07450590075359022,0.13711463123828993,0.08510212254705649,0.2671146577068458,0.0562978974258204
0.5585911040867012,0.09252806813782423,0.0,1.0,0.0,0.0,0.0,0.0,1.0,0.0,0.0,0.6340731853629273,0.4416243654822335,0.3928622209583392,0.5288707204905467,0.25130156187424907,0.46241075178496427,0.3294360385144429
0.5935877173176789,0.18292682926829268,1.0,0.0,0.0,0.0,0.0,0.0,1.0,0.0,0.0,0.41691661667666463,0.11753221397891446,0.1794397838760131,0.1081587463805144,0.355426511814177,0.029819403611927763,0.04942031833366083
0.6689997742153985,0.7994579945799457,0.0,1.0,0.0,0.0,0.0,0.0,0.0,0.0,1.0,0.5236952609478104,0.350253807106599,0.03981231337978103,0.1950264009538409,0.18722466960352424,0.32801343973120534,0.044999017488701124
0.13095506886430344,0.20189701897018966,0.0,1.0,0.0,0.0,0.0,0.0,1.0,0.0,0.0,0.38632273545290935,0.2596641936743459,0.06682781174463244,0.1728836654743655,0.13215859030837004,0.44141117177656447,0.0391039496954215
0.6958681417927297,0.584204413472706,0.0,0.0,1.0,0.0,0.0,0.0,0.0,0.0,1.0,0.34913017396520696,0.27372120265521277,0.2080193374093559,0.2171691364333163,0.08309971966359633,0.4204115917681646,0.2876793083120456
0.6412282682321065,0.7907471931862176,0.0,0.0,1.0,0.0,0.0,0.0,0.0,0.0,1.0,0.5920815836832632,0.4580242092932448,0.21939428408929335,0.3261795264861182,0.22426912294753704,0.2860142797144057,0.2827667518176459
0.6886430345450439,0.23519163763066203,0.0,0.0,0.0,1.0,0.0,0.0,1.0,0.0,0.0,0.397120575884823,0.36743459586099175,0.08858239727001281,0.14631238289899506,0.38446135362434924,0.250314993700126,0.044507761839261153
0.6349062993903815,0.6656987998451412,0.0,0.0,1.0,0.0,0.0,0.0,1.0,0.0,0.0,0.4607078584283143,0.3580632565404139,0.2208161524242855,0.27678419349344235,0.2172607128554265,0.496010079798404,0.29504814305364513
0.6378414992097537,0.4767711962833914,0.0,0.0,1.0,0.0,0.0,0.0,0.0,0.0,1.0,0.4451109778044391,0.4221007418976962,0.10706668562491113,0.24782830863566688,0.1682018422106528,0.6850062998740024,0.16302318726665357
0.31338902686836756,0.12524196670538135,0.0,0.0,1.0,0.0,1.0,0.0,0.0,0.0,0.0,0.31973605278944206,0.14017961733697773,0.12839471064979383,0.08260943621188895,0.06607929515418502,0.12851742965140694,0.12138927097661623
0.14247008354030258,0.3373983739837398,0.0,0.0,1.0,0.0,0.0,1.0,0.0,0.0,0.0,0.5062987402519495,0.5775087856306129,0.1028010806199346,0.21035598705501624,0.20224269122947539,0.500209995800084,0.06907054431125959
0.8877850530593813,0.10723964382500968,0.0,0.0,1.0,0.0,0.0,0.0,0.0,0.0,1.0,0.5290941811637672,0.4845763373682155,0.09995734394995023,0.26656446942599216,0.27833400080096116,0.8068038639227216,0.11328355276085675
0.1693384511176338,0.12214479287650018,1.0,0.0,0.0,0.0,1.0,0.0,0.0,0.0,0.0,0.25314937012597477,0.20890277235454896,0.06341532774065123,0.0621699880769886,0.2643171806167401,0.1558168836623267,0.022892513263902535
0.27432829081056664,0.2562911343399148,0.0,0.0,1.0,0.0,0.0,0.0,1.0,0.0,0.0,0.47270545890821836,0.35103475204998047,0.08005118726005973,0.24782830863566688,0.19723668402082503,0.5443091138177236,0.10542346236981724
0.8105667193497403,0.07220286488579171,0.0,0.0,1.0,0.0,0.0,0.0,0.0,0.0,1.0,0.2861427714457108,0.17454119484576333,0.05004976539172472,0.1081587463805144,0.07208650380456548,0.5065098698026039,0.06612301041461977
0.5838789794536012,0.46496322106078203,0.0,1.0,0.0,0.0,0.0,1.0,0.0,0.0,0.0,0.4799040191961607,0.38149160484185857,0.08431679226503626,0.16947709078521547,0.39747697236684026,0.44981100377992433,0.053841619178620556
0.6581621133438699,0.8162988772744869,0.0,1.0,0.0,0.0,0.0,0.0,0.0,0.0,1.0,0.6700659868026394,0.3463490823896915,0.08573866060002842,0.40793731902571967,0.4034841810172206,0.3028139437211256,0.156022794262134
0.7243170015804921,0.6341463414634145,0.0,0.0,1.0,0.0,0.0,1.0,0.0,0.0,0.0,0.36172765446910615,0.3377586880124951,0.2208161524242855,0.20865269971044118,0.10312374849819785,0.5275094498110038,0.19655138534093142
0.2546850304809212,0.45663956639566394,0.0,0.0,1.0,0.0,0.0,0.0,1.0,0.0,0.0,0.4085182963407318,0.2752830925419757,0.11275415896487985,0.14392778061659003,0.14116940328394073,0.27551448971020576,0.1184417370799764
0.6107473470309325,0.2497096399535424,1.0,0.0,0.0,0.0,0.0,1.0,0.0,0.0,0.0,0.33413317336532694,0.47130027333073016,0.2327598464382198,0.28683358882643506,0.7589106928313977,0.5968080638387232,0.26925722145804676
0.6674192820049673,0.8147502903600463,0.0,1.0,0.0,0.0,0.0,0.0,0.0,0.0,1.0,0.5620875824835032,0.3065208902772354,0.07550120858808475,0.3534321239993187,0.3694433319983981,0.3595128097438051,0.14472391432501475
0.568525626552269,0.8157181571815718,0.0,0.0,1.0,0.0,1.0,0.0,0.0,0.0,0.0,0.33473305338932213,0.15657946114798904,0.05445755723020049,0.061318344404701075,0.0630756908289948,0.10415791684166316,0.054578502652780504
0.6685482050124181,0.8153310104529615,0.0,1.0,0.0,0.0,0.0,0.0,0.0,0.0,1.0,0.6280743851229754,0.2541975790706755,0.18384757571448887,0.5254641458013968,0.565678814577493,0.2965140697186056,0.2174297504421301
0.545721381801761,0.14305071622144788,0.0,0.0,1.0,0.0,1.0,0.0,0.0,0.0,0.0,0.41931613677264545,0.24873096446700504,0.05644817289918955,0.2525975132004769,0.3103724469363236,0.4351112977740445,0.035910787974061706
0.9227816662903591,0.19125048393341074,0.0,0.0,1.0,0.0,0.0,1.0,0.0,0.0,0.0,0.632873425314937,0.4923857868020304,0.07208872458410352,0.22398228581161642,0.2342811373648378,0.6283074338513229,0.08565042247985852
0.6820952811018288,0.8904374758033293,0.0,1.0,0.0,0.0,1.0,0.0,0.0,0.0,0.0,0.6760647870425914,0.4088246778602108,0.05673254656618797,0.47606881280872093,0.8193832599118944,0.42461150776984463,0.08184319119669875
0.6369383608037931,0.4775454897406117,0.0,0.0,1.0,0.0,0.0,0.0,0.0,0.0,1.0,0.43911217756448706,0.3401015228426395,0.08147305559505191,0.20354283767671608,0.16920304365238287,0.5758084838303233,0.11758203969345646
0.37660871528561746,0.2936507936507936,0.0,0.0,1.0,0.0,0.0,1.0,0.0,0.0,0.0,0.5158968206358727,0.5142522452167122,0.1099104222948955,0.24101515925736672,0.28734481377653187,0.46661066778664423,0.08528198074277854
0.9598103409347483,0.16589237320944636,0.0,0.0,1.0,0.0,0.0,1.0,0.0,0.0,0.0,0.44091181763647264,0.41975790706755167,0.05033413905872318,0.1643672287514904,0.14517420905086104,0.5422091558168837,0.07103556690901945
0.6008128245653647,0.5319396051103368,0.0,0.0,1.0,0.0,0.0,1.0,0.0,0.0,0.0,0.5890821835632873,0.42053885201093316,0.20517560073937155,0.2938170669391927,0.2853424108930717,0.5905081898362032,0.18697190017685203
0.9686159403928651,0.16473093302361594,0.0,0.0,1.0,0.0,0.0,1.0,0.0,0.0,0.0,0.36172765446910615,0.36821554080437324,0.06256220673965592,0.14392778061659003,0.1351621946335603,0.4897102057958841,0.052367852230300646
0.412734251524046,0.36411149825783967,0.0,0.0,1.0,0.0,0.0,0.0,0.0,0.0,1.0,0.6010797840431913,0.48770011714174144,0.30570169202331865,0.42752512348833255,0.31537845414497395,0.5926081478370432,0.3235409707211633
0.7058026642582975,0.3019744483159117,0.0,0.0,1.0,0.0,0.0,1.0,0.0,0.0,0.0,0.45590881823635265,0.4728621632174931,0.2137068107493246,0.23249872253449158,0.1421706047256708,0.5905081898362032,0.14963647081941442
0.4034770828629487,0.078397212543554,0.0,0.0,1.0,0.0,1.0,0.0,0.0,0.0,0.0,0.24055188962207555,0.08941819601718078,0.05943409640267311,0.09282916027933913,0.04445334401281537,0.13271734565308693,0.05949105914718019
0.7453149695190787,0.4202477739063104,1.0,0.0,0.0,0.0,0.0,1.0,0.0,0.0,0.0,0.2549490101979604,0.22295978133541583,0.12981657898478602,0.11667518310338955,0.2803364036844213,0.2734145317093658,0.014295539398703082
0.8177918265974261,0.42121564072783585,1.0,0.0,0.0,0.0,0.0,1.0,0.0,0.0,0.0,0.08098380323935213,0.10113237016790315,0.23361296743921514,0.17118037812979053,0.2302763315979175,0.0,0.061947337394380034
0.5762023030029352,0.8079752226093689,0.0,0.0,1.0,0.0,1.0,0.0,0.0,0.0,0.0,0.3605278944211157,0.16516985552518543,0.029717048201336554,0.0630216317492761,0.3374048858630357,0.12452750944981099,0.024857535861662408
0.6276811921426958,0.3166860240030972,0.0,0.0,1.0,0.0,0.0,0.0,0.0,0.0,1.0,0.5170965806838631,0.5978133541585318,0.14346651500071095,0.33793220916368594,0.16219463356027233,0.6178076438471231,0.20785026527805067
0.21268909460374802,0.19376693766937667,0.0,0.0,1.0,0.0,0.0,0.0,0.0,0.0,1.0,0.9640071985602878,0.2776259273721202,0.1099104222948955,0.21376256174416627,0.2943532238686424,0.30491390172196553,0.0609648260955001
0.6080379318130503,0.30468447541618265,0.0,0.0,1.0,0.0,0.0,1.0,0.0,0.0,0.0,0.5170965806838631,0.6977743069113627,0.09313237594198778,0.30488843467893034,0.41950340408490183,0.5443091138177236,0.12924936136765572
0.7188981711447279,0.7295780100658149,0.0,1.0,0.0,0.0,0.0,0.0,1.0,0.0,0.0,0.5152969406118776,0.4096056228035923,0.02872174036684204,0.17458695281894057,0.1511814177012415,0.370012599748005,0.005207309884063668
0.720252878753669,1.0,0.0,1.0,0.0,0.0,0.0,1.0,0.0,0.0,0.0,0.7600479904019195,0.5150331901600936,0.14403526233470781,0.2597513200476921,0.35302362835402484,0.5821083578328433,0.07128119473373944
0.4447956649356513,0.5611691831204026,0.0,0.0,0.0,1.0,0.0,0.0,0.0,0.0,1.0,0.28914217156568683,0.08004685669660287,0.0379638845442912,0.09453244762391418,0.04705646776131357,0.08336833263334732,0.07471998427981921
0.9223300970873786,0.17169957413859852,0.0,0.0,1.0,0.0,0.0,1.0,0.0,0.0,0.0,0.5140971805638872,0.46427176884029675,0.05602161239869188,0.19843297564299098,0.24929915899078894,0.5107097858042838,0.07422872863037924
0.573492887785053,0.13104916763453348,0.0,0.0,1.0,0.0,0.0,0.0,1.0,0.0,0.0,0.277744451109778,0.16360796563842245,0.12043224797383763,0.11173564980412197,0.09511413696435723,0.2566148677026459,0.07889565730005894
0.445698803341612,0.6734417344173441,0.0,0.0,1.0,0.0,1.0,0.0,0.0,0.0,0.0,0.2711457708458308,0.05349472862163216,0.02118583819138348,0.042922841083290746,0.03804565478574289,0.08609827803443931,0.03787581057182158
0.6060058703996386,0.30545876887340295,0.0,0.0,1.0,0.0,0.0,1.0,0.0,0.0,0.0,0.5260947810437911,0.6876220226474034,0.08531210009953079,0.2761028785556124,0.3704445334401282,0.5590088198236035,0.09437021025741797
0.7319936780311582,0.08710801393728221,0.0,0.0,1.0,0.0,0.0,1.0,0.0,0.0,0.0,0.5620875824835032,0.47910972276454505,0.06369970140764966,0.20865269971044118,0.1631958350020024,0.3868122637547249,0.07275496168205935
0.4750508015353353,0.602787456445993,0.0,0.0,1.0,0.0,0.0,0.0,0.0,0.0,1.0,0.16796640671865623,0.05427567356501366,0.09142613393999716,0.06727985011071368,0.03804565478574289,0.11339773204535909,0.0857732363922185
0.8552720704447956,0.5340689121176926,0.0,0.0,1.0,0.0,0.0,1.0,0.0,0.0,0.0,0.4541091781643671,0.44240531042561493,0.06284658040665435,0.252938170669392,0.13916700040048058,0.619907601847963,0.09608960503045784
0.5513659968390154,0.0878823073945025,0.0,1.0,0.0,0.0,0.0,0.0,1.0,0.0,0.0,0.4217156568686262,0.27372120265521277,0.4554244276979952,0.32106966445239316,0.13315979175010012,0.5695086098278034,1.0
0.6997064800180627,0.6792489353464963,0.0,1.0,0.0,0.0,0.0,0.0,1.0,0.0,0.0,0.7960407918416316,0.4463100351425224,0.06711218541163089,0.23249872253449158,0.38946736083299965,0.3343133137337253,0.04892906268422086
0.5400767667645066,0.13801780874951608,0.0,0.0,1.0,0.0,1.0,0.0,0.0,0.0,0.0,0.4187162567486502,0.27606403748535724,0.06355751457415044,0.3064213932890479,0.48358029635562677,0.36581268374632503,0.052613480055020624
0.4375705576879656,0.2121564072783585,0.0,0.0,1.0,0.0,0.0,0.0,1.0,0.0,0.0,0.7360527894421115,0.4814525575946895,0.20944120574434805,0.4334866291943451,0.4805766920304366,0.5401091978160436,0.17444488111613282
0.41589523594490857,0.3664343786295005,0.0,0.0,1.0,0.0,0.0,0.0,0.0,0.0,1.0,0.5116976604679063,0.3775868801249511,0.3160813308687615,0.3633111905978539,0.2603123748498198,0.39731205375892475,0.3048732560424445
0.5594942424926619,0.049167634533488186,0.0,1.0,0.0,0.0,0.0,1.0,0.0,0.0,0.0,0.5956808638272345,0.6204607575165949,0.4926773780747903,0.6016010901039006,0.3594313175810973,0.5716085678286433,0.4529868343485949
0.10837660871528561,0.20363917924893535,0.0,0.0,1.0,0.0,0.0,0.0,1.0,0.0,0.0,0.3893221355728854,0.2581023037875829,0.06028721740366842,0.16607051609606543,0.21625951141369645,0.4477110457790844,0.03836706622126155
0.20343192594265067,0.2559039876113047,0.0,0.0,1.0,0.0,0.0,0.0,1.0,0.0,0.0,0.5386922615476905,0.3518156969933619,0.06753874591212854,0.09964230965763925,0.18321986383660394,0.47501049979000415,0.02387502456278247
0.46263264845337543,0.5412311265969801,0.0,0.0,1.0,0.0,0.0,0.0,1.0,0.0,0.0,0.6298740251949609,0.30495900039047247,0.1241291056448173,0.1609606540623403,0.22527032438926714,0.43091138177236454,0.08380821379445863
0.28155339805825236,0.24138598528842428,0.0,0.0,1.0,0.0,0.0,0.0,1.0,0.0,0.0,0.45470905818836227,0.2784068723155017,0.08147305559505191,0.2171691364333163,0.11013215859030838,0.5443091138177236,0.09879151110237767
0.39557462181079245,0.48528842431281455,0.0,0.0,1.0,0.0,0.0,0.0,1.0,0.0,0.0,0.3989202159568086,0.24638812963686055,0.05445755723020049,0.14852665644694263,0.11413696435722867,0.5380092398152037,0.09608960503045784
0.7146082637164145,0.40766550522648076,1.0,0.0,0.0,0.0,0.0,1.0,0.0,0.0,0.0,0.09598080383923215,0.06598984771573604,0.21939428408929335,0.10304888434678933,0.250300360432519,0.02729945401091978,0.03487915111023776
0.4140889591329871,0.7005420054200541,0.0,0.0,1.0,0.0,1.0,0.0,0.0,0.0,0.0,0.4601079784043191,0.17454119484576333,0.05175600739371535,0.1251916198262647,0.07408890668802563,0.20621587568248634,0.06415798781685988
0.916459697448634,0.17266744096012385,0.0,0.0,1.0,0.0,0.0,1.0,0.0,0.0,0.0,0.6148770245950809,0.5025380710659898,0.08147305559505191,0.20694941236586611,0.3213856627953544,0.5695086098278034,0.08933483985065829
0.8656581621133438,0.17653890824622528,0.0,0.0,1.0,0.0,0.0,0.0,0.0,0.0,1.0,0.35392921415716855,0.22920734088246777,0.06426844874164651,0.13711463123828993,0.08510212254705649,0.5275094498110038,0.09731774415405776
0.7175434635357868,0.7291908633372048,0.0,1.0,0.0,0.0,0.0,0.0,1.0,0.0,0.0,0.45230953809238145,0.3268254588051542,0.05843878856817858,0.1473343553057401,0.3568281938325991,0.36161276774464507,0.029770092356062098
0.3129374576653872,0.1281455671699574,0.0,0.0,1.0,0.0,1.0,0.0,0.0,0.0,0.0,0.2231553689262147,0.08707536118703632,0.09426987060998153,0.06336228921819112,0.037044453344012816,0.11801763964720703,0.1388288465317351
0.5764280876044253,0.11595044521873789,0.0,0.0,1.0,0.0,0.0,0.0,1.0,0.0,0.0,0.41931613677264545,0.3260445138617727,0.0695293615811176,0.23743825583375922,0.09911894273127754,0.5485090298194035,0.0889663981135783
0.5667193497403477,0.3981804103755323,0.0,1.0,0.0,0.0,0.0,1.0,0.0,0.0,0.0,0.6298740251949609,0.39476766887934395,0.0830371107635433,0.24152614546073925,0.8099719663596315,0.42251154976900457,0.02854195323246217
0.5972002709415217,0.30332946186604726,0.0,0.0,1.0,0.0,0.0,1.0,0.0,0.0,0.0,0.47210557888422305,0.5532994923857867,0.07123560358310821,0.22994379151762906,0.19523428113736485,0.6640067198656026,0.08822951463941836
0.48363061639196203,0.6051103368176538,0.0,0.0,1.0,0.0,0.0,0.0,0.0,0.0,1.0,0.2819436112777444,0.0597422881686841,0.11275415896487985,0.15585079202861524,0.05806968362034441,0.08084838303233935,0.07766751817645902
0.7292842628132761,0.719125048393341,0.0,0.0,1.0,0.0,0.0,0.0,1.0,0.0,0.0,0.3395320935812837,0.20109332292073404,0.08005118726005973,0.0911258729347641,0.029034841810172213,0.33851322973540526,0.08872077028885832
0.41589523594490857,0.356755710414247,0.0,0.0,1.0,0.0,0.0,0.0,0.0,0.0,1.0,0.5818836232753448,0.5119094103865677,0.29589080051187266,0.4721512519161983,0.25130156187424907,0.5674086518269634,0.3414718019257221
0.8008579814856627,0.35423925667828104,1.0,0.0,0.0,0.0,0.0,0.0,0.0,1.0,0.0,0.5380923815236952,0.6040609137055837,0.09000426560500498,0.1728836654743655,0.5346415698838607,0.5590088198236035,0.042665553153861266
0.5929103635132084,0.22802942315137434,0.0,0.0,1.0,0.0,0.0,1.0,0.0,0.0,0.0,0.5920815836832632,0.6446700507614213,0.14190245983221955,0.3464486458865611,0.31537845414497395,0.6598068038639227,0.16240911770485358
0.3009708737864078,0.091947348044909,0.0,0.0,1.0,0.0,1.0,0.0,0.0,0.0,0.0,0.22915416916616677,0.09957048028114016,0.13408218398976254,0.08090614886731393,0.006007208650380457,0.11549769004619904,0.1233542935743761
0.5326258749153308,0.2644212156407278,1.0,0.0,0.0,0.0,0.0,1.0,0.0,0.0,0.0,0.11157768446310735,0.09957048028114016,0.1241291056448173,0.016521887242377787,0.24529435322386867,0.06635867282654345,0.03148948712910198
0.4540528335967486,0.6705381339527681,0.0,0.0,1.0,0.0,1.0,0.0,0.0,0.0,0.0,0.23395320935812838,0.06286606794221007,0.013081188681928053,0.03082950093680805,0.021025230276331595,0.11591768164636705,0.10542346236981724
0.2149469406186498,0.1906697638404955,0.0,0.0,1.0,0.0,0.0,0.0,0.0,0.0,1.0,0.8680263947210557,0.3650917610308473,0.11417602729987203,0.21546584908874128,0.26231477773327994,0.3259134817303654,0.07275496168205935
0.34251524046060056,0.15989159891598917,0.0,0.0,1.0,0.0,1.0,0.0,0.0,0.0,0.0,0.43851229754049187,0.13627489262007028,0.05815441490118015,0.1081587463805144,0.07609130957148579,0.18101637967240652,0.07668500687757908
0.5615263039060736,0.6746031746031746,0.0,0.0,1.0,0.0,0.0,0.0,0.0,0.0,1.0,0.31613677264547085,0.20343615775087853,0.023887388027868616,0.10304888434678933,0.08510212254705649,0.26081478370432587,0.029475338966398115
0.26439376834499884,0.17440960123886953,0.0,0.0,1.0,0.0,0.0,0.0,1.0,0.0,0.0,0.5110977804439112,0.2846544318625536,0.22508175742926206,0.22738886050076654,0.15418502202643172,0.5086098278034439,0.25083513460404794
0.24745992323323548,0.10762679055361983,0.0,0.0,1.0,0.0,1.0,0.0,0.0,0.0,0.0,0.3893221355728854,0.18469347910972272,0.12555097397980947,0.12348833248168968,0.09411293552262714,0.18941621167576647,0.13932010218117508
0.7909234590200948,0.6368563685636855,0.0,0.0,1.0,0.0,0.0,0.0,0.0,0.0,1.0,0.6340731853629273,0.5142522452167122,0.21939428408929335,0.2512348833248169,0.4581497797356829,0.6787064258714826,0.1778836706622126
0.5441408895913298,0.8507549361207897,1.0,0.0,0.0,0.0,1.0,0.0,0.0,0.0,0.0,0.379124175164967,0.2526356891839125,0.03597326887530215,0.07238971214443878,0.1351621946335603,0.16211675766484668,0.011839261151503244
0.8995258523368704,0.5811072396438249,0.0,0.0,0.0,1.0,0.0,1.0,0.0,0.0,0.0,0.38872225554889017,0.3588442014837953,0.2137068107493246,0.1950264009538409,0.1633960752903484,0.7207055858882822,0.2174297504421301
0.47166403251298256,0.6058846302748742,0.0,0.0,1.0,0.0,0.0,0.0,0.0,0.0,1.0,0.19316136772645467,0.05193283873486918,0.005403099672970282,0.03593936297053312,0.028033640368442133,0.10499790004199915,0.024120652387502457
0.047414766312937444,0.2851335656213705,1.0,0.0,0.0,0.0,0.0,0.0,1.0,0.0,0.0,0.8620275944811037,0.5900039047247169,0.16394141902459833,0.2597513200476921,0.289347216659992,0.5800083998320033,0.03861269404598153
0.7130277715059832,0.6509872241579558,0.0,0.0,1.0,0.0,0.0,1.0,0.0,0.0,0.0,0.5740851829634073,0.5322139789144864,0.11559789563486422,0.23760858456821668,0.1852222667200641,0.5212095758084838,0.140548241304775
0.4813727703770603,0.06368563685636855,0.0,0.0,1.0,0.0,0.0,0.0,1.0,0.0,0.0,0.6280743851229754,0.49550956657555634,0.14403526233470781,0.34661897462101865,0.4895875050060073,0.5296094078118437,0.1577421890351739
0.18604651162790695,0.28087495160665893,0.0,1.0,0.0,0.0,0.0,0.0,1.0,0.0,0.0,0.7300539892021595,0.5220616946505271,0.13408218398976254,0.2750809061488673,0.709851822186624,0.5023099538009239,0.06685989388877972
0.8884624068638518,0.05749128919860626,0.0,1.0,0.0,0.0,0.0,1.0,0.0,0.0,0.0,0.674865026994601,0.46895743850058563,0.030285795535333428,0.15585079202861524,0.1341609931918302,0.6010079798404031,0.03198074277854195
0.5398509821630164,0.6134339914827719,0.0,0.0,1.0,0.0,0.0,0.0,0.0,0.0,1.0,0.2621475704859028,0.06677079265911753,0.029717048201336554,0.0337250894225856,0.08009611533840609,0.16001679966400667,0.03198074277854195
0.13930909911944006,0.19570267131242738,0.0,1.0,0.0,0.0,0.0,0.0,1.0,0.0,0.0,0.7060587882423515,0.41351034752049975,0.6288923645670411,0.3534321239993187,0.38446135362434924,0.3427131457370852,0.3466299862448418
0.9819372318807857,0.10936895083236545,0.0,1.0,0.0,0.0,0.0,1.0,0.0,0.0,0.0,0.36472705458908217,0.344006247559547,0.06341532774065123,0.16947709078521547,0.08410092110532641,0.45821083578328425,0.044507761839261153
0.22059155565590424,0.3228803716608595,0.0,1.0,0.0,0.0,0.0,0.0,1.0,0.0,0.0,0.8140371925614877,0.5603279968762201,0.09142613393999716,0.23590529722364167,0.27533039647577096,0.49181016379672404,0.044999017488701124
0.412734251524046,0.6927990708478512,0.0,0.0,1.0,0.0,1.0,0.0,0.0,0.0,0.0,0.49010197960407914,0.17454119484576333,0.057585667567183293,0.1081587463805144,0.08910692831397676,0.20621587568248634,0.10419532324621732
0.6985775570106117,0.6806039488966318,0.0,1.0,0.0,0.0,0.0,0.0,1.0,0.0,0.0,0.7180563887222555,0.46427176884029675,0.16820702402957485,0.31595980241866806,0.3674409291149379,0.33851322973540526,0.1294949891923757
0.7125762023030028,0.6314363143631436,0.0,0.0,1.0,0.0,0.0,1.0,0.0,0.0,0.0,0.3959208158368326,0.3705583756345177,0.185269444049481,0.2801907681825924,0.1261513816579896,0.6451070978580428,0.23609746512084887
0.4107021901106344,0.4274099883855981,0.0,1.0,0.0,0.0,0.0,1.0,0.0,0.0,0.0,0.5350929814037192,0.4150722374072627,0.07294184558509884,0.23011412025208658,0.12014417300760913,0.5863082738345233,0.08675574769109844
0.7836983517724091,0.28745644599303133,0.0,0.0,1.0,0.0,0.0,1.0,0.0,0.0,0.0,0.6028794241151769,0.6329558766106989,0.21228494241433246,0.3381025378981435,0.26231477773327994,0.5695086098278034,0.24174690508940852
0.6726123278392413,0.9738675958188152,0.0,1.0,0.0,0.0,0.0,1.0,0.0,0.0,0.0,0.6280743851229754,0.5408043732916828,0.10564481728991895,0.16607051609606543,0.420304365238286,0.626207475850483,0.055069758302220474
0.3043576428087604,0.09117305458768872,0.0,0.0,1.0,0.0,1.0,0.0,0.0,0.0,0.0,0.32333533293341327,0.1589222959781335,0.13123844731977818,0.13200476920456483,0.01802162595114137,0.14111717765644688,0.1484083316958145
0.27432829081056664,0.1240805265195509,0.0,0.0,1.0,0.0,1.0,0.0,0.0,0.0,0.0,0.2561487702459508,0.13080827801639983,0.14972273567467653,0.1592573667177653,0.1211453744493392,0.14741705165896682,0.13489880133621535
0.5154662452020772,0.19744483159117304,0.0,1.0,0.0,0.0,0.0,0.0,1.0,0.0,0.0,0.5848830233953208,0.3643108160874658,0.09611829944547134,0.27780616590018736,0.3564277132559071,0.36161276774464507,0.0968264885046178
0.6778053736735153,0.884243128145567,0.0,1.0,0.0,0.0,1.0,0.0,0.0,0.0,0.0,0.7360527894421115,0.36040609137055835,0.055595051898194234,0.46584908874127073,0.6579895875050059,0.43301133977320455,0.06907054431125959
0.2718446601941748,0.5232288037166085,1.0,0.0,0.0,0.0,1.0,0.0,0.0,0.0,0.0,0.4763047390521895,0.37992971495509564,0.13507749182425707,0.30863566683699545,0.3404084901882259,0.22721545569088614,0.044999017488701124
0.47527658613682544,0.5203252032520325,0.0,1.0,0.0,0.0,0.0,0.0,1.0,0.0,0.0,0.695860827834433,0.3908629441624365,0.09412768377648228,0.39703628002043945,0.7729275130156188,0.37211255774884505,0.07594812340341914
0.3174531496951908,0.13472706155632982,0.0,0.0,1.0,0.0,1.0,0.0,0.0,0.0,0.0,0.19376124775044987,0.05427567356501366,0.02957486136783734,0.009368080395162662,0.025030036043251904,0.10121797564048718,0.034928276675181766
0.35944908557236394,0.22667440960123886,1.0,0.0,0.0,0.0,0.0,1.0,0.0,0.0,0.0,0.3893221355728854,0.2869972666926981,0.13408218398976254,0.12689490717083973,0.06107328794553464,0.23351532969340613,0.04745529573590096
0.5057575073379995,0.4796747967479674,1.0,0.0,0.0,0.0,0.0,1.0,0.0,0.0,0.0,0.3599280143971205,0.3697774306911363,0.04891227072373098,0.14035087719298248,0.07008410092110533,0.39101217975640484,0.018716840243662797
0.851885301422443,0.5549748354626403,0.0,0.0,1.0,0.0,0.0,1.0,0.0,0.0,0.0,0.43971205758848225,0.4486528699726669,0.4141902459832219,0.45903593936297066,0.5392470965158189,0.504409911801764,0.46453134211043423
0.7453149695190787,0.4225706542779713,1.0,0.0,0.0,0.0,0.0,1.0,0.0,0.0,0.0,0.35392921415716855,0.29558766106989454,0.09569173894497371,0.12859819451541477,0.24929915899078894,0.34691306173876524,0.017734328944782867
0.654549559720027,0.10143244289585752,0.0,1.0,0.0,0.0,0.0,1.0,0.0,0.0,0.0,0.5938812237552489,0.5337758688012495,0.13721029432674536,0.41866802929654234,0.3053664397276732,0.44981100377992433,0.12924936136765572
0.6080379318130503,0.8809523809523809,0.0,0.0,1.0,0.0,0.0,0.0,1.0,0.0,0.0,0.45650869826034784,0.2799687622022647,0.017773354187402248,0.12178504513711465,0.11013215859030838,0.2902141957160857,0.04794655138534093
0.7118988484985324,0.4167634533488192,1.0,0.0,0.0,0.0,0.0,1.0,0.0,0.0,0.0,0.5110977804439112,0.41272940257711827,0.11559789563486422,0.13370805654913984,0.1591910292350821,0.4204115917681646,0.019773039889958734
0.6802890042899074,0.8915989159891599,0.0,1.0,0.0,0.0,1.0,0.0,0.0,0.0,0.0,0.5386922615476905,0.3182350644279578,0.06441063557514573,0.4709589507749958,1.0,0.370012599748005,0.06882491648653959
0.39534883720930225,0.4862562911343399,0.0,0.0,1.0,0.0,0.0,0.0,1.0,0.0,0.0,0.3449310137972405,0.20968371729793048,0.054741930897198914,0.13507068642479989,0.11814177012414898,0.4603107937841243,0.0825800746708587
0.6414540528335967,0.7944250871080138,0.0,1.0,0.0,0.0,0.0,0.0,0.0,0.0,1.0,0.48890221955608876,0.2971495509566575,0.14403526233470781,0.24782830863566688,0.1211453744493392,0.1558168836623267,0.5676950284928276
0.6789342966809664,0.5172280294231514,0.0,1.0,0.0,0.0,0.0,1.0,0.0,0.0,0.0,0.442111577684463,0.4088246778602108,0.0624200199061567,0.1728836654743655,0.17120544653584302,0.7123057538849222,0.0672283356258597
0.31429216527432824,0.12620983352690668,0.0,0.0,1.0,0.0,1.0,0.0,0.0,0.0,0.0,0.27714457108578283,0.10816087465833656,0.1099104222948955,0.07749957417816387,0.012014417300760914,0.12431751364972699,0.13244252308901552
0.6391962068186949,0.47948122338366234,0.0,0.0,1.0,0.0,0.0,0.0,0.0,0.0,1.0,0.4751049790041991,0.41272940257711827,0.09142613393999716,0.2393118719127917,0.24128954745694836,0.6703065938681226,0.13354784830025546
0.12553623842853914,0.27061556329849007,0.0,1.0,0.0,0.0,0.0,0.0,1.0,0.0,0.0,0.6040791841631673,0.40101522842639586,0.11844163230484857,0.24782830863566688,0.22126551862234684,0.6640067198656026,0.0906857928866182
0.7568299841950779,0.5027100271002709,0.0,0.0,1.0,0.0,0.0,0.0,0.0,0.0,1.0,0.5428914217156569,0.6501366653650917,0.09142613393999716,0.2597513200476921,0.341409691629956,0.48551028979420413,0.18279622715661228
0.18288552720704446,0.014518002322880362,0.0,0.0,0.0,1.0,0.0,0.0,1.0,0.0,0.0,0.4427114577084583,0.31276844982428736,0.16394141902459833,0.21376256174416627,0.1551862234681618,0.613607727845443,0.10837099626645705
0.13885752991645972,0.19821912504839334,0.0,1.0,0.0,0.0,0.0,0.0,1.0,0.0,0.0,0.7420515896820634,0.34088246778602105,0.16536328735959052,0.17118037812979053,0.2272727272727273,0.3994120117597648,0.09559834938101788
0.14066380672838114,0.19570267131242738,0.0,1.0,0.0,0.0,0.0,0.0,1.0,0.0,0.0,0.8320335932813436,0.4720812182741116,0.738376226361439,0.4913983989098962,0.2693231878253905,0.39731205375892475,0.6340145411672233
0.23030029351998194,0.04065040650406503,0.0,1.0,0.0,0.0,1.0,0.0,0.0,0.0,0.0,0.6580683863227355,0.390081999219055,0.16251955068960616,0.19672968829841597,0.2222667200640769,0.33011339773204534,0.1172135979563765
0.18649808083088731,0.18912117692605493,0.0,0.0,1.0,0.0,0.0,0.0,0.0,0.0,1.0,0.5920815836832632,0.3447871925029285,0.16962889236456707,0.2972236416283427,0.250300360432519,0.2566148677026459,0.7199842798192178
0.2140438022126891,0.19337979094076652,0.0,0.0,1.0,0.0,0.0,0.0,0.0,0.0,1.0,0.7720455908818236,0.28387348691917214,0.11986350063984075,0.21546584908874128,0.3173808570284341,0.2986140277194456,0.07889565730005894
0.26191013772860694,0.12253193960511033,0.0,0.0,0.0,1.0,1.0,0.0,0.0,0.0,0.0,0.262747450509898,0.12456071846934788,0.09853547561495805,0.10475217169136435,0.07809371245494594,0.122217555648887,0.13956573000589506
0.2731993678031158,0.1248548199767712,0.0,0.0,1.0,0.0,1.0,0.0,0.0,0.0,0.0,0.3023395320935813,0.13783678250683323,0.11986350063984075,0.08771929824561404,0.11113336003203844,0.14111717765644688,0.08282570249557869
0.30842176563558366,0.02613240418118467,0.0,1.0,0.0,0.0,0.0,0.0,1.0,0.0,0.0,0.7420515896820634,0.4385005857087075,0.3530499075785582,0.42497019247146994,0.6798157789347216,0.4477110457790844,0.38347415995283946
0.19304583427410252,0.2768099109562524,0.0,1.0,0.0,0.0,0.0,0.0,1.0,0.0,0.0,0.5356928614277144,0.35650136665365084,0.06910280108061993,0.18821325157554084,0.1591910292350821,0.4729105417891642,0.033454509726861856
0.19485211108602393,0.27913279132791324,0.0,1.0,0.0,0.0,0.0,0.0,1.0,0.0,0.0,0.6040791841631673,0.4299101913315111,0.06981373524811603,0.1473343553057401,0.2062474969963957,0.48131037379252417,0.031243859304382005
0.19394897268006323,0.27990708478513354,0.0,1.0,0.0,0.0,0.0,0.0,1.0,0.0,0.0,0.8620275944811037,0.4900429519718859,0.16394141902459833,0.3278828138306933,0.7358830596716059,0.44981100377992433,0.08822951463941836
0.325355610747347,0.09291521486643436,0.0,0.0,1.0,0.0,1.0,0.0,0.0,0.0,0.0,0.17636472705458905,0.06364701288559156,0.06512156974264183,0.03219213081246808,0.0,0.1558168836623267,0.04229711141678129
0.3039060736057801,0.09930313588850172,0.0,0.0,1.0,0.0,1.0,0.0,0.0,0.0,0.0,0.29514097180563886,0.12065599375244043,0.09995734394995023,0.08090614886731393,0.016019223067681217,0.122217555648887,0.12212615445077618
0.2707157371867238,0.2582268679829655,0.0,0.0,1.0,0.0,0.0,0.0,1.0,0.0,0.0,0.5308938212357528,0.3978914486528699,0.12839471064979383,0.2835973428717425,0.32839407288746497,0.5989080218395633,0.1609353507565337
0.27748927523142924,0.25338753387533874,0.0,0.0,1.0,0.0,0.0,0.0,1.0,0.0,0.0,0.4253149370125974,0.2729402577118313,0.11133229062988767,0.22057571112246638,0.09010812975570684,0.5275094498110038,0.1277755944193358
0.23752540076766765,0.38966318234610914,0.0,0.0,1.0,0.0,0.0,1.0,0.0,0.0,0.0,0.6280743851229754,0.5220616946505271,0.11986350063984075,0.3363992505535684,0.28594313175810976,0.4645107097858043,0.14226763607781487
0.42041092797471213,0.14518002322880372,0.0,0.0,1.0,0.0,1.0,0.0,0.0,0.0,0.0,0.18116376724655067,0.04334244435767278,0.04933883122422865,0.054845852495315976,0.028033640368442133,0.14531709365812684,0.028787581057182158
0.31564687288326937,0.37514518002322883,1.0,0.0,0.0,0.0,0.0,1.0,0.0,0.0,0.0,0.6760647870425914,0.5673565013666536,0.16536328735959052,0.22738886050076654,0.4745694833800561,0.4540109197816043,0.052859107879740616
0.41454052833596744,0.3664343786295005,0.0,0.0,1.0,0.0,0.0,0.0,0.0,0.0,1.0,0.5458908218356328,0.4025771183131589,0.347646807905588,0.41730539942088235,0.250300360432519,0.42671146577068453,0.3387698958538023
0.45450440279972903,0.2789392179636082,0.0,1.0,0.0,0.0,0.0,1.0,0.0,0.0,0.0,0.5776844631073785,0.4619289340101522,0.15526802218114602,0.2355646397547266,0.33139767721265523,0.46661066778664423,0.10051090587541757
0.475953939941296,0.2849399922570654,0.0,0.0,1.0,0.0,0.0,1.0,0.0,0.0,0.0,0.5962807438512296,1.0,0.5454286933030001,0.46363481519332317,0.3964757709251102,0.6094078118437631,0.35473570446060126
0.46737412508466913,0.28261711188540456,0.0,1.0,0.0,0.0,0.0,1.0,0.0,0.0,0.0,0.7204559088182363,0.7992971495509567,0.15811175885113038,0.22313064213932896,0.29935923107729273,0.630407391852163,0.08921202593829827
0.54436667419282,0.14305071622144788,0.0,0.0,1.0,0.0,1.0,0.0,0.0,0.0,0.0,0.5374925014997,0.4033580632565404,0.050618512725721605,0.3265201839550333,0.8730476571886264,0.4603107937841243,0.04106897229318137
0.5856852562655226,0.1335656213704994,0.0,0.0,1.0,0.0,0.0,0.0,1.0,0.0,0.0,0.22795440911817633,0.18156969933619677,0.17673823403952796,0.2606029637199796,0.1261513816579896,0.3217135657286854,0.20907840440165062
0.5768796568074056,0.13182346109175377,0.0,0.0,1.0,0.0,0.0,0.0,1.0,0.0,0.0,0.274745050989802,0.2221788363920343,0.05004976539172472,0.08090614886731393,0.05306367641169404,0.504409911801764,0.03713892709766162
0.572138180176112,0.13104916763453348,0.0,0.0,1.0,0.0,0.0,0.0,1.0,0.0,0.0,0.22795440911817633,0.10191331511128465,0.07649651642257928,0.0797138477261114,0.037044453344012816,0.21251574968500628,0.05752603654942032
0.34974034770828627,0.5089043747580333,0.0,0.0,1.0,0.0,1.0,0.0,0.0,0.0,0.0,0.19856028794241148,0.12221788363920341,0.08246836342954644,0.11173564980412197,0.10412494993992792,0.18101637967240652,0.08380821379445863
0.39354256039738084,0.42837785520712346,0.0,1.0,0.0,0.0,0.0,1.0,0.0,0.0,0.0,0.5392921415716856,0.4385005857087075,0.10351201478743068,0.196389030829501,0.19523428113736485,0.6850062998740024,0.04131460011790135
0.3903815759765184,0.4274099883855981,0.0,1.0,0.0,0.0,0.0,1.0,0.0,0.0,0.0,0.6022795440911817,0.42756735650136657,0.09142613393999716,0.1587463805143928,0.12715258309971966,0.5632087358252834,0.07643937905285911
0.39128471438247914,0.4266356949283779,0.0,1.0,0.0,0.0,0.0,1.0,0.0,0.0,0.0,0.6526694661067787,0.49707145646231937,0.07948243992606285,0.257707375234202,0.2142571085302363,0.6430071398572028,0.04794655138534093
0.47166403251298256,0.34591560201316296,0.0,1.0,0.0,0.0,0.0,1.0,0.0,0.0,0.0,0.5524895020995799,0.4283483014447481,0.11574008246836344,0.22381195707715895,0.2843412094513416,0.3826123477530449,0.07275496168205935
0.3980582524271844,0.4879984514130855,0.0,0.0,1.0,0.0,0.0,0.0,1.0,0.0,0.0,0.35692861427714456,0.21905505661850835,0.126546281814304,0.17850451371146314,0.08810572687224669,0.42671146577068453,0.17346236981725288
0.48882366222623613,0.4126984126984127,0.0,0.0,1.0,0.0,0.0,1.0,0.0,0.0,0.0,0.34193161367726455,0.31276844982428736,0.42613393999715626,0.28308635666837,0.07809371245494594,0.5758084838303233,0.46453134211043423
0.4655678482727477,0.5400696864111498,0.0,0.0,1.0,0.0,0.0,0.0,1.0,0.0,0.0,0.5308938212357528,0.26825458805154234,0.06867624058012228,0.1495486288536876,0.17120544653584302,0.38051238975220497,0.035173904499901744
0.46218107925039503,0.5400696864111498,0.0,0.0,1.0,0.0,0.0,0.0,1.0,0.0,0.0,0.7090581883623275,0.299492385786802,0.25479880563059865,0.24101515925736672,0.30436523828594314,0.3889122217555649,0.171742975044213
0.4314743734477308,0.6687959736740224,0.0,0.0,1.0,0.0,1.0,0.0,0.0,0.0,0.0,0.4019196160767846,0.12143693869582191,0.029432674534338125,0.07749957417816387,0.07609130957148579,0.13271734565308693,0.058754175673020236
0.44366674192820044,0.6709252806813782,0.0,0.0,1.0,0.0,1.0,0.0,0.0,0.0,0.0,0.3449310137972405,0.05739945333853962,0.03199203753732405,0.051779935275080895,0.04305166199439327,0.09029819403611926,0.04942031833366083
0.4619552946489049,0.6279519938056523,0.0,0.0,1.0,0.0,1.0,0.0,0.0,0.0,0.0,0.2231553689262147,0.07223740726278796,0.029006114033840468,0.030148185998978023,0.019022827392871446,0.11759764804703904,0.031735114953821975
0.4725671709189433,0.6049167634533488,0.0,0.0,1.0,0.0,0.0,0.0,0.0,0.0,1.0,0.22015596880623872,0.07067551737602498,0.10564481728991895,0.08431272355646398,0.03404084901882259,0.11381772364552709,0.08331695814501867
0.7667645066606457,0.22048006194347655,0.0,0.0,1.0,0.0,0.0,1.0,0.0,0.0,0.0,0.5608878224355128,0.5939086294416243,0.1355040523247547,0.258048032703117,0.2803364036844213,0.7165056698866021,0.15995283945765376
0.8853014224429893,0.1091753774680604,0.0,0.0,1.0,0.0,0.0,0.0,0.0,0.0,1.0,0.5428914217156569,0.47676688793440053,0.1028010806199346,0.23760858456821668,0.27933520224269126,0.8488030239395211,0.08700137551581842
0.5202077218333709,0.6041424699961285,0.0,0.0,1.0,0.0,0.0,0.0,0.0,0.0,1.0,0.20995800839832032,0.08473252635689182,0.06782311957912697,0.009027422926247664,0.03303964757709251,0.14111717765644688,0.06047357044606013
0.5296906750959585,0.6107239643825009,0.0,0.0,1.0,0.0,0.0,0.0,0.0,0.0,1.0,0.2909418116376724,0.11753221397891446,0.01379212284942414,0.027593254982115487,0.05806968362034441,0.1852162956740865,0.006926704657103554
0.5285617520885074,0.6101432442895858,0.0,0.0,1.0,0.0,0.0,0.0,0.0,0.0,1.0,0.34193161367726455,0.19172198360015616,0.0009953078344945299,0.0166922159768353,0.04505406487785342,0.26921461570768584,0.005452937708783653
0.6617746669677128,0.4504452187379016,0.0,0.0,1.0,0.0,0.0,0.0,1.0,0.0,0.0,0.5308938212357528,0.4728621632174931,0.18384757571448887,0.2972236416283427,0.15318382058470165,0.4183116337673246,0.2790823344468461
0.722736509370061,0.3689508323654665,1.0,0.0,0.0,0.0,0.0,1.0,0.0,0.0,0.0,0.24115176964607074,0.1323701679031628,0.08573866060002842,0.026230625106455463,0.2953544253103725,0.18101637967240652,0.036156415798781684
0.867012869722285,0.17905536198219124,0.0,0.0,1.0,0.0,0.0,0.0,0.0,0.0,1.0,0.388122375524895,0.3268254588051542,0.06824968007962463,0.15414750468404023,0.1631958350020024,0.5485090298194035,0.0985458832776577
0.8674644389252653,0.1802168021680217,0.0,0.0,1.0,0.0,0.0,0.0,0.0,0.0,1.0,0.397120575884823,0.2877782116360796,0.1582539456846296,0.18140010219724068,0.13716459751702043,0.4603107937841243,0.17530457850265277
0.9056220365771054,0.12446767324816105,0.0,0.0,1.0,0.0,0.0,0.0,0.0,0.0,1.0,0.3761247750449909,0.35415853182350643,0.06540594340964026,0.15585079202861524,0.14517420905086104,0.5548089038219235,0.0561750835134604
0.6179724542786181,0.5987224157955865,0.0,0.0,1.0,0.0,0.0,1.0,0.0,0.0,0.0,0.6610677864427114,0.4299101913315111,0.21939428408929335,0.27678419349344235,0.3404084901882259,0.6178076438471231,0.26016899194340737
0.7398961390833144,0.43573364305071616,1.0,0.0,0.0,0.0,0.0,1.0,0.0,0.0,0.0,0.3449310137972405,0.30339711050370943,0.04692165505474193,0.08601601090103903,0.017020424509411294,0.48551028979420413,0.019158970328158772
0.7398961390833144,0.41637630662020897,1.0,0.0,0.0,0.0,0.0,1.0,0.0,0.0,0.0,0.5698860227954409,0.5236235845372901,0.09995734394995023,0.13541134389371487,0.19223067681217462,0.5548089038219235,0.01626056199646296
0.7466696771280198,0.4200542005420054,1.0,0.0,0.0,0.0,0.0,1.0,0.0,0.0,0.0,0.442111577684463,0.33463490823896913,0.11559789563486422,0.12348833248168968,0.1722066479775731,0.42671146577068453,0.01122519158970328
0.9254910815082411,0.17228029423151373,0.0,0.0,1.0,0.0,0.0,1.0,0.0,0.0,0.0,0.47810437912417514,0.3893010542756735,0.042940423716763834,0.16947709078521547,0.16519823788546256,0.5338093238135238,0.07889565730005894
0.9212011740799277,0.17092528068137824,0.0,0.0,1.0,0.0,0.0,1.0,0.0,0.0,0.0,0.5296940611877624,0.47676688793440053,0.07009810891511446,0.1950264009538409,0.2533039647577092,0.48131037379252417,0.0717724503831794
0.9604876947392188,0.16415021293070073,0.0,0.0,1.0,0.0,0.0,1.0,0.0,0.0,0.0,0.4847030593881223,0.4236626317844591,0.05488411773069813,0.17629024016351563,0.11113336003203844,0.5464090718185637,0.07914128512477894
0.9701964326032966,0.2173828881145954,0.0,0.0,1.0,0.0,0.0,1.0,0.0,0.0,0.0,0.46130773845230943,0.48301444748145245,0.04976539172472629,0.16266394140691537,0.1171405686824189,0.38051238975220497,0.048192179210060915
0.5606231655001129,0.854239256678281,0.0,1.0,0.0,0.0,1.0,0.0,0.0,0.0,0.0,0.4967006598680263,0.38149160484185857,0.06256220673965592,0.22398228581161642,0.42551061273528235,0.22721545569088614,0.05580664177638043
0.5911040867012869,0.8139759969028262,0.0,0.0,1.0,0.0,1.0,0.0,0.0,0.0,0.0,0.2903419316136772,0.1347130027333073,0.03512014787430684,0.0740929994890138,0.10212254705646777,0.08252834943301134,0.029770092356062098
0.5755249491984646,0.810878823073945,0.0,0.0,1.0,0.0,1.0,0.0,0.0,0.0,0.0,0.3095380923815237,0.14408434205388518,0.02602019053035689,0.04956566172713338,0.09911894273127754,0.11108777824443511,0.02264688543918255
0.7739896139083314,0.5694928377855207,0.0,0.0,1.0,0.0,0.0,0.0,0.0,0.0,1.0,0.3761247750449909,0.30261616556032794,0.03526233470780606,0.14392778061659003,0.14517420905086104,0.43091138177236454,0.05678915307526037
0.8349514563106796,0.4879984514130855,0.0,0.0,1.0,0.0,0.0,0.0,0.0,1.0,0.0,0.6460707858428314,0.3580632565404139,0.17389449736954357,0.27848748083801744,0.302362835402483,0.3427131457370852,0.1967970131656514
0.7137051253104538,0.7332559039876113,1.0,0.0,0.0,0.0,0.0,0.0,1.0,0.0,0.0,0.7180563887222555,0.5025380710659898,0.13266031565477038,0.31084994038494296,0.6035242290748899,0.48131037379252417,0.028787581057182158
0.768344998871077,0.6351142082849399,0.0,0.0,1.0,0.0,0.0,0.0,0.0,0.0,1.0,0.38512297540491897,0.35415853182350643,0.25778472913408224,0.23079543518991658,0.08350020024028836,0.6703065938681226,0.28522303006484573
0.773538044705351,0.6289198606271776,0.0,0.0,1.0,0.0,0.0,0.0,0.0,0.0,1.0,0.4055188962207558,0.396329558766107,0.08858239727001281,0.19843297564299098,0.2869443331998398,0.630407391852163,0.09117704853605815
0.7753443215172724,0.6300813008130081,0.0,0.0,1.0,0.0,0.0,0.0,0.0,0.0,1.0,0.388122375524895,0.3713393205778992,0.039101379212284945,0.1473343553057401,0.14417300760913096,0.6661066778664426,0.048192179210060915
0.8491758862045607,0.5358110723964382,0.0,0.0,1.0,0.0,0.0,1.0,0.0,0.0,0.0,0.3401319736052789,0.39554861382272544,0.16678515569458266,0.20865269971044118,0.1197436924309171,0.5380092398152037,0.21890351739045
0.8582072702641679,0.535423925667828,0.0,0.0,1.0,0.0,0.0,1.0,0.0,0.0,0.0,0.4253149370125974,0.5204998047637641,0.12128536897483293,0.3653551354113439,0.38946736083299965,0.5443091138177236,0.41786205541363713
0.8561752088507564,0.5331010452961672,0.0,0.0,1.0,0.0,0.0,1.0,0.0,0.0,0.0,0.5068986202759447,0.47832877782116356,0.05687473339968719,0.27678419349344235,0.14197036443732478,0.6472070558588828,0.10738848496757712
0.6861594039286519,0.8662408052651954,1.0,0.0,0.0,0.0,1.0,0.0,0.0,0.0,0.0,0.46790641871625677,0.28855915657946113,0.046068534053746626,0.13541134389371487,0.0710853023628354,0.3091138177236455,0.006681076832383569
0.8080830887333483,0.7032520325203252,0.0,0.0,1.0,0.0,0.0,0.0,1.0,0.0,0.0,0.6640671865626874,0.5165950800468566,0.11133229062988767,0.2801907681825924,0.3566279535442531,0.6724065518689626,0.2582039693456475
0.9300067735380448,0.5402632597754549,1.0,0.0,0.0,0.0,0.0,1.0,0.0,0.0,0.0,0.41151769646070785,0.3658727059742287,0.10422294895492677,0.09282916027933913,0.250100120144173,0.5842083158336833,0.024120652387502457
0.7030932490404154,0.9332171893147502,0.0,0.0,1.0,0.0,0.0,0.0,1.0,0.0,0.0,0.3923215356928614,0.3041780554470909,0.058012228067680936,0.14052120592743997,0.14297156587905488,0.3931121377572448,0.09117704853605815
0.492436215850079,0.5873015873015872,0.0,0.0,1.0,0.0,0.0,0.0,0.0,0.0,1.0,0.5068986202759447,0.32448262397500977,0.06938717474761838,0.17118037812979053,0.28734481377653187,0.35321293574128515,0.09240518765965809
0.7945360126439376,0.810878823073945,0.0,1.0,0.0,0.0,1.0,0.0,0.0,0.0,0.0,0.7480503899220156,0.4283483014447481,0.02801080619934594,0.2835973428717425,0.21385662795354426,0.5485090298194035,0.058262920023580266
0.5533980582524272,0.5058072009291521,0.0,1.0,0.0,0.0,0.0,0.0,0.0,0.0,1.0,0.30113977204559084,0.24638812963686055,0.025593630029859232,0.06898313745528872,0.0710853023628354,0.49181016379672404,0.012821772450383176
0.20727026416798375,0.4305071622144793,0.0,0.0,1.0,0.0,0.0,0.0,1.0,0.0,0.0,0.35752849430113975,0.24716907458024207,0.04436229205175601,0.1081587463805144,0.11153384060873046,0.3448131037379252,0.04156022794262134
0.7873109053962519,0.4618660472319009,1.0,0.0,0.0,0.0,0.0,1.0,0.0,0.0,0.0,0.4823035392921415,0.47676688793440053,0.06768093274562775,0.16266394140691537,0.3233880656788146,0.39731205375892475,0.029524464531342106
0.7629261684353127,0.04607046070460704,0.0,1.0,0.0,0.0,0.0,0.0,1.0,0.0,0.0,0.4289142171565687,0.21749316673174537,0.04322479738376227,0.10338954181570433,0.11013215859030838,0.5338093238135238,0.0452446453134211
0.44118311131180843,0.386566008517228,0.0,0.0,1.0,0.0,0.0,1.0,0.0,0.0,0.0,0.6856628674265146,0.5767278406872315,0.17574292620503343,0.3309487310509283,0.15718862635162195,0.4729105417891642,0.16412851247789348
0.7532174305712349,0.32810685249709637,1.0,0.0,0.0,0.0,0.0,1.0,0.0,0.0,0.0,0.29514097180563886,0.24482623975009757,0.12697284231480166,0.20183955033214107,0.39747697236684026,0.25241495170096595,0.023334643348398507
0.45089184917588615,0.10452961672473868,0.0,0.0,1.0,0.0,1.0,0.0,0.0,0.0,0.0,0.42111577684463103,0.27606403748535724,0.09995734394995023,0.13881791858286496,0.07208650380456548,0.36581268374632503,0.08307133032029868
0.26078121472115595,0.0,0.0,1.0,0.0,0.0,0.0,1.0,0.0,0.0,0.0,0.5092981403719256,0.4541194845763373,0.12981657898478602,0.21887242377789137,0.1852222667200641,0.6766064678706425,0.09412458243269796
0.5972002709415217,0.3573364305071622,1.0,0.0,0.0,0.0,0.0,0.0,0.0,1.0,0.0,0.4469106178764246,0.2526356891839125,0.059007535902175466,0.03236245954692558,0.13115738886663997,0.19151616967660645,0.002628217724503831
0.7335741702415896,0.8923732094463802,1.0,0.0,0.0,0.0,1.0,0.0,0.0,0.0,0.0,0.5356928614277144,0.4345958609918,0.04080762121427556,0.13541134389371487,0.1275530636764117,0.4876102477950441,0.02829632540774219
0.26800632196884167,0.3490127758420441,0.0,0.0,1.0,0.0,0.0,0.0,1.0,0.0,0.0,0.5116976604679063,0.3978914486528699,0.19095691738944975,0.35513541134389376,0.210853023628354,0.42671146577068453,0.17076046374533305
0.882366222623617,0.5141308555942702,0.0,0.0,1.0,0.0,0.0,0.0,0.0,1.0,0.0,0.46850629874025196,0.5509566575556423,0.32034693587373814,0.5612331800374725,0.29635562675210253,0.5464090718185637,0.5382196895264295
0.7776021675321743,0.7440960123886953,0.0,0.0,1.0,0.0,0.0,0.0,1.0,0.0,0.0,0.5620875824835032,0.4564623194064818,0.09569173894497371,0.34150911258729355,0.578293952743292,0.5884082318353633,0.09928276675181763
0.6410024836306163,0.20905923344947736,0.0,0.0,1.0,0.0,0.0,0.0,1.0,0.0,0.0,0.7930413917216557,0.45724326434986323,0.44675103085454293,0.5212059274399592,0.43652382859431316,0.43931121377572446,0.6728237374729809
0.6922555881688868,0.40960123886953154,1.0,0.0,0.0,0.0,0.0,1.0,0.0,0.0,0.0,0.33593281343731246,0.3307301835220617,0.12697284231480166,0.142224493272015,0.5036043251902282,0.3826123477530449,0.053718805266260564
0.1998193723188078,0.08149438637243514,0.0,0.0,1.0,0.0,1.0,0.0,0.0,0.0,0.0,0.5920815836832632,0.42053885201093316,0.2691596758140196,0.6395843978879238,0.7298758510212254,0.42671146577068453,0.1793574376105325
0.3461277940844434,0.33430120015485865,0.0,0.0,1.0,0.0,0.0,0.0,1.0,0.0,0.0,0.5200959808038391,0.41272940257711827,0.43836200767808897,0.42497019247146994,0.33440128153784543,0.5800083998320033,0.3196109255256435
0.6364867916008128,0.7878435927216415,0.0,0.0,1.0,0.0,0.0,0.0,0.0,0.0,1.0,0.5560887822435512,0.40101522842639586,0.26631593914403523,0.3568386986884688,0.289347216659992,0.22301553968920615,0.3245234820200432
0.8141792729735832,0.24661246612466123,0.0,0.0,0.0,1.0,0.0,1.0,0.0,0.0,0.0,0.6250749850029993,0.6587270597422882,0.09853547561495805,0.27678419349344235,0.3594313175810973,0.6430071398572028,0.09670367459225782
0.4143147437344773,0.6018195896244676,0.0,0.0,1.0,0.0,1.0,0.0,0.0,0.0,0.0,0.2519496100779844,0.08395158141351035,0.047063841888241156,0.06693919264179868,0.05606728073688426,0.042419151616967646,0.0906857928866182
0.6825468503048091,0.6918312040263259,0.0,1.0,0.0,0.0,0.0,0.0,1.0,0.0,0.0,0.3401319736052789,0.1885982038266302,0.03042798236883264,0.10645545903593938,0.10812975570684823,0.2629147417051658,0.034928276675181766
0.6044253781892075,0.7063492063492063,0.0,0.0,1.0,0.0,1.0,0.0,0.0,0.0,0.0,0.3485302939412117,0.2620070285044904,0.04123418171477322,0.11667518310338955,0.12214657589106928,0.12578748425031497,0.030506975830222046
0.8582072702641679,0.09969028261711185,0.0,0.0,1.0,0.0,0.0,0.0,0.0,0.0,1.0,0.36292741451709654,0.3635298711440843,0.06327314090715198,0.16266394140691537,0.2573087705246295,0.5023099538009239,0.093633326783258
0.5290133212914879,0.08981804103755323,0.0,1.0,0.0,0.0,0.0,0.0,1.0,0.0,0.0,0.6880623875224955,0.4603670441233892,0.1241291056448173,0.3568386986884688,0.25830997196635963,0.7186056278874422,0.05998231479662016
0.8923007450891848,0.23209446380178086,0.0,1.0,0.0,0.0,0.0,0.0,0.0,0.0,1.0,0.47210557888422305,0.344006247559547,0.10564481728991895,0.23590529722364167,0.2352823388065679,0.5863082738345233,0.08687856160345843
0.6753217430571234,0.3428184281842818,0.0,1.0,0.0,0.0,0.0,1.0,0.0,0.0,0.0,0.5578884223155369,0.5626708317063647,1.0,0.711122466360075,0.3263916700040048,0.4603107937841243,0.7580565926508154
0.7166403251298261,0.8255903987611304,0.0,0.0,1.0,0.0,1.0,0.0,0.0,0.0,0.0,0.41691661667666463,0.23233112065599373,0.01094838617943979,0.15244421733946517,0.1025230276331598,0.376312473750525,0.03812143839654156
0.3729961616617746,0.11904761904761904,0.0,0.0,1.0,0.0,1.0,0.0,0.0,0.0,0.0,0.274745050989802,0.13549394767668876,0.30897198919380064,0.20183955033214107,0.05186223468161794,0.15161696766064678,0.22111416781292983
0.5802664258297583,0.29055361982191247,0.0,0.0,1.0,0.0,0.0,1.0,0.0,0.0,0.0,0.5158968206358727,0.4556813744631003,0.060571591070666855,0.28802588996763756,0.29335202242691233,0.49181016379672404,0.1046865788956573
0.5631067961165047,0.22357723577235772,0.0,0.0,1.0,0.0,0.0,1.0,0.0,0.0,0.0,0.6442711457708458,0.814135103475205,0.151997725010664,0.36654743655254646,0.30837004405286345,0.6745065098698025,0.11893299272941639
0.6653872205915556,0.6248548199767711,0.0,1.0,0.0,0.0,0.0,1.0,0.0,0.0,0.0,0.415116976604679,0.32448262397500977,0.08858239727001281,0.17118037812979053,0.22927513015618745,0.25241495170096595,0.058262920023580266
0.9361029577782795,0.08362369337979092,0.0,0.0,1.0,0.0,0.0,1.0,0.0,0.0,0.0,0.4529094181163767,0.40101522842639586,0.05914972273567468,0.22738886050076654,0.1471766119343212,0.5905081898362032,0.0795097268618589
0.5775570106118761,0.921602787456446,1.0,0.0,0.0,0.0,0.0,1.0,0.0,0.0,0.0,0.6880623875224955,0.4916048418586489,0.10564481728991895,0.15074092999489014,0.13315979175010012,0.5695086098278034,0.025348791511102375
0.13885752991645972,0.1629887727448703,0.0,0.0,1.0,0.0,1.0,0.0,0.0,0.0,0.0,0.2825434913017396,0.11597032409215148,0.12981657898478602,0.09282916027933913,0.06808169803764517,0.12641747165056696,0.11745922578109648
0.7094152178821403,0.47657762291908634,0.0,0.0,1.0,0.0,0.0,1.0,0.0,0.0,0.0,0.4439112177564487,0.3971105037094884,0.1170197639698564,0.23590529722364167,0.14417300760913096,0.5695086098278034,0.13477598742385535
0.7263490629939038,0.543360433604336,0.0,1.0,0.0,0.0,0.0,1.0,0.0,0.0,0.0,0.37732453509298136,0.4158531823506442,0.08005118726005973,0.14052120592743997,0.24128954745694836,0.40781184376312474,0.04156022794262134
0.5459471664032512,0.156794425087108,0.0,0.0,1.0,0.0,1.0,0.0,0.0,0.0,0.0,0.3221355728854229,0.18078875439281528,0.1979240722309114,0.36756940895929147,0.33440128153784543,0.23981520369592604,0.15577716643741404
0.3637389930006773,0.40127758420441345,0.0,0.0,1.0,0.0,0.0,1.0,0.0,0.0,0.0,0.4979004199160168,0.4564623194064818,0.18384757571448887,0.21478453415091128,0.1381657989587505,0.7228055438891222,0.1697779524464531
0.29487468954617296,0.1337591947348045,0.0,0.0,1.0,0.0,1.0,0.0,0.0,0.0,0.0,0.27714457108578283,0.1347130027333073,0.13976965732973126,0.09453244762391418,0.08209851822186624,0.14111717765644688,0.18132246020829237
0.624068638518853,0.1411149825783972,0.0,0.0,1.0,0.0,0.0,0.0,1.0,0.0,0.0,0.5650869826034792,0.44006247559547046,0.7865775629176739,1.0,0.3293952743291951,0.5170096598068038,0.9275397917076046
0.8214043802212687,0.5956252419667053,1.0,0.0,0.0,0.0,0.0,1.0,0.0,0.0,0.0,0.4427114577084583,0.4221007418976962,0.12981657898478602,0.14563106796116507,0.486784140969163,0.47501049979000415,0.026576930634702293
0.6484533754797922,0.5580720092915215,0.0,1.0,0.0,0.0,0.0,1.0,0.0,0.0,0.0,0.37792441511697655,0.3385396329558766,0.05744348073368408,0.12008175779253963,0.09511413696435723,0.6955060898782024,0.026454116722342304
0.21697900203206139,0.14827719705768486,0.0,0.0,1.0,0.0,1.0,0.0,0.0,0.0,0.0,0.5482903419316136,0.21905505661850835,0.13408218398976254,0.11156532106966448,0.09010812975570684,0.22301553968920615,0.07128119473373944
0.9604876947392188,0.4996128532713898,1.0,0.0,0.0,0.0,1.0,0.0,0.0,0.0,0.0,0.241751649670066,0.14720812182741114,0.04976539172472629,0.08431272355646398,0.2605126151381658,0.19361612767744643,0.06538612694045981
0.0,0.2590011614401858,1.0,0.0,0.0,0.0,0.0,0.0,1.0,0.0,0.0,0.44091181763647264,0.3158922295978133,0.10564481728991895,0.10304888434678933,0.4565478574289148,0.3322133557328853,0.10910787974061702
0.42402348159855496,0.31978319783197834,0.0,0.0,1.0,0.0,0.0,0.0,0.0,0.0,1.0,0.39652069586082783,0.35572042171026935,0.4282667424996445,0.30097087378640786,0.12314777733279936,0.737505249895002,0.4271959127529966
0.1729510047414766,0.29674796747967475,0.0,1.0,0.0,0.0,0.0,0.0,1.0,0.0,0.0,0.5062987402519495,0.3447871925029285,0.08147305559505191,0.11497189575881453,0.10312374849819785,0.5191096178076438,0.05678915307526037
0.7703770602844885,0.3950832365466511,1.0,0.0,0.0,0.0,0.0,1.0,0.0,0.0,0.0,0.0,0.0,0.15541020901464525,0.15074092999489014,0.07509010812975571,0.0052498950020999505,0.014786795048143052
0.25107247685707834,0.28203639179248935,0.0,0.0,0.0,1.0,0.0,1.0,0.0,0.0,0.0,0.3977204559088182,0.3112065599375244,0.0695293615811176,0.19332311360926593,0.11413696435722867,0.6031079378412431,0.07668500687757908
0.655678482727478,0.9070847851335655,0.0,0.0,1.0,0.0,0.0,0.0,1.0,0.0,0.0,0.498500299940012,0.34166341272940254,0.02445613536186549,0.1728836654743655,0.1956347617140569,0.43301133977320455,0.058754175673020236
0.4680514788891397,0.17131242740998837,0.0,0.0,0.0,1.0,1.0,0.0,0.0,0.0,0.0,0.5740851829634073,0.3596251464271768,0.47675245272287786,0.5118378470447965,0.2352823388065679,0.36161276774464507,0.7003340538416191
0.07789568751411152,0.24448315911730542,0.0,0.0,1.0,0.0,0.0,0.0,1.0,0.0,0.0,0.5620875824835032,0.40726278797344784,0.11133229062988767,0.23590529722364167,0.1381657989587505,0.6703065938681226,0.0577716643741403
0.5118536915782343,0.02303523035230352,1.0,0.0,0.0,0.0,0.0,1.0,0.0,0.0,0.0,0.543491301739652,0.3252635689183912,0.24640978245414472,0.26315789473684215,0.2222667200640769,0.3427131457370852,0.05850854784830025
0.5703319033641905,0.5725900116144018,0.0,1.0,0.0,0.0,0.0,1.0,0.0,0.0,0.0,0.5308938212357528,0.3283873486919172,0.027157685198350635,0.14563106796116507,0.19122947537044455,0.5905081898362032,0.032226370603261945
0.6143599006547753,0.424312814556717,0.0,0.0,1.0,0.0,0.0,0.0,1.0,0.0,0.0,0.4829034193161368,0.4299101913315111,0.14830086733968434,0.21546584908874128,0.12915498598317982,0.5758084838303233,0.1611809785812537
0.8044705351095055,0.5288424312814556,0.0,0.0,1.0,0.0,0.0,1.0,0.0,0.0,0.0,0.4757048590281943,0.3533775868801249,0.12128536897483293,0.22909214784534151,0.2352823388065679,0.3868122637547249,0.10812536844173708
0.458342741025062,0.45354239256678275,0.0,1.0,0.0,0.0,0.0,1.0,0.0,0.0,0.0,0.5800839832033593,0.6079656384224911,0.07351059291909569,0.2156361778231988,0.29034841810172207,0.6115077698446031,0.048192179210060915
0.6385188530142244,0.8401084010840107,0.0,1.0,0.0,0.0,1.0,0.0,0.0,0.0,0.0,0.44031193761247744,0.2620070285044904,0.008673396843452301,0.05331289388519845,0.07709251101321586,0.1852162956740865,0.01527805069758302
0.5265296906750959,0.7210607820363917,1.0,0.0,0.0,0.0,1.0,0.0,0.0,0.0,0.0,0.22195560887822435,0.12143693869582191,0.05943409640267311,0.1132686084142395,0.17420905086103322,0.1999160016799664,0.021664374140302613
0.39738089862271386,0.5350367789392179,0.0,0.0,1.0,0.0,0.0,0.0,0.0,0.0,1.0,0.17396520695860826,0.05271378367825067,0.0,0.007664793050587638,0.03904685622747297,0.019319613607727836,0.013313028099823146
0.15601715962971324,0.22977158343012,0.0,1.0,0.0,0.0,0.0,0.0,1.0,0.0,0.0,1.0,0.47364310816087457,0.13123844731977818,0.19843297564299098,0.4805766920304366,0.5779084418311634,0.031735114953821975
0.3023255813953488,0.48277197057684856,0.0,0.0,1.0,0.0,0.0,0.0,1.0,0.0,0.0,0.6028794241151769,0.5056618508395158,0.18000853121000993,0.36944302503832405,0.5106127352823387,0.44981100377992433,0.17886618196109255
0.7362835854594716,0.2613240418118467,0.0,1.0,0.0,0.0,0.0,1.0,0.0,0.0,0.0,0.5140971805638872,0.5158141351034751,0.13123844731977818,0.23590529722364167,0.11113336003203844,0.6325073498530028,0.10591471801925723
0.389930006773538,0.18602400309717382,0.0,1.0,0.0,0.0,1.0,0.0,0.0,0.0,0.0,0.46130773845230943,0.2807497071456462,0.09426987060998153,0.19161982626469087,0.048057669203043656,0.5506089878202435,0.09707211632933778
0.31203431925942654,0.20054200542005418,0.0,0.0,1.0,0.0,0.0,0.0,1.0,0.0,0.0,0.5182963407318536,0.36899648574775473,0.14830086733968434,0.3653551354113439,0.3644373247897477,0.42671146577068453,0.13833759088229514
0.7019643260329645,0.1275648470770422,0.0,0.0,1.0,0.0,0.0,1.0,0.0,0.0,0.0,0.4631073785242951,0.4962905115189378,0.11033698279539314,0.2762732072900698,0.210252302763316,0.4435111297774044,0.11770485360581645
0.5409799051704673,0.8449477351916376,1.0,0.0,0.0,0.0,1.0,0.0,0.0,0.0,0.0,0.36472705458908217,0.2432643498633346,0.06696999857813168,0.0911258729347641,0.2382859431317581,0.11507769844603108,0.011348005502063274
0.19011063445473017,0.36449864498644985,0.0,0.0,1.0,0.0,0.0,1.0,0.0,0.0,0.0,0.6040791841631673,0.6938695821944554,0.09711360727996587,0.31255322772951805,0.29935923107729273,0.622007559848803,0.1044409510709373
0.4339580040641227,0.03755323267518388,0.0,0.0,1.0,0.0,0.0,0.0,1.0,0.0,0.0,0.46790641871625677,0.4283483014447481,0.06924498791411915,0.18821325157554084,0.10853023628354026,0.5737085258294834,0.051385340931420706
0.3289681643711898,0.26751838946960893,0.0,0.0,1.0,0.0,0.0,0.0,1.0,0.0,0.0,0.6940611877624474,0.4697383834439671,0.09569173894497371,0.3040367910066429,0.23287945534641571,0.5485090298194035,0.11475731970917664
0.4070896364867916,0.25280681378242353,0.0,1.0,0.0,0.0,0.0,1.0,0.0,0.0,0.0,0.6520695860827833,0.4150722374072627,0.05004976539172472,0.24101515925736672,0.10712855426511815,0.4288114237715246,0.031735114953821975
0.48498532400090305,0.23828881145954312,1.0,0.0,0.0,0.0,0.0,0.0,1.0,0.0,0.0,0.3803239352129574,0.3018352206169465,0.17304137636854827,0.11701584057230455,0.17521025230276333,0.44141117177656447,0.014786795048143052
0.3802212689094603,0.46806039488966317,0.0,1.0,0.0,0.0,0.0,0.0,1.0,0.0,0.0,0.5542891421715657,0.5486138227254977,0.08929333143750888,0.2675864418327372,0.3063676411694033,0.6955060898782024,0.20539398703085085
0.5193045834274101,0.37204800619434764,0.0,0.0,1.0,0.0,0.0,1.0,0.0,0.0,0.0,0.49310137972405516,0.43225302616165556,0.13806341532774066,0.252938170669392,0.2773327993592311,0.3994120117597648,0.07840440165061897
0.5362384285391736,0.4388308168795973,0.0,0.0,1.0,0.0,0.0,1.0,0.0,0.0,0.0,0.4139172165566886,0.436157750878563,0.09697142044646666,0.23028444898654404,0.23628354024829795,0.5065098698026039,0.06415798781685988
0.6583878979453601,0.2766163375919473,0.0,1.0,0.0,0.0,0.0,1.0,0.0,0.0,0.0,0.5098980203959208,0.4416243654822335,0.07009810891511446,0.2515755407937319,0.2382859431317581,0.39731205375892475,0.0391039496954215
0.7800857981485663,0.11285327138985674,0.0,1.0,0.0,0.0,0.0,1.0,0.0,0.0,0.0,0.4451109778044391,0.3635298711440843,0.05090288639272004,0.10134559700221427,0.07208650380456548,0.35321293574128515,0.024366280212222435
0.6312937457665386,0.49109562524196665,0.0,0.0,1.0,0.0,0.0,0.0,0.0,0.0,1.0,0.638872225554889,0.47676688793440053,0.11986350063984075,0.3363992505535684,0.3904685622747297,0.6115077698446031,0.21767537826685004
0.8751411153759313,0.1651180797522261,0.0,0.0,1.0,0.0,0.0,0.0,0.0,0.0,1.0,0.5080983803239352,0.5353377586880124,0.10137921228494243,0.2614546073922671,0.49559471365638763,1.0,0.12556494399685594
0.8482727477986001,0.38037166085946567,1.0,0.0,0.0,0.0,0.0,0.0,0.0,1.0,0.0,0.3557288542291541,0.3721202655212807,0.10706668562491113,0.0911258729347641,0.2172607128554265,0.19361612767744643,0.012084888976223222
0.7435086927071572,0.6103368176538908,1.0,0.0,0.0,0.0,0.0,1.0,0.0,0.0,0.0,0.37492501499700054,0.31276844982428736,0.055595051898194234,0.12859819451541477,0.10112134561473769,0.6493070138597228,0.019208095893102767
0.8654323775118535,0.44734804490902047,1.0,0.0,0.0,0.0,0.0,1.0,0.0,0.0,0.0,0.45050989802039587,0.4049199531433033,0.14687899900469217,0.2342020098790666,0.30336403684421304,0.376312473750525,0.03271762625270191
0.7604425378189207,0.6771196283391405,0.0,0.0,1.0,0.0,0.0,0.0,1.0,0.0,0.0,0.6640671865626874,0.529871144084342,0.14972273567467653,0.2648611820814172,0.2599118942731278,0.6178076438471231,0.24592257810964827
0.47459923233235485,0.5396825396825397,0.0,0.0,1.0,0.0,0.0,0.0,1.0,0.0,0.0,0.400119976004799,0.2346739554861382,0.02673112469785298,0.12757622210866976,0.03804565478574289,0.47501049979000415,0.02780506975830222
