[
{
  "ts": "2018-02-06T12:17:22.620610",
  "type": "SETTINGS",
  "values": {
    "date": "2018/02/06 13:17:22",
    "date_iso": "2018-02-06T13:17:22.619785",
    "params": null,
    "system": {
      "nodename": "gibson",
      "machine": "x86_64",
      "platform": "Linux-4.4.0-112-generic-x86_64-with-debian-stretch-sid",
      "processor": "x86_64",
      "version": "#135-Ubuntu SMP Fri Jan 19 11:48:36 UTC 2018",
      "system": "Linux",
      "cpu_count": 8,
      "cpu_times": {
        "user": 346381.98,
        "system": 20955.29,
        "idle": 7978767.45,
        "nice": 821.4
      },
      "cpu_percent": 87.0,
      "virtual_memory": {
        "total": 33618501632,
        "available": 23220088832,
        "percent": 30.9,
        "used": 9409228800,
        "free": 10915401728
      }
    },
    "process": {
      "username": "evgeniya",
      "cwd": "/cw/dtailocal/mercs_python/src/core",
      "create_time": 1517919277.65,
      "cpu_times": {
        "user": 2.06,
        "system": 0.49
      }
    },
    "logfile": "/cw/dtailocal/mercs_python/out/628/oes97/logs/mercspython_Log_F08",
    "command": "python /cw/dtailocal/mercs_python/bin/mercspython.py /cw/dtailocal/mercs_python/out/628/oes97/settings/mercspython_Settings_F08.s"
  }
},
{
  "ts": "2018-02-06T12:17:22.620760",
  "type": "INFO",
  "values": {
    "cmd": "python /cw/dtailocal/mercs_python/bin/mercspython.py /cw/dtailocal/mercs_python/out/628/oes97/settings/mercspython_Settings_F08.s",
    "cwd": null
  }
},
{
  "ts": "2018-02-06T12:17:22.624975",
  "type": "INFO",
  "values": "Start: Run process"
},
{
  "ts": "2018-02-06T12:17:22.625413",
  "type": "INFO",
  "values": "Write log to /cw/dtailocal/mercs_python/out/628/oes97/logs/mercspython_Log_F08.running.log"
},
{
  "ts": "2018-02-06T12:17:44.251333",
  "type": "INFO",
  "values": "Process ended (returncode 0)"
},
{
  "ts": "2018-02-06T12:17:44.251415",
  "type": "INFO",
  "values": "Finished: Run process 21.626 seconds"
},
{
  "ts": "2018-02-06T12:17:44.251494",
  "type": "WARNING",
  "values": {
    "Exit": "finished",
    "Returncode": 0,
    "Time": 21.626474142074585
  }
}
]
