[
{
  "ts": "2018-02-05T17:22:26.212972",
  "type": "SETTINGS",
  "values": {
    "date": "2018/02/05 18:22:26",
    "date_iso": "2018-02-05T18:22:26.212172",
    "params": null,
    "system": {
      "nodename": "gibson",
      "machine": "x86_64",
      "platform": "Linux-4.4.0-112-generic-x86_64-with-debian-stretch-sid",
      "processor": "x86_64",
      "version": "#135-Ubuntu SMP Fri Jan 19 11:48:36 UTC 2018",
      "system": "Linux",
      "cpu_count": 8,
      "cpu_times": {
        "user": 146699.22,
        "system": 18726.97,
        "idle": 7637237.42,
        "nice": 751.59
      },
      "cpu_percent": 99.8,
      "virtual_memory": {
        "total": 33618501632,
        "available": 26245386240,
        "percent": 21.9,
        "used": 6382247936,
        "free": 8947847168
      }
    },
    "process": {
      "username": "evgeniya",
      "cwd": "/cw/dtailocal/mercs_python/src/core",
      "create_time": 1517849980.39,
      "cpu_times": {
        "user": 1.66,
        "system": 0.29
      }
    },
    "logfile": "/cw/dtailocal/mercs_python/out/316/rf1/logs/mercspython_Log_F09",
    "command": "python /cw/dtailocal/mercs_python/bin/mercspython.py /cw/dtailocal/mercs_python/out/316/rf1/settings/mercspython_Settings_F09.s"
  }
},
{
  "ts": "2018-02-05T17:22:26.213109",
  "type": "INFO",
  "values": {
    "cmd": "python /cw/dtailocal/mercs_python/bin/mercspython.py /cw/dtailocal/mercs_python/out/316/rf1/settings/mercspython_Settings_F09.s",
    "cwd": null
  }
},
{
  "ts": "2018-02-05T17:22:26.224884",
  "type": "INFO",
  "values": "Start: Run process"
},
{
  "ts": "2018-02-05T17:22:26.225365",
  "type": "INFO",
  "values": "Write log to /cw/dtailocal/mercs_python/out/316/rf1/logs/mercspython_Log_F09.running.log"
},
{
  "ts": "2018-02-05T17:24:06.367981",
  "type": "INFO",
  "values": "Process ended (returncode 0)"
},
{
  "ts": "2018-02-05T17:24:06.368060",
  "type": "INFO",
  "values": "Finished: Run process 100.143 seconds"
},
{
  "ts": "2018-02-05T17:24:06.368135",
  "type": "WARNING",
  "values": {
    "Exit": "finished",
    "Returncode": 0,
    "Time": 100.14319944381714
  }
}
]
