[
{
  "ts": "2018-02-05T17:16:48.369347",
  "type": "SETTINGS",
  "values": {
    "date": "2018/02/05 18:16:48",
    "date_iso": "2018-02-05T18:16:48.368255",
    "params": null,
    "system": {
      "nodename": "gibson",
      "machine": "x86_64",
      "platform": "Linux-4.4.0-112-generic-x86_64-with-debian-stretch-sid",
      "processor": "x86_64",
      "version": "#135-Ubuntu SMP Fri Jan 19 11:48:36 UTC 2018",
      "system": "Linux",
      "cpu_count": 8,
      "cpu_times": {
        "user": 144033.59,
        "system": 18693.75,
        "idle": 7637234.96,
        "nice": 751.59
      },
      "cpu_percent": 100.0,
      "virtual_memory": {
        "total": 33618501632,
        "available": 24079437824,
        "percent": 28.4,
        "used": 8549556224,
        "free": 6809047040
      }
    },
    "process": {
      "username": "evgeniya",
      "cwd": "/cw/dtailocal/mercs_python/src/core",
      "create_time": 1517849980.39,
      "cpu_times": {
        "user": 1.39,
        "system": 0.22
      }
    },
    "logfile": "/cw/dtailocal/mercs_python/out/316/rf1/logs/mercspython_Log_F06",
    "command": "python /cw/dtailocal/mercs_python/bin/mercspython.py /cw/dtailocal/mercs_python/out/316/rf1/settings/mercspython_Settings_F06.s"
  }
},
{
  "ts": "2018-02-05T17:16:48.369514",
  "type": "INFO",
  "values": {
    "cmd": "python /cw/dtailocal/mercs_python/bin/mercspython.py /cw/dtailocal/mercs_python/out/316/rf1/settings/mercspython_Settings_F06.s",
    "cwd": null
  }
},
{
  "ts": "2018-02-05T17:16:48.383718",
  "type": "INFO",
  "values": "Start: Run process"
},
{
  "ts": "2018-02-05T17:16:48.424825",
  "type": "INFO",
  "values": "Write log to /cw/dtailocal/mercs_python/out/316/rf1/logs/mercspython_Log_F06.running.log"
},
{
  "ts": "2018-02-05T17:18:44.770024",
  "type": "INFO",
  "values": "Process ended (returncode 0)"
},
{
  "ts": "2018-02-05T17:18:44.770111",
  "type": "INFO",
  "values": "Finished: Run process 116.386 seconds"
},
{
  "ts": "2018-02-05T17:18:44.770191",
  "type": "WARNING",
  "values": {
    "Exit": "finished",
    "Returncode": 0,
    "Time": 116.38641428947449
  }
},
{
  "ts": "2018-02-05T17:18:44.783808",
  "type": "INFO",
  "values": "Closing /cw/dtailocal/mercs_python/out/316/rf1/logs/mercspython_Log_F06.running.log"
}
]
