[SETTINGS] {
  "date": "2018/02/05 18:02:05",
  "date_iso": "2018-02-05T18:02:05.604221",
  "params": null,
  "system": {
    "nodename": "gibson",
    "machine": "x86_64",
    "platform": "Linux-4.4.0-112-generic-x86_64-with-debian-stretch-sid",
    "processor": "x86_64",
    "version": "#135-Ubuntu SMP Fri Jan 19 11:48:36 UTC 2018",
    "system": "Linux",
    "cpu_count": 8,
    "cpu_times": {
      "user": 137056.22,
      "system": 18614.6,
      "idle": 7637234.57,
      "nice": 751.58
    },
    "cpu_percent": 100.0,
    "virtual_memory": {
      "total": 33618501632,
      "available": 22649180160,
      "percent": 32.6,
      "used": 9950048256,
      "free": 5456175104
    }
  },
  "process": {
    "username": "evgeniya",
    "cwd": "/cw/dtailocal/mercs_python/src/core",
    "create_time": 1517850098.04,
    "cpu_times": {
      "user": 1.04,
      "system": 0.16
    }
  },
  "logfile": "/cw/dtailocal/mercs_python/out/325/slump/logs/mercspython_Log_F07",
  "command": "python /cw/dtailocal/mercs_python/bin/mercspython.py /cw/dtailocal/mercs_python/out/325/slump/settings/mercspython_Settings_F07.s"
}
[INFO] cmd:python /cw/dtailocal/mercs_python/bin/mercspython.py /cw/dtailocal/mercs_python/out/325/slump/settings/mercspython_Settings_F07.s; cwd:None
[INFO] Start: Run process
[INFO] Write log to /cw/dtailocal/mercs_python/out/325/slump/logs/mercspython_Log_F07.running.log
[STDERR] /cw/dtailocal/mercs_python/bin/mercspython.py:78: VisibleDeprecationWarning: converting an array with ndim > 0 to an index will result in an error in the future
[STDERR]   while((np.sum(codes[partition * nb_models_it + model]) >= nb_out_atts)):
[STDERR] /cw/dtailocal/mercs_python/bin/mercspython.py:81: VisibleDeprecationWarning: converting an array with ndim > 0 to an index will result in an error in the future
[STDERR]   codes[partition * nb_models_it + model][attribute] = 1
[[0 0 0 0 0 0 0 1 0 1]
 [0 0 0 1 1 0 0 0 0 0]
 [0 0 0 0 0 0 1 0 1 0]
 [1 0 0 0 0 1 0 0 0 0]
 [0 1 1 0 0 0 0 0 0 0]]
====================================================
Total induction time of the MDEModel was: 1067 ms
====================================================
====================================================
Total inference time of the MDEModel was: 193 ms
====================================================
====================================================
This was for: 10 queries.
====================================================
[INFO] Process ended (returncode 0)
[INFO] Finished: Run process 3.671 seconds
[WARNING] Exit:finished; Returncode:0; Time:3.67131
