[
{
  "ts": "2018-02-06T09:52:55.649293",
  "type": "SETTINGS",
  "values": {
    "date": "2018/02/06 10:52:55",
    "date_iso": "2018-02-06T10:52:55.648288",
    "params": null,
    "system": {
      "nodename": "gibson",
      "machine": "x86_64",
      "platform": "Linux-4.4.0-112-generic-x86_64-with-debian-stretch-sid",
      "processor": "x86_64",
      "version": "#135-Ubuntu SMP Fri Jan 19 11:48:36 UTC 2018",
      "system": "Linux",
      "cpu_count": 8,
      "cpu_times": {
        "user": 312194.47,
        "system": 20338.67,
        "idle": 7944510.93,
        "nice": 819.07
      },
      "cpu_percent": 62.8,
      "virtual_memory": {
        "total": 33618501632,
        "available": 26721497088,
        "percent": 20.5,
        "used": 5795069952,
        "free": 16141496320
      }
    },
    "process": {
      "username": "evgeniya",
      "cwd": "/cw/dtailocal/mercs_python/src/core",
      "create_time": 1517910770.45,
      "cpu_times": {
        "user": 0.65,
        "system": 0.1
      }
    },
    "logfile": "/cw/dtailocal/mercs_python/out/512/enb/logs/mercspython_Log_F02",
    "command": "python /cw/dtailocal/mercs_python/bin/mercspython.py /cw/dtailocal/mercs_python/out/512/enb/settings/mercspython_Settings_F02.s"
  }
},
{
  "ts": "2018-02-06T09:52:55.649447",
  "type": "INFO",
  "values": {
    "cmd": "python /cw/dtailocal/mercs_python/bin/mercspython.py /cw/dtailocal/mercs_python/out/512/enb/settings/mercspython_Settings_F02.s",
    "cwd": null
  }
},
{
  "ts": "2018-02-06T09:52:55.652205",
  "type": "INFO",
  "values": "Start: Run process"
},
{
  "ts": "2018-02-06T09:52:55.652732",
  "type": "INFO",
  "values": "Write log to /cw/dtailocal/mercs_python/out/512/enb/logs/mercspython_Log_F02.running.log"
},
{
  "ts": "2018-02-06T09:52:58.055775",
  "type": "INFO",
  "values": "Process ended (returncode 0)"
},
{
  "ts": "2018-02-06T09:52:58.055858",
  "type": "INFO",
  "values": "Finished: Run process 2.404 seconds"
},
{
  "ts": "2018-02-06T09:52:58.055947",
  "type": "WARNING",
  "values": {
    "Exit": "finished",
    "Returncode": 0,
    "Time": 2.4036922454833984
  }
},
{
  "ts": "2018-02-06T09:52:58.056305",
  "type": "INFO",
  "values": "Closing /cw/dtailocal/mercs_python/out/512/enb/logs/mercspython_Log_F02.running.log"
}
]
