[
{
  "ts": "2018-02-06T09:53:02.284578",
  "type": "SETTINGS",
  "values": {
    "date": "2018/02/06 10:53:02",
    "date_iso": "2018-02-06T10:53:02.283292",
    "params": null,
    "system": {
      "nodename": "gibson",
      "machine": "x86_64",
      "platform": "Linux-4.4.0-112-generic-x86_64-with-debian-stretch-sid",
      "processor": "x86_64",
      "version": "#135-Ubuntu SMP Fri Jan 19 11:48:36 UTC 2018",
      "system": "Linux",
      "cpu_count": 8,
      "cpu_times": {
        "user": 312226.01,
        "system": 20340.13,
        "idle": 7944530.36,
        "nice": 819.07
      },
      "cpu_percent": 63.8,
      "virtual_memory": {
        "total": 33618501632,
        "available": 26604998656,
        "percent": 20.9,
        "used": 5910827008,
        "free": 16021602304
      }
    },
    "process": {
      "username": "evgeniya",
      "cwd": "/cw/dtailocal/mercs_python/src/core",
      "create_time": 1517910770.45,
      "cpu_times": {
        "user": 0.86,
        "system": 0.21
      }
    },
    "logfile": "/cw/dtailocal/mercs_python/out/512/enb/logs/mercspython_Log_F05",
    "command": "python /cw/dtailocal/mercs_python/bin/mercspython.py /cw/dtailocal/mercs_python/out/512/enb/settings/mercspython_Settings_F05.s"
  }
},
{
  "ts": "2018-02-06T09:53:02.284848",
  "type": "INFO",
  "values": {
    "cmd": "python /cw/dtailocal/mercs_python/bin/mercspython.py /cw/dtailocal/mercs_python/out/512/enb/settings/mercspython_Settings_F05.s",
    "cwd": null
  }
},
{
  "ts": "2018-02-06T09:53:02.288364",
  "type": "INFO",
  "values": "Start: Run process"
},
{
  "ts": "2018-02-06T09:53:02.288762",
  "type": "INFO",
  "values": "Write log to /cw/dtailocal/mercs_python/out/512/enb/logs/mercspython_Log_F05.running.log"
},
{
  "ts": "2018-02-06T09:53:04.496427",
  "type": "INFO",
  "values": "Process ended (returncode 0)"
},
{
  "ts": "2018-02-06T09:53:04.496489",
  "type": "INFO",
  "values": "Finished: Run process 2.208 seconds"
},
{
  "ts": "2018-02-06T09:53:04.496548",
  "type": "WARNING",
  "values": {
    "Exit": "finished",
    "Returncode": 0,
    "Time": 2.2081544399261475
  }
},
{
  "ts": "2018-02-06T09:53:04.496803",
  "type": "INFO",
  "values": "Closing /cw/dtailocal/mercs_python/out/512/enb/logs/mercspython_Log_F05.running.log"
}
]
