[SETTINGS] {
  "date": "2018/02/06 13:13:57",
  "date_iso": "2018-02-06T13:13:57.522901",
  "params": null,
  "system": {
    "nodename": "gibson",
    "machine": "x86_64",
    "platform": "Linux-4.4.0-112-generic-x86_64-with-debian-stretch-sid",
    "processor": "x86_64",
    "version": "#135-Ubuntu SMP Fri Jan 19 11:48:36 UTC 2018",
    "system": "Linux",
    "cpu_count": 8,
    "cpu_times": {
      "user": 344985.36,
      "system": 20931.9,
      "idle": 7978549.74,
      "nice": 821.4
    },
    "cpu_percent": 85.8,
    "virtual_memory": {
      "total": 33618501632,
      "available": 22573051904,
      "percent": 32.9,
      "used": 10046820352,
      "free": 10329792512
    }
  },
  "process": {
    "username": "evgeniya",
    "cwd": "/cw/dtailocal/mercs_python/src/core",
    "create_time": 1517919232.2,
    "cpu_times": {
      "user": 0.61,
      "system": 0.13
    }
  },
  "logfile": "/cw/dtailocal/mercs_python/out/624/andro/logs/mercspython_Log_F02",
  "command": "python /cw/dtailocal/mercs_python/bin/mercspython.py /cw/dtailocal/mercs_python/out/624/andro/settings/mercspython_Settings_F02.s"
}
[INFO] cmd:python /cw/dtailocal/mercs_python/bin/mercspython.py /cw/dtailocal/mercs_python/out/624/andro/settings/mercspython_Settings_F02.s; cwd:None
[INFO] Start: Run process
[INFO] Write log to /cw/dtailocal/mercs_python/out/624/andro/logs/mercspython_Log_F02.running.log
[[1, 0, 1, 1, 1, 0, 0, 0, 1, 1, 1, 0, 1, 1, 1, 1, 1, 1, 1, 0, 1, 1, 1, 1, 1, 1, 1, 1, 1, 1, 1, 0, 1, 1, 1, 1], [0, 0, 0, 0, 0, 1, 1, 0, 0, 0, 0, 0, 0, 0, 0, 0, 0, 0, 0, 1, 0, 0, 0, 0, 0, 0, 0, 0, 0, 0, 0, 0, 0, 0, 0, 0], [0, 1, 0, 0, 0, 0, 0, 0, 0, 0, 0, 0, 0, 0, 0, 0, 0, 0, 0, 0, 0, 0, 0, 0, 0, 0, 0, 0, 0, 0, 0, 1, 0, 0, 0, 0], [0, 0, 0, 0, 0, 0, 0, 1, 0, 0, 0, 1, 0, 0, 0, 0, 0, 0, 0, 0, 0, 0, 0, 0, 0, 0, 0, 0, 0, 0, 0, 0, 0, 0, 0, 0]]
====================================================
Total induction time of the MDEModel was: 383 ms
====================================================
====================================================
Total inference time of the MDEModel was: 182 ms
====================================================
====================================================
This was for: 36 queries.
====================================================
[INFO] Process ended (returncode 0)
[INFO] Finished: Run process 1.803 seconds
[WARNING] Exit:finished; Returncode:0; Time:1.80284
