[
{
  "ts": "2018-02-06T12:29:54.493224",
  "type": "SETTINGS",
  "values": {
    "date": "2018/02/06 13:29:54",
    "date_iso": "2018-02-06T13:29:54.492601",
    "params": null,
    "system": {
      "nodename": "gibson",
      "machine": "x86_64",
      "platform": "Linux-4.4.0-112-generic-x86_64-with-debian-stretch-sid",
      "processor": "x86_64",
      "version": "#135-Ubuntu SMP Fri Jan 19 11:48:36 UTC 2018",
      "system": "Linux",
      "cpu_count": 8,
      "cpu_times": {
        "user": 351216.72,
        "system": 21048.38,
        "idle": 7979828.14,
        "nice": 823.13
      },
      "cpu_percent": 73.2,
      "virtual_memory": {
        "total": 33618501632,
        "available": 25800089600,
        "percent": 23.3,
        "used": 6807252992,
        "free": 13323243520
      }
    },
    "process": {
      "username": "evgeniya",
      "cwd": "/cw/dtailocal/mercs_python/src/core",
      "create_time": 1517920176.61,
      "cpu_times": {
        "user": 1.32,
        "system": 0.66
      }
    },
    "logfile": "/cw/dtailocal/mercs_python/out/622/slump/logs/mercspython_Log_F09",
    "command": "python /cw/dtailocal/mercs_python/bin/mercspython.py /cw/dtailocal/mercs_python/out/622/slump/settings/mercspython_Settings_F09.s"
  }
},
{
  "ts": "2018-02-06T12:29:54.493314",
  "type": "INFO",
  "values": {
    "cmd": "python /cw/dtailocal/mercs_python/bin/mercspython.py /cw/dtailocal/mercs_python/out/622/slump/settings/mercspython_Settings_F09.s",
    "cwd": null
  }
},
{
  "ts": "2018-02-06T12:29:54.496748",
  "type": "INFO",
  "values": "Start: Run process"
},
{
  "ts": "2018-02-06T12:29:54.497067",
  "type": "INFO",
  "values": "Write log to /cw/dtailocal/mercs_python/out/622/slump/logs/mercspython_Log_F09.running.log"
},
{
  "ts": "2018-02-06T12:29:56.499724",
  "type": "INFO",
  "values": "Process ended (returncode 0)"
},
{
  "ts": "2018-02-06T12:29:56.499804",
  "type": "INFO",
  "values": "Finished: Run process 2.003 seconds"
},
{
  "ts": "2018-02-06T12:29:56.499887",
  "type": "WARNING",
  "values": {
    "Exit": "finished",
    "Returncode": 0,
    "Time": 2.003089189529419
  }
}
]
