[
{
  "ts": "2018-02-06T12:29:39.391780",
  "type": "SETTINGS",
  "values": {
    "date": "2018/02/06 13:29:39",
    "date_iso": "2018-02-06T13:29:39.390944",
    "params": null,
    "system": {
      "nodename": "gibson",
      "machine": "x86_64",
      "platform": "Linux-4.4.0-112-generic-x86_64-with-debian-stretch-sid",
      "processor": "x86_64",
      "version": "#135-Ubuntu SMP Fri Jan 19 11:48:36 UTC 2018",
      "system": "Linux",
      "cpu_count": 8,
      "cpu_times": {
        "user": 351128.34,
        "system": 21045.96,
        "idle": 7979798.98,
        "nice": 823.12
      },
      "cpu_percent": 72.8,
      "virtual_memory": {
        "total": 33618501632,
        "available": 26014314496,
        "percent": 22.6,
        "used": 6592503808,
        "free": 13538615296
      }
    },
    "process": {
      "username": "evgeniya",
      "cwd": "/cw/dtailocal/mercs_python/src/core",
      "create_time": 1517920176.61,
      "cpu_times": {
        "user": 0.54,
        "system": 0.06
      }
    },
    "logfile": "/cw/dtailocal/mercs_python/out/622/slump/logs/mercspython_Log_F01",
    "command": "python /cw/dtailocal/mercs_python/bin/mercspython.py /cw/dtailocal/mercs_python/out/622/slump/settings/mercspython_Settings_F01.s"
  }
},
{
  "ts": "2018-02-06T12:29:39.391933",
  "type": "INFO",
  "values": {
    "cmd": "python /cw/dtailocal/mercs_python/bin/mercspython.py /cw/dtailocal/mercs_python/out/622/slump/settings/mercspython_Settings_F01.s",
    "cwd": null
  }
},
{
  "ts": "2018-02-06T12:29:39.395912",
  "type": "INFO",
  "values": "Start: Run process"
},
{
  "ts": "2018-02-06T12:29:39.398673",
  "type": "INFO",
  "values": "Write log to /cw/dtailocal/mercs_python/out/622/slump/logs/mercspython_Log_F01.running.log"
},
{
  "ts": "2018-02-06T12:29:41.205245",
  "type": "INFO",
  "values": "Process ended (returncode 0)"
},
{
  "ts": "2018-02-06T12:29:41.205330",
  "type": "INFO",
  "values": "Finished: Run process 1.809 seconds"
},
{
  "ts": "2018-02-06T12:29:41.205420",
  "type": "WARNING",
  "values": {
    "Exit": "finished",
    "Returncode": 0,
    "Time": 1.8094301223754883
  }
},
{
  "ts": "2018-02-06T12:29:41.205788",
  "type": "INFO",
  "values": "Closing /cw/dtailocal/mercs_python/out/622/slump/logs/mercspython_Log_F01.running.log"
}
]
