[
{
  "ts": "2018-02-06T12:29:49.057923",
  "type": "SETTINGS",
  "values": {
    "date": "2018/02/06 13:29:49",
    "date_iso": "2018-02-06T13:29:49.057082",
    "params": null,
    "system": {
      "nodename": "gibson",
      "machine": "x86_64",
      "platform": "Linux-4.4.0-112-generic-x86_64-with-debian-stretch-sid",
      "processor": "x86_64",
      "version": "#135-Ubuntu SMP Fri Jan 19 11:48:36 UTC 2018",
      "system": "Linux",
      "cpu_count": 8,
      "cpu_times": {
        "user": 351184.97,
        "system": 21047.54,
        "idle": 7979817.46,
        "nice": 823.13
      },
      "cpu_percent": 73.5,
      "virtual_memory": {
        "total": 33618501632,
        "available": 25997074432,
        "percent": 22.7,
        "used": 6610309120,
        "free": 13520572416
      }
    },
    "process": {
      "username": "evgeniya",
      "cwd": "/cw/dtailocal/mercs_python/src/core",
      "create_time": 1517920176.61,
      "cpu_times": {
        "user": 1.08,
        "system": 0.47
      }
    },
    "logfile": "/cw/dtailocal/mercs_python/out/622/slump/logs/mercspython_Log_F06",
    "command": "python /cw/dtailocal/mercs_python/bin/mercspython.py /cw/dtailocal/mercs_python/out/622/slump/settings/mercspython_Settings_F06.s"
  }
},
{
  "ts": "2018-02-06T12:29:49.058075",
  "type": "INFO",
  "values": {
    "cmd": "python /cw/dtailocal/mercs_python/bin/mercspython.py /cw/dtailocal/mercs_python/out/622/slump/settings/mercspython_Settings_F06.s",
    "cwd": null
  }
},
{
  "ts": "2018-02-06T12:29:49.061712",
  "type": "INFO",
  "values": "Start: Run process"
},
{
  "ts": "2018-02-06T12:29:49.064410",
  "type": "INFO",
  "values": "Write log to /cw/dtailocal/mercs_python/out/622/slump/logs/mercspython_Log_F06.running.log"
},
{
  "ts": "2018-02-06T12:29:51.072888",
  "type": "INFO",
  "values": "Process ended (returncode 0)"
},
{
  "ts": "2018-02-06T12:29:51.073091",
  "type": "INFO",
  "values": "Finished: Run process 2.011 seconds"
},
{
  "ts": "2018-02-06T12:29:51.073147",
  "type": "WARNING",
  "values": {
    "Exit": "finished",
    "Returncode": 0,
    "Time": 2.0114009380340576
  }
},
{
  "ts": "2018-02-06T12:29:51.073384",
  "type": "INFO",
  "values": "Closing /cw/dtailocal/mercs_python/out/622/slump/logs/mercspython_Log_F06.running.log"
}
]
