[
{
  "ts": "2018-02-06T12:29:43.215770",
  "type": "SETTINGS",
  "values": {
    "date": "2018/02/06 13:29:43",
    "date_iso": "2018-02-06T13:29:43.214920",
    "params": null,
    "system": {
      "nodename": "gibson",
      "machine": "x86_64",
      "platform": "Linux-4.4.0-112-generic-x86_64-with-debian-stretch-sid",
      "processor": "x86_64",
      "version": "#135-Ubuntu SMP Fri Jan 19 11:48:36 UTC 2018",
      "system": "Linux",
      "cpu_count": 8,
      "cpu_times": {
        "user": 351150.86,
        "system": 21046.55,
        "idle": 7979806.19,
        "nice": 823.13
      },
      "cpu_percent": 75.8,
      "virtual_memory": {
        "total": 33618501632,
        "available": 26038403072,
        "percent": 22.5,
        "used": 6568996864,
        "free": 13562331136
      }
    },
    "process": {
      "username": "evgeniya",
      "cwd": "/cw/dtailocal/mercs_python/src/core",
      "create_time": 1517920176.61,
      "cpu_times": {
        "user": 0.76,
        "system": 0.15
      }
    },
    "logfile": "/cw/dtailocal/mercs_python/out/622/slump/logs/mercspython_Log_F03",
    "command": "python /cw/dtailocal/mercs_python/bin/mercspython.py /cw/dtailocal/mercs_python/out/622/slump/settings/mercspython_Settings_F03.s"
  }
},
{
  "ts": "2018-02-06T12:29:43.215920",
  "type": "INFO",
  "values": {
    "cmd": "python /cw/dtailocal/mercs_python/bin/mercspython.py /cw/dtailocal/mercs_python/out/622/slump/settings/mercspython_Settings_F03.s",
    "cwd": null
  }
},
{
  "ts": "2018-02-06T12:29:43.219593",
  "type": "INFO",
  "values": "Start: Run process"
},
{
  "ts": "2018-02-06T12:29:43.223820",
  "type": "INFO",
  "values": "Write log to /cw/dtailocal/mercs_python/out/622/slump/logs/mercspython_Log_F03.running.log"
},
{
  "ts": "2018-02-06T12:29:45.031700",
  "type": "INFO",
  "values": "Process ended (returncode 0)"
},
{
  "ts": "2018-02-06T12:29:45.031779",
  "type": "INFO",
  "values": "Finished: Run process 1.812 seconds"
},
{
  "ts": "2018-02-06T12:29:45.031860",
  "type": "WARNING",
  "values": {
    "Exit": "finished",
    "Returncode": 0,
    "Time": 1.8122119903564453
  }
}
]
