[
{
  "ts": "2018-02-05T17:21:42.960372",
  "type": "SETTINGS",
  "values": {
    "date": "2018/02/05 18:21:42",
    "date_iso": "2018-02-05T18:21:42.959535",
    "params": null,
    "system": {
      "nodename": "gibson",
      "machine": "x86_64",
      "platform": "Linux-4.4.0-112-generic-x86_64-with-debian-stretch-sid",
      "processor": "x86_64",
      "version": "#135-Ubuntu SMP Fri Jan 19 11:48:36 UTC 2018",
      "system": "Linux",
      "cpu_count": 8,
      "cpu_times": {
        "user": 146357.87,
        "system": 18723.62,
        "idle": 7637236.3,
        "nice": 751.59
      },
      "cpu_percent": 99.4,
      "virtual_memory": {
        "total": 33618501632,
        "available": 25685245952,
        "percent": 23.6,
        "used": 6942363648,
        "free": 8396140544
      }
    },
    "process": {
      "username": "evgeniya",
      "cwd": "/cw/dtailocal/mercs_python/src/core",
      "create_time": 1517851290.28,
      "cpu_times": {
        "user": 1.12,
        "system": 0.16
      }
    },
    "logfile": "/cw/dtailocal/mercs_python/out/349/slump/logs/mercspython_Log_F05",
    "command": "python /cw/dtailocal/mercs_python/bin/mercspython.py /cw/dtailocal/mercs_python/out/349/slump/settings/mercspython_Settings_F05.s"
  }
},
{
  "ts": "2018-02-05T17:21:42.960522",
  "type": "INFO",
  "values": {
    "cmd": "python /cw/dtailocal/mercs_python/bin/mercspython.py /cw/dtailocal/mercs_python/out/349/slump/settings/mercspython_Settings_F05.s",
    "cwd": null
  }
},
{
  "ts": "2018-02-05T17:21:42.965469",
  "type": "INFO",
  "values": "Start: Run process"
},
{
  "ts": "2018-02-05T17:21:43.004336",
  "type": "INFO",
  "values": "Write log to /cw/dtailocal/mercs_python/out/349/slump/logs/mercspython_Log_F05.running.log"
},
{
  "ts": "2018-02-05T17:21:45.423725",
  "type": "INFO",
  "values": "Process ended (returncode 0)"
},
{
  "ts": "2018-02-05T17:21:45.423806",
  "type": "INFO",
  "values": "Finished: Run process 2.458 seconds"
},
{
  "ts": "2018-02-05T17:21:45.423883",
  "type": "WARNING",
  "values": {
    "Exit": "finished",
    "Returncode": 0,
    "Time": 2.458366632461548
  }
},
{
  "ts": "2018-02-05T17:21:45.431816",
  "type": "INFO",
  "values": "Closing /cw/dtailocal/mercs_python/out/349/slump/logs/mercspython_Log_F05.running.log"
}
]
