[
{
  "ts": "2018-02-05T19:19:39.841031",
  "type": "SETTINGS",
  "values": {
    "date": "2018/02/05 20:19:39",
    "date_iso": "2018-02-05T20:19:39.840218",
    "params": null,
    "system": {
      "nodename": "gibson",
      "machine": "x86_64",
      "platform": "Linux-4.4.0-112-generic-x86_64-with-debian-stretch-sid",
      "processor": "x86_64",
      "version": "#135-Ubuntu SMP Fri Jan 19 11:48:36 UTC 2018",
      "system": "Linux",
      "cpu_count": 8,
      "cpu_times": {
        "user": 196175.4,
        "system": 19142.91,
        "idle": 7643521.16,
        "nice": 755.49
      },
      "cpu_percent": 100.0,
      "virtual_memory": {
        "total": 33618501632,
        "available": 20845207552,
        "percent": 38.0,
        "used": 11752509440,
        "free": 12436602880
      }
    },
    "process": {
      "username": "evgeniya",
      "cwd": "/cw/dtailocal/mercs_python/src/core",
      "create_time": 1517850736.02,
      "cpu_times": {
        "user": 4.59,
        "system": 0.5
      }
    },
    "logfile": "/cw/dtailocal/mercs_python/out/287/scm1d/logs/mercspython_Log_F04",
    "command": "python /cw/dtailocal/mercs_python/bin/mercspython.py /cw/dtailocal/mercs_python/out/287/scm1d/settings/mercspython_Settings_F04.s"
  }
},
{
  "ts": "2018-02-05T19:19:39.841174",
  "type": "INFO",
  "values": {
    "cmd": "python /cw/dtailocal/mercs_python/bin/mercspython.py /cw/dtailocal/mercs_python/out/287/scm1d/settings/mercspython_Settings_F04.s",
    "cwd": null
  }
},
{
  "ts": "2018-02-05T19:19:39.866715",
  "type": "INFO",
  "values": "Start: Run process"
},
{
  "ts": "2018-02-05T19:19:39.897652",
  "type": "INFO",
  "values": "Write log to /cw/dtailocal/mercs_python/out/287/scm1d/logs/mercspython_Log_F04.running.log"
},
{
  "ts": "2018-02-05T19:55:48.288939",
  "type": "INFO",
  "values": "Process ended (returncode 0)"
},
{
  "ts": "2018-02-05T19:55:48.289038",
  "type": "INFO",
  "values": "Finished: Run process 2168.422 seconds"
},
{
  "ts": "2018-02-05T19:55:48.289124",
  "type": "WARNING",
  "values": {
    "Exit": "finished",
    "Returncode": 0,
    "Time": 2168.422348022461
  }
}
]
