[
{
  "ts": "2018-02-05T17:14:15.713185",
  "type": "SETTINGS",
  "values": {
    "date": "2018/02/05 18:14:15",
    "date_iso": "2018-02-05T18:14:15.712342",
    "params": null,
    "system": {
      "nodename": "gibson",
      "machine": "x86_64",
      "platform": "Linux-4.4.0-112-generic-x86_64-with-debian-stretch-sid",
      "processor": "x86_64",
      "version": "#135-Ubuntu SMP Fri Jan 19 11:48:36 UTC 2018",
      "system": "Linux",
      "cpu_count": 8,
      "cpu_times": {
        "user": 142828.28,
        "system": 18679.06,
        "idle": 7637234.7,
        "nice": 751.59
      },
      "cpu_percent": 100.0,
      "virtual_memory": {
        "total": 33618501632,
        "available": 22856667136,
        "percent": 32.0,
        "used": 9790926848,
        "free": 5606219776
      }
    },
    "process": {
      "username": "evgeniya",
      "cwd": "/cw/dtailocal/mercs_python/src/core",
      "create_time": 1517850818.98,
      "cpu_times": {
        "user": 1.96,
        "system": 0.15
      }
    },
    "logfile": "/cw/dtailocal/mercs_python/out/347/oes97/logs/mercspython_Log_F02",
    "command": "python /cw/dtailocal/mercs_python/bin/mercspython.py /cw/dtailocal/mercs_python/out/347/oes97/settings/mercspython_Settings_F02.s"
  }
},
{
  "ts": "2018-02-05T17:14:15.713331",
  "type": "INFO",
  "values": {
    "cmd": "python /cw/dtailocal/mercs_python/bin/mercspython.py /cw/dtailocal/mercs_python/out/347/oes97/settings/mercspython_Settings_F02.s",
    "cwd": null
  }
},
{
  "ts": "2018-02-05T17:14:15.737201",
  "type": "INFO",
  "values": "Start: Run process"
},
{
  "ts": "2018-02-05T17:14:15.775786",
  "type": "INFO",
  "values": "Write log to /cw/dtailocal/mercs_python/out/347/oes97/logs/mercspython_Log_F02.running.log"
},
{
  "ts": "2018-02-05T17:14:33.597636",
  "type": "INFO",
  "values": "Process ended (returncode 0)"
},
{
  "ts": "2018-02-05T17:14:33.597712",
  "type": "INFO",
  "values": "Finished: Run process 17.861 seconds"
},
{
  "ts": "2018-02-05T17:14:33.597791",
  "type": "WARNING",
  "values": {
    "Exit": "finished",
    "Returncode": 0,
    "Time": 17.86054539680481
  }
}
]
