[
{
  "ts": "2018-02-06T10:00:57.384182",
  "type": "SETTINGS",
  "values": {
    "date": "2018/02/06 11:00:57",
    "date_iso": "2018-02-06T11:00:57.383322",
    "params": null,
    "system": {
      "nodename": "gibson",
      "machine": "x86_64",
      "platform": "Linux-4.4.0-112-generic-x86_64-with-debian-stretch-sid",
      "processor": "x86_64",
      "version": "#135-Ubuntu SMP Fri Jan 19 11:48:36 UTC 2018",
      "system": "Linux",
      "cpu_count": 8,
      "cpu_times": {
        "user": 314890.73,
        "system": 20435.17,
        "idle": 7945527.44,
        "nice": 819.07
      },
      "cpu_percent": 79.5,
      "virtual_memory": {
        "total": 33618501632,
        "available": 26231427072,
        "percent": 22.0,
        "used": 6428790784,
        "free": 15090429952
      }
    },
    "process": {
      "username": "evgeniya",
      "cwd": "/cw/dtailocal/mercs_python/src/core",
      "create_time": 1517911244.21,
      "cpu_times": {
        "user": 0.92,
        "system": 0.3
      }
    },
    "logfile": "/cw/dtailocal/mercs_python/out/545/wq/logs/mercspython_Log_F05",
    "command": "python /cw/dtailocal/mercs_python/bin/mercspython.py /cw/dtailocal/mercs_python/out/545/wq/settings/mercspython_Settings_F05.s"
  }
},
{
  "ts": "2018-02-06T10:00:57.384336",
  "type": "INFO",
  "values": {
    "cmd": "python /cw/dtailocal/mercs_python/bin/mercspython.py /cw/dtailocal/mercs_python/out/545/wq/settings/mercspython_Settings_F05.s",
    "cwd": null
  }
},
{
  "ts": "2018-02-06T10:00:57.387976",
  "type": "INFO",
  "values": "Start: Run process"
},
{
  "ts": "2018-02-06T10:00:57.388490",
  "type": "INFO",
  "values": "Write log to /cw/dtailocal/mercs_python/out/545/wq/logs/mercspython_Log_F05.running.log"
},
{
  "ts": "2018-02-06T10:00:59.596423",
  "type": "INFO",
  "values": "Process ended (returncode 0)"
},
{
  "ts": "2018-02-06T10:00:59.596483",
  "type": "INFO",
  "values": "Finished: Run process 2.209 seconds"
},
{
  "ts": "2018-02-06T10:00:59.596540",
  "type": "WARNING",
  "values": {
    "Exit": "finished",
    "Returncode": 0,
    "Time": 2.208554983139038
  }
},
{
  "ts": "2018-02-06T10:00:59.596814",
  "type": "INFO",
  "values": "Closing /cw/dtailocal/mercs_python/out/545/wq/logs/mercspython_Log_F05.running.log"
}
]
