[SETTINGS] {
  "date": "2018/02/05 18:13:35",
  "date_iso": "2018-02-05T18:13:35.192386",
  "params": null,
  "system": {
    "nodename": "gibson",
    "machine": "x86_64",
    "platform": "Linux-4.4.0-112-generic-x86_64-with-debian-stretch-sid",
    "processor": "x86_64",
    "version": "#135-Ubuntu SMP Fri Jan 19 11:48:36 UTC 2018",
    "system": "Linux",
    "cpu_count": 8,
    "cpu_times": {
      "user": 142507.71,
      "system": 18675.67,
      "idle": 7637234.68,
      "nice": 751.59
    },
    "cpu_percent": 100.0,
    "virtual_memory": {
      "total": 33618501632,
      "available": 22038532096,
      "percent": 34.4,
      "used": 10611060736,
      "free": 4772519936
    }
  },
  "process": {
    "username": "evgeniya",
    "cwd": "/cw/dtailocal/mercs_python/src/core",
    "create_time": 1517850786.13,
    "cpu_times": {
      "user": 1.22,
      "system": 0.16
    }
  },
  "logfile": "/cw/dtailocal/mercs_python/out/345/jura/logs/mercspython_Log_F09",
  "command": "python /cw/dtailocal/mercs_python/bin/mercspython.py /cw/dtailocal/mercs_python/out/345/jura/settings/mercspython_Settings_F09.s"
}
[INFO] cmd:python /cw/dtailocal/mercs_python/bin/mercspython.py /cw/dtailocal/mercs_python/out/345/jura/settings/mercspython_Settings_F09.s; cwd:None
[INFO] Start: Run process
[INFO] Write log to /cw/dtailocal/mercs_python/out/345/jura/logs/mercspython_Log_F09.running.log
[STDERR] /cw/dtailocal/mercs_python/bin/mercspython.py:78: VisibleDeprecationWarning: converting an array with ndim > 0 to an index will result in an error in the future
[STDERR]   while((np.sum(codes[partition * nb_models_it + model]) >= nb_out_atts)):
[STDERR] /cw/dtailocal/mercs_python/bin/mercspython.py:81: VisibleDeprecationWarning: converting an array with ndim > 0 to an index will result in an error in the future
[STDERR]   codes[partition * nb_models_it + model][attribute] = 1
[[1 0 0 1 0 1 0 1 0 1 1 1 0 1 0 1 0 0]
 [0 1 1 0 1 0 1 0 1 0 0 0 1 0 1 0 1 1]]
====================================================
Total induction time of the MDEModel was: 463 ms
====================================================
====================================================
Total inference time of the MDEModel was: 293 ms
====================================================
====================================================
This was for: 18 queries.
====================================================
[INFO] Process ended (returncode 0)
[INFO] Finished: Run process 2.838 seconds
[WARNING] Exit:finished; Returncode:0; Time:2.83822
