[
{
  "ts": "2018-02-05T17:13:14.105126",
  "type": "SETTINGS",
  "values": {
    "date": "2018/02/05 18:13:14",
    "date_iso": "2018-02-05T18:13:14.104253",
    "params": null,
    "system": {
      "nodename": "gibson",
      "machine": "x86_64",
      "platform": "Linux-4.4.0-112-generic-x86_64-with-debian-stretch-sid",
      "processor": "x86_64",
      "version": "#135-Ubuntu SMP Fri Jan 19 11:48:36 UTC 2018",
      "system": "Linux",
      "cpu_count": 8,
      "cpu_times": {
        "user": 142341.46,
        "system": 18673.34,
        "idle": 7637234.67,
        "nice": 751.59
      },
      "cpu_percent": 100.0,
      "virtual_memory": {
        "total": 33618501632,
        "available": 21306159104,
        "percent": 36.6,
        "used": 11299708928,
        "free": 4045635584
      }
    },
    "process": {
      "username": "evgeniya",
      "cwd": "/cw/dtailocal/mercs_python/src/core",
      "create_time": 1517850786.13,
      "cpu_times": {
        "user": 0.78,
        "system": 0.06
      }
    },
    "logfile": "/cw/dtailocal/mercs_python/out/345/jura/logs/mercspython_Log_F02",
    "command": "python /cw/dtailocal/mercs_python/bin/mercspython.py /cw/dtailocal/mercs_python/out/345/jura/settings/mercspython_Settings_F02.s"
  }
},
{
  "ts": "2018-02-05T17:13:14.105286",
  "type": "INFO",
  "values": {
    "cmd": "python /cw/dtailocal/mercs_python/bin/mercspython.py /cw/dtailocal/mercs_python/out/345/jura/settings/mercspython_Settings_F02.s",
    "cwd": null
  }
},
{
  "ts": "2018-02-05T17:13:14.125178",
  "type": "INFO",
  "values": "Start: Run process"
},
{
  "ts": "2018-02-05T17:13:14.171792",
  "type": "INFO",
  "values": "Write log to /cw/dtailocal/mercs_python/out/345/jura/logs/mercspython_Log_F02.running.log"
},
{
  "ts": "2018-02-05T17:13:16.975313",
  "type": "INFO",
  "values": "Process ended (returncode 0)"
},
{
  "ts": "2018-02-05T17:13:16.975397",
  "type": "INFO",
  "values": "Finished: Run process 2.850 seconds"
},
{
  "ts": "2018-02-05T17:13:16.975488",
  "type": "WARNING",
  "values": {
    "Exit": "finished",
    "Returncode": 0,
    "Time": 2.8502426147460938
  }
},
{
  "ts": "2018-02-05T17:13:16.983813",
  "type": "INFO",
  "values": "Closing /cw/dtailocal/mercs_python/out/345/jura/logs/mercspython_Log_F02.running.log"
}
]
