[
{
  "ts": "2018-02-05T17:09:11.367624",
  "type": "SETTINGS",
  "values": {
    "date": "2018/02/05 18:09:11",
    "date_iso": "2018-02-05T18:09:11.366773",
    "params": null,
    "system": {
      "nodename": "gibson",
      "machine": "x86_64",
      "platform": "Linux-4.4.0-112-generic-x86_64-with-debian-stretch-sid",
      "processor": "x86_64",
      "version": "#135-Ubuntu SMP Fri Jan 19 11:48:36 UTC 2018",
      "system": "Linux",
      "cpu_count": 8,
      "cpu_times": {
        "user": 140426.1,
        "system": 18648.6,
        "idle": 7637234.63,
        "nice": 751.58
      },
      "cpu_percent": 100.0,
      "virtual_memory": {
        "total": 33618501632,
        "available": 23114956800,
        "percent": 31.2,
        "used": 9523159040,
        "free": 5899497472
      }
    },
    "process": {
      "username": "evgeniya",
      "cwd": "/cw/dtailocal/mercs_python/src/core",
      "create_time": 1517850542.7,
      "cpu_times": {
        "user": 0.65,
        "system": 0.05
      }
    },
    "logfile": "/cw/dtailocal/mercs_python/out/336/enb/logs/mercspython_Log_F02",
    "command": "python /cw/dtailocal/mercs_python/bin/mercspython.py /cw/dtailocal/mercs_python/out/336/enb/settings/mercspython_Settings_F02.s"
  }
},
{
  "ts": "2018-02-05T17:09:11.367790",
  "type": "INFO",
  "values": {
    "cmd": "python /cw/dtailocal/mercs_python/bin/mercspython.py /cw/dtailocal/mercs_python/out/336/enb/settings/mercspython_Settings_F02.s",
    "cwd": null
  }
},
{
  "ts": "2018-02-05T17:09:11.391949",
  "type": "INFO",
  "values": "Start: Run process"
},
{
  "ts": "2018-02-05T17:09:11.415909",
  "type": "INFO",
  "values": "Write log to /cw/dtailocal/mercs_python/out/336/enb/logs/mercspython_Log_F02.running.log"
},
{
  "ts": "2018-02-05T17:09:15.233579",
  "type": "INFO",
  "values": "Process ended (returncode 0)"
},
{
  "ts": "2018-02-05T17:09:15.233662",
  "type": "INFO",
  "values": "Finished: Run process 3.842 seconds"
},
{
  "ts": "2018-02-05T17:09:15.233747",
  "type": "WARNING",
  "values": {
    "Exit": "finished",
    "Returncode": 0,
    "Time": 3.841736078262329
  }
},
{
  "ts": "2018-02-05T17:09:15.239800",
  "type": "INFO",
  "values": "Closing /cw/dtailocal/mercs_python/out/336/enb/logs/mercspython_Log_F02.running.log"
}
]
