[
{
  "ts": "2018-02-06T10:38:44.359770",
  "type": "SETTINGS",
  "values": {
    "date": "2018/02/06 11:38:44",
    "date_iso": "2018-02-06T11:38:44.358971",
    "params": null,
    "system": {
      "nodename": "gibson",
      "machine": "x86_64",
      "platform": "Linux-4.4.0-112-generic-x86_64-with-debian-stretch-sid",
      "processor": "x86_64",
      "version": "#135-Ubuntu SMP Fri Jan 19 11:48:36 UTC 2018",
      "system": "Linux",
      "cpu_count": 8,
      "cpu_times": {
        "user": 325577.76,
        "system": 20636.82,
        "idle": 7952695.13,
        "nice": 820.39
      },
      "cpu_percent": 50.5,
      "virtual_memory": {
        "total": 33618501632,
        "available": 20062162944,
        "percent": 40.3,
        "used": 12598702080,
        "free": 8564596736
      }
    },
    "process": {
      "username": "evgeniya",
      "cwd": "/cw/dtailocal/mercs_python/src/core",
      "create_time": 1517911796.48,
      "cpu_times": {
        "user": 2.79,
        "system": 0.58
      }
    },
    "logfile": "/cw/dtailocal/mercs_python/out/559/scm1d/logs/mercspython_Log_F06",
    "command": "python /cw/dtailocal/mercs_python/bin/mercspython.py /cw/dtailocal/mercs_python/out/559/scm1d/settings/mercspython_Settings_F06.s"
  }
},
{
  "ts": "2018-02-06T10:38:44.359914",
  "type": "INFO",
  "values": {
    "cmd": "python /cw/dtailocal/mercs_python/bin/mercspython.py /cw/dtailocal/mercs_python/out/559/scm1d/settings/mercspython_Settings_F06.s",
    "cwd": null
  }
},
{
  "ts": "2018-02-06T10:38:44.363450",
  "type": "INFO",
  "values": "Start: Run process"
},
{
  "ts": "2018-02-06T10:38:44.363966",
  "type": "INFO",
  "values": "Write log to /cw/dtailocal/mercs_python/out/559/scm1d/logs/mercspython_Log_F06.running.log"
},
{
  "ts": "2018-02-06T10:43:29.947682",
  "type": "INFO",
  "values": "Process ended (returncode 0)"
},
{
  "ts": "2018-02-06T10:43:29.947744",
  "type": "INFO",
  "values": "Finished: Run process 285.584 seconds"
},
{
  "ts": "2018-02-06T10:43:29.947803",
  "type": "WARNING",
  "values": {
    "Exit": "finished",
    "Returncode": 0,
    "Time": 285.584347486496
  }
},
{
  "ts": "2018-02-06T10:43:29.948078",
  "type": "INFO",
  "values": "Closing /cw/dtailocal/mercs_python/out/559/scm1d/logs/mercspython_Log_F06.running.log"
}
]
