[
{
  "ts": "2018-02-05T16:08:08.625068",
  "type": "SETTINGS",
  "values": {
    "date": "2018/02/05 17:08:08",
    "date_iso": "2018-02-05T17:08:08.624253",
    "params": null,
    "system": {
      "nodename": "gibson",
      "machine": "x86_64",
      "platform": "Linux-4.4.0-112-generic-x86_64-with-debian-stretch-sid",
      "processor": "x86_64",
      "version": "#135-Ubuntu SMP Fri Jan 19 11:48:36 UTC 2018",
      "system": "Linux",
      "cpu_count": 8,
      "cpu_times": {
        "user": 111416.12,
        "system": 18382.0,
        "idle": 7637229.87,
        "nice": 749.46
      },
      "cpu_percent": 99.9,
      "virtual_memory": {
        "total": 33618501632,
        "available": 23783374848,
        "percent": 29.3,
        "used": 8940273664,
        "free": 7330574336
      }
    },
    "process": {
      "username": "evgeniya",
      "cwd": "/cw/dtailocal/mercs_python/src/core",
      "create_time": 1517846848.88,
      "cpu_times": {
        "user": 1.29,
        "system": 0.21
      }
    },
    "logfile": "/cw/dtailocal/mercs_python/out/260/wq/logs/mercspython_Log_F08",
    "command": "python /cw/dtailocal/mercs_python/bin/mercspython.py /cw/dtailocal/mercs_python/out/260/wq/settings/mercspython_Settings_F08.s"
  }
},
{
  "ts": "2018-02-05T16:08:08.625214",
  "type": "INFO",
  "values": {
    "cmd": "python /cw/dtailocal/mercs_python/bin/mercspython.py /cw/dtailocal/mercs_python/out/260/wq/settings/mercspython_Settings_F08.s",
    "cwd": null
  }
},
{
  "ts": "2018-02-05T16:08:08.641084",
  "type": "INFO",
  "values": "Start: Run process"
},
{
  "ts": "2018-02-05T16:08:08.693735",
  "type": "INFO",
  "values": "Write log to /cw/dtailocal/mercs_python/out/260/wq/logs/mercspython_Log_F08.running.log"
},
{
  "ts": "2018-02-05T16:08:13.099282",
  "type": "INFO",
  "values": "Process ended (returncode 0)"
},
{
  "ts": "2018-02-05T16:08:13.099360",
  "type": "INFO",
  "values": "Finished: Run process 4.458 seconds"
},
{
  "ts": "2018-02-05T16:08:13.099438",
  "type": "WARNING",
  "values": {
    "Exit": "finished",
    "Returncode": 0,
    "Time": 4.458298683166504
  }
}
]
