[
{
  "ts": "2018-02-05T16:07:30.623976",
  "type": "SETTINGS",
  "values": {
    "date": "2018/02/05 17:07:30",
    "date_iso": "2018-02-05T17:07:30.594406",
    "params": null,
    "system": {
      "nodename": "gibson",
      "machine": "x86_64",
      "platform": "Linux-4.4.0-112-generic-x86_64-with-debian-stretch-sid",
      "processor": "x86_64",
      "version": "#135-Ubuntu SMP Fri Jan 19 11:48:36 UTC 2018",
      "system": "Linux",
      "cpu_count": 8,
      "cpu_times": {
        "user": 111119.28,
        "system": 18375.41,
        "idle": 7637229.62,
        "nice": 749.46
      },
      "cpu_percent": 99.9,
      "virtual_memory": {
        "total": 33618501632,
        "available": 21212561408,
        "percent": 36.9,
        "used": 11462467584,
        "free": 4769845248
      }
    },
    "process": {
      "username": "evgeniya",
      "cwd": "/cw/dtailocal/mercs_python/src/core",
      "create_time": 1517846848.88,
      "cpu_times": {
        "user": 0.6,
        "system": 0.06
      }
    },
    "logfile": "/cw/dtailocal/mercs_python/out/260/wq/logs/mercspython_Log_F00",
    "command": "python /cw/dtailocal/mercs_python/bin/mercspython.py /cw/dtailocal/mercs_python/out/260/wq/settings/mercspython_Settings_F00.s"
  }
},
{
  "ts": "2018-02-05T16:07:30.624137",
  "type": "INFO",
  "values": {
    "cmd": "python /cw/dtailocal/mercs_python/bin/mercspython.py /cw/dtailocal/mercs_python/out/260/wq/settings/mercspython_Settings_F00.s",
    "cwd": null
  }
},
{
  "ts": "2018-02-05T16:07:30.637122",
  "type": "INFO",
  "values": "Start: Run process"
},
{
  "ts": "2018-02-05T16:07:30.677887",
  "type": "INFO",
  "values": "Write log to /cw/dtailocal/mercs_python/out/260/wq/logs/mercspython_Log_F00.running.log"
},
{
  "ts": "2018-02-05T16:07:35.088327",
  "type": "INFO",
  "values": "Process ended (returncode 0)"
},
{
  "ts": "2018-02-05T16:07:35.088419",
  "type": "INFO",
  "values": "Finished: Run process 4.451 seconds"
},
{
  "ts": "2018-02-05T16:07:35.088515",
  "type": "WARNING",
  "values": {
    "Exit": "finished",
    "Returncode": 0,
    "Time": 4.45133900642395
  }
}
]
