ID,system,dataset,basetype,ensemble,ens_its,sel_num_targets,sel_heuristic,sel_its,prediction,query_keyword,query_param
131,mercspython,andro,Ensemble,Rforest,30,3,inv_correlation,1,Simple,basic,1
132,mercspython,edm,Ensemble,Rforest,30,3,inv_correlation,1,Simple,basic,1
133,mercspython,enb,Ensemble,Rforest,30,3,inv_correlation,1,Simple,basic,1
134,mercspython,jura,Ensemble,Rforest,30,3,inv_correlation,1,Simple,basic,1
135,mercspython,oes10,Ensemble,Rforest,30,3,inv_correlation,1,Simple,basic,1
136,mercspython,oes97,Ensemble,Rforest,30,3,inv_correlation,1,Simple,basic,1
137,mercspython,rf1,Ensemble,Rforest,30,3,inv_correlation,1,Simple,basic,1
138,mercspython,rf2,Ensemble,Rforest,30,3,inv_correlation,1,Simple,basic,1
139,mercspython,scm1d,Ensemble,Rforest,30,3,inv_correlation,1,Simple,basic,1
140,mercspython,scm20d,Ensemble,Rforest,30,3,inv_correlation,1,Simple,basic,1
141,mercspython,slump,Ensemble,Rforest,30,3,inv_correlation,1,Simple,basic,1
142,mercspython,wq,Ensemble,Rforest,30,3,inv_correlation,1,Simple,basic,1
143,mercspython,andro,Ensemble,Rforest,30,5,inv_correlation,1,Simple,basic,1
144,mercspython,edm,Ensemble,Rforest,30,5,inv_correlation,1,Simple,basic,1
145,mercspython,enb,Ensemble,Rforest,30,5,inv_correlation,1,Simple,basic,1
146,mercspython,jura,Ensemble,Rforest,30,5,inv_correlation,1,Simple,basic,1
147,mercspython,oes10,Ensemble,Rforest,30,5,inv_correlation,1,Simple,basic,1
148,mercspython,oes97,Ensemble,Rforest,30,5,inv_correlation,1,Simple,basic,1
149,mercspython,rf1,Ensemble,Rforest,30,5,inv_correlation,1,Simple,basic,1
150,mercspython,rf2,Ensemble,Rforest,30,5,inv_correlation,1,Simple,basic,1
151,mercspython,scm1d,Ensemble,Rforest,30,5,inv_correlation,1,Simple,basic,1
152,mercspython,scm20d,Ensemble,Rforest,30,5,inv_correlation,1,Simple,basic,1
153,mercspython,slump,Ensemble,Rforest,30,5,inv_correlation,1,Simple,basic,1
154,mercspython,wq,Ensemble,Rforest,30,5,inv_correlation,1,Simple,basic,1
