ID,system,dataset,basetype,ensemble,ens_its,sel_num_targets,sel_heuristic,sel_its,prediction,query_keyword,query_param
0,mercspython,andro,Ensemble,Rforest,30,3,correlation,1,Simple,basic,1
1,mercspython,andro,Ensemble,Rforest,30,3,base,1,Simple,basic,1
