[
{
  "ts": "2018-02-07T13:05:00.045033",
  "type": "SETTINGS",
  "values": {
    "date": "2018/02/07 14:05:00",
    "date_iso": "2018-02-07T14:05:00.044179",
    "params": null,
    "system": {
      "nodename": "gibson",
      "machine": "x86_64",
      "platform": "Linux-4.4.0-112-generic-x86_64-with-debian-stretch-sid",
      "processor": "x86_64",
      "version": "#135-Ubuntu SMP Fri Jan 19 11:48:36 UTC 2018",
      "system": "Linux",
      "cpu_count": 8,
      "cpu_times": {
        "user": 400433.54,
        "system": 23550.38,
        "idle": 8633959.64,
        "nice": 906.12
      },
      "cpu_percent": 99.8,
      "virtual_memory": {
        "total": 33618501632,
        "available": 25144270848,
        "percent": 25.2,
        "used": 7530717184,
        "free": 10836574208
      }
    },
    "process": {
      "username": "evgeniya",
      "cwd": "/cw/dtailocal/mercs_python/src/core",
      "create_time": 1518008668.62,
      "cpu_times": {
        "user": 1.19,
        "system": 0.2
      }
    },
    "logfile": "/cw/dtailocal/mercs_python/out/815/enb/logs/mercspython_Log_F08",
    "command": "python /cw/dtailocal/mercs_python/bin/mercspython.py /cw/dtailocal/mercs_python/out/815/enb/settings/mercspython_Settings_F08.s"
  }
},
{
  "ts": "2018-02-07T13:05:00.045186",
  "type": "INFO",
  "values": {
    "cmd": "python /cw/dtailocal/mercs_python/bin/mercspython.py /cw/dtailocal/mercs_python/out/815/enb/settings/mercspython_Settings_F08.s",
    "cwd": null
  }
},
{
  "ts": "2018-02-07T13:05:00.073300",
  "type": "INFO",
  "values": "Start: Run process"
},
{
  "ts": "2018-02-07T13:05:00.099797",
  "type": "INFO",
  "values": "Write log to /cw/dtailocal/mercs_python/out/815/enb/logs/mercspython_Log_F08.running.log"
},
{
  "ts": "2018-02-07T13:05:03.504224",
  "type": "INFO",
  "values": "Process ended (returncode 0)"
},
{
  "ts": "2018-02-07T13:05:03.504332",
  "type": "INFO",
  "values": "Finished: Run process 3.431 seconds"
},
{
  "ts": "2018-02-07T13:05:03.504434",
  "type": "WARNING",
  "values": {
    "Exit": "finished",
    "Returncode": 0,
    "Time": 3.43104887008667
  }
}
]
