[
{
  "ts": "2018-02-07T13:04:37.851752",
  "type": "SETTINGS",
  "values": {
    "date": "2018/02/07 14:04:37",
    "date_iso": "2018-02-07T14:04:37.850853",
    "params": null,
    "system": {
      "nodename": "gibson",
      "machine": "x86_64",
      "platform": "Linux-4.4.0-112-generic-x86_64-with-debian-stretch-sid",
      "processor": "x86_64",
      "version": "#135-Ubuntu SMP Fri Jan 19 11:48:36 UTC 2018",
      "system": "Linux",
      "cpu_count": 8,
      "cpu_times": {
        "user": 400262.01,
        "system": 23545.82,
        "idle": 8633958.78,
        "nice": 906.12
      },
      "cpu_percent": 99.5,
      "virtual_memory": {
        "total": 33618501632,
        "available": 25461993472,
        "percent": 24.3,
        "used": 7211642880,
        "free": 11158265856
      }
    },
    "process": {
      "username": "evgeniya",
      "cwd": "/cw/dtailocal/mercs_python/src/core",
      "create_time": 1518008668.62,
      "cpu_times": {
        "user": 0.71,
        "system": 0.1
      }
    },
    "logfile": "/cw/dtailocal/mercs_python/out/815/enb/logs/mercspython_Log_F02",
    "command": "python /cw/dtailocal/mercs_python/bin/mercspython.py /cw/dtailocal/mercs_python/out/815/enb/settings/mercspython_Settings_F02.s"
  }
},
{
  "ts": "2018-02-07T13:04:37.851918",
  "type": "INFO",
  "values": {
    "cmd": "python /cw/dtailocal/mercs_python/bin/mercspython.py /cw/dtailocal/mercs_python/out/815/enb/settings/mercspython_Settings_F02.s",
    "cwd": null
  }
},
{
  "ts": "2018-02-07T13:04:37.869130",
  "type": "INFO",
  "values": "Start: Run process"
},
{
  "ts": "2018-02-07T13:04:37.899804",
  "type": "INFO",
  "values": "Write log to /cw/dtailocal/mercs_python/out/815/enb/logs/mercspython_Log_F02.running.log"
},
{
  "ts": "2018-02-07T13:04:41.719186",
  "type": "INFO",
  "values": "Process ended (returncode 0)"
},
{
  "ts": "2018-02-07T13:04:41.719264",
  "type": "INFO",
  "values": "Finished: Run process 3.850 seconds"
},
{
  "ts": "2018-02-07T13:04:41.719346",
  "type": "WARNING",
  "values": {
    "Exit": "finished",
    "Returncode": 0,
    "Time": 3.850156784057617
  }
},
{
  "ts": "2018-02-07T13:04:41.735832",
  "type": "INFO",
  "values": "Closing /cw/dtailocal/mercs_python/out/815/enb/logs/mercspython_Log_F02.running.log"
}
]
