[
{
  "ts": "2018-02-05T15:46:03.656103",
  "type": "SETTINGS",
  "values": {
    "date": "2018/02/05 16:46:03",
    "date_iso": "2018-02-05T16:46:03.639722",
    "params": null,
    "system": {
      "nodename": "gibson",
      "machine": "x86_64",
      "platform": "Linux-4.4.0-112-generic-x86_64-with-debian-stretch-sid",
      "processor": "x86_64",
      "version": "#135-Ubuntu SMP Fri Jan 19 11:48:36 UTC 2018",
      "system": "Linux",
      "cpu_count": 8,
      "cpu_times": {
        "user": 100952.52,
        "system": 18251.61,
        "idle": 7637228.08,
        "nice": 749.46
      },
      "cpu_percent": 100.0,
      "virtual_memory": {
        "total": 33618501632,
        "available": 23709450240,
        "percent": 29.5,
        "used": 8964632576,
        "free": 7495450624
      }
    },
    "process": {
      "username": "evgeniya",
      "cwd": "/cw/dtailocal/mercs_python/src/core",
      "create_time": 1517845562.15,
      "cpu_times": {
        "user": 0.47,
        "system": 0.07
      }
    },
    "logfile": "/cw/dtailocal/mercs_python/out/252/enb/logs/mercspython_Log_F00",
    "command": "python /cw/dtailocal/mercs_python/bin/mercspython.py /cw/dtailocal/mercs_python/out/252/enb/settings/mercspython_Settings_F00.s"
  }
},
{
  "ts": "2018-02-05T15:46:03.656269",
  "type": "INFO",
  "values": {
    "cmd": "python /cw/dtailocal/mercs_python/bin/mercspython.py /cw/dtailocal/mercs_python/out/252/enb/settings/mercspython_Settings_F00.s",
    "cwd": null
  }
},
{
  "ts": "2018-02-05T15:46:03.673424",
  "type": "INFO",
  "values": "Start: Run process"
},
{
  "ts": "2018-02-05T15:46:03.699804",
  "type": "INFO",
  "values": "Write log to /cw/dtailocal/mercs_python/out/252/enb/logs/mercspython_Log_F00.running.log"
},
{
  "ts": "2018-02-05T15:46:06.307709",
  "type": "INFO",
  "values": "Process ended (returncode 0)"
},
{
  "ts": "2018-02-05T15:46:06.307791",
  "type": "INFO",
  "values": "Finished: Run process 2.634 seconds"
},
{
  "ts": "2018-02-05T15:46:06.307879",
  "type": "WARNING",
  "values": {
    "Exit": "finished",
    "Returncode": 0,
    "Time": 2.6344099044799805
  }
},
{
  "ts": "2018-02-05T15:46:06.315829",
  "type": "INFO",
  "values": "Closing /cw/dtailocal/mercs_python/out/252/enb/logs/mercspython_Log_F00.running.log"
}
]
