[
{
  "ts": "2018-02-05T15:46:06.317334",
  "type": "SETTINGS",
  "values": {
    "date": "2018/02/05 16:46:06",
    "date_iso": "2018-02-05T16:46:06.316408",
    "params": null,
    "system": {
      "nodename": "gibson",
      "machine": "x86_64",
      "platform": "Linux-4.4.0-112-generic-x86_64-with-debian-stretch-sid",
      "processor": "x86_64",
      "version": "#135-Ubuntu SMP Fri Jan 19 11:48:36 UTC 2018",
      "system": "Linux",
      "cpu_count": 8,
      "cpu_times": {
        "user": 100973.78,
        "system": 18251.75,
        "idle": 7637228.08,
        "nice": 749.46
      },
      "cpu_percent": 100.0,
      "virtual_memory": {
        "total": 33618501632,
        "available": 23590219776,
        "percent": 29.8,
        "used": 9083842560,
        "free": 7375953920
      }
    },
    "process": {
      "username": "evgeniya",
      "cwd": "/cw/dtailocal/mercs_python/src/core",
      "create_time": 1517845562.15,
      "cpu_times": {
        "user": 0.68,
        "system": 0.08
      }
    },
    "logfile": "/cw/dtailocal/mercs_python/out/252/enb/logs/mercspython_Log_F01",
    "command": "python /cw/dtailocal/mercs_python/bin/mercspython.py /cw/dtailocal/mercs_python/out/252/enb/settings/mercspython_Settings_F01.s"
  }
},
{
  "ts": "2018-02-05T15:46:06.317497",
  "type": "INFO",
  "values": {
    "cmd": "python /cw/dtailocal/mercs_python/bin/mercspython.py /cw/dtailocal/mercs_python/out/252/enb/settings/mercspython_Settings_F01.s",
    "cwd": null
  }
},
{
  "ts": "2018-02-05T15:46:06.361103",
  "type": "INFO",
  "values": "Start: Run process"
},
{
  "ts": "2018-02-05T15:46:06.387808",
  "type": "INFO",
  "values": "Write log to /cw/dtailocal/mercs_python/out/252/enb/logs/mercspython_Log_F01.running.log"
},
{
  "ts": "2018-02-05T15:46:08.999709",
  "type": "INFO",
  "values": "Process ended (returncode 0)"
},
{
  "ts": "2018-02-05T15:46:08.999788",
  "type": "INFO",
  "values": "Finished: Run process 2.639 seconds"
},
{
  "ts": "2018-02-05T15:46:08.999871",
  "type": "WARNING",
  "values": {
    "Exit": "finished",
    "Returncode": 0,
    "Time": 2.6387128829956055
  }
}
]
