[
{
  "ts": "2018-02-05T15:46:09.009040",
  "type": "SETTINGS",
  "values": {
    "date": "2018/02/05 16:46:09",
    "date_iso": "2018-02-05T16:46:09.008173",
    "params": null,
    "system": {
      "nodename": "gibson",
      "machine": "x86_64",
      "platform": "Linux-4.4.0-112-generic-x86_64-with-debian-stretch-sid",
      "processor": "x86_64",
      "version": "#135-Ubuntu SMP Fri Jan 19 11:48:36 UTC 2018",
      "system": "Linux",
      "cpu_count": 8,
      "cpu_times": {
        "user": 100994.97,
        "system": 18252.08,
        "idle": 7637228.08,
        "nice": 749.46
      },
      "cpu_percent": 100.0,
      "virtual_memory": {
        "total": 33618501632,
        "available": 23541559296,
        "percent": 30.0,
        "used": 9132498944,
        "free": 7326056448
      }
    },
    "process": {
      "username": "evgeniya",
      "cwd": "/cw/dtailocal/mercs_python/src/core",
      "create_time": 1517845562.15,
      "cpu_times": {
        "user": 0.83,
        "system": 0.12
      }
    },
    "logfile": "/cw/dtailocal/mercs_python/out/252/enb/logs/mercspython_Log_F02",
    "command": "python /cw/dtailocal/mercs_python/bin/mercspython.py /cw/dtailocal/mercs_python/out/252/enb/settings/mercspython_Settings_F02.s"
  }
},
{
  "ts": "2018-02-05T15:46:09.009308",
  "type": "INFO",
  "values": {
    "cmd": "python /cw/dtailocal/mercs_python/bin/mercspython.py /cw/dtailocal/mercs_python/out/252/enb/settings/mercspython_Settings_F02.s",
    "cwd": null
  }
},
{
  "ts": "2018-02-05T15:46:09.024930",
  "type": "INFO",
  "values": "Start: Run process"
},
{
  "ts": "2018-02-05T15:46:09.055808",
  "type": "INFO",
  "values": "Write log to /cw/dtailocal/mercs_python/out/252/enb/logs/mercspython_Log_F02.running.log"
},
{
  "ts": "2018-02-05T15:46:12.059549",
  "type": "INFO",
  "values": "Process ended (returncode 0)"
},
{
  "ts": "2018-02-05T15:46:12.059634",
  "type": "INFO",
  "values": "Finished: Run process 3.035 seconds"
},
{
  "ts": "2018-02-05T15:46:12.059714",
  "type": "WARNING",
  "values": {
    "Exit": "finished",
    "Returncode": 0,
    "Time": 3.0347368717193604
  }
},
{
  "ts": "2018-02-05T15:46:12.067797",
  "type": "INFO",
  "values": "Closing /cw/dtailocal/mercs_python/out/252/enb/logs/mercspython_Log_F02.running.log"
}
]
