[
{
  "ts": "2018-02-05T14:49:38.144663",
  "type": "SETTINGS",
  "values": {
    "date": "2018/02/05 15:49:38",
    "date_iso": "2018-02-05T15:49:38.143798",
    "params": null,
    "system": {
      "nodename": "gibson",
      "machine": "x86_64",
      "platform": "Linux-4.4.0-112-generic-x86_64-with-debian-stretch-sid",
      "processor": "x86_64",
      "version": "#135-Ubuntu SMP Fri Jan 19 11:48:36 UTC 2018",
      "system": "Linux",
      "cpu_count": 8,
      "cpu_times": {
        "user": 80853.81,
        "system": 18024.02,
        "idle": 7630549.67,
        "nice": 732.25
      },
      "cpu_percent": 97.6,
      "virtual_memory": {
        "total": 33618501632,
        "available": 24962482176,
        "percent": 25.7,
        "used": 7579029504,
        "free": 9678241792
      }
    },
    "process": {
      "username": "evgeniya",
      "cwd": "/cw/dtailocal/mercs_python/src/core",
      "create_time": 1517842171.93,
      "cpu_times": {
        "user": 0.62,
        "system": 0.1
      }
    },
    "logfile": "/cw/dtailocal/mercs_python/out/312/enb/logs/mercspython_Log_F01",
    "command": "python /cw/dtailocal/mercs_python/bin/mercspython.py /cw/dtailocal/mercs_python/out/312/enb/settings/mercspython_Settings_F01.s"
  }
},
{
  "ts": "2018-02-05T14:49:38.144857",
  "type": "INFO",
  "values": {
    "cmd": "python /cw/dtailocal/mercs_python/bin/mercspython.py /cw/dtailocal/mercs_python/out/312/enb/settings/mercspython_Settings_F01.s",
    "cwd": null
  }
},
{
  "ts": "2018-02-05T14:49:38.160083",
  "type": "INFO",
  "values": "Start: Run process"
},
{
  "ts": "2018-02-05T14:49:38.171922",
  "type": "INFO",
  "values": "Write log to /cw/dtailocal/mercs_python/out/312/enb/logs/mercspython_Log_F01.running.log"
},
{
  "ts": "2018-02-05T14:49:42.577150",
  "type": "INFO",
  "values": "Process ended (returncode 0)"
},
{
  "ts": "2018-02-05T14:49:42.577232",
  "type": "INFO",
  "values": "Finished: Run process 4.417 seconds"
},
{
  "ts": "2018-02-05T14:49:42.577319",
  "type": "WARNING",
  "values": {
    "Exit": "finished",
    "Returncode": 0,
    "Time": 4.417179584503174
  }
}
]
