[SETTINGS] {
  "date": "2018/02/05 17:32:49",
  "date_iso": "2018-02-05T17:32:49.800211",
  "params": null,
  "system": {
    "nodename": "gibson",
    "machine": "x86_64",
    "platform": "Linux-4.4.0-112-generic-x86_64-with-debian-stretch-sid",
    "processor": "x86_64",
    "version": "#135-Ubuntu SMP Fri Jan 19 11:48:36 UTC 2018",
    "system": "Linux",
    "cpu_count": 8,
    "cpu_times": {
      "user": 123127.91,
      "system": 18504.99,
      "idle": 7637233.46,
      "nice": 751.58
    },
    "cpu_percent": 100.0,
    "virtual_memory": {
      "total": 33618501632,
      "available": 25606807552,
      "percent": 23.8,
      "used": 7033331712,
      "free": 8673202176
    }
  },
  "process": {
    "username": "evgeniya",
    "cwd": "/cw/dtailocal/mercs_python/src/core",
    "create_time": 1517848121.5,
    "cpu_times": {
      "user": 2.13,
      "system": 0.18
    }
  },
  "logfile": "/cw/dtailocal/mercs_python/out/285/oes97/logs/mercspython_Log_F04",
  "command": "python /cw/dtailocal/mercs_python/bin/mercspython.py /cw/dtailocal/mercs_python/out/285/oes97/settings/mercspython_Settings_F04.s"
}
[INFO] cmd:python /cw/dtailocal/mercs_python/bin/mercspython.py /cw/dtailocal/mercs_python/out/285/oes97/settings/mercspython_Settings_F04.s; cwd:None
[INFO] Start: Run process
[INFO] Write log to /cw/dtailocal/mercs_python/out/285/oes97/logs/mercspython_Log_F04.running.log
[STDERR] /cw/dtailocal/mercs_python/bin/mercspython.py:479: DataConversionWarning: A column-vector y was passed when a 1d array was expected. Please change the shape of y to (n_samples,), for example using ravel().
[STDERR]   rf.fit(X, y)
[STDERR] /cw/dtailocal/mercs_python/bin/mercspython.py:479: DataConversionWarning: A column-vector y was passed when a 1d array was expected. Please change the shape of y to (n_samples,), for example using ravel().
[STDERR]   rf.fit(X, y)
[STDERR] /cw/dtailocal/mercs_python/bin/mercspython.py:479: DataConversionWarning: A column-vector y was passed when a 1d array was expected. Please change the shape of y to (n_samples,), for example using ravel().
[STDERR]   rf.fit(X, y)
[STDERR] /cw/dtailocal/mercs_python/bin/mercspython.py:479: DataConversionWarning: A column-vector y was passed when a 1d array was expected. Please change the shape of y to (n_samples,), for example using ravel().
[STDERR]   rf.fit(X, y)
[STDERR] /cw/dtailocal/mercs_python/bin/mercspython.py:479: DataConversionWarning: A column-vector y was passed when a 1d array was expected. Please change the shape of y to (n_samples,), for example using ravel().
[STDERR]   rf.fit(X, y)
[STDERR] /cw/dtailocal/mercs_python/bin/mercspython.py:479: DataConversionWarning: A column-vector y was passed when a 1d array was expected. Please change the shape of y to (n_samples,), for example using ravel().
[STDERR]   rf.fit(X, y)
[STDERR] /cw/dtailocal/mercs_python/bin/mercspython.py:479: DataConversionWarning: A column-vector y was passed when a 1d array was expected. Please change the shape of y to (n_samples,), for example using ravel().
[STDERR]   rf.fit(X, y)
[STDERR] /cw/dtailocal/mercs_python/bin/mercspython.py:479: DataConversionWarning: A column-vector y was passed when a 1d array was expected. Please change the shape of y to (n_samples,), for example using ravel().
[STDERR]   rf.fit(X, y)
[STDERR] /cw/dtailocal/mercs_python/bin/mercspython.py:479: DataConversionWarning: A column-vector y was passed when a 1d array was expected. Please change the shape of y to (n_samples,), for example using ravel().
[STDERR]   rf.fit(X, y)
[STDERR] /cw/dtailocal/mercs_python/bin/mercspython.py:479: DataConversionWarning: A column-vector y was passed when a 1d array was expected. Please change the shape of y to (n_samples,), for example using ravel().
[STDERR]   rf.fit(X, y)
[STDERR] /cw/dtailocal/mercs_python/bin/mercspython.py:479: DataConversionWarning: A column-vector y was passed when a 1d array was expected. Please change the shape of y to (n_samples,), for example using ravel().
[STDERR]   rf.fit(X, y)
[STDERR] /cw/dtailocal/mercs_python/bin/mercspython.py:479: DataConversionWarning: A column-vector y was passed when a 1d array was expected. Please change the shape of y to (n_samples,), for example using ravel().
[STDERR]   rf.fit(X, y)
[STDERR] /cw/dtailocal/mercs_python/bin/mercspython.py:479: DataConversionWarning: A column-vector y was passed when a 1d array was expected. Please change the shape of y to (n_samples,), for example using ravel().
[STDERR]   rf.fit(X, y)
[STDERR] /cw/dtailocal/mercs_python/bin/mercspython.py:479: DataConversionWarning: A column-vector y was passed when a 1d array was expected. Please change the shape of y to (n_samples,), for example using ravel().
[STDERR]   rf.fit(X, y)
[STDERR] /cw/dtailocal/mercs_python/bin/mercspython.py:479: DataConversionWarning: A column-vector y was passed when a 1d array was expected. Please change the shape of y to (n_samples,), for example using ravel().
[STDERR]   rf.fit(X, y)
[STDERR] /cw/dtailocal/mercs_python/bin/mercspython.py:479: DataConversionWarning: A column-vector y was passed when a 1d array was expected. Please change the shape of y to (n_samples,), for example using ravel().
[STDERR]   rf.fit(X, y)
[STDERR] /cw/dtailocal/mercs_python/bin/mercspython.py:479: DataConversionWarning: A column-vector y was passed when a 1d array was expected. Please change the shape of y to (n_samples,), for example using ravel().
[STDERR]   rf.fit(X, y)
[STDERR] /cw/dtailocal/mercs_python/bin/mercspython.py:479: DataConversionWarning: A column-vector y was passed when a 1d array was expected. Please change the shape of y to (n_samples,), for example using ravel().
[STDERR]   rf.fit(X, y)
[STDERR] /cw/dtailocal/mercs_python/bin/mercspython.py:479: DataConversionWarning: A column-vector y was passed when a 1d array was expected. Please change the shape of y to (n_samples,), for example using ravel().
[STDERR]   rf.fit(X, y)
[STDERR] /cw/dtailocal/mercs_python/bin/mercspython.py:479: DataConversionWarning: A column-vector y was passed when a 1d array was expected. Please change the shape of y to (n_samples,), for example using ravel().
[STDERR]   rf.fit(X, y)
[STDERR] /cw/dtailocal/mercs_python/bin/mercspython.py:479: DataConversionWarning: A column-vector y was passed when a 1d array was expected. Please change the shape of y to (n_samples,), for example using ravel().
[STDERR]   rf.fit(X, y)
[STDERR] /cw/dtailocal/mercs_python/bin/mercspython.py:479: DataConversionWarning: A column-vector y was passed when a 1d array was expected. Please change the shape of y to (n_samples,), for example using ravel().
[STDERR]   rf.fit(X, y)
[STDERR] /cw/dtailocal/mercs_python/bin/mercspython.py:479: DataConversionWarning: A column-vector y was passed when a 1d array was expected. Please change the shape of y to (n_samples,), for example using ravel().
[STDERR]   rf.fit(X, y)
[STDERR] /cw/dtailocal/mercs_python/bin/mercspython.py:479: DataConversionWarning: A column-vector y was passed when a 1d array was expected. Please change the shape of y to (n_samples,), for example using ravel().
[STDERR]   rf.fit(X, y)
[STDERR] /cw/dtailocal/mercs_python/bin/mercspython.py:479: DataConversionWarning: A column-vector y was passed when a 1d array was expected. Please change the shape of y to (n_samples,), for example using ravel().
[STDERR]   rf.fit(X, y)
[STDERR] /cw/dtailocal/mercs_python/bin/mercspython.py:479: DataConversionWarning: A column-vector y was passed when a 1d array was expected. Please change the shape of y to (n_samples,), for example using ravel().
[STDERR]   rf.fit(X, y)
[STDERR] /cw/dtailocal/mercs_python/bin/mercspython.py:479: DataConversionWarning: A column-vector y was passed when a 1d array was expected. Please change the shape of y to (n_samples,), for example using ravel().
[STDERR]   rf.fit(X, y)
[STDERR] /cw/dtailocal/mercs_python/bin/mercspython.py:479: DataConversionWarning: A column-vector y was passed when a 1d array was expected. Please change the shape of y to (n_samples,), for example using ravel().
[STDERR]   rf.fit(X, y)
[STDERR] /cw/dtailocal/mercs_python/bin/mercspython.py:479: DataConversionWarning: A column-vector y was passed when a 1d array was expected. Please change the shape of y to (n_samples,), for example using ravel().
[STDERR]   rf.fit(X, y)
[STDERR] /cw/dtailocal/mercs_python/bin/mercspython.py:479: DataConversionWarning: A column-vector y was passed when a 1d array was expected. Please change the shape of y to (n_samples,), for example using ravel().
[STDERR]   rf.fit(X, y)
[STDERR] /cw/dtailocal/mercs_python/bin/mercspython.py:479: DataConversionWarning: A column-vector y was passed when a 1d array was expected. Please change the shape of y to (n_samples,), for example using ravel().
[STDERR]   rf.fit(X, y)
[STDERR] /cw/dtailocal/mercs_python/bin/mercspython.py:479: DataConversionWarning: A column-vector y was passed when a 1d array was expected. Please change the shape of y to (n_samples,), for example using ravel().
[STDERR]   rf.fit(X, y)
[STDERR] /cw/dtailocal/mercs_python/bin/mercspython.py:479: DataConversionWarning: A column-vector y was passed when a 1d array was expected. Please change the shape of y to (n_samples,), for example using ravel().
[STDERR]   rf.fit(X, y)
[STDERR] /cw/dtailocal/mercs_python/bin/mercspython.py:479: DataConversionWarning: A column-vector y was passed when a 1d array was expected. Please change the shape of y to (n_samples,), for example using ravel().
[STDERR]   rf.fit(X, y)
[STDERR] /cw/dtailocal/mercs_python/bin/mercspython.py:479: DataConversionWarning: A column-vector y was passed when a 1d array was expected. Please change the shape of y to (n_samples,), for example using ravel().
[STDERR]   rf.fit(X, y)
[STDERR] /cw/dtailocal/mercs_python/bin/mercspython.py:479: DataConversionWarning: A column-vector y was passed when a 1d array was expected. Please change the shape of y to (n_samples,), for example using ravel().
[STDERR]   rf.fit(X, y)
[STDERR] /cw/dtailocal/mercs_python/bin/mercspython.py:479: DataConversionWarning: A column-vector y was passed when a 1d array was expected. Please change the shape of y to (n_samples,), for example using ravel().
[STDERR]   rf.fit(X, y)
[STDERR] /cw/dtailocal/mercs_python/bin/mercspython.py:479: DataConversionWarning: A column-vector y was passed when a 1d array was expected. Please change the shape of y to (n_samples,), for example using ravel().
[STDERR]   rf.fit(X, y)
[STDERR] /cw/dtailocal/mercs_python/bin/mercspython.py:479: DataConversionWarning: A column-vector y was passed when a 1d array was expected. Please change the shape of y to (n_samples,), for example using ravel().
[STDERR]   rf.fit(X, y)
[STDERR] /cw/dtailocal/mercs_python/bin/mercspython.py:479: DataConversionWarning: A column-vector y was passed when a 1d array was expected. Please change the shape of y to (n_samples,), for example using ravel().
[STDERR]   rf.fit(X, y)
[STDERR] /cw/dtailocal/mercs_python/bin/mercspython.py:479: DataConversionWarning: A column-vector y was passed when a 1d array was expected. Please change the shape of y to (n_samples,), for example using ravel().
[STDERR]   rf.fit(X, y)
[STDERR] /cw/dtailocal/mercs_python/bin/mercspython.py:479: DataConversionWarning: A column-vector y was passed when a 1d array was expected. Please change the shape of y to (n_samples,), for example using ravel().
[STDERR]   rf.fit(X, y)
[STDERR] /cw/dtailocal/mercs_python/bin/mercspython.py:479: DataConversionWarning: A column-vector y was passed when a 1d array was expected. Please change the shape of y to (n_samples,), for example using ravel().
[STDERR]   rf.fit(X, y)
[STDERR] /cw/dtailocal/mercs_python/bin/mercspython.py:479: DataConversionWarning: A column-vector y was passed when a 1d array was expected. Please change the shape of y to (n_samples,), for example using ravel().
[STDERR]   rf.fit(X, y)
[STDERR] /cw/dtailocal/mercs_python/bin/mercspython.py:479: DataConversionWarning: A column-vector y was passed when a 1d array was expected. Please change the shape of y to (n_samples,), for example using ravel().
[STDERR]   rf.fit(X, y)
[STDERR] /cw/dtailocal/mercs_python/bin/mercspython.py:479: DataConversionWarning: A column-vector y was passed when a 1d array was expected. Please change the shape of y to (n_samples,), for example using ravel().
[STDERR]   rf.fit(X, y)
[STDERR] /cw/dtailocal/mercs_python/bin/mercspython.py:479: DataConversionWarning: A column-vector y was passed when a 1d array was expected. Please change the shape of y to (n_samples,), for example using ravel().
[STDERR]   rf.fit(X, y)
[STDERR] /cw/dtailocal/mercs_python/bin/mercspython.py:479: DataConversionWarning: A column-vector y was passed when a 1d array was expected. Please change the shape of y to (n_samples,), for example using ravel().
[STDERR]   rf.fit(X, y)
[STDERR] /cw/dtailocal/mercs_python/bin/mercspython.py:479: DataConversionWarning: A column-vector y was passed when a 1d array was expected. Please change the shape of y to (n_samples,), for example using ravel().
[STDERR]   rf.fit(X, y)
[STDERR] /cw/dtailocal/mercs_python/bin/mercspython.py:479: DataConversionWarning: A column-vector y was passed when a 1d array was expected. Please change the shape of y to (n_samples,), for example using ravel().
[STDERR]   rf.fit(X, y)
[STDERR] /cw/dtailocal/mercs_python/bin/mercspython.py:479: DataConversionWarning: A column-vector y was passed when a 1d array was expected. Please change the shape of y to (n_samples,), for example using ravel().
[STDERR]   rf.fit(X, y)
[STDERR] /cw/dtailocal/mercs_python/bin/mercspython.py:479: DataConversionWarning: A column-vector y was passed when a 1d array was expected. Please change the shape of y to (n_samples,), for example using ravel().
[STDERR]   rf.fit(X, y)
[STDERR] /cw/dtailocal/mercs_python/bin/mercspython.py:479: DataConversionWarning: A column-vector y was passed when a 1d array was expected. Please change the shape of y to (n_samples,), for example using ravel().
[STDERR]   rf.fit(X, y)
[STDERR] /cw/dtailocal/mercs_python/bin/mercspython.py:479: DataConversionWarning: A column-vector y was passed when a 1d array was expected. Please change the shape of y to (n_samples,), for example using ravel().
[STDERR]   rf.fit(X, y)
[STDERR] /cw/dtailocal/mercs_python/bin/mercspython.py:479: DataConversionWarning: A column-vector y was passed when a 1d array was expected. Please change the shape of y to (n_samples,), for example using ravel().
[STDERR]   rf.fit(X, y)
[STDERR] /cw/dtailocal/mercs_python/bin/mercspython.py:479: DataConversionWarning: A column-vector y was passed when a 1d array was expected. Please change the shape of y to (n_samples,), for example using ravel().
[STDERR]   rf.fit(X, y)
[STDERR] /cw/dtailocal/mercs_python/bin/mercspython.py:479: DataConversionWarning: A column-vector y was passed when a 1d array was expected. Please change the shape of y to (n_samples,), for example using ravel().
[STDERR]   rf.fit(X, y)
[STDERR] /cw/dtailocal/mercs_python/bin/mercspython.py:479: DataConversionWarning: A column-vector y was passed when a 1d array was expected. Please change the shape of y to (n_samples,), for example using ravel().
[STDERR]   rf.fit(X, y)
[STDERR] /cw/dtailocal/mercs_python/bin/mercspython.py:479: DataConversionWarning: A column-vector y was passed when a 1d array was expected. Please change the shape of y to (n_samples,), for example using ravel().
[STDERR]   rf.fit(X, y)
[STDERR] /cw/dtailocal/mercs_python/bin/mercspython.py:479: DataConversionWarning: A column-vector y was passed when a 1d array was expected. Please change the shape of y to (n_samples,), for example using ravel().
[STDERR]   rf.fit(X, y)
[STDERR] /cw/dtailocal/mercs_python/bin/mercspython.py:479: DataConversionWarning: A column-vector y was passed when a 1d array was expected. Please change the shape of y to (n_samples,), for example using ravel().
[STDERR]   rf.fit(X, y)
[STDERR] /cw/dtailocal/mercs_python/bin/mercspython.py:479: DataConversionWarning: A column-vector y was passed when a 1d array was expected. Please change the shape of y to (n_samples,), for example using ravel().
[STDERR]   rf.fit(X, y)
[STDERR] /cw/dtailocal/mercs_python/bin/mercspython.py:479: DataConversionWarning: A column-vector y was passed when a 1d array was expected. Please change the shape of y to (n_samples,), for example using ravel().
[STDERR]   rf.fit(X, y)
[STDERR] /cw/dtailocal/mercs_python/bin/mercspython.py:479: DataConversionWarning: A column-vector y was passed when a 1d array was expected. Please change the shape of y to (n_samples,), for example using ravel().
[STDERR]   rf.fit(X, y)
[STDERR] /cw/dtailocal/mercs_python/bin/mercspython.py:479: DataConversionWarning: A column-vector y was passed when a 1d array was expected. Please change the shape of y to (n_samples,), for example using ravel().
[STDERR]   rf.fit(X, y)
[STDERR] /cw/dtailocal/mercs_python/bin/mercspython.py:479: DataConversionWarning: A column-vector y was passed when a 1d array was expected. Please change the shape of y to (n_samples,), for example using ravel().
[STDERR]   rf.fit(X, y)
[STDERR] /cw/dtailocal/mercs_python/bin/mercspython.py:479: DataConversionWarning: A column-vector y was passed when a 1d array was expected. Please change the shape of y to (n_samples,), for example using ravel().
[STDERR]   rf.fit(X, y)
[STDERR] /cw/dtailocal/mercs_python/bin/mercspython.py:479: DataConversionWarning: A column-vector y was passed when a 1d array was expected. Please change the shape of y to (n_samples,), for example using ravel().
[STDERR]   rf.fit(X, y)
[STDERR] /cw/dtailocal/mercs_python/bin/mercspython.py:479: DataConversionWarning: A column-vector y was passed when a 1d array was expected. Please change the shape of y to (n_samples,), for example using ravel().
[STDERR]   rf.fit(X, y)
[STDERR] /cw/dtailocal/mercs_python/bin/mercspython.py:479: DataConversionWarning: A column-vector y was passed when a 1d array was expected. Please change the shape of y to (n_samples,), for example using ravel().
[STDERR]   rf.fit(X, y)
[STDERR] /cw/dtailocal/mercs_python/bin/mercspython.py:479: DataConversionWarning: A column-vector y was passed when a 1d array was expected. Please change the shape of y to (n_samples,), for example using ravel().
[STDERR]   rf.fit(X, y)
[STDERR] /cw/dtailocal/mercs_python/bin/mercspython.py:479: DataConversionWarning: A column-vector y was passed when a 1d array was expected. Please change the shape of y to (n_samples,), for example using ravel().
[STDERR]   rf.fit(X, y)
[STDERR] /cw/dtailocal/mercs_python/bin/mercspython.py:479: DataConversionWarning: A column-vector y was passed when a 1d array was expected. Please change the shape of y to (n_samples,), for example using ravel().
[STDERR]   rf.fit(X, y)
[STDERR] /cw/dtailocal/mercs_python/bin/mercspython.py:479: DataConversionWarning: A column-vector y was passed when a 1d array was expected. Please change the shape of y to (n_samples,), for example using ravel().
[STDERR]   rf.fit(X, y)
[STDERR] /cw/dtailocal/mercs_python/bin/mercspython.py:479: DataConversionWarning: A column-vector y was passed when a 1d array was expected. Please change the shape of y to (n_samples,), for example using ravel().
[STDERR]   rf.fit(X, y)
[STDERR] /cw/dtailocal/mercs_python/bin/mercspython.py:479: DataConversionWarning: A column-vector y was passed when a 1d array was expected. Please change the shape of y to (n_samples,), for example using ravel().
[STDERR]   rf.fit(X, y)
[STDERR] /cw/dtailocal/mercs_python/bin/mercspython.py:479: DataConversionWarning: A column-vector y was passed when a 1d array was expected. Please change the shape of y to (n_samples,), for example using ravel().
[STDERR]   rf.fit(X, y)
[STDERR] /cw/dtailocal/mercs_python/bin/mercspython.py:479: DataConversionWarning: A column-vector y was passed when a 1d array was expected. Please change the shape of y to (n_samples,), for example using ravel().
[STDERR]   rf.fit(X, y)
[STDERR] /cw/dtailocal/mercs_python/bin/mercspython.py:479: DataConversionWarning: A column-vector y was passed when a 1d array was expected. Please change the shape of y to (n_samples,), for example using ravel().
[STDERR]   rf.fit(X, y)
[STDERR] /cw/dtailocal/mercs_python/bin/mercspython.py:479: DataConversionWarning: A column-vector y was passed when a 1d array was expected. Please change the shape of y to (n_samples,), for example using ravel().
[STDERR]   rf.fit(X, y)
[STDERR] /cw/dtailocal/mercs_python/bin/mercspython.py:479: DataConversionWarning: A column-vector y was passed when a 1d array was expected. Please change the shape of y to (n_samples,), for example using ravel().
[STDERR]   rf.fit(X, y)
[STDERR] /cw/dtailocal/mercs_python/bin/mercspython.py:479: DataConversionWarning: A column-vector y was passed when a 1d array was expected. Please change the shape of y to (n_samples,), for example using ravel().
[STDERR]   rf.fit(X, y)
[STDERR] /cw/dtailocal/mercs_python/bin/mercspython.py:479: DataConversionWarning: A column-vector y was passed when a 1d array was expected. Please change the shape of y to (n_samples,), for example using ravel().
[STDERR]   rf.fit(X, y)
[STDERR] /cw/dtailocal/mercs_python/bin/mercspython.py:479: DataConversionWarning: A column-vector y was passed when a 1d array was expected. Please change the shape of y to (n_samples,), for example using ravel().
[STDERR]   rf.fit(X, y)
[STDERR] /cw/dtailocal/mercs_python/bin/mercspython.py:479: DataConversionWarning: A column-vector y was passed when a 1d array was expected. Please change the shape of y to (n_samples,), for example using ravel().
[STDERR]   rf.fit(X, y)
[STDERR] /cw/dtailocal/mercs_python/bin/mercspython.py:479: DataConversionWarning: A column-vector y was passed when a 1d array was expected. Please change the shape of y to (n_samples,), for example using ravel().
[STDERR]   rf.fit(X, y)
[STDERR] /cw/dtailocal/mercs_python/bin/mercspython.py:479: DataConversionWarning: A column-vector y was passed when a 1d array was expected. Please change the shape of y to (n_samples,), for example using ravel().
[STDERR]   rf.fit(X, y)
[STDERR] /cw/dtailocal/mercs_python/bin/mercspython.py:479: DataConversionWarning: A column-vector y was passed when a 1d array was expected. Please change the shape of y to (n_samples,), for example using ravel().
[STDERR]   rf.fit(X, y)
[STDERR] /cw/dtailocal/mercs_python/bin/mercspython.py:479: DataConversionWarning: A column-vector y was passed when a 1d array was expected. Please change the shape of y to (n_samples,), for example using ravel().
[STDERR]   rf.fit(X, y)
[STDERR] /cw/dtailocal/mercs_python/bin/mercspython.py:479: DataConversionWarning: A column-vector y was passed when a 1d array was expected. Please change the shape of y to (n_samples,), for example using ravel().
[STDERR]   rf.fit(X, y)
[STDERR] /cw/dtailocal/mercs_python/bin/mercspython.py:479: DataConversionWarning: A column-vector y was passed when a 1d array was expected. Please change the shape of y to (n_samples,), for example using ravel().
[STDERR]   rf.fit(X, y)
[STDERR] /cw/dtailocal/mercs_python/bin/mercspython.py:479: DataConversionWarning: A column-vector y was passed when a 1d array was expected. Please change the shape of y to (n_samples,), for example using ravel().
[STDERR]   rf.fit(X, y)
[STDERR] /cw/dtailocal/mercs_python/bin/mercspython.py:479: DataConversionWarning: A column-vector y was passed when a 1d array was expected. Please change the shape of y to (n_samples,), for example using ravel().
[STDERR]   rf.fit(X, y)
[STDERR] /cw/dtailocal/mercs_python/bin/mercspython.py:479: DataConversionWarning: A column-vector y was passed when a 1d array was expected. Please change the shape of y to (n_samples,), for example using ravel().
[STDERR]   rf.fit(X, y)
[STDERR] /cw/dtailocal/mercs_python/bin/mercspython.py:479: DataConversionWarning: A column-vector y was passed when a 1d array was expected. Please change the shape of y to (n_samples,), for example using ravel().
[STDERR]   rf.fit(X, y)
[STDERR] /cw/dtailocal/mercs_python/bin/mercspython.py:479: DataConversionWarning: A column-vector y was passed when a 1d array was expected. Please change the shape of y to (n_samples,), for example using ravel().
[STDERR]   rf.fit(X, y)
[STDERR] /cw/dtailocal/mercs_python/bin/mercspython.py:479: DataConversionWarning: A column-vector y was passed when a 1d array was expected. Please change the shape of y to (n_samples,), for example using ravel().
[STDERR]   rf.fit(X, y)
[STDERR] /cw/dtailocal/mercs_python/bin/mercspython.py:479: DataConversionWarning: A column-vector y was passed when a 1d array was expected. Please change the shape of y to (n_samples,), for example using ravel().
[STDERR]   rf.fit(X, y)
[STDERR] /cw/dtailocal/mercs_python/bin/mercspython.py:479: DataConversionWarning: A column-vector y was passed when a 1d array was expected. Please change the shape of y to (n_samples,), for example using ravel().
[STDERR]   rf.fit(X, y)
[STDERR] /cw/dtailocal/mercs_python/bin/mercspython.py:479: DataConversionWarning: A column-vector y was passed when a 1d array was expected. Please change the shape of y to (n_samples,), for example using ravel().
[STDERR]   rf.fit(X, y)
[STDERR] /cw/dtailocal/mercs_python/bin/mercspython.py:479: DataConversionWarning: A column-vector y was passed when a 1d array was expected. Please change the shape of y to (n_samples,), for example using ravel().
[STDERR]   rf.fit(X, y)
[STDERR] /cw/dtailocal/mercs_python/bin/mercspython.py:479: DataConversionWarning: A column-vector y was passed when a 1d array was expected. Please change the shape of y to (n_samples,), for example using ravel().
[STDERR]   rf.fit(X, y)
[STDERR] /cw/dtailocal/mercs_python/bin/mercspython.py:479: DataConversionWarning: A column-vector y was passed when a 1d array was expected. Please change the shape of y to (n_samples,), for example using ravel().
[STDERR]   rf.fit(X, y)
[STDERR] /cw/dtailocal/mercs_python/bin/mercspython.py:479: DataConversionWarning: A column-vector y was passed when a 1d array was expected. Please change the shape of y to (n_samples,), for example using ravel().
[STDERR]   rf.fit(X, y)
[STDERR] /cw/dtailocal/mercs_python/bin/mercspython.py:479: DataConversionWarning: A column-vector y was passed when a 1d array was expected. Please change the shape of y to (n_samples,), for example using ravel().
[STDERR]   rf.fit(X, y)
[STDERR] /cw/dtailocal/mercs_python/bin/mercspython.py:479: DataConversionWarning: A column-vector y was passed when a 1d array was expected. Please change the shape of y to (n_samples,), for example using ravel().
[STDERR]   rf.fit(X, y)
[STDERR] /cw/dtailocal/mercs_python/bin/mercspython.py:479: DataConversionWarning: A column-vector y was passed when a 1d array was expected. Please change the shape of y to (n_samples,), for example using ravel().
[STDERR]   rf.fit(X, y)
[STDERR] /cw/dtailocal/mercs_python/bin/mercspython.py:479: DataConversionWarning: A column-vector y was passed when a 1d array was expected. Please change the shape of y to (n_samples,), for example using ravel().
[STDERR]   rf.fit(X, y)
[STDERR] /cw/dtailocal/mercs_python/bin/mercspython.py:479: DataConversionWarning: A column-vector y was passed when a 1d array was expected. Please change the shape of y to (n_samples,), for example using ravel().
[STDERR]   rf.fit(X, y)
[STDERR] /cw/dtailocal/mercs_python/bin/mercspython.py:479: DataConversionWarning: A column-vector y was passed when a 1d array was expected. Please change the shape of y to (n_samples,), for example using ravel().
[STDERR]   rf.fit(X, y)
[STDERR] /cw/dtailocal/mercs_python/bin/mercspython.py:479: DataConversionWarning: A column-vector y was passed when a 1d array was expected. Please change the shape of y to (n_samples,), for example using ravel().
[STDERR]   rf.fit(X, y)
[STDERR] /cw/dtailocal/mercs_python/bin/mercspython.py:479: DataConversionWarning: A column-vector y was passed when a 1d array was expected. Please change the shape of y to (n_samples,), for example using ravel().
[STDERR]   rf.fit(X, y)
[STDERR] /cw/dtailocal/mercs_python/bin/mercspython.py:479: DataConversionWarning: A column-vector y was passed when a 1d array was expected. Please change the shape of y to (n_samples,), for example using ravel().
[STDERR]   rf.fit(X, y)
[STDERR] /cw/dtailocal/mercs_python/bin/mercspython.py:479: DataConversionWarning: A column-vector y was passed when a 1d array was expected. Please change the shape of y to (n_samples,), for example using ravel().
[STDERR]   rf.fit(X, y)
[STDERR] /cw/dtailocal/mercs_python/bin/mercspython.py:479: DataConversionWarning: A column-vector y was passed when a 1d array was expected. Please change the shape of y to (n_samples,), for example using ravel().
[STDERR]   rf.fit(X, y)
[STDERR] /cw/dtailocal/mercs_python/bin/mercspython.py:479: DataConversionWarning: A column-vector y was passed when a 1d array was expected. Please change the shape of y to (n_samples,), for example using ravel().
[STDERR]   rf.fit(X, y)
[STDERR] /cw/dtailocal/mercs_python/bin/mercspython.py:479: DataConversionWarning: A column-vector y was passed when a 1d array was expected. Please change the shape of y to (n_samples,), for example using ravel().
[STDERR]   rf.fit(X, y)
[STDERR] /cw/dtailocal/mercs_python/bin/mercspython.py:479: DataConversionWarning: A column-vector y was passed when a 1d array was expected. Please change the shape of y to (n_samples,), for example using ravel().
[STDERR]   rf.fit(X, y)
[STDERR] /cw/dtailocal/mercs_python/bin/mercspython.py:479: DataConversionWarning: A column-vector y was passed when a 1d array was expected. Please change the shape of y to (n_samples,), for example using ravel().
[STDERR]   rf.fit(X, y)
[STDERR] /cw/dtailocal/mercs_python/bin/mercspython.py:479: DataConversionWarning: A column-vector y was passed when a 1d array was expected. Please change the shape of y to (n_samples,), for example using ravel().
[STDERR]   rf.fit(X, y)
[STDERR] /cw/dtailocal/mercs_python/bin/mercspython.py:479: DataConversionWarning: A column-vector y was passed when a 1d array was expected. Please change the shape of y to (n_samples,), for example using ravel().
[STDERR]   rf.fit(X, y)
[STDERR] /cw/dtailocal/mercs_python/bin/mercspython.py:479: DataConversionWarning: A column-vector y was passed when a 1d array was expected. Please change the shape of y to (n_samples,), for example using ravel().
[STDERR]   rf.fit(X, y)
[STDERR] /cw/dtailocal/mercs_python/bin/mercspython.py:479: DataConversionWarning: A column-vector y was passed when a 1d array was expected. Please change the shape of y to (n_samples,), for example using ravel().
[STDERR]   rf.fit(X, y)
[STDERR] /cw/dtailocal/mercs_python/bin/mercspython.py:479: DataConversionWarning: A column-vector y was passed when a 1d array was expected. Please change the shape of y to (n_samples,), for example using ravel().
[STDERR]   rf.fit(X, y)
[STDERR] /cw/dtailocal/mercs_python/bin/mercspython.py:479: DataConversionWarning: A column-vector y was passed when a 1d array was expected. Please change the shape of y to (n_samples,), for example using ravel().
[STDERR]   rf.fit(X, y)
[STDERR] /cw/dtailocal/mercs_python/bin/mercspython.py:479: DataConversionWarning: A column-vector y was passed when a 1d array was expected. Please change the shape of y to (n_samples,), for example using ravel().
[STDERR]   rf.fit(X, y)
[STDERR] /cw/dtailocal/mercs_python/bin/mercspython.py:479: DataConversionWarning: A column-vector y was passed when a 1d array was expected. Please change the shape of y to (n_samples,), for example using ravel().
[STDERR]   rf.fit(X, y)
[STDERR] /cw/dtailocal/mercs_python/bin/mercspython.py:479: DataConversionWarning: A column-vector y was passed when a 1d array was expected. Please change the shape of y to (n_samples,), for example using ravel().
[STDERR]   rf.fit(X, y)
[STDERR] /cw/dtailocal/mercs_python/bin/mercspython.py:479: DataConversionWarning: A column-vector y was passed when a 1d array was expected. Please change the shape of y to (n_samples,), for example using ravel().
[STDERR]   rf.fit(X, y)
[STDERR] /cw/dtailocal/mercs_python/bin/mercspython.py:479: DataConversionWarning: A column-vector y was passed when a 1d array was expected. Please change the shape of y to (n_samples,), for example using ravel().
[STDERR]   rf.fit(X, y)
[STDERR] /cw/dtailocal/mercs_python/bin/mercspython.py:479: DataConversionWarning: A column-vector y was passed when a 1d array was expected. Please change the shape of y to (n_samples,), for example using ravel().
[STDERR]   rf.fit(X, y)
[STDERR] /cw/dtailocal/mercs_python/bin/mercspython.py:479: DataConversionWarning: A column-vector y was passed when a 1d array was expected. Please change the shape of y to (n_samples,), for example using ravel().
[STDERR]   rf.fit(X, y)
[STDERR] /cw/dtailocal/mercs_python/bin/mercspython.py:479: DataConversionWarning: A column-vector y was passed when a 1d array was expected. Please change the shape of y to (n_samples,), for example using ravel().
[STDERR]   rf.fit(X, y)
[STDERR] /cw/dtailocal/mercs_python/bin/mercspython.py:479: DataConversionWarning: A column-vector y was passed when a 1d array was expected. Please change the shape of y to (n_samples,), for example using ravel().
[STDERR]   rf.fit(X, y)
[STDERR] /cw/dtailocal/mercs_python/bin/mercspython.py:479: DataConversionWarning: A column-vector y was passed when a 1d array was expected. Please change the shape of y to (n_samples,), for example using ravel().
[STDERR]   rf.fit(X, y)
[STDERR] /cw/dtailocal/mercs_python/bin/mercspython.py:479: DataConversionWarning: A column-vector y was passed when a 1d array was expected. Please change the shape of y to (n_samples,), for example using ravel().
[STDERR]   rf.fit(X, y)
[STDERR] /cw/dtailocal/mercs_python/bin/mercspython.py:479: DataConversionWarning: A column-vector y was passed when a 1d array was expected. Please change the shape of y to (n_samples,), for example using ravel().
[STDERR]   rf.fit(X, y)
[STDERR] /cw/dtailocal/mercs_python/bin/mercspython.py:479: DataConversionWarning: A column-vector y was passed when a 1d array was expected. Please change the shape of y to (n_samples,), for example using ravel().
[STDERR]   rf.fit(X, y)
[STDERR] /cw/dtailocal/mercs_python/bin/mercspython.py:479: DataConversionWarning: A column-vector y was passed when a 1d array was expected. Please change the shape of y to (n_samples,), for example using ravel().
[STDERR]   rf.fit(X, y)
[STDERR] /cw/dtailocal/mercs_python/bin/mercspython.py:479: DataConversionWarning: A column-vector y was passed when a 1d array was expected. Please change the shape of y to (n_samples,), for example using ravel().
[STDERR]   rf.fit(X, y)
[STDERR] /cw/dtailocal/mercs_python/bin/mercspython.py:479: DataConversionWarning: A column-vector y was passed when a 1d array was expected. Please change the shape of y to (n_samples,), for example using ravel().
[STDERR]   rf.fit(X, y)
[STDERR] /cw/dtailocal/mercs_python/bin/mercspython.py:479: DataConversionWarning: A column-vector y was passed when a 1d array was expected. Please change the shape of y to (n_samples,), for example using ravel().
[STDERR]   rf.fit(X, y)
[STDERR] /cw/dtailocal/mercs_python/bin/mercspython.py:479: DataConversionWarning: A column-vector y was passed when a 1d array was expected. Please change the shape of y to (n_samples,), for example using ravel().
[STDERR]   rf.fit(X, y)
[STDERR] /cw/dtailocal/mercs_python/bin/mercspython.py:479: DataConversionWarning: A column-vector y was passed when a 1d array was expected. Please change the shape of y to (n_samples,), for example using ravel().
[STDERR]   rf.fit(X, y)
[STDERR] /cw/dtailocal/mercs_python/bin/mercspython.py:479: DataConversionWarning: A column-vector y was passed when a 1d array was expected. Please change the shape of y to (n_samples,), for example using ravel().
[STDERR]   rf.fit(X, y)
[STDERR] /cw/dtailocal/mercs_python/bin/mercspython.py:479: DataConversionWarning: A column-vector y was passed when a 1d array was expected. Please change the shape of y to (n_samples,), for example using ravel().
[STDERR]   rf.fit(X, y)
[STDERR] /cw/dtailocal/mercs_python/bin/mercspython.py:479: DataConversionWarning: A column-vector y was passed when a 1d array was expected. Please change the shape of y to (n_samples,), for example using ravel().
[STDERR]   rf.fit(X, y)
[STDERR] /cw/dtailocal/mercs_python/bin/mercspython.py:479: DataConversionWarning: A column-vector y was passed when a 1d array was expected. Please change the shape of y to (n_samples,), for example using ravel().
[STDERR]   rf.fit(X, y)
[STDERR] /cw/dtailocal/mercs_python/bin/mercspython.py:479: DataConversionWarning: A column-vector y was passed when a 1d array was expected. Please change the shape of y to (n_samples,), for example using ravel().
[STDERR]   rf.fit(X, y)
[STDERR] /cw/dtailocal/mercs_python/bin/mercspython.py:479: DataConversionWarning: A column-vector y was passed when a 1d array was expected. Please change the shape of y to (n_samples,), for example using ravel().
[STDERR]   rf.fit(X, y)
[STDERR] /cw/dtailocal/mercs_python/bin/mercspython.py:479: DataConversionWarning: A column-vector y was passed when a 1d array was expected. Please change the shape of y to (n_samples,), for example using ravel().
[STDERR]   rf.fit(X, y)
[STDERR] /cw/dtailocal/mercs_python/bin/mercspython.py:479: DataConversionWarning: A column-vector y was passed when a 1d array was expected. Please change the shape of y to (n_samples,), for example using ravel().
[STDERR]   rf.fit(X, y)
[STDERR] /cw/dtailocal/mercs_python/bin/mercspython.py:479: DataConversionWarning: A column-vector y was passed when a 1d array was expected. Please change the shape of y to (n_samples,), for example using ravel().
[STDERR]   rf.fit(X, y)
[STDERR] /cw/dtailocal/mercs_python/bin/mercspython.py:479: DataConversionWarning: A column-vector y was passed when a 1d array was expected. Please change the shape of y to (n_samples,), for example using ravel().
[STDERR]   rf.fit(X, y)
[STDERR] /cw/dtailocal/mercs_python/bin/mercspython.py:479: DataConversionWarning: A column-vector y was passed when a 1d array was expected. Please change the shape of y to (n_samples,), for example using ravel().
[STDERR]   rf.fit(X, y)
[STDERR] /cw/dtailocal/mercs_python/bin/mercspython.py:479: DataConversionWarning: A column-vector y was passed when a 1d array was expected. Please change the shape of y to (n_samples,), for example using ravel().
[STDERR]   rf.fit(X, y)
[STDERR] /cw/dtailocal/mercs_python/bin/mercspython.py:479: DataConversionWarning: A column-vector y was passed when a 1d array was expected. Please change the shape of y to (n_samples,), for example using ravel().
[STDERR]   rf.fit(X, y)
[STDERR] /cw/dtailocal/mercs_python/bin/mercspython.py:479: DataConversionWarning: A column-vector y was passed when a 1d array was expected. Please change the shape of y to (n_samples,), for example using ravel().
[STDERR]   rf.fit(X, y)
[STDERR] /cw/dtailocal/mercs_python/bin/mercspython.py:479: DataConversionWarning: A column-vector y was passed when a 1d array was expected. Please change the shape of y to (n_samples,), for example using ravel().
[STDERR]   rf.fit(X, y)
[STDERR] /cw/dtailocal/mercs_python/bin/mercspython.py:479: DataConversionWarning: A column-vector y was passed when a 1d array was expected. Please change the shape of y to (n_samples,), for example using ravel().
[STDERR]   rf.fit(X, y)
[STDERR] /cw/dtailocal/mercs_python/bin/mercspython.py:479: DataConversionWarning: A column-vector y was passed when a 1d array was expected. Please change the shape of y to (n_samples,), for example using ravel().
[STDERR]   rf.fit(X, y)
[STDERR] /cw/dtailocal/mercs_python/bin/mercspython.py:479: DataConversionWarning: A column-vector y was passed when a 1d array was expected. Please change the shape of y to (n_samples,), for example using ravel().
[STDERR]   rf.fit(X, y)
[STDERR] /cw/dtailocal/mercs_python/bin/mercspython.py:479: DataConversionWarning: A column-vector y was passed when a 1d array was expected. Please change the shape of y to (n_samples,), for example using ravel().
[STDERR]   rf.fit(X, y)
[STDERR] /cw/dtailocal/mercs_python/bin/mercspython.py:479: DataConversionWarning: A column-vector y was passed when a 1d array was expected. Please change the shape of y to (n_samples,), for example using ravel().
[STDERR]   rf.fit(X, y)
[STDERR] /cw/dtailocal/mercs_python/bin/mercspython.py:479: DataConversionWarning: A column-vector y was passed when a 1d array was expected. Please change the shape of y to (n_samples,), for example using ravel().
[STDERR]   rf.fit(X, y)
[STDERR] /cw/dtailocal/mercs_python/bin/mercspython.py:479: DataConversionWarning: A column-vector y was passed when a 1d array was expected. Please change the shape of y to (n_samples,), for example using ravel().
[STDERR]   rf.fit(X, y)
[STDERR] /cw/dtailocal/mercs_python/bin/mercspython.py:479: DataConversionWarning: A column-vector y was passed when a 1d array was expected. Please change the shape of y to (n_samples,), for example using ravel().
[STDERR]   rf.fit(X, y)
[STDERR] /cw/dtailocal/mercs_python/bin/mercspython.py:479: DataConversionWarning: A column-vector y was passed when a 1d array was expected. Please change the shape of y to (n_samples,), for example using ravel().
[STDERR]   rf.fit(X, y)
[STDERR] /cw/dtailocal/mercs_python/bin/mercspython.py:479: DataConversionWarning: A column-vector y was passed when a 1d array was expected. Please change the shape of y to (n_samples,), for example using ravel().
[STDERR]   rf.fit(X, y)
[STDERR] /cw/dtailocal/mercs_python/bin/mercspython.py:479: DataConversionWarning: A column-vector y was passed when a 1d array was expected. Please change the shape of y to (n_samples,), for example using ravel().
[STDERR]   rf.fit(X, y)
[STDERR] /cw/dtailocal/mercs_python/bin/mercspython.py:479: DataConversionWarning: A column-vector y was passed when a 1d array was expected. Please change the shape of y to (n_samples,), for example using ravel().
[STDERR]   rf.fit(X, y)
[STDERR] /cw/dtailocal/mercs_python/bin/mercspython.py:479: DataConversionWarning: A column-vector y was passed when a 1d array was expected. Please change the shape of y to (n_samples,), for example using ravel().
[STDERR]   rf.fit(X, y)
[STDERR] /cw/dtailocal/mercs_python/bin/mercspython.py:479: DataConversionWarning: A column-vector y was passed when a 1d array was expected. Please change the shape of y to (n_samples,), for example using ravel().
[STDERR]   rf.fit(X, y)
[STDERR] /cw/dtailocal/mercs_python/bin/mercspython.py:479: DataConversionWarning: A column-vector y was passed when a 1d array was expected. Please change the shape of y to (n_samples,), for example using ravel().
[STDERR]   rf.fit(X, y)
[STDERR] /cw/dtailocal/mercs_python/bin/mercspython.py:479: DataConversionWarning: A column-vector y was passed when a 1d array was expected. Please change the shape of y to (n_samples,), for example using ravel().
[STDERR]   rf.fit(X, y)
[STDERR] /cw/dtailocal/mercs_python/bin/mercspython.py:479: DataConversionWarning: A column-vector y was passed when a 1d array was expected. Please change the shape of y to (n_samples,), for example using ravel().
[STDERR]   rf.fit(X, y)
[STDERR] /cw/dtailocal/mercs_python/bin/mercspython.py:479: DataConversionWarning: A column-vector y was passed when a 1d array was expected. Please change the shape of y to (n_samples,), for example using ravel().
[STDERR]   rf.fit(X, y)
[STDERR] /cw/dtailocal/mercs_python/bin/mercspython.py:479: DataConversionWarning: A column-vector y was passed when a 1d array was expected. Please change the shape of y to (n_samples,), for example using ravel().
[STDERR]   rf.fit(X, y)
[STDERR] /cw/dtailocal/mercs_python/bin/mercspython.py:479: DataConversionWarning: A column-vector y was passed when a 1d array was expected. Please change the shape of y to (n_samples,), for example using ravel().
[STDERR]   rf.fit(X, y)
[STDERR] /cw/dtailocal/mercs_python/bin/mercspython.py:479: DataConversionWarning: A column-vector y was passed when a 1d array was expected. Please change the shape of y to (n_samples,), for example using ravel().
[STDERR]   rf.fit(X, y)
[STDERR] /cw/dtailocal/mercs_python/bin/mercspython.py:479: DataConversionWarning: A column-vector y was passed when a 1d array was expected. Please change the shape of y to (n_samples,), for example using ravel().
[STDERR]   rf.fit(X, y)
[STDERR] /cw/dtailocal/mercs_python/bin/mercspython.py:479: DataConversionWarning: A column-vector y was passed when a 1d array was expected. Please change the shape of y to (n_samples,), for example using ravel().
[STDERR]   rf.fit(X, y)
[STDERR] /cw/dtailocal/mercs_python/bin/mercspython.py:479: DataConversionWarning: A column-vector y was passed when a 1d array was expected. Please change the shape of y to (n_samples,), for example using ravel().
[STDERR]   rf.fit(X, y)
[STDERR] /cw/dtailocal/mercs_python/bin/mercspython.py:479: DataConversionWarning: A column-vector y was passed when a 1d array was expected. Please change the shape of y to (n_samples,), for example using ravel().
[STDERR]   rf.fit(X, y)
[STDERR] /cw/dtailocal/mercs_python/bin/mercspython.py:479: DataConversionWarning: A column-vector y was passed when a 1d array was expected. Please change the shape of y to (n_samples,), for example using ravel().
[STDERR]   rf.fit(X, y)
[STDERR] /cw/dtailocal/mercs_python/bin/mercspython.py:479: DataConversionWarning: A column-vector y was passed when a 1d array was expected. Please change the shape of y to (n_samples,), for example using ravel().
[STDERR]   rf.fit(X, y)
[STDERR] /cw/dtailocal/mercs_python/bin/mercspython.py:479: DataConversionWarning: A column-vector y was passed when a 1d array was expected. Please change the shape of y to (n_samples,), for example using ravel().
[STDERR]   rf.fit(X, y)
[STDERR] /cw/dtailocal/mercs_python/bin/mercspython.py:479: DataConversionWarning: A column-vector y was passed when a 1d array was expected. Please change the shape of y to (n_samples,), for example using ravel().
[STDERR]   rf.fit(X, y)
[STDERR] /cw/dtailocal/mercs_python/bin/mercspython.py:479: DataConversionWarning: A column-vector y was passed when a 1d array was expected. Please change the shape of y to (n_samples,), for example using ravel().
[STDERR]   rf.fit(X, y)
[STDERR] /cw/dtailocal/mercs_python/bin/mercspython.py:479: DataConversionWarning: A column-vector y was passed when a 1d array was expected. Please change the shape of y to (n_samples,), for example using ravel().
[STDERR]   rf.fit(X, y)
[STDERR] /cw/dtailocal/mercs_python/bin/mercspython.py:479: DataConversionWarning: A column-vector y was passed when a 1d array was expected. Please change the shape of y to (n_samples,), for example using ravel().
[STDERR]   rf.fit(X, y)
[STDERR] /cw/dtailocal/mercs_python/bin/mercspython.py:479: DataConversionWarning: A column-vector y was passed when a 1d array was expected. Please change the shape of y to (n_samples,), for example using ravel().
[STDERR]   rf.fit(X, y)
[STDERR] /cw/dtailocal/mercs_python/bin/mercspython.py:479: DataConversionWarning: A column-vector y was passed when a 1d array was expected. Please change the shape of y to (n_samples,), for example using ravel().
[STDERR]   rf.fit(X, y)
[STDERR] /cw/dtailocal/mercs_python/bin/mercspython.py:479: DataConversionWarning: A column-vector y was passed when a 1d array was expected. Please change the shape of y to (n_samples,), for example using ravel().
[STDERR]   rf.fit(X, y)
[STDERR] /cw/dtailocal/mercs_python/bin/mercspython.py:479: DataConversionWarning: A column-vector y was passed when a 1d array was expected. Please change the shape of y to (n_samples,), for example using ravel().
[STDERR]   rf.fit(X, y)
[STDERR] /cw/dtailocal/mercs_python/bin/mercspython.py:479: DataConversionWarning: A column-vector y was passed when a 1d array was expected. Please change the shape of y to (n_samples,), for example using ravel().
[STDERR]   rf.fit(X, y)
[STDERR] /cw/dtailocal/mercs_python/bin/mercspython.py:479: DataConversionWarning: A column-vector y was passed when a 1d array was expected. Please change the shape of y to (n_samples,), for example using ravel().
[STDERR]   rf.fit(X, y)
[STDERR] /cw/dtailocal/mercs_python/bin/mercspython.py:479: DataConversionWarning: A column-vector y was passed when a 1d array was expected. Please change the shape of y to (n_samples,), for example using ravel().
[STDERR]   rf.fit(X, y)
[STDERR] /cw/dtailocal/mercs_python/bin/mercspython.py:479: DataConversionWarning: A column-vector y was passed when a 1d array was expected. Please change the shape of y to (n_samples,), for example using ravel().
[STDERR]   rf.fit(X, y)
[STDERR] /cw/dtailocal/mercs_python/bin/mercspython.py:479: DataConversionWarning: A column-vector y was passed when a 1d array was expected. Please change the shape of y to (n_samples,), for example using ravel().
[STDERR]   rf.fit(X, y)
[STDERR] /cw/dtailocal/mercs_python/bin/mercspython.py:479: DataConversionWarning: A column-vector y was passed when a 1d array was expected. Please change the shape of y to (n_samples,), for example using ravel().
[STDERR]   rf.fit(X, y)
[STDERR] /cw/dtailocal/mercs_python/bin/mercspython.py:479: DataConversionWarning: A column-vector y was passed when a 1d array was expected. Please change the shape of y to (n_samples,), for example using ravel().
[STDERR]   rf.fit(X, y)
[STDERR] /cw/dtailocal/mercs_python/bin/mercspython.py:479: DataConversionWarning: A column-vector y was passed when a 1d array was expected. Please change the shape of y to (n_samples,), for example using ravel().
[STDERR]   rf.fit(X, y)
[STDERR] /cw/dtailocal/mercs_python/bin/mercspython.py:479: DataConversionWarning: A column-vector y was passed when a 1d array was expected. Please change the shape of y to (n_samples,), for example using ravel().
[STDERR]   rf.fit(X, y)
[STDERR] /cw/dtailocal/mercs_python/bin/mercspython.py:479: DataConversionWarning: A column-vector y was passed when a 1d array was expected. Please change the shape of y to (n_samples,), for example using ravel().
[STDERR]   rf.fit(X, y)
[STDERR] /cw/dtailocal/mercs_python/bin/mercspython.py:479: DataConversionWarning: A column-vector y was passed when a 1d array was expected. Please change the shape of y to (n_samples,), for example using ravel().
[STDERR]   rf.fit(X, y)
[STDERR] /cw/dtailocal/mercs_python/bin/mercspython.py:479: DataConversionWarning: A column-vector y was passed when a 1d array was expected. Please change the shape of y to (n_samples,), for example using ravel().
[STDERR]   rf.fit(X, y)
[STDERR] /cw/dtailocal/mercs_python/bin/mercspython.py:479: DataConversionWarning: A column-vector y was passed when a 1d array was expected. Please change the shape of y to (n_samples,), for example using ravel().
[STDERR]   rf.fit(X, y)
[STDERR] /cw/dtailocal/mercs_python/bin/mercspython.py:479: DataConversionWarning: A column-vector y was passed when a 1d array was expected. Please change the shape of y to (n_samples,), for example using ravel().
[STDERR]   rf.fit(X, y)
[STDERR] /cw/dtailocal/mercs_python/bin/mercspython.py:479: DataConversionWarning: A column-vector y was passed when a 1d array was expected. Please change the shape of y to (n_samples,), for example using ravel().
[STDERR]   rf.fit(X, y)
[STDERR] /cw/dtailocal/mercs_python/bin/mercspython.py:479: DataConversionWarning: A column-vector y was passed when a 1d array was expected. Please change the shape of y to (n_samples,), for example using ravel().
[STDERR]   rf.fit(X, y)
[STDERR] /cw/dtailocal/mercs_python/bin/mercspython.py:479: DataConversionWarning: A column-vector y was passed when a 1d array was expected. Please change the shape of y to (n_samples,), for example using ravel().
[STDERR]   rf.fit(X, y)
[STDERR] /cw/dtailocal/mercs_python/bin/mercspython.py:479: DataConversionWarning: A column-vector y was passed when a 1d array was expected. Please change the shape of y to (n_samples,), for example using ravel().
[STDERR]   rf.fit(X, y)
[STDERR] /cw/dtailocal/mercs_python/bin/mercspython.py:479: DataConversionWarning: A column-vector y was passed when a 1d array was expected. Please change the shape of y to (n_samples,), for example using ravel().
[STDERR]   rf.fit(X, y)
[STDERR] /cw/dtailocal/mercs_python/bin/mercspython.py:479: DataConversionWarning: A column-vector y was passed when a 1d array was expected. Please change the shape of y to (n_samples,), for example using ravel().
[STDERR]   rf.fit(X, y)
[STDERR] /cw/dtailocal/mercs_python/bin/mercspython.py:479: DataConversionWarning: A column-vector y was passed when a 1d array was expected. Please change the shape of y to (n_samples,), for example using ravel().
[STDERR]   rf.fit(X, y)
[STDERR] /cw/dtailocal/mercs_python/bin/mercspython.py:479: DataConversionWarning: A column-vector y was passed when a 1d array was expected. Please change the shape of y to (n_samples,), for example using ravel().
[STDERR]   rf.fit(X, y)
[STDERR] /cw/dtailocal/mercs_python/bin/mercspython.py:479: DataConversionWarning: A column-vector y was passed when a 1d array was expected. Please change the shape of y to (n_samples,), for example using ravel().
[STDERR]   rf.fit(X, y)
[STDERR] /cw/dtailocal/mercs_python/bin/mercspython.py:479: DataConversionWarning: A column-vector y was passed when a 1d array was expected. Please change the shape of y to (n_samples,), for example using ravel().
[STDERR]   rf.fit(X, y)
[STDERR] /cw/dtailocal/mercs_python/bin/mercspython.py:479: DataConversionWarning: A column-vector y was passed when a 1d array was expected. Please change the shape of y to (n_samples,), for example using ravel().
[STDERR]   rf.fit(X, y)
[STDERR] /cw/dtailocal/mercs_python/bin/mercspython.py:479: DataConversionWarning: A column-vector y was passed when a 1d array was expected. Please change the shape of y to (n_samples,), for example using ravel().
[STDERR]   rf.fit(X, y)
[STDERR] /cw/dtailocal/mercs_python/bin/mercspython.py:479: DataConversionWarning: A column-vector y was passed when a 1d array was expected. Please change the shape of y to (n_samples,), for example using ravel().
[STDERR]   rf.fit(X, y)
[STDERR] /cw/dtailocal/mercs_python/bin/mercspython.py:479: DataConversionWarning: A column-vector y was passed when a 1d array was expected. Please change the shape of y to (n_samples,), for example using ravel().
[STDERR]   rf.fit(X, y)
[STDERR] /cw/dtailocal/mercs_python/bin/mercspython.py:479: DataConversionWarning: A column-vector y was passed when a 1d array was expected. Please change the shape of y to (n_samples,), for example using ravel().
[STDERR]   rf.fit(X, y)
[STDERR] /cw/dtailocal/mercs_python/bin/mercspython.py:479: DataConversionWarning: A column-vector y was passed when a 1d array was expected. Please change the shape of y to (n_samples,), for example using ravel().
[STDERR]   rf.fit(X, y)
[STDERR] /cw/dtailocal/mercs_python/bin/mercspython.py:479: DataConversionWarning: A column-vector y was passed when a 1d array was expected. Please change the shape of y to (n_samples,), for example using ravel().
[STDERR]   rf.fit(X, y)
[STDERR] /cw/dtailocal/mercs_python/bin/mercspython.py:479: DataConversionWarning: A column-vector y was passed when a 1d array was expected. Please change the shape of y to (n_samples,), for example using ravel().
[STDERR]   rf.fit(X, y)
[STDERR] /cw/dtailocal/mercs_python/bin/mercspython.py:479: DataConversionWarning: A column-vector y was passed when a 1d array was expected. Please change the shape of y to (n_samples,), for example using ravel().
[STDERR]   rf.fit(X, y)
[STDERR] /cw/dtailocal/mercs_python/bin/mercspython.py:479: DataConversionWarning: A column-vector y was passed when a 1d array was expected. Please change the shape of y to (n_samples,), for example using ravel().
[STDERR]   rf.fit(X, y)
[STDERR] /cw/dtailocal/mercs_python/bin/mercspython.py:479: DataConversionWarning: A column-vector y was passed when a 1d array was expected. Please change the shape of y to (n_samples,), for example using ravel().
[STDERR]   rf.fit(X, y)
[STDERR] /cw/dtailocal/mercs_python/bin/mercspython.py:479: DataConversionWarning: A column-vector y was passed when a 1d array was expected. Please change the shape of y to (n_samples,), for example using ravel().
[STDERR]   rf.fit(X, y)
[STDERR] /cw/dtailocal/mercs_python/bin/mercspython.py:479: DataConversionWarning: A column-vector y was passed when a 1d array was expected. Please change the shape of y to (n_samples,), for example using ravel().
[STDERR]   rf.fit(X, y)
[STDERR] /cw/dtailocal/mercs_python/bin/mercspython.py:479: DataConversionWarning: A column-vector y was passed when a 1d array was expected. Please change the shape of y to (n_samples,), for example using ravel().
[STDERR]   rf.fit(X, y)
[STDERR] /cw/dtailocal/mercs_python/bin/mercspython.py:479: DataConversionWarning: A column-vector y was passed when a 1d array was expected. Please change the shape of y to (n_samples,), for example using ravel().
[STDERR]   rf.fit(X, y)
[STDERR] /cw/dtailocal/mercs_python/bin/mercspython.py:479: DataConversionWarning: A column-vector y was passed when a 1d array was expected. Please change the shape of y to (n_samples,), for example using ravel().
[STDERR]   rf.fit(X, y)
[STDERR] /cw/dtailocal/mercs_python/bin/mercspython.py:479: DataConversionWarning: A column-vector y was passed when a 1d array was expected. Please change the shape of y to (n_samples,), for example using ravel().
[STDERR]   rf.fit(X, y)
[STDERR] /cw/dtailocal/mercs_python/bin/mercspython.py:479: DataConversionWarning: A column-vector y was passed when a 1d array was expected. Please change the shape of y to (n_samples,), for example using ravel().
[STDERR]   rf.fit(X, y)
[STDERR] /cw/dtailocal/mercs_python/bin/mercspython.py:479: DataConversionWarning: A column-vector y was passed when a 1d array was expected. Please change the shape of y to (n_samples,), for example using ravel().
[STDERR]   rf.fit(X, y)
[STDERR] /cw/dtailocal/mercs_python/bin/mercspython.py:479: DataConversionWarning: A column-vector y was passed when a 1d array was expected. Please change the shape of y to (n_samples,), for example using ravel().
[STDERR]   rf.fit(X, y)
[STDERR] /cw/dtailocal/mercs_python/bin/mercspython.py:479: DataConversionWarning: A column-vector y was passed when a 1d array was expected. Please change the shape of y to (n_samples,), for example using ravel().
[STDERR]   rf.fit(X, y)
[STDERR] /cw/dtailocal/mercs_python/bin/mercspython.py:479: DataConversionWarning: A column-vector y was passed when a 1d array was expected. Please change the shape of y to (n_samples,), for example using ravel().
[STDERR]   rf.fit(X, y)
[STDERR] /cw/dtailocal/mercs_python/bin/mercspython.py:479: DataConversionWarning: A column-vector y was passed when a 1d array was expected. Please change the shape of y to (n_samples,), for example using ravel().
[STDERR]   rf.fit(X, y)
[STDERR] /cw/dtailocal/mercs_python/bin/mercspython.py:479: DataConversionWarning: A column-vector y was passed when a 1d array was expected. Please change the shape of y to (n_samples,), for example using ravel().
[STDERR]   rf.fit(X, y)
[STDERR] /cw/dtailocal/mercs_python/bin/mercspython.py:479: DataConversionWarning: A column-vector y was passed when a 1d array was expected. Please change the shape of y to (n_samples,), for example using ravel().
[STDERR]   rf.fit(X, y)
[STDERR] /cw/dtailocal/mercs_python/bin/mercspython.py:479: DataConversionWarning: A column-vector y was passed when a 1d array was expected. Please change the shape of y to (n_samples,), for example using ravel().
[STDERR]   rf.fit(X, y)
[STDERR] /cw/dtailocal/mercs_python/bin/mercspython.py:479: DataConversionWarning: A column-vector y was passed when a 1d array was expected. Please change the shape of y to (n_samples,), for example using ravel().
[STDERR]   rf.fit(X, y)
[STDERR] /cw/dtailocal/mercs_python/bin/mercspython.py:479: DataConversionWarning: A column-vector y was passed when a 1d array was expected. Please change the shape of y to (n_samples,), for example using ravel().
[STDERR]   rf.fit(X, y)
[STDERR] /cw/dtailocal/mercs_python/bin/mercspython.py:479: DataConversionWarning: A column-vector y was passed when a 1d array was expected. Please change the shape of y to (n_samples,), for example using ravel().
[STDERR]   rf.fit(X, y)
[STDERR] /cw/dtailocal/mercs_python/bin/mercspython.py:479: DataConversionWarning: A column-vector y was passed when a 1d array was expected. Please change the shape of y to (n_samples,), for example using ravel().
[STDERR]   rf.fit(X, y)
[STDERR] /cw/dtailocal/mercs_python/bin/mercspython.py:479: DataConversionWarning: A column-vector y was passed when a 1d array was expected. Please change the shape of y to (n_samples,), for example using ravel().
[STDERR]   rf.fit(X, y)
[STDERR] /cw/dtailocal/mercs_python/bin/mercspython.py:479: DataConversionWarning: A column-vector y was passed when a 1d array was expected. Please change the shape of y to (n_samples,), for example using ravel().
[STDERR]   rf.fit(X, y)
[STDERR] /cw/dtailocal/mercs_python/bin/mercspython.py:479: DataConversionWarning: A column-vector y was passed when a 1d array was expected. Please change the shape of y to (n_samples,), for example using ravel().
[STDERR]   rf.fit(X, y)
[STDERR] /cw/dtailocal/mercs_python/bin/mercspython.py:479: DataConversionWarning: A column-vector y was passed when a 1d array was expected. Please change the shape of y to (n_samples,), for example using ravel().
[STDERR]   rf.fit(X, y)
[STDERR] /cw/dtailocal/mercs_python/bin/mercspython.py:479: DataConversionWarning: A column-vector y was passed when a 1d array was expected. Please change the shape of y to (n_samples,), for example using ravel().
[STDERR]   rf.fit(X, y)
[STDERR] /cw/dtailocal/mercs_python/bin/mercspython.py:479: DataConversionWarning: A column-vector y was passed when a 1d array was expected. Please change the shape of y to (n_samples,), for example using ravel().
[STDERR]   rf.fit(X, y)
[STDERR] /cw/dtailocal/mercs_python/bin/mercspython.py:479: DataConversionWarning: A column-vector y was passed when a 1d array was expected. Please change the shape of y to (n_samples,), for example using ravel().
[STDERR]   rf.fit(X, y)
[STDERR] /cw/dtailocal/mercs_python/bin/mercspython.py:479: DataConversionWarning: A column-vector y was passed when a 1d array was expected. Please change the shape of y to (n_samples,), for example using ravel().
[STDERR]   rf.fit(X, y)
[STDERR] /cw/dtailocal/mercs_python/bin/mercspython.py:479: DataConversionWarning: A column-vector y was passed when a 1d array was expected. Please change the shape of y to (n_samples,), for example using ravel().
[STDERR]   rf.fit(X, y)
[STDERR] /cw/dtailocal/mercs_python/bin/mercspython.py:479: DataConversionWarning: A column-vector y was passed when a 1d array was expected. Please change the shape of y to (n_samples,), for example using ravel().
[STDERR]   rf.fit(X, y)
[STDERR] /cw/dtailocal/mercs_python/bin/mercspython.py:479: DataConversionWarning: A column-vector y was passed when a 1d array was expected. Please change the shape of y to (n_samples,), for example using ravel().
[STDERR]   rf.fit(X, y)
[STDERR] /cw/dtailocal/mercs_python/bin/mercspython.py:479: DataConversionWarning: A column-vector y was passed when a 1d array was expected. Please change the shape of y to (n_samples,), for example using ravel().
[STDERR]   rf.fit(X, y)
[STDERR] /cw/dtailocal/mercs_python/bin/mercspython.py:479: DataConversionWarning: A column-vector y was passed when a 1d array was expected. Please change the shape of y to (n_samples,), for example using ravel().
[STDERR]   rf.fit(X, y)
[STDERR] /cw/dtailocal/mercs_python/bin/mercspython.py:479: DataConversionWarning: A column-vector y was passed when a 1d array was expected. Please change the shape of y to (n_samples,), for example using ravel().
[STDERR]   rf.fit(X, y)
[STDERR] /cw/dtailocal/mercs_python/bin/mercspython.py:479: DataConversionWarning: A column-vector y was passed when a 1d array was expected. Please change the shape of y to (n_samples,), for example using ravel().
[STDERR]   rf.fit(X, y)
[STDERR] /cw/dtailocal/mercs_python/bin/mercspython.py:479: DataConversionWarning: A column-vector y was passed when a 1d array was expected. Please change the shape of y to (n_samples,), for example using ravel().
[STDERR]   rf.fit(X, y)
[STDERR] /cw/dtailocal/mercs_python/bin/mercspython.py:479: DataConversionWarning: A column-vector y was passed when a 1d array was expected. Please change the shape of y to (n_samples,), for example using ravel().
[STDERR]   rf.fit(X, y)
[STDERR] /cw/dtailocal/mercs_python/bin/mercspython.py:479: DataConversionWarning: A column-vector y was passed when a 1d array was expected. Please change the shape of y to (n_samples,), for example using ravel().
[STDERR]   rf.fit(X, y)
[STDERR] /cw/dtailocal/mercs_python/bin/mercspython.py:479: DataConversionWarning: A column-vector y was passed when a 1d array was expected. Please change the shape of y to (n_samples,), for example using ravel().
[STDERR]   rf.fit(X, y)
[STDERR] /cw/dtailocal/mercs_python/bin/mercspython.py:479: DataConversionWarning: A column-vector y was passed when a 1d array was expected. Please change the shape of y to (n_samples,), for example using ravel().
[STDERR]   rf.fit(X, y)
[STDERR] /cw/dtailocal/mercs_python/bin/mercspython.py:479: DataConversionWarning: A column-vector y was passed when a 1d array was expected. Please change the shape of y to (n_samples,), for example using ravel().
[STDERR]   rf.fit(X, y)
[STDERR] /cw/dtailocal/mercs_python/bin/mercspython.py:479: DataConversionWarning: A column-vector y was passed when a 1d array was expected. Please change the shape of y to (n_samples,), for example using ravel().
[STDERR]   rf.fit(X, y)
[STDERR] /cw/dtailocal/mercs_python/bin/mercspython.py:479: DataConversionWarning: A column-vector y was passed when a 1d array was expected. Please change the shape of y to (n_samples,), for example using ravel().
[STDERR]   rf.fit(X, y)
[STDERR] /cw/dtailocal/mercs_python/bin/mercspython.py:479: DataConversionWarning: A column-vector y was passed when a 1d array was expected. Please change the shape of y to (n_samples,), for example using ravel().
[STDERR]   rf.fit(X, y)
[STDERR] /cw/dtailocal/mercs_python/bin/mercspython.py:479: DataConversionWarning: A column-vector y was passed when a 1d array was expected. Please change the shape of y to (n_samples,), for example using ravel().
[STDERR]   rf.fit(X, y)
[STDERR] /cw/dtailocal/mercs_python/bin/mercspython.py:479: DataConversionWarning: A column-vector y was passed when a 1d array was expected. Please change the shape of y to (n_samples,), for example using ravel().
[STDERR]   rf.fit(X, y)
[STDERR] /cw/dtailocal/mercs_python/bin/mercspython.py:479: DataConversionWarning: A column-vector y was passed when a 1d array was expected. Please change the shape of y to (n_samples,), for example using ravel().
[STDERR]   rf.fit(X, y)
[STDERR] /cw/dtailocal/mercs_python/bin/mercspython.py:479: DataConversionWarning: A column-vector y was passed when a 1d array was expected. Please change the shape of y to (n_samples,), for example using ravel().
[STDERR]   rf.fit(X, y)
[STDERR] /cw/dtailocal/mercs_python/bin/mercspython.py:479: DataConversionWarning: A column-vector y was passed when a 1d array was expected. Please change the shape of y to (n_samples,), for example using ravel().
[STDERR]   rf.fit(X, y)
[STDERR] /cw/dtailocal/mercs_python/bin/mercspython.py:479: DataConversionWarning: A column-vector y was passed when a 1d array was expected. Please change the shape of y to (n_samples,), for example using ravel().
[STDERR]   rf.fit(X, y)
[[0, 0, 0, 0, 0, 0, 0, 0, 0, 0, 0, 0, 0, 0, 0, 0, 1, 0, 0, 0, 0, 0, 0, 0, 0, 0, 1, 0, 0, 0, 0, 0, 1, 0, 0, 0, 1, 0, 0, 0, 0, 0, 0, 0, 0, 0, 0, 0, 0, 1, 0, 0, 0, 0, 0, 0, 0, 0, 0, 1, 0, 0, 0, 0, 1, 0, 1, 0, 0, 0, 0, 0, 0, 1, 0, 0, 0, 0, 0, 0, 0, 0, 0, 0, 0, 0, 1, 0, 1, 0, 0, 0, 0, 1, 1, 0, 0, 0, 0, 0, 0, 0, 0, 1, 0, 0, 0, 0, 0, 0, 1, 0, 0, 1, 0, 0, 0, 0, 0, 0, 0, 0, 0, 0, 0, 0, 0, 0, 0, 0, 0, 0, 0, 0, 0, 0, 0, 0, 0, 0, 0, 0, 0, 0, 0, 0, 0, 0, 0, 0, 0, 0, 0, 0, 0, 0, 0, 0, 0, 1, 0, 1, 0, 0, 0, 0, 0, 0, 0, 0, 0, 1, 0, 0, 0, 0, 0, 0, 0, 0, 1, 0, 1, 0, 1, 1, 0, 0, 0, 0, 0, 0, 0, 0, 0, 0, 0, 0, 1, 1, 1, 0, 0, 0, 0, 0, 0, 1, 0, 0, 0, 0, 0, 0, 0, 0, 0, 0, 1, 1, 0, 0, 0, 0, 0, 1, 0, 0, 0, 1, 0, 0, 0, 0, 0, 1, 1, 0, 0, 1, 0, 0, 0, 0, 0, 0, 0, 0, 0, 0, 0, 0, 0, 0, 0, 0, 0, 1, 1, 0, 0, 0, 0, 1, 0, 0, 0, 0, 0, 0, 1, 0, 0, 0, 0, 0, 0, 0, 0], [0, 0, 0, 0, 0, 1, 0, 0, 0, 1, 1, 0, 0, 0, 0, 0, 0, 0, 0, 0, 0, 0, 0, 0, 0, 0, 0, 0, 1, 0, 0, 0, 0, 0, 0, 1, 0, 0, 0, 1, 0, 1, 0, 1, 0, 0, 0, 0, 0, 0, 1, 0, 1, 0, 1, 1, 0, 1, 0, 0, 0, 0, 1, 0, 0, 0, 0, 0, 1, 0, 1, 0, 0, 0, 0, 0, 1, 1, 0, 0, 1, 1, 0, 0, 0, 0, 0, 1, 0, 0, 1, 0, 1, 0, 0, 0, 0, 0, 1, 0, 0, 0, 0, 0, 0, 0, 1, 0, 0, 0, 0, 0, 0, 0, 0, 0, 0, 1, 0, 0, 0, 0, 1, 0, 0, 1, 1, 1, 0, 0, 0, 0, 0, 1, 0, 1, 0, 0, 1, 1, 0, 0, 1, 0, 0, 0, 0, 0, 0, 1, 0, 0, 1, 0, 0, 0, 0, 1, 0, 0, 0, 0, 1, 0, 1, 0, 0, 0, 0, 0, 0, 0, 0, 1, 0, 1, 1, 1, 0, 0, 0, 0, 0, 0, 0, 0, 0, 0, 0, 0, 0, 1, 0, 1, 0, 0, 0, 1, 0, 0, 0, 0, 0, 1, 0, 0, 0, 0, 0, 1, 0, 0, 1, 0, 0, 0, 1, 0, 0, 0, 1, 0, 0, 0, 0, 0, 1, 1, 0, 0, 1, 0, 0, 1, 0, 0, 0, 0, 1, 0, 0, 0, 0, 1, 0, 0, 1, 0, 0, 0, 0, 0, 0, 0, 0, 1, 1, 0, 0, 0, 0, 0, 0, 0, 0, 1, 0, 0, 0, 1, 0, 0, 0, 0, 0, 0, 0, 0, 1], [1, 0, 0, 0, 0, 0, 0, 1, 1, 0, 0, 1, 0, 0, 0, 0, 0, 0, 0, 0, 0, 0, 0, 1, 0, 0, 0, 0, 0, 0, 1, 0, 0, 1, 0, 0, 0, 0, 0, 0, 0, 0, 0, 0, 0, 0, 0, 1, 0, 0, 0, 0, 0, 0, 0, 0, 0, 0, 0, 0, 0, 0, 0, 0, 0, 0, 0, 0, 0, 0, 0, 0, 0, 0, 0, 1, 0, 0, 0, 0, 0, 0, 1, 1, 0, 0, 0, 0, 0, 0, 0, 0, 0, 0, 0, 1, 0, 0, 0, 0, 0, 1, 0, 0, 0, 1, 0, 0, 1, 1, 0, 0, 1, 0, 1, 0, 0, 0, 0, 0, 0, 0, 0, 0, 0, 0, 0, 0, 0, 0, 1, 0, 1, 0, 0, 0, 0, 0, 0, 0, 1, 1, 0, 0, 1, 1, 1, 0, 0, 0, 1, 1, 0, 0, 1, 1, 0, 0, 0, 0, 0, 0, 0, 0, 0, 0, 1, 0, 0, 0, 1, 0, 1, 0, 0, 0, 0, 0, 0, 1, 0, 1, 0, 1, 0, 0, 0, 0, 0, 0, 0, 0, 0, 0, 1, 1, 0, 0, 0, 0, 0, 0, 1, 0, 0, 0, 0, 0, 1, 0, 0, 1, 0, 0, 1, 1, 0, 0, 0, 0, 0, 0, 1, 0, 0, 0, 0, 0, 1, 0, 0, 0, 0, 0, 0, 0, 0, 0, 0, 0, 0, 0, 0, 0, 1, 1, 0, 0, 0, 0, 1, 1, 0, 0, 1, 0, 0, 0, 0, 1, 0, 1, 0, 0, 0, 0, 0, 0, 0, 0, 0, 1, 0, 1, 0, 0, 0, 0, 0], [0, 0, 0, 1, 0, 0, 0, 0, 0, 0, 0, 0, 0, 0, 1, 1, 0, 1, 0, 1, 0, 0, 1, 0, 0, 0, 0, 1, 0, 0, 0, 0, 0, 0, 0, 0, 0, 0, 1, 0, 1, 0, 1, 0, 0, 0, 0, 0, 0, 0, 0, 0, 0, 1, 0, 0, 0, 0, 0, 0, 1, 0, 0, 0, 0, 1, 0, 1, 0, 1, 0, 0, 0, 0, 0, 0, 0, 0, 1, 0, 0, 0, 0, 0, 0, 0, 0, 0, 0, 0, 0, 1, 0, 0, 0, 0, 0, 0, 0, 0, 1, 0, 0, 0, 0, 0, 0, 0, 0, 0, 0, 1, 0, 0, 0, 0, 1, 0, 1, 0, 0, 0, 0, 0, 0, 0, 0, 0, 0, 0, 0, 0, 0, 0, 0, 0, 0, 0, 0, 0, 0, 0, 0, 0, 0, 0, 0, 0, 0, 0, 0, 0, 0, 1, 0, 0, 0, 0, 0, 0, 0, 0, 0, 0, 0, 1, 0, 0, 1, 0, 0, 0, 0, 0, 0, 0, 0, 0, 0, 0, 0, 0, 0, 0, 0, 0, 0, 0, 0, 0, 0, 0, 0, 0, 0, 0, 0, 0, 0, 0, 0, 0, 0, 0, 0, 0, 0, 0, 0, 0, 1, 0, 0, 0, 0, 0, 0, 0, 0, 0, 0, 0, 0, 1, 0, 0, 0, 0, 0, 0, 0, 0, 0, 0, 1, 0, 0, 0, 0, 0, 0, 1, 0, 0, 0, 0, 0, 0, 0, 0, 0, 0, 0, 1, 0, 0, 0, 0, 0, 0, 0, 0, 0, 0, 0, 0, 0, 0, 0, 0, 0, 0, 0, 0, 0, 0, 0, 0, 0], [0, 1, 0, 0, 1, 0, 1, 0, 0, 0, 0, 0, 1, 0, 0, 0, 0, 0, 1, 0, 1, 1, 0, 0, 1, 1, 0, 0, 0, 1, 0, 1, 0, 0, 0, 0, 0, 1, 0, 0, 0, 0, 0, 0, 1, 1, 1, 0, 0, 0, 0, 1, 0, 0, 0, 0, 0, 0, 1, 0, 0, 1, 0, 1, 0, 0, 0, 0, 0, 0, 0, 1, 0, 0, 1, 0, 0, 0, 0, 1, 0, 0, 0, 0, 1, 1, 0, 0, 0, 0, 0, 0, 0, 0, 0, 0, 1, 0, 0, 1, 0, 0, 1, 0, 1, 0, 0, 1, 0, 0, 0, 0, 0, 0, 0, 1, 0, 0, 0, 1, 1, 0, 0, 0, 1, 0, 0, 0, 1, 1, 0, 1, 0, 0, 1, 0, 1, 1, 0, 0, 0, 0, 0, 0, 0, 0, 0, 0, 0, 0, 0, 0, 0, 0, 0, 0, 1, 0, 1, 0, 1, 0, 0, 1, 0, 0, 0, 0, 0, 1, 0, 0, 0, 0, 1, 0, 0, 0, 1, 0, 0, 0, 0, 0, 0, 0, 0, 0, 1, 1, 0, 0, 0, 0, 0, 0, 0, 0, 0, 0, 0, 0, 0, 0, 0, 1, 1, 0, 0, 0, 0, 0, 0, 1, 0, 0, 0, 0, 0, 0, 0, 1, 0, 0, 0, 0, 0, 0, 0, 0, 0, 1, 1, 0, 0, 0, 0, 1, 0, 0, 0, 0, 1, 0, 0, 0, 0, 1, 1, 1, 0, 0, 0, 0, 0, 0, 0, 0, 0, 0, 1, 0, 0, 0, 0, 0, 1, 0, 0, 0, 0, 0, 0, 0, 1, 1, 0, 1, 0], [0, 0, 1, 0, 0, 0, 0, 0, 0, 0, 0, 0, 0, 1, 0, 0, 0, 0, 0, 0, 0, 0, 0, 0, 0, 0, 0, 0, 0, 0, 0, 0, 0, 0, 1, 0, 0, 0, 0, 0, 0, 0, 0, 0, 0, 0, 0, 0, 1, 0, 0, 0, 0, 0, 0, 0, 1, 0, 0, 0, 0, 0, 0, 0, 0, 0, 0, 0, 0, 0, 0, 0, 1, 0, 0, 0, 0, 0, 0, 0, 0, 0, 0, 0, 0, 0, 0, 0, 0, 1, 0, 0, 0, 0, 0, 0, 0, 1, 0, 0, 0, 0, 0, 0, 0, 0, 0, 0, 0, 0, 0, 0, 0, 0, 0, 0, 0, 0, 0, 0, 0, 1, 0, 1, 0, 0, 0, 0, 0, 0, 0, 0, 0, 0, 0, 0, 0, 0, 0, 0, 0, 0, 0, 1, 0, 0, 0, 1, 1, 0, 0, 0, 0, 0, 0, 0, 0, 0, 0, 0, 0, 0, 0, 0, 0, 0, 0, 1, 0, 0, 0, 0, 0, 0, 0, 0, 0, 0, 0, 0, 0, 0, 0, 0, 0, 0, 1, 1, 0, 0, 1, 0, 1, 0, 0, 0, 1, 0, 0, 0, 0, 1, 0, 0, 1, 0, 0, 0, 0, 0, 0, 0, 0, 0, 0, 0, 0, 1, 0, 0, 0, 0, 0, 0, 1, 0, 0, 0, 0, 0, 0, 0, 0, 0, 0, 0, 0, 0, 0, 0, 1, 0, 0, 0, 0, 0, 0, 0, 0, 0, 0, 0, 1, 0, 0, 0, 0, 0, 0, 0, 0, 0, 1, 0, 1, 0, 0, 1, 1, 0, 0, 0, 1, 0, 0, 0, 1, 0, 0]]
====================================================
Total induction time of the MDEModel was: 17619 ms
====================================================
====================================================
Total inference time of the MDEModel was: 5068 ms
====================================================
====================================================
This was for: 279 queries.
====================================================
[INFO] Process ended (returncode 0)
[INFO] Finished: Run process 64.307 seconds
[WARNING] Exit:finished; Returncode:0; Time:64.30672
