[
{
  "ts": "2018-02-05T16:28:45.163387",
  "type": "SETTINGS",
  "values": {
    "date": "2018/02/05 17:28:45",
    "date_iso": "2018-02-05T17:28:45.161094",
    "params": null,
    "system": {
      "nodename": "gibson",
      "machine": "x86_64",
      "platform": "Linux-4.4.0-112-generic-x86_64-with-debian-stretch-sid",
      "processor": "x86_64",
      "version": "#135-Ubuntu SMP Fri Jan 19 11:48:36 UTC 2018",
      "system": "Linux",
      "cpu_count": 8,
      "cpu_times": {
        "user": 121195.2,
        "system": 18484.0,
        "idle": 7637233.06,
        "nice": 751.58
      },
      "cpu_percent": 100.0,
      "virtual_memory": {
        "total": 33618501632,
        "available": 26115018752,
        "percent": 22.3,
        "used": 6562004992,
        "free": 9520824320
      }
    },
    "process": {
      "username": "evgeniya",
      "cwd": "/cw/dtailocal/mercs_python/src/core",
      "create_time": 1517848121.5,
      "cpu_times": {
        "user": 1.7,
        "system": 0.1
      }
    },
    "logfile": "/cw/dtailocal/mercs_python/out/285/oes97/logs/mercspython_Log_F00",
    "command": "python /cw/dtailocal/mercs_python/bin/mercspython.py /cw/dtailocal/mercs_python/out/285/oes97/settings/mercspython_Settings_F00.s"
  }
},
{
  "ts": "2018-02-05T16:28:45.163539",
  "type": "INFO",
  "values": {
    "cmd": "python /cw/dtailocal/mercs_python/bin/mercspython.py /cw/dtailocal/mercs_python/out/285/oes97/settings/mercspython_Settings_F00.s",
    "cwd": null
  }
},
{
  "ts": "2018-02-05T16:28:45.186358",
  "type": "INFO",
  "values": "Start: Run process"
},
{
  "ts": "2018-02-05T16:28:45.227817",
  "type": "INFO",
  "values": "Write log to /cw/dtailocal/mercs_python/out/285/oes97/logs/mercspython_Log_F00.running.log"
},
{
  "ts": "2018-02-05T16:29:43.723705",
  "type": "INFO",
  "values": "Process ended (returncode 0)"
},
{
  "ts": "2018-02-05T16:29:43.723786",
  "type": "INFO",
  "values": "Finished: Run process 58.537 seconds"
},
{
  "ts": "2018-02-05T16:29:43.723872",
  "type": "WARNING",
  "values": {
    "Exit": "finished",
    "Returncode": 0,
    "Time": 58.537487506866455
  }
},
{
  "ts": "2018-02-05T16:29:43.731827",
  "type": "INFO",
  "values": "Closing /cw/dtailocal/mercs_python/out/285/oes97/logs/mercspython_Log_F00.running.log"
}
]
