[
{
  "ts": "2018-02-05T16:35:56.213359",
  "type": "SETTINGS",
  "values": {
    "date": "2018/02/05 17:35:56",
    "date_iso": "2018-02-05T17:35:56.212352",
    "params": null,
    "system": {
      "nodename": "gibson",
      "machine": "x86_64",
      "platform": "Linux-4.4.0-112-generic-x86_64-with-debian-stretch-sid",
      "processor": "x86_64",
      "version": "#135-Ubuntu SMP Fri Jan 19 11:48:36 UTC 2018",
      "system": "Linux",
      "cpu_count": 8,
      "cpu_times": {
        "user": 124601.45,
        "system": 18520.92,
        "idle": 7637233.72,
        "nice": 751.58
      },
      "cpu_percent": 100.0,
      "virtual_memory": {
        "total": 33618501632,
        "available": 24251506688,
        "percent": 27.9,
        "used": 8335695872,
        "free": 7182721024
      }
    },
    "process": {
      "username": "evgeniya",
      "cwd": "/cw/dtailocal/mercs_python/src/core",
      "create_time": 1517848121.5,
      "cpu_times": {
        "user": 2.63,
        "system": 0.25
      }
    },
    "logfile": "/cw/dtailocal/mercs_python/out/285/oes97/logs/mercspython_Log_F07",
    "command": "python /cw/dtailocal/mercs_python/bin/mercspython.py /cw/dtailocal/mercs_python/out/285/oes97/settings/mercspython_Settings_F07.s"
  }
},
{
  "ts": "2018-02-05T16:35:56.213524",
  "type": "INFO",
  "values": {
    "cmd": "python /cw/dtailocal/mercs_python/bin/mercspython.py /cw/dtailocal/mercs_python/out/285/oes97/settings/mercspython_Settings_F07.s",
    "cwd": null
  }
},
{
  "ts": "2018-02-05T16:35:56.221377",
  "type": "INFO",
  "values": "Start: Run process"
},
{
  "ts": "2018-02-05T16:35:56.232008",
  "type": "INFO",
  "values": "Write log to /cw/dtailocal/mercs_python/out/285/oes97/logs/mercspython_Log_F07.running.log"
},
{
  "ts": "2018-02-05T16:36:55.309526",
  "type": "INFO",
  "values": "Process ended (returncode 0)"
},
{
  "ts": "2018-02-05T16:36:55.309607",
  "type": "INFO",
  "values": "Finished: Run process 59.088 seconds"
},
{
  "ts": "2018-02-05T16:36:55.309687",
  "type": "WARNING",
  "values": {
    "Exit": "finished",
    "Returncode": 0,
    "Time": 59.08826398849487
  }
},
{
  "ts": "2018-02-05T16:36:55.327819",
  "type": "INFO",
  "values": "Closing /cw/dtailocal/mercs_python/out/285/oes97/logs/mercspython_Log_F07.running.log"
}
]
