[
{
  "ts": "2018-02-05T17:02:33.269170",
  "type": "SETTINGS",
  "values": {
    "date": "2018/02/05 18:02:33",
    "date_iso": "2018-02-05T18:02:33.268215",
    "params": null,
    "system": {
      "nodename": "gibson",
      "machine": "x86_64",
      "platform": "Linux-4.4.0-112-generic-x86_64-with-debian-stretch-sid",
      "processor": "x86_64",
      "version": "#135-Ubuntu SMP Fri Jan 19 11:48:36 UTC 2018",
      "system": "Linux",
      "cpu_count": 8,
      "cpu_times": {
        "user": 137274.62,
        "system": 18617.26,
        "idle": 7637234.58,
        "nice": 751.58
      },
      "cpu_percent": 100.0,
      "virtual_memory": {
        "total": 33618501632,
        "available": 22311063552,
        "percent": 33.6,
        "used": 10288177152,
        "free": 5129715712
      }
    },
    "process": {
      "username": "evgeniya",
      "cwd": "/cw/dtailocal/mercs_python/src/core",
      "create_time": 1517850137.32,
      "cpu_times": {
        "user": 0.7,
        "system": 0.11
      }
    },
    "logfile": "/cw/dtailocal/mercs_python/out/326/wq/logs/mercspython_Log_F02",
    "command": "python /cw/dtailocal/mercs_python/bin/mercspython.py /cw/dtailocal/mercs_python/out/326/wq/settings/mercspython_Settings_F02.s"
  }
},
{
  "ts": "2018-02-05T17:02:33.269331",
  "type": "INFO",
  "values": {
    "cmd": "python /cw/dtailocal/mercs_python/bin/mercspython.py /cw/dtailocal/mercs_python/out/326/wq/settings/mercspython_Settings_F02.s",
    "cwd": null
  }
},
{
  "ts": "2018-02-05T17:02:33.281196",
  "type": "INFO",
  "values": "Start: Run process"
},
{
  "ts": "2018-02-05T17:02:33.299764",
  "type": "INFO",
  "values": "Write log to /cw/dtailocal/mercs_python/out/326/wq/logs/mercspython_Log_F02.running.log"
},
{
  "ts": "2018-02-05T17:02:40.708694",
  "type": "INFO",
  "values": "Process ended (returncode 0)"
},
{
  "ts": "2018-02-05T17:02:40.708787",
  "type": "INFO",
  "values": "Finished: Run process 7.428 seconds"
},
{
  "ts": "2018-02-05T17:02:40.708867",
  "type": "WARNING",
  "values": {
    "Exit": "finished",
    "Returncode": 0,
    "Time": 7.4276087284088135
  }
}
]
