[
{
  "ts": "2018-02-05T17:02:19.302870",
  "type": "SETTINGS",
  "values": {
    "date": "2018/02/05 18:02:19",
    "date_iso": "2018-02-05T18:02:19.300546",
    "params": null,
    "system": {
      "nodename": "gibson",
      "machine": "x86_64",
      "platform": "Linux-4.4.0-112-generic-x86_64-with-debian-stretch-sid",
      "processor": "x86_64",
      "version": "#135-Ubuntu SMP Fri Jan 19 11:48:36 UTC 2018",
      "system": "Linux",
      "cpu_count": 8,
      "cpu_times": {
        "user": 137164.06,
        "system": 18616.18,
        "idle": 7637234.57,
        "nice": 751.58
      },
      "cpu_percent": 100.0,
      "virtual_memory": {
        "total": 33618501632,
        "available": 22974611456,
        "percent": 31.7,
        "used": 9624616960,
        "free": 5793525760
      }
    },
    "process": {
      "username": "evgeniya",
      "cwd": "/cw/dtailocal/mercs_python/src/core",
      "create_time": 1517850137.32,
      "cpu_times": {
        "user": 0.56,
        "system": 0.08
      }
    },
    "logfile": "/cw/dtailocal/mercs_python/out/326/wq/logs/mercspython_Log_F00",
    "command": "python /cw/dtailocal/mercs_python/bin/mercspython.py /cw/dtailocal/mercs_python/out/326/wq/settings/mercspython_Settings_F00.s"
  }
},
{
  "ts": "2018-02-05T17:02:19.303031",
  "type": "INFO",
  "values": {
    "cmd": "python /cw/dtailocal/mercs_python/bin/mercspython.py /cw/dtailocal/mercs_python/out/326/wq/settings/mercspython_Settings_F00.s",
    "cwd": null
  }
},
{
  "ts": "2018-02-05T17:02:19.321183",
  "type": "INFO",
  "values": "Start: Run process"
},
{
  "ts": "2018-02-05T17:02:19.359609",
  "type": "INFO",
  "values": "Write log to /cw/dtailocal/mercs_python/out/326/wq/logs/mercspython_Log_F00.running.log"
},
{
  "ts": "2018-02-05T17:02:26.167734",
  "type": "INFO",
  "values": "Process ended (returncode 0)"
},
{
  "ts": "2018-02-05T17:02:26.167821",
  "type": "INFO",
  "values": "Finished: Run process 6.847 seconds"
},
{
  "ts": "2018-02-05T17:02:26.167901",
  "type": "WARNING",
  "values": {
    "Exit": "finished",
    "Returncode": 0,
    "Time": 6.846684217453003
  }
}
]
