[
{
  "ts": "2018-02-06T12:29:37.381316",
  "type": "SETTINGS",
  "values": {
    "date": "2018/02/06 13:29:37",
    "date_iso": "2018-02-06T13:29:37.380497",
    "params": null,
    "system": {
      "nodename": "gibson",
      "machine": "x86_64",
      "platform": "Linux-4.4.0-112-generic-x86_64-with-debian-stretch-sid",
      "processor": "x86_64",
      "version": "#135-Ubuntu SMP Fri Jan 19 11:48:36 UTC 2018",
      "system": "Linux",
      "cpu_count": 8,
      "cpu_times": {
        "user": 351117.29,
        "system": 21045.43,
        "idle": 7979794.63,
        "nice": 823.12
      },
      "cpu_percent": 72.1,
      "virtual_memory": {
        "total": 33618501632,
        "available": 26087022592,
        "percent": 22.4,
        "used": 6519775232,
        "free": 13612216320
      }
    },
    "process": {
      "username": "evgeniya",
      "cwd": "/cw/dtailocal/mercs_python/src/core",
      "create_time": 1517920155.35,
      "cpu_times": {
        "user": 1.07,
        "system": 0.54
      }
    },
    "logfile": "/cw/dtailocal/mercs_python/out/607/wq/logs/mercspython_Log_F04",
    "command": "python /cw/dtailocal/mercs_python/bin/mercspython.py /cw/dtailocal/mercs_python/out/607/wq/settings/mercspython_Settings_F04.s"
  }
},
{
  "ts": "2018-02-06T12:29:37.381467",
  "type": "INFO",
  "values": {
    "cmd": "python /cw/dtailocal/mercs_python/bin/mercspython.py /cw/dtailocal/mercs_python/out/607/wq/settings/mercspython_Settings_F04.s",
    "cwd": null
  }
},
{
  "ts": "2018-02-06T12:29:37.385370",
  "type": "INFO",
  "values": "Start: Run process"
},
{
  "ts": "2018-02-06T12:29:37.386875",
  "type": "INFO",
  "values": "Write log to /cw/dtailocal/mercs_python/out/607/wq/logs/mercspython_Log_F04.running.log"
},
{
  "ts": "2018-02-06T12:29:42.392919",
  "type": "INFO",
  "values": "Process ended (returncode 0)"
},
{
  "ts": "2018-02-06T12:29:42.392998",
  "type": "INFO",
  "values": "Finished: Run process 5.008 seconds"
},
{
  "ts": "2018-02-06T12:29:42.393070",
  "type": "WARNING",
  "values": {
    "Exit": "finished",
    "Returncode": 0,
    "Time": 5.007646083831787
  }
},
{
  "ts": "2018-02-06T12:29:42.393491",
  "type": "INFO",
  "values": "Closing /cw/dtailocal/mercs_python/out/607/wq/logs/mercspython_Log_F04.running.log"
}
]
