[
{
  "ts": "2018-02-06T09:54:22.846485",
  "type": "SETTINGS",
  "values": {
    "date": "2018/02/06 10:54:22",
    "date_iso": "2018-02-06T10:54:22.845669",
    "params": null,
    "system": {
      "nodename": "gibson",
      "machine": "x86_64",
      "platform": "Linux-4.4.0-112-generic-x86_64-with-debian-stretch-sid",
      "processor": "x86_64",
      "version": "#135-Ubuntu SMP Fri Jan 19 11:48:36 UTC 2018",
      "system": "Linux",
      "cpu_count": 8,
      "cpu_times": {
        "user": 312596.6,
        "system": 20362.17,
        "idle": 7944774.59,
        "nice": 819.07
      },
      "cpu_percent": 67.2,
      "virtual_memory": {
        "total": 33618501632,
        "available": 26218033152,
        "percent": 22.0,
        "used": 6314897408,
        "free": 15596072960
      }
    },
    "process": {
      "username": "evgeniya",
      "cwd": "/cw/dtailocal/mercs_python/src/core",
      "create_time": 1517910852.38,
      "cpu_times": {
        "user": 1.12,
        "system": 0.57
      }
    },
    "logfile": "/cw/dtailocal/mercs_python/out/533/enb/logs/mercspython_Log_F06",
    "command": "python /cw/dtailocal/mercs_python/bin/mercspython.py /cw/dtailocal/mercs_python/out/533/enb/settings/mercspython_Settings_F06.s"
  }
},
{
  "ts": "2018-02-06T09:54:22.846632",
  "type": "INFO",
  "values": {
    "cmd": "python /cw/dtailocal/mercs_python/bin/mercspython.py /cw/dtailocal/mercs_python/out/533/enb/settings/mercspython_Settings_F06.s",
    "cwd": null
  }
},
{
  "ts": "2018-02-06T09:54:22.850002",
  "type": "INFO",
  "values": "Start: Run process"
},
{
  "ts": "2018-02-06T09:54:22.850524",
  "type": "INFO",
  "values": "Write log to /cw/dtailocal/mercs_python/out/533/enb/logs/mercspython_Log_F06.running.log"
},
{
  "ts": "2018-02-06T09:54:24.653504",
  "type": "INFO",
  "values": "Process ended (returncode 0)"
},
{
  "ts": "2018-02-06T09:54:24.653580",
  "type": "INFO",
  "values": "Finished: Run process 1.804 seconds"
},
{
  "ts": "2018-02-06T09:54:24.653660",
  "type": "WARNING",
  "values": {
    "Exit": "finished",
    "Returncode": 0,
    "Time": 1.8036103248596191
  }
}
]
