[
{
  "ts": "2018-02-06T09:54:13.147144",
  "type": "SETTINGS",
  "values": {
    "date": "2018/02/06 10:54:13",
    "date_iso": "2018-02-06T10:54:13.145491",
    "params": null,
    "system": {
      "nodename": "gibson",
      "machine": "x86_64",
      "platform": "Linux-4.4.0-112-generic-x86_64-with-debian-stretch-sid",
      "processor": "x86_64",
      "version": "#135-Ubuntu SMP Fri Jan 19 11:48:36 UTC 2018",
      "system": "Linux",
      "cpu_count": 8,
      "cpu_times": {
        "user": 312550.32,
        "system": 20360.15,
        "idle": 7944745.87,
        "nice": 819.07
      },
      "cpu_percent": 48.7,
      "virtual_memory": {
        "total": 33618501632,
        "available": 26629447680,
        "percent": 20.8,
        "used": 5906784256,
        "free": 16015720448
      }
    },
    "process": {
      "username": "evgeniya",
      "cwd": "/cw/dtailocal/mercs_python/src/core",
      "create_time": 1517910852.38,
      "cpu_times": {
        "user": 0.35,
        "system": 0.05
      }
    },
    "logfile": "/cw/dtailocal/mercs_python/out/533/enb/logs/mercspython_Log_F00",
    "command": "python /cw/dtailocal/mercs_python/bin/mercspython.py /cw/dtailocal/mercs_python/out/533/enb/settings/mercspython_Settings_F00.s"
  }
},
{
  "ts": "2018-02-06T09:54:13.147244",
  "type": "INFO",
  "values": {
    "cmd": "python /cw/dtailocal/mercs_python/bin/mercspython.py /cw/dtailocal/mercs_python/out/533/enb/settings/mercspython_Settings_F00.s",
    "cwd": null
  }
},
{
  "ts": "2018-02-06T09:54:13.149591",
  "type": "INFO",
  "values": "Start: Run process"
},
{
  "ts": "2018-02-06T09:54:13.151732",
  "type": "INFO",
  "values": "Write log to /cw/dtailocal/mercs_python/out/533/enb/logs/mercspython_Log_F00.running.log"
},
{
  "ts": "2018-02-06T09:54:14.761414",
  "type": "INFO",
  "values": "Process ended (returncode 0)"
},
{
  "ts": "2018-02-06T09:54:14.761495",
  "type": "INFO",
  "values": "Finished: Run process 1.612 seconds"
},
{
  "ts": "2018-02-06T09:54:14.761584",
  "type": "WARNING",
  "values": {
    "Exit": "finished",
    "Returncode": 0,
    "Time": 1.611933708190918
  }
}
]
