[
{
  "ts": "2018-02-06T09:54:16.396441",
  "type": "SETTINGS",
  "values": {
    "date": "2018/02/06 10:54:16",
    "date_iso": "2018-02-06T10:54:16.395829",
    "params": null,
    "system": {
      "nodename": "gibson",
      "machine": "x86_64",
      "platform": "Linux-4.4.0-112-generic-x86_64-with-debian-stretch-sid",
      "processor": "x86_64",
      "version": "#135-Ubuntu SMP Fri Jan 19 11:48:36 UTC 2018",
      "system": "Linux",
      "cpu_count": 8,
      "cpu_times": {
        "user": 312565.04,
        "system": 20361.06,
        "idle": 7944756.06,
        "nice": 819.07
      },
      "cpu_percent": 61.2,
      "virtual_memory": {
        "total": 33618501632,
        "available": 26517053440,
        "percent": 21.1,
        "used": 6016811008,
        "free": 15896604672
      }
    },
    "process": {
      "username": "evgeniya",
      "cwd": "/cw/dtailocal/mercs_python/src/core",
      "create_time": 1517910852.38,
      "cpu_times": {
        "user": 0.7,
        "system": 0.28
      }
    },
    "logfile": "/cw/dtailocal/mercs_python/out/533/enb/logs/mercspython_Log_F02",
    "command": "python /cw/dtailocal/mercs_python/bin/mercspython.py /cw/dtailocal/mercs_python/out/533/enb/settings/mercspython_Settings_F02.s"
  }
},
{
  "ts": "2018-02-06T09:54:16.396603",
  "type": "INFO",
  "values": {
    "cmd": "python /cw/dtailocal/mercs_python/bin/mercspython.py /cw/dtailocal/mercs_python/out/533/enb/settings/mercspython_Settings_F02.s",
    "cwd": null
  }
},
{
  "ts": "2018-02-06T09:54:16.399031",
  "type": "INFO",
  "values": "Start: Run process"
},
{
  "ts": "2018-02-06T09:54:16.404082",
  "type": "INFO",
  "values": "Write log to /cw/dtailocal/mercs_python/out/533/enb/logs/mercspython_Log_F02.running.log"
},
{
  "ts": "2018-02-06T09:54:18.006138",
  "type": "INFO",
  "values": "Process ended (returncode 0)"
},
{
  "ts": "2018-02-06T09:54:18.006226",
  "type": "INFO",
  "values": "Finished: Run process 1.607 seconds"
},
{
  "ts": "2018-02-06T09:54:18.006310",
  "type": "WARNING",
  "values": {
    "Exit": "finished",
    "Returncode": 0,
    "Time": 1.6072359085083008
  }
},
{
  "ts": "2018-02-06T09:54:18.006610",
  "type": "INFO",
  "values": "Closing /cw/dtailocal/mercs_python/out/533/enb/logs/mercspython_Log_F02.running.log"
}
]
