[
{
  "ts": "2018-02-06T09:54:26.463742",
  "type": "SETTINGS",
  "values": {
    "date": "2018/02/06 10:54:26",
    "date_iso": "2018-02-06T10:54:26.462903",
    "params": null,
    "system": {
      "nodename": "gibson",
      "machine": "x86_64",
      "platform": "Linux-4.4.0-112-generic-x86_64-with-debian-stretch-sid",
      "processor": "x86_64",
      "version": "#135-Ubuntu SMP Fri Jan 19 11:48:36 UTC 2018",
      "system": "Linux",
      "cpu_count": 8,
      "cpu_times": {
        "user": 312614.68,
        "system": 20362.84,
        "idle": 7944784.54,
        "nice": 819.07
      },
      "cpu_percent": 65.1,
      "virtual_memory": {
        "total": 33618501632,
        "available": 26168528896,
        "percent": 22.2,
        "used": 6375768064,
        "free": 15544487936
      }
    },
    "process": {
      "username": "evgeniya",
      "cwd": "/cw/dtailocal/mercs_python/src/core",
      "create_time": 1517910852.38,
      "cpu_times": {
        "user": 1.4,
        "system": 0.75
      }
    },
    "logfile": "/cw/dtailocal/mercs_python/out/533/enb/logs/mercspython_Log_F08",
    "command": "python /cw/dtailocal/mercs_python/bin/mercspython.py /cw/dtailocal/mercs_python/out/533/enb/settings/mercspython_Settings_F08.s"
  }
},
{
  "ts": "2018-02-06T09:54:26.463890",
  "type": "INFO",
  "values": {
    "cmd": "python /cw/dtailocal/mercs_python/bin/mercspython.py /cw/dtailocal/mercs_python/out/533/enb/settings/mercspython_Settings_F08.s",
    "cwd": null
  }
},
{
  "ts": "2018-02-06T09:54:26.467345",
  "type": "INFO",
  "values": "Start: Run process"
},
{
  "ts": "2018-02-06T09:54:26.468050",
  "type": "INFO",
  "values": "Write log to /cw/dtailocal/mercs_python/out/533/enb/logs/mercspython_Log_F08.running.log"
},
{
  "ts": "2018-02-06T09:54:28.070110",
  "type": "INFO",
  "values": "Process ended (returncode 0)"
},
{
  "ts": "2018-02-06T09:54:28.070192",
  "type": "INFO",
  "values": "Finished: Run process 1.603 seconds"
},
{
  "ts": "2018-02-06T09:54:28.070280",
  "type": "WARNING",
  "values": {
    "Exit": "finished",
    "Returncode": 0,
    "Time": 1.6028790473937988
  }
},
{
  "ts": "2018-02-06T09:54:28.070621",
  "type": "INFO",
  "values": "Closing /cw/dtailocal/mercs_python/out/533/enb/logs/mercspython_Log_F08.running.log"
}
]
