[
{
  "ts": "2018-02-06T10:42:05.641350",
  "type": "SETTINGS",
  "values": {
    "date": "2018/02/06 11:42:05",
    "date_iso": "2018-02-06T11:42:05.640747",
    "params": null,
    "system": {
      "nodename": "gibson",
      "machine": "x86_64",
      "platform": "Linux-4.4.0-112-generic-x86_64-with-debian-stretch-sid",
      "processor": "x86_64",
      "version": "#135-Ubuntu SMP Fri Jan 19 11:48:36 UTC 2018",
      "system": "Linux",
      "cpu_count": 8,
      "cpu_times": {
        "user": 326451.66,
        "system": 20650.71,
        "idle": 7953395.05,
        "nice": 820.39
      },
      "cpu_percent": 52.3,
      "virtual_memory": {
        "total": 33618501632,
        "available": 20139524096,
        "percent": 40.1,
        "used": 12522844160,
        "free": 8361025536
      }
    },
    "process": {
      "username": "evgeniya",
      "cwd": "/cw/dtailocal/mercs_python/src/core",
      "create_time": 1517911410.87,
      "cpu_times": {
        "user": 2.94,
        "system": 0.48
      }
    },
    "logfile": "/cw/dtailocal/mercs_python/out/553/scm1d/logs/mercspython_Log_F04",
    "command": "python /cw/dtailocal/mercs_python/bin/mercspython.py /cw/dtailocal/mercs_python/out/553/scm1d/settings/mercspython_Settings_F04.s"
  }
},
{
  "ts": "2018-02-06T10:42:05.641439",
  "type": "INFO",
  "values": {
    "cmd": "python /cw/dtailocal/mercs_python/bin/mercspython.py /cw/dtailocal/mercs_python/out/553/scm1d/settings/mercspython_Settings_F04.s",
    "cwd": null
  }
},
{
  "ts": "2018-02-06T10:42:05.645338",
  "type": "INFO",
  "values": "Start: Run process"
},
{
  "ts": "2018-02-06T10:42:05.645662",
  "type": "INFO",
  "values": "Write log to /cw/dtailocal/mercs_python/out/553/scm1d/logs/mercspython_Log_F04.running.log"
},
{
  "ts": "2018-02-06T10:51:40.012064",
  "type": "INFO",
  "values": "Process ended (returncode 0)"
},
{
  "ts": "2018-02-06T10:51:40.012144",
  "type": "INFO",
  "values": "Finished: Run process 574.367 seconds"
},
{
  "ts": "2018-02-06T10:51:40.012215",
  "type": "WARNING",
  "values": {
    "Exit": "finished",
    "Returncode": 0,
    "Time": 574.3668265342712
  }
},
{
  "ts": "2018-02-06T10:51:40.012494",
  "type": "INFO",
  "values": "Closing /cw/dtailocal/mercs_python/out/553/scm1d/logs/mercspython_Log_F04.running.log"
}
]
