[
{
  "ts": "2018-02-06T10:23:43.852324",
  "type": "SETTINGS",
  "values": {
    "date": "2018/02/06 11:23:43",
    "date_iso": "2018-02-06T11:23:43.851739",
    "params": null,
    "system": {
      "nodename": "gibson",
      "machine": "x86_64",
      "platform": "Linux-4.4.0-112-generic-x86_64-with-debian-stretch-sid",
      "processor": "x86_64",
      "version": "#135-Ubuntu SMP Fri Jan 19 11:48:36 UTC 2018",
      "system": "Linux",
      "cpu_count": 8,
      "cpu_times": {
        "user": 321869.76,
        "system": 20591.89,
        "idle": 7949268.56,
        "nice": 820.39
      },
      "cpu_percent": 52.1,
      "virtual_memory": {
        "total": 33618501632,
        "available": 21627944960,
        "percent": 35.7,
        "used": 11025264640,
        "free": 10246041600
      }
    },
    "process": {
      "username": "evgeniya",
      "cwd": "/cw/dtailocal/mercs_python/src/core",
      "create_time": 1517911410.87,
      "cpu_times": {
        "user": 2.53,
        "system": 0.28
      }
    },
    "logfile": "/cw/dtailocal/mercs_python/out/553/scm1d/logs/mercspython_Log_F02",
    "command": "python /cw/dtailocal/mercs_python/bin/mercspython.py /cw/dtailocal/mercs_python/out/553/scm1d/settings/mercspython_Settings_F02.s"
  }
},
{
  "ts": "2018-02-06T10:23:43.852413",
  "type": "INFO",
  "values": {
    "cmd": "python /cw/dtailocal/mercs_python/bin/mercspython.py /cw/dtailocal/mercs_python/out/553/scm1d/settings/mercspython_Settings_F02.s",
    "cwd": null
  }
},
{
  "ts": "2018-02-06T10:23:43.855987",
  "type": "INFO",
  "values": "Start: Run process"
},
{
  "ts": "2018-02-06T10:23:43.858200",
  "type": "INFO",
  "values": "Write log to /cw/dtailocal/mercs_python/out/553/scm1d/logs/mercspython_Log_F02.running.log"
},
{
  "ts": "2018-02-06T10:32:52.152115",
  "type": "INFO",
  "values": "Process ended (returncode 0)"
},
{
  "ts": "2018-02-06T10:32:52.152175",
  "type": "INFO",
  "values": "Finished: Run process 548.296 seconds"
},
{
  "ts": "2018-02-06T10:32:52.152228",
  "type": "WARNING",
  "values": {
    "Exit": "finished",
    "Returncode": 0,
    "Time": 548.2962491512299
  }
},
{
  "ts": "2018-02-06T10:32:52.152481",
  "type": "INFO",
  "values": "Closing /cw/dtailocal/mercs_python/out/553/scm1d/logs/mercspython_Log_F02.running.log"
}
]
