[
{
  "ts": "2018-02-07T10:15:54.285373",
  "type": "SETTINGS",
  "values": {
    "date": "2018/02/07 11:15:54",
    "date_iso": "2018-02-07T11:15:54.284491",
    "params": null,
    "system": {
      "nodename": "gibson",
      "machine": "x86_64",
      "platform": "Linux-4.4.0-112-generic-x86_64-with-debian-stretch-sid",
      "processor": "x86_64",
      "version": "#135-Ubuntu SMP Fri Jan 19 11:48:36 UTC 2018",
      "system": "Linux",
      "cpu_count": 8,
      "cpu_times": {
        "user": 377516.56,
        "system": 22360.38,
        "idle": 8577340.98,
        "nice": 898.04
      },
      "cpu_percent": 99.0,
      "virtual_memory": {
        "total": 33618501632,
        "available": 26080268288,
        "percent": 22.4,
        "used": 6670454784,
        "free": 11943100416
      }
    },
    "process": {
      "username": "evgeniya",
      "cwd": "/cw/dtailocal/mercs_python/src/core",
      "create_time": 1517998524.46,
      "cpu_times": {
        "user": 1.61,
        "system": 0.26
      }
    },
    "logfile": "/cw/dtailocal/mercs_python/out/712/slump/logs/mercspython_Log_F09",
    "command": "python /cw/dtailocal/mercs_python/bin/mercspython.py /cw/dtailocal/mercs_python/out/712/slump/settings/mercspython_Settings_F09.s"
  }
},
{
  "ts": "2018-02-07T10:15:54.285532",
  "type": "INFO",
  "values": {
    "cmd": "python /cw/dtailocal/mercs_python/bin/mercspython.py /cw/dtailocal/mercs_python/out/712/slump/settings/mercspython_Settings_F09.s",
    "cwd": null
  }
},
{
  "ts": "2018-02-07T10:15:54.297750",
  "type": "INFO",
  "values": "Start: Run process"
},
{
  "ts": "2018-02-07T10:15:54.327806",
  "type": "INFO",
  "values": "Write log to /cw/dtailocal/mercs_python/out/712/slump/logs/mercspython_Log_F09.running.log"
},
{
  "ts": "2018-02-07T10:15:57.331606",
  "type": "INFO",
  "values": "Process ended (returncode 0)"
},
{
  "ts": "2018-02-07T10:15:57.331702",
  "type": "INFO",
  "values": "Finished: Run process 3.034 seconds"
},
{
  "ts": "2018-02-07T10:15:57.331788",
  "type": "WARNING",
  "values": {
    "Exit": "finished",
    "Returncode": 0,
    "Time": 3.0339744091033936
  }
},
{
  "ts": "2018-02-07T10:15:57.338775",
  "type": "INFO",
  "values": "Closing /cw/dtailocal/mercs_python/out/712/slump/logs/mercspython_Log_F09.running.log"
}
]
