[
{
  "ts": "2018-02-05T21:43:37.473433",
  "type": "SETTINGS",
  "values": {
    "date": "2018/02/05 22:43:37",
    "date_iso": "2018-02-05T22:43:37.470433",
    "params": null,
    "system": {
      "nodename": "gibson",
      "machine": "x86_64",
      "platform": "Linux-4.4.0-112-generic-x86_64-with-debian-stretch-sid",
      "processor": "x86_64",
      "version": "#135-Ubuntu SMP Fri Jan 19 11:48:36 UTC 2018",
      "system": "Linux",
      "cpu_count": 8,
      "cpu_times": {
        "user": 245352.38,
        "system": 19433.32,
        "idle": 7663085.84,
        "nice": 760.78
      },
      "cpu_percent": 36.6,
      "virtual_memory": {
        "total": 33618501632,
        "available": 24912142336,
        "percent": 25.9,
        "used": 7677009920,
        "free": 15955566592
      }
    },
    "process": {
      "username": "evgeniya",
      "cwd": "/cw/dtailocal/mercs_python/src/core",
      "create_time": 1517867015.31,
      "cpu_times": {
        "user": 1.46,
        "system": 0.06
      }
    },
    "logfile": "/cw/dtailocal/mercs_python/out/237/scm1d/logs/mercspython_Log_F00",
    "command": "python /cw/dtailocal/mercs_python/bin/mercspython.py /cw/dtailocal/mercs_python/out/237/scm1d/settings/mercspython_Settings_F00.s"
  }
},
{
  "ts": "2018-02-05T21:43:37.473529",
  "type": "INFO",
  "values": {
    "cmd": "python /cw/dtailocal/mercs_python/bin/mercspython.py /cw/dtailocal/mercs_python/out/237/scm1d/settings/mercspython_Settings_F00.s",
    "cwd": null
  }
},
{
  "ts": "2018-02-05T21:43:37.476440",
  "type": "INFO",
  "values": "Start: Run process"
},
{
  "ts": "2018-02-05T21:43:37.477003",
  "type": "INFO",
  "values": "Write log to /cw/dtailocal/mercs_python/out/237/scm1d/logs/mercspython_Log_F00.running.log"
},
{
  "ts": "2018-02-05T22:00:00.222971",
  "type": "INFO",
  "values": "Process ended (returncode 0)"
},
{
  "ts": "2018-02-05T22:00:00.223035",
  "type": "INFO",
  "values": "Finished: Run process 982.747 seconds"
},
{
  "ts": "2018-02-05T22:00:00.223093",
  "type": "WARNING",
  "values": {
    "Exit": "finished",
    "Returncode": 0,
    "Time": 982.7466344833374
  }
},
{
  "ts": "2018-02-05T22:00:00.223450",
  "type": "INFO",
  "values": "Closing /cw/dtailocal/mercs_python/out/237/scm1d/logs/mercspython_Log_F00.running.log"
}
]
