[
{
  "ts": "2018-02-06T00:12:44.469102",
  "type": "SETTINGS",
  "values": {
    "date": "2018/02/06 01:12:44",
    "date_iso": "2018-02-06T01:12:44.468524",
    "params": null,
    "system": {
      "nodename": "gibson",
      "machine": "x86_64",
      "platform": "Linux-4.4.0-112-generic-x86_64-with-debian-stretch-sid",
      "processor": "x86_64",
      "version": "#135-Ubuntu SMP Fri Jan 19 11:48:36 UTC 2018",
      "system": "Linux",
      "cpu_count": 8,
      "cpu_times": {
        "user": 272308.56,
        "system": 19607.71,
        "idle": 7707424.62,
        "nice": 763.28
      },
      "cpu_percent": 37.9,
      "virtual_memory": {
        "total": 33618501632,
        "available": 24098164736,
        "percent": 28.3,
        "used": 8499183616,
        "free": 14966603776
      }
    },
    "process": {
      "username": "evgeniya",
      "cwd": "/cw/dtailocal/mercs_python/src/core",
      "create_time": 1517867015.31,
      "cpu_times": {
        "user": 4.47,
        "system": 1.38
      }
    },
    "logfile": "/cw/dtailocal/mercs_python/out/237/scm1d/logs/mercspython_Log_F09",
    "command": "python /cw/dtailocal/mercs_python/bin/mercspython.py /cw/dtailocal/mercs_python/out/237/scm1d/settings/mercspython_Settings_F09.s"
  }
},
{
  "ts": "2018-02-06T00:12:44.469274",
  "type": "INFO",
  "values": {
    "cmd": "python /cw/dtailocal/mercs_python/bin/mercspython.py /cw/dtailocal/mercs_python/out/237/scm1d/settings/mercspython_Settings_F09.s",
    "cwd": null
  }
},
{
  "ts": "2018-02-06T00:12:44.472804",
  "type": "INFO",
  "values": "Start: Run process"
},
{
  "ts": "2018-02-06T00:12:44.473297",
  "type": "INFO",
  "values": "Write log to /cw/dtailocal/mercs_python/out/237/scm1d/logs/mercspython_Log_F09.running.log"
},
{
  "ts": "2018-02-06T00:29:11.000135",
  "type": "INFO",
  "values": "Process ended (returncode 0)"
},
{
  "ts": "2018-02-06T00:29:11.000198",
  "type": "INFO",
  "values": "Finished: Run process 986.527 seconds"
},
{
  "ts": "2018-02-06T00:29:11.000256",
  "type": "WARNING",
  "values": {
    "Exit": "finished",
    "Returncode": 0,
    "Time": 986.5274338722229
  }
},
{
  "ts": "2018-02-06T00:29:11.000555",
  "type": "INFO",
  "values": "Closing /cw/dtailocal/mercs_python/out/237/scm1d/logs/mercspython_Log_F09.running.log"
}
]
