[
{
  "ts": "2018-02-05T14:50:31.549119",
  "type": "SETTINGS",
  "values": {
    "date": "2018/02/05 15:50:31",
    "date_iso": "2018-02-05T15:50:31.548215",
    "params": null,
    "system": {
      "nodename": "gibson",
      "machine": "x86_64",
      "platform": "Linux-4.4.0-112-generic-x86_64-with-debian-stretch-sid",
      "processor": "x86_64",
      "version": "#135-Ubuntu SMP Fri Jan 19 11:48:36 UTC 2018",
      "system": "Linux",
      "cpu_count": 8,
      "cpu_times": {
        "user": 81272.15,
        "system": 18030.73,
        "idle": 7630551.14,
        "nice": 732.25
      },
      "cpu_percent": 100.0,
      "virtual_memory": {
        "total": 33618501632,
        "available": 24823394304,
        "percent": 26.2,
        "used": 7727517696,
        "free": 9508540416
      }
    },
    "process": {
      "username": "evgeniya",
      "cwd": "/cw/dtailocal/mercs_python/src/core",
      "create_time": 1517842206.61,
      "cpu_times": {
        "user": 0.9,
        "system": 0.17
      }
    },
    "logfile": "/cw/dtailocal/mercs_python/out/319/andro/logs/mercspython_Log_F07",
    "command": "python /cw/dtailocal/mercs_python/bin/mercspython.py /cw/dtailocal/mercs_python/out/319/andro/settings/mercspython_Settings_F07.s"
  }
},
{
  "ts": "2018-02-05T14:50:31.549291",
  "type": "INFO",
  "values": {
    "cmd": "python /cw/dtailocal/mercs_python/bin/mercspython.py /cw/dtailocal/mercs_python/out/319/andro/settings/mercspython_Settings_F07.s",
    "cwd": null
  }
},
{
  "ts": "2018-02-05T14:50:31.573275",
  "type": "INFO",
  "values": "Start: Run process"
},
{
  "ts": "2018-02-05T14:50:31.607770",
  "type": "INFO",
  "values": "Write log to /cw/dtailocal/mercs_python/out/319/andro/logs/mercspython_Log_F07.running.log"
},
{
  "ts": "2018-02-05T14:50:34.624207",
  "type": "INFO",
  "values": "Process ended (returncode 0)"
},
{
  "ts": "2018-02-05T14:50:34.624289",
  "type": "INFO",
  "values": "Finished: Run process 3.051 seconds"
},
{
  "ts": "2018-02-05T14:50:34.624371",
  "type": "WARNING",
  "values": {
    "Exit": "finished",
    "Returncode": 0,
    "Time": 3.0510387420654297
  }
},
{
  "ts": "2018-02-05T14:50:34.631776",
  "type": "INFO",
  "values": "Closing /cw/dtailocal/mercs_python/out/319/andro/logs/mercspython_Log_F07.running.log"
}
]
