[
{
  "ts": "2018-02-05T14:50:14.966566",
  "type": "SETTINGS",
  "values": {
    "date": "2018/02/05 15:50:14",
    "date_iso": "2018-02-05T15:50:14.965743",
    "params": null,
    "system": {
      "nodename": "gibson",
      "machine": "x86_64",
      "platform": "Linux-4.4.0-112-generic-x86_64-with-debian-stretch-sid",
      "processor": "x86_64",
      "version": "#135-Ubuntu SMP Fri Jan 19 11:48:36 UTC 2018",
      "system": "Linux",
      "cpu_count": 8,
      "cpu_times": {
        "user": 81141.44,
        "system": 18029.07,
        "idle": 7630550.96,
        "nice": 732.25
      },
      "cpu_percent": 99.9,
      "virtual_memory": {
        "total": 33618501632,
        "available": 25390116864,
        "percent": 24.5,
        "used": 7151415296,
        "free": 10079891456
      }
    },
    "process": {
      "username": "evgeniya",
      "cwd": "/cw/dtailocal/mercs_python/src/core",
      "create_time": 1517842206.61,
      "cpu_times": {
        "user": 0.65,
        "system": 0.11
      }
    },
    "logfile": "/cw/dtailocal/mercs_python/out/319/andro/logs/mercspython_Log_F02",
    "command": "python /cw/dtailocal/mercs_python/bin/mercspython.py /cw/dtailocal/mercs_python/out/319/andro/settings/mercspython_Settings_F02.s"
  }
},
{
  "ts": "2018-02-05T14:50:14.966718",
  "type": "INFO",
  "values": {
    "cmd": "python /cw/dtailocal/mercs_python/bin/mercspython.py /cw/dtailocal/mercs_python/out/319/andro/settings/mercspython_Settings_F02.s",
    "cwd": null
  }
},
{
  "ts": "2018-02-05T14:50:15.005076",
  "type": "INFO",
  "values": "Start: Run process"
},
{
  "ts": "2018-02-05T14:50:15.039797",
  "type": "INFO",
  "values": "Write log to /cw/dtailocal/mercs_python/out/319/andro/logs/mercspython_Log_F02.running.log"
},
{
  "ts": "2018-02-05T14:50:18.043500",
  "type": "INFO",
  "values": "Process ended (returncode 0)"
},
{
  "ts": "2018-02-05T14:50:18.043576",
  "type": "INFO",
  "values": "Finished: Run process 3.039 seconds"
},
{
  "ts": "2018-02-05T14:50:18.043668",
  "type": "WARNING",
  "values": {
    "Exit": "finished",
    "Returncode": 0,
    "Time": 3.0385265350341797
  }
},
{
  "ts": "2018-02-05T14:50:18.055853",
  "type": "INFO",
  "values": "Closing /cw/dtailocal/mercs_python/out/319/andro/logs/mercspython_Log_F02.running.log"
}
]
