[
{
  "ts": "2018-02-05T18:10:06.209208",
  "type": "SETTINGS",
  "values": {
    "date": "2018/02/05 19:10:06",
    "date_iso": "2018-02-05T19:10:06.208392",
    "params": null,
    "system": {
      "nodename": "gibson",
      "machine": "x86_64",
      "platform": "Linux-4.4.0-112-generic-x86_64-with-debian-stretch-sid",
      "processor": "x86_64",
      "version": "#135-Ubuntu SMP Fri Jan 19 11:48:36 UTC 2018",
      "system": "Linux",
      "cpu_count": 8,
      "cpu_times": {
        "user": 163016.2,
        "system": 18919.9,
        "idle": 7643519.22,
        "nice": 753.62
      },
      "cpu_percent": 100.0,
      "virtual_memory": {
        "total": 33618501632,
        "available": 19438985216,
        "percent": 42.2,
        "used": 13155401728,
        "free": 7183052800
      }
    },
    "process": {
      "username": "evgeniya",
      "cwd": "/cw/dtailocal/mercs_python/src/core",
      "create_time": 1517853287.89,
      "cpu_times": {
        "user": 1.81,
        "system": 0.26
      }
    },
    "logfile": "/cw/dtailocal/mercs_python/out/354/scm20d/logs/mercspython_Log_F08",
    "command": "python /cw/dtailocal/mercs_python/bin/mercspython.py /cw/dtailocal/mercs_python/out/354/scm20d/settings/mercspython_Settings_F08.s"
  }
},
{
  "ts": "2018-02-05T18:10:06.209356",
  "type": "INFO",
  "values": {
    "cmd": "python /cw/dtailocal/mercs_python/bin/mercspython.py /cw/dtailocal/mercs_python/out/354/scm20d/settings/mercspython_Settings_F08.s",
    "cwd": null
  }
},
{
  "ts": "2018-02-05T18:10:06.222344",
  "type": "INFO",
  "values": "Start: Run process"
},
{
  "ts": "2018-02-05T18:10:06.251782",
  "type": "INFO",
  "values": "Write log to /cw/dtailocal/mercs_python/out/354/scm20d/logs/mercspython_Log_F08.running.log"
},
{
  "ts": "2018-02-05T18:11:55.782389",
  "type": "INFO",
  "values": "Process ended (returncode 0)"
},
{
  "ts": "2018-02-05T18:11:55.782471",
  "type": "INFO",
  "values": "Finished: Run process 109.560 seconds"
},
{
  "ts": "2018-02-05T18:11:55.782551",
  "type": "WARNING",
  "values": {
    "Exit": "finished",
    "Returncode": 0,
    "Time": 109.56015014648438
  }
},
{
  "ts": "2018-02-05T18:11:55.787809",
  "type": "INFO",
  "values": "Closing /cw/dtailocal/mercs_python/out/354/scm20d/logs/mercspython_Log_F08.running.log"
}
]
