[SETTINGS] {
  "date": "2018/02/05 18:56:42",
  "date_iso": "2018-02-05T18:56:42.672416",
  "params": null,
  "system": {
    "nodename": "gibson",
    "machine": "x86_64",
    "platform": "Linux-4.4.0-112-generic-x86_64-with-debian-stretch-sid",
    "processor": "x86_64",
    "version": "#135-Ubuntu SMP Fri Jan 19 11:48:36 UTC 2018",
    "system": "Linux",
    "cpu_count": 8,
    "cpu_times": {
      "user": 156648.05,
      "system": 18860.99,
      "idle": 7643518.98,
      "nice": 753.62
    },
    "cpu_percent": 99.9,
    "virtual_memory": {
      "total": 33618501632,
      "available": 17395990528,
      "percent": 48.3,
      "used": 15205048320,
      "free": 1241530368
    }
  },
  "process": {
    "username": "evgeniya",
    "cwd": "/cw/dtailocal/mercs_python/src/core",
    "create_time": 1517853287.89,
    "cpu_times": {
      "user": 0.98,
      "system": 0.11
    }
  },
  "logfile": "/cw/dtailocal/mercs_python/out/354/scm20d/logs/mercspython_Log_F01",
  "command": "python /cw/dtailocal/mercs_python/bin/mercspython.py /cw/dtailocal/mercs_python/out/354/scm20d/settings/mercspython_Settings_F01.s"
}
[INFO] cmd:python /cw/dtailocal/mercs_python/bin/mercspython.py /cw/dtailocal/mercs_python/out/354/scm20d/settings/mercspython_Settings_F01.s; cwd:None
[INFO] Start: Run process
[INFO] Write log to /cw/dtailocal/mercs_python/out/354/scm20d/logs/mercspython_Log_F01.running.log
[STDERR] /cw/dtailocal/mercs_python/bin/mercspython.py:78: VisibleDeprecationWarning: converting an array with ndim > 0 to an index will result in an error in the future
[STDERR]   while((np.sum(codes[partition * nb_models_it + model]) >= nb_out_atts)):
[STDERR] /cw/dtailocal/mercs_python/bin/mercspython.py:81: VisibleDeprecationWarning: converting an array with ndim > 0 to an index will result in an error in the future
[STDERR]   codes[partition * nb_models_it + model][attribute] = 1
[[0 0 0 0 0 1 0 0 1 0 0 0 1 0 0 0 1 0 0 0 0 0 1 0 0 1 0 0 0 0 1 0 1 1 0 0 0
  1 1 0 0 1 0 1 0 1 0 1 0 0 0 0 0 0 0 0 0 0 0 0 0 0 0 0 0 0 0 0 0 0 0 0 0 0
  0 0 0]
 [0 0 0 0 1 0 0 0 0 0 0 1 0 0 0 0 0 0 1 1 0 0 0 0 0 0 1 0 0 0 0 0 0 0 0 0 0
  0 0 0 0 0 0 0 0 0 0 0 0 0 0 0 0 0 0 0 0 0 0 0 0 0 0 0 0 0 0 0 0 0 0 0 0 0
  0 1 1]
 [0 0 1 0 0 0 1 0 0 0 0 0 0 1 0 0 0 0 0 0 1 0 0 0 0 0 0 0 1 0 0 0 0 0 1 0 0
  0 0 1 0 0 0 0 0 0 0 0 0 1 1 0 1 1 0 1 1 0 0 1 0 1 0 0 0 0 0 0 0 0 0 0 0 0
  0 0 0]
 [0 1 0 0 0 0 0 1 0 0 0 0 0 0 1 0 0 0 0 0 0 1 0 0 0 0 0 1 0 0 0 0 0 0 0 1 0
  0 0 0 0 0 0 0 0 0 0 0 0 0 0 0 0 0 0 0 0 1 1 0 1 0 1 1 1 1 0 0 0 1 0 1 0 0
  0 0 0]
 [1 0 0 0 0 0 0 0 0 1 1 0 0 0 0 1 0 0 0 0 0 0 0 1 1 0 0 0 0 1 0 0 0 0 0 0 1
  0 0 0 1 0 1 0 1 0 1 0 1 0 0 1 0 0 1 0 0 0 0 0 0 0 0 0 0 0 0 0 0 0 0 0 0 0
  0 0 0]
 [0 0 0 1 0 0 0 0 0 0 0 0 0 0 0 0 0 1 0 0 0 0 0 0 0 0 0 0 0 0 0 1 0 0 0 0 0
  0 0 0 0 0 0 0 0 0 0 0 0 0 0 0 0 0 0 0 0 0 0 0 0 0 0 0 0 0 1 1 1 0 1 0 1 1
  1 0 0]]
====================================================
Total induction time of the MDEModel was: 93782 ms
====================================================
====================================================
Total inference time of the MDEModel was: 4271 ms
====================================================
====================================================
This was for: 77 queries.
====================================================
[INFO] Process ended (returncode 0)
[INFO] Finished: Run process 122.401 seconds
[WARNING] Exit:finished; Returncode:0; Time:122.40118
