[
{
  "ts": "2018-02-05T15:02:11.445066",
  "type": "SETTINGS",
  "values": {
    "date": "2018/02/05 16:02:11",
    "date_iso": "2018-02-05T16:02:11.444214",
    "params": null,
    "system": {
      "nodename": "gibson",
      "machine": "x86_64",
      "platform": "Linux-4.4.0-112-generic-x86_64-with-debian-stretch-sid",
      "processor": "x86_64",
      "version": "#135-Ubuntu SMP Fri Jan 19 11:48:36 UTC 2018",
      "system": "Linux",
      "cpu_count": 8,
      "cpu_times": {
        "user": 86800.12,
        "system": 18093.33,
        "idle": 7630554.7,
        "nice": 732.25
      },
      "cpu_percent": 100.0,
      "virtual_memory": {
        "total": 33618501632,
        "available": 22336958464,
        "percent": 33.6,
        "used": 10164445184,
        "free": 6754009088
      }
    },
    "process": {
      "username": "evgeniya",
      "cwd": "/cw/dtailocal/mercs_python/src/core",
      "create_time": 1517842912.42,
      "cpu_times": {
        "user": 1.02,
        "system": 0.11
      }
    },
    "logfile": "/cw/dtailocal/mercs_python/out/350/wq/logs/mercspython_Log_F05",
    "command": "python /cw/dtailocal/mercs_python/bin/mercspython.py /cw/dtailocal/mercs_python/out/350/wq/settings/mercspython_Settings_F05.s"
  }
},
{
  "ts": "2018-02-05T15:02:11.445214",
  "type": "INFO",
  "values": {
    "cmd": "python /cw/dtailocal/mercs_python/bin/mercspython.py /cw/dtailocal/mercs_python/out/350/wq/settings/mercspython_Settings_F05.s",
    "cwd": null
  }
},
{
  "ts": "2018-02-05T15:02:11.469107",
  "type": "INFO",
  "values": "Start: Run process"
},
{
  "ts": "2018-02-05T15:02:11.495772",
  "type": "INFO",
  "values": "Write log to /cw/dtailocal/mercs_python/out/350/wq/logs/mercspython_Log_F05.running.log"
},
{
  "ts": "2018-02-05T15:02:14.900005",
  "type": "INFO",
  "values": "Process ended (returncode 0)"
},
{
  "ts": "2018-02-05T15:02:14.900088",
  "type": "INFO",
  "values": "Finished: Run process 3.431 seconds"
},
{
  "ts": "2018-02-05T15:02:14.900168",
  "type": "WARNING",
  "values": {
    "Exit": "finished",
    "Returncode": 0,
    "Time": 3.4310007095336914
  }
}
]
