[SETTINGS] {
  "date": "2018/02/07 14:14:27",
  "date_iso": "2018-02-07T14:14:27.907164",
  "params": null,
  "system": {
    "nodename": "gibson",
    "machine": "x86_64",
    "platform": "Linux-4.4.0-112-generic-x86_64-with-debian-stretch-sid",
    "processor": "x86_64",
    "version": "#135-Ubuntu SMP Fri Jan 19 11:48:36 UTC 2018",
    "system": "Linux",
    "cpu_count": 8,
    "cpu_times": {
      "user": 404683.58,
      "system": 23678.58,
      "idle": 8634115.69,
      "nice": 906.12
    },
    "cpu_percent": 72.9,
    "virtual_memory": {
      "total": 33618501632,
      "available": 25207017472,
      "percent": 25.0,
      "used": 7484338176,
      "free": 10734641152
    }
  },
  "process": {
    "username": "evgeniya",
    "cwd": "/cw/dtailocal/mercs_python/src/core",
    "create_time": 1518008875.9,
    "cpu_times": {
      "user": 1.52,
      "system": 0.49
    }
  },
  "logfile": "/cw/dtailocal/mercs_python/out/832/rf1/logs/mercspython_Log_F07",
  "command": "python /cw/dtailocal/mercs_python/bin/mercspython.py /cw/dtailocal/mercs_python/out/832/rf1/settings/mercspython_Settings_F07.s"
}
[INFO] cmd:python /cw/dtailocal/mercs_python/bin/mercspython.py /cw/dtailocal/mercs_python/out/832/rf1/settings/mercspython_Settings_F07.s; cwd:None
[INFO] Start: Run process
[INFO] Write log to /cw/dtailocal/mercs_python/out/832/rf1/logs/mercspython_Log_F07.running.log
[STDERR] /cw/dtailocal/mercs_python/bin/mercspython.py:121: DataConversionWarning: A column-vector y was passed when a 1d array was expected. Please change the shape of y to (n_samples,), for example using ravel().
[STDERR]   models[i].fit(X, Y)
[0 0 0 0 0 0 0 0 0 0 0 0 0 0 0 0 0 0 0 0 0 0 0 0 0 1 0 0 0 0 0 0 0 0 0 0 0
 0 0 0 0 0 0 0 0 0 0 0 0 0 0 0 0 0 0 0 0 0 0 0 0 0 0 0 0 0 0 0 0 0 0 0]
[[1, 1, 1, 1, 1, 1, 1, 1, 1, 1, 1, 1, 1, 1, 1, 1, 1, 1, 1, 1, 1, 1, 1, 1, 1, 0, 1, 1, 1, 1, 1, 1, 1, 1, 1, 1, 1, 1, 1, 1, 1, 1, 1, 1, 1, 1, 1, 1, 1, 1, 1, 1, 1, 1, 1, 1, 1, 1, 1, 1, 1, 1, 1, 1, 1, 1, 1, 1, 1, 1, 1, 1], [0, 0, 0, 0, 0, 0, 0, 0, 0, 0, 0, 0, 0, 0, 0, 0, 0, 0, 0, 0, 0, 0, 0, 0, 0, 1, 0, 0, 0, 0, 0, 0, 0, 0, 0, 0, 0, 0, 0, 0, 0, 0, 0, 0, 0, 0, 0, 0, 0, 0, 0, 0, 0, 0, 0, 0, 0, 0, 0, 0, 0, 0, 0, 0, 0, 0, 0, 0, 0, 0, 0, 0]]
====================================================
Total induction time of the MDEModel was: 7182 ms
====================================================
====================================================
Total inference time of the MDEModel was: 3986 ms
====================================================
====================================================
This was for: 72 queries.
====================================================
[INFO] Process ended (returncode 0)
[INFO] Finished: Run process 34.850 seconds
[WARNING] Exit:finished; Returncode:0; Time:34.84979
