[
{
  "ts": "2018-02-07T13:08:59.173070",
  "type": "SETTINGS",
  "values": {
    "date": "2018/02/07 14:08:59",
    "date_iso": "2018-02-07T14:08:59.172247",
    "params": null,
    "system": {
      "nodename": "gibson",
      "machine": "x86_64",
      "platform": "Linux-4.4.0-112-generic-x86_64-with-debian-stretch-sid",
      "processor": "x86_64",
      "version": "#135-Ubuntu SMP Fri Jan 19 11:48:36 UTC 2018",
      "system": "Linux",
      "cpu_count": 8,
      "cpu_times": {
        "user": 402289.02,
        "system": 23603.16,
        "idle": 8633961.72,
        "nice": 906.12
      },
      "cpu_percent": 100.0,
      "virtual_memory": {
        "total": 33618501632,
        "available": 24480878592,
        "percent": 27.2,
        "used": 8217391104,
        "free": 10090872832
      }
    },
    "process": {
      "username": "evgeniya",
      "cwd": "/cw/dtailocal/mercs_python/src/core",
      "create_time": 1518008875.9,
      "cpu_times": {
        "user": 0.78,
        "system": 0.1
      }
    },
    "logfile": "/cw/dtailocal/mercs_python/out/832/rf1/logs/mercspython_Log_F01",
    "command": "python /cw/dtailocal/mercs_python/bin/mercspython.py /cw/dtailocal/mercs_python/out/832/rf1/settings/mercspython_Settings_F01.s"
  }
},
{
  "ts": "2018-02-07T13:08:59.173209",
  "type": "INFO",
  "values": {
    "cmd": "python /cw/dtailocal/mercs_python/bin/mercspython.py /cw/dtailocal/mercs_python/out/832/rf1/settings/mercspython_Settings_F01.s",
    "cwd": null
  }
},
{
  "ts": "2018-02-07T13:08:59.189668",
  "type": "INFO",
  "values": "Start: Run process"
},
{
  "ts": "2018-02-07T13:08:59.223780",
  "type": "INFO",
  "values": "Write log to /cw/dtailocal/mercs_python/out/832/rf1/logs/mercspython_Log_F01.running.log"
},
{
  "ts": "2018-02-07T13:10:03.705557",
  "type": "INFO",
  "values": "Process ended (returncode 0)"
},
{
  "ts": "2018-02-07T13:10:03.705636",
  "type": "INFO",
  "values": "Finished: Run process 64.516 seconds"
},
{
  "ts": "2018-02-07T13:10:03.705710",
  "type": "WARNING",
  "values": {
    "Exit": "finished",
    "Returncode": 0,
    "Time": 64.51599192619324
  }
},
{
  "ts": "2018-02-07T13:10:03.712333",
  "type": "INFO",
  "values": "Closing /cw/dtailocal/mercs_python/out/832/rf1/logs/mercspython_Log_F01.running.log"
}
]
