[
{
  "ts": "2018-02-05T15:45:35.535945",
  "type": "SETTINGS",
  "values": {
    "date": "2018/02/05 16:45:35",
    "date_iso": "2018-02-05T16:45:35.535114",
    "params": null,
    "system": {
      "nodename": "gibson",
      "machine": "x86_64",
      "platform": "Linux-4.4.0-112-generic-x86_64-with-debian-stretch-sid",
      "processor": "x86_64",
      "version": "#135-Ubuntu SMP Fri Jan 19 11:48:36 UTC 2018",
      "system": "Linux",
      "cpu_count": 8,
      "cpu_times": {
        "user": 100729.92,
        "system": 18249.64,
        "idle": 7637227.96,
        "nice": 749.46
      },
      "cpu_percent": 99.7,
      "virtual_memory": {
        "total": 33618501632,
        "available": 24149458944,
        "percent": 28.2,
        "used": 8524615680,
        "free": 7946543104
      }
    },
    "process": {
      "username": "evgeniya",
      "cwd": "/cw/dtailocal/mercs_python/src/core",
      "create_time": 1517845397.28,
      "cpu_times": {
        "user": 2.26,
        "system": 0.16
      }
    },
    "logfile": "/cw/dtailocal/mercs_python/out/234/oes10/logs/mercspython_Log_F03",
    "command": "python /cw/dtailocal/mercs_python/bin/mercspython.py /cw/dtailocal/mercs_python/out/234/oes10/settings/mercspython_Settings_F03.s"
  }
},
{
  "ts": "2018-02-05T15:45:35.536099",
  "type": "INFO",
  "values": {
    "cmd": "python /cw/dtailocal/mercs_python/bin/mercspython.py /cw/dtailocal/mercs_python/out/234/oes10/settings/mercspython_Settings_F03.s",
    "cwd": null
  }
},
{
  "ts": "2018-02-05T15:45:35.554027",
  "type": "INFO",
  "values": "Start: Run process"
},
{
  "ts": "2018-02-05T15:45:35.588393",
  "type": "INFO",
  "values": "Write log to /cw/dtailocal/mercs_python/out/234/oes10/logs/mercspython_Log_F03.running.log"
},
{
  "ts": "2018-02-05T15:46:21.443123",
  "type": "INFO",
  "values": "Process ended (returncode 0)"
},
{
  "ts": "2018-02-05T15:46:21.443384",
  "type": "INFO",
  "values": "Finished: Run process 45.889 seconds"
},
{
  "ts": "2018-02-05T15:46:21.443459",
  "type": "WARNING",
  "values": {
    "Exit": "finished",
    "Returncode": 0,
    "Time": 45.88938641548157
  }
}
]
