[
{
  "ts": "2018-02-06T10:00:23.645097",
  "type": "SETTINGS",
  "values": {
    "date": "2018/02/06 11:00:23",
    "date_iso": "2018-02-06T11:00:23.644244",
    "params": null,
    "system": {
      "nodename": "gibson",
      "machine": "x86_64",
      "platform": "Linux-4.4.0-112-generic-x86_64-with-debian-stretch-sid",
      "processor": "x86_64",
      "version": "#135-Ubuntu SMP Fri Jan 19 11:48:36 UTC 2018",
      "system": "Linux",
      "cpu_count": 8,
      "cpu_times": {
        "user": 314688.04,
        "system": 20426.46,
        "idle": 7945472.61,
        "nice": 819.07
      },
      "cpu_percent": 77.0,
      "virtual_memory": {
        "total": 33618501632,
        "available": 25067008000,
        "percent": 25.4,
        "used": 7643332608,
        "free": 13952139264
      }
    },
    "process": {
      "username": "evgeniya",
      "cwd": "/cw/dtailocal/mercs_python/src/core",
      "create_time": 1517911195.9,
      "cpu_times": {
        "user": 1.22,
        "system": 0.47
      }
    },
    "logfile": "/cw/dtailocal/mercs_python/out/531/wq/logs/mercspython_Log_F09",
    "command": "python /cw/dtailocal/mercs_python/bin/mercspython.py /cw/dtailocal/mercs_python/out/531/wq/settings/mercspython_Settings_F09.s"
  }
},
{
  "ts": "2018-02-06T10:00:23.645245",
  "type": "INFO",
  "values": {
    "cmd": "python /cw/dtailocal/mercs_python/bin/mercspython.py /cw/dtailocal/mercs_python/out/531/wq/settings/mercspython_Settings_F09.s",
    "cwd": null
  }
},
{
  "ts": "2018-02-06T10:00:23.648934",
  "type": "INFO",
  "values": "Start: Run process"
},
{
  "ts": "2018-02-06T10:00:23.655279",
  "type": "INFO",
  "values": "Write log to /cw/dtailocal/mercs_python/out/531/wq/logs/mercspython_Log_F09.running.log"
},
{
  "ts": "2018-02-06T10:00:26.660995",
  "type": "INFO",
  "values": "Process ended (returncode 0)"
},
{
  "ts": "2018-02-06T10:00:26.661083",
  "type": "INFO",
  "values": "Finished: Run process 3.012 seconds"
},
{
  "ts": "2018-02-06T10:00:26.661165",
  "type": "WARNING",
  "values": {
    "Exit": "finished",
    "Returncode": 0,
    "Time": 3.0121753215789795
  }
}
]
