[
{
  "ts": "2018-02-05T14:51:43.521302",
  "type": "SETTINGS",
  "values": {
    "date": "2018/02/05 15:51:43",
    "date_iso": "2018-02-05T15:51:43.520370",
    "params": null,
    "system": {
      "nodename": "gibson",
      "machine": "x86_64",
      "platform": "Linux-4.4.0-112-generic-x86_64-with-debian-stretch-sid",
      "processor": "x86_64",
      "version": "#135-Ubuntu SMP Fri Jan 19 11:48:36 UTC 2018",
      "system": "Linux",
      "cpu_count": 8,
      "cpu_times": {
        "user": 81838.46,
        "system": 18038.69,
        "idle": 7630551.85,
        "nice": 732.25
      },
      "cpu_percent": 99.9,
      "virtual_memory": {
        "total": 33618501632,
        "available": 24211378176,
        "percent": 28.0,
        "used": 8330162176,
        "free": 8876044288
      }
    },
    "process": {
      "username": "evgeniya",
      "cwd": "/cw/dtailocal/mercs_python/src/core",
      "create_time": 1517842298.56,
      "cpu_times": {
        "user": 0.63,
        "system": 0.06
      }
    },
    "logfile": "/cw/dtailocal/mercs_python/out/329/jura/logs/mercspython_Log_F01",
    "command": "python /cw/dtailocal/mercs_python/bin/mercspython.py /cw/dtailocal/mercs_python/out/329/jura/settings/mercspython_Settings_F01.s"
  }
},
{
  "ts": "2018-02-05T14:51:43.521460",
  "type": "INFO",
  "values": {
    "cmd": "python /cw/dtailocal/mercs_python/bin/mercspython.py /cw/dtailocal/mercs_python/out/329/jura/settings/mercspython_Settings_F01.s",
    "cwd": null
  }
},
{
  "ts": "2018-02-05T14:51:43.532817",
  "type": "INFO",
  "values": "Start: Run process"
},
{
  "ts": "2018-02-05T14:51:43.579799",
  "type": "INFO",
  "values": "Write log to /cw/dtailocal/mercs_python/out/329/jura/logs/mercspython_Log_F01.running.log"
},
{
  "ts": "2018-02-05T14:51:46.583564",
  "type": "INFO",
  "values": "Process ended (returncode 0)"
},
{
  "ts": "2018-02-05T14:51:46.583624",
  "type": "INFO",
  "values": "Finished: Run process 3.051 seconds"
},
{
  "ts": "2018-02-05T14:51:46.583692",
  "type": "WARNING",
  "values": {
    "Exit": "finished",
    "Returncode": 0,
    "Time": 3.0508334636688232
  }
},
{
  "ts": "2018-02-05T14:51:46.584011",
  "type": "INFO",
  "values": "Closing /cw/dtailocal/mercs_python/out/329/jura/logs/mercspython_Log_F01.running.log"
}
]
