[
{
  "ts": "2018-02-05T14:52:08.113064",
  "type": "SETTINGS",
  "values": {
    "date": "2018/02/05 15:52:08",
    "date_iso": "2018-02-05T15:52:08.112231",
    "params": null,
    "system": {
      "nodename": "gibson",
      "machine": "x86_64",
      "platform": "Linux-4.4.0-112-generic-x86_64-with-debian-stretch-sid",
      "processor": "x86_64",
      "version": "#135-Ubuntu SMP Fri Jan 19 11:48:36 UTC 2018",
      "system": "Linux",
      "cpu_count": 8,
      "cpu_times": {
        "user": 82032.0,
        "system": 18041.47,
        "idle": 7630552.02,
        "nice": 732.25
      },
      "cpu_percent": 100.0,
      "virtual_memory": {
        "total": 33618501632,
        "available": 23663235072,
        "percent": 29.6,
        "used": 8887644160,
        "free": 8320237568
      }
    },
    "process": {
      "username": "evgeniya",
      "cwd": "/cw/dtailocal/mercs_python/src/core",
      "create_time": 1517842298.56,
      "cpu_times": {
        "user": 1.37,
        "system": 0.2
      }
    },
    "logfile": "/cw/dtailocal/mercs_python/out/329/jura/logs/mercspython_Log_F09",
    "command": "python /cw/dtailocal/mercs_python/bin/mercspython.py /cw/dtailocal/mercs_python/out/329/jura/settings/mercspython_Settings_F09.s"
  }
},
{
  "ts": "2018-02-05T14:52:08.113209",
  "type": "INFO",
  "values": {
    "cmd": "python /cw/dtailocal/mercs_python/bin/mercspython.py /cw/dtailocal/mercs_python/out/329/jura/settings/mercspython_Settings_F09.s",
    "cwd": null
  }
},
{
  "ts": "2018-02-05T14:52:08.129422",
  "type": "INFO",
  "values": "Start: Run process"
},
{
  "ts": "2018-02-05T14:52:08.151789",
  "type": "INFO",
  "values": "Write log to /cw/dtailocal/mercs_python/out/329/jura/logs/mercspython_Log_F09.running.log"
},
{
  "ts": "2018-02-05T14:52:11.156405",
  "type": "INFO",
  "values": "Process ended (returncode 0)"
},
{
  "ts": "2018-02-05T14:52:11.156486",
  "type": "INFO",
  "values": "Finished: Run process 3.027 seconds"
},
{
  "ts": "2018-02-05T14:52:11.156564",
  "type": "WARNING",
  "values": {
    "Exit": "finished",
    "Returncode": 0,
    "Time": 3.0270915031433105
  }
},
{
  "ts": "2018-02-05T14:52:11.168887",
  "type": "INFO",
  "values": "Closing /cw/dtailocal/mercs_python/out/329/jura/logs/mercspython_Log_F09.running.log"
}
]
