[
{
  "ts": "2018-02-05T20:01:04.105182",
  "type": "SETTINGS",
  "values": {
    "date": "2018/02/05 21:01:04",
    "date_iso": "2018-02-05T21:01:04.104268",
    "params": null,
    "system": {
      "nodename": "gibson",
      "machine": "x86_64",
      "platform": "Linux-4.4.0-112-generic-x86_64-with-debian-stretch-sid",
      "processor": "x86_64",
      "version": "#135-Ubuntu SMP Fri Jan 19 11:48:36 UTC 2018",
      "system": "Linux",
      "cpu_count": 8,
      "cpu_times": {
        "user": 215922.7,
        "system": 19265.51,
        "idle": 7643521.82,
        "nice": 757.38
      },
      "cpu_percent": 100.0,
      "virtual_memory": {
        "total": 33618501632,
        "available": 18651148288,
        "percent": 44.5,
        "used": 13946605568,
        "free": 9915289600
      }
    },
    "process": {
      "username": "evgeniya",
      "cwd": "/cw/dtailocal/mercs_python/src/core",
      "create_time": 1517853287.89,
      "cpu_times": {
        "user": 4.82,
        "system": 0.63
      }
    },
    "logfile": "/cw/dtailocal/mercs_python/out/353/scm1d/logs/mercspython_Log_F08",
    "command": "python /cw/dtailocal/mercs_python/bin/mercspython.py /cw/dtailocal/mercs_python/out/353/scm1d/settings/mercspython_Settings_F08.s"
  }
},
{
  "ts": "2018-02-05T20:01:04.105344",
  "type": "INFO",
  "values": {
    "cmd": "python /cw/dtailocal/mercs_python/bin/mercspython.py /cw/dtailocal/mercs_python/out/353/scm1d/settings/mercspython_Settings_F08.s",
    "cwd": null
  }
},
{
  "ts": "2018-02-05T20:01:04.133097",
  "type": "INFO",
  "values": "Start: Run process"
},
{
  "ts": "2018-02-05T20:01:04.155776",
  "type": "INFO",
  "values": "Write log to /cw/dtailocal/mercs_python/out/353/scm1d/logs/mercspython_Log_F08.running.log"
},
{
  "ts": "2018-02-05T20:14:32.743735",
  "type": "INFO",
  "values": "Process ended (returncode 0)"
},
{
  "ts": "2018-02-05T20:14:32.743816",
  "type": "INFO",
  "values": "Finished: Run process 808.611 seconds"
},
{
  "ts": "2018-02-05T20:14:32.743899",
  "type": "WARNING",
  "values": {
    "Exit": "finished",
    "Returncode": 0,
    "Time": 808.6107501983643
  }
}
]
