[
{
  "ts": "2018-02-06T12:20:16.417413",
  "type": "SETTINGS",
  "values": {
    "date": "2018/02/06 13:20:16",
    "date_iso": "2018-02-06T13:20:16.416591",
    "params": null,
    "system": {
      "nodename": "gibson",
      "machine": "x86_64",
      "platform": "Linux-4.4.0-112-generic-x86_64-with-debian-stretch-sid",
      "processor": "x86_64",
      "version": "#135-Ubuntu SMP Fri Jan 19 11:48:36 UTC 2018",
      "system": "Linux",
      "cpu_count": 8,
      "cpu_times": {
        "user": 347573.75,
        "system": 20972.53,
        "idle": 7978943.91,
        "nice": 821.4
      },
      "cpu_percent": 86.7,
      "virtual_memory": {
        "total": 33618501632,
        "available": 24134877184,
        "percent": 28.2,
        "used": 8398782464,
        "free": 11790073856
      }
    },
    "process": {
      "username": "evgeniya",
      "cwd": "/cw/dtailocal/mercs_python/src/core",
      "create_time": 1517919611.92,
      "cpu_times": {
        "user": 0.76,
        "system": 0.28
      }
    },
    "logfile": "/cw/dtailocal/mercs_python/out/633/enb/logs/mercspython_Log_F02",
    "command": "python /cw/dtailocal/mercs_python/bin/mercspython.py /cw/dtailocal/mercs_python/out/633/enb/settings/mercspython_Settings_F02.s"
  }
},
{
  "ts": "2018-02-06T12:20:16.417568",
  "type": "INFO",
  "values": {
    "cmd": "python /cw/dtailocal/mercs_python/bin/mercspython.py /cw/dtailocal/mercs_python/out/633/enb/settings/mercspython_Settings_F02.s",
    "cwd": null
  }
},
{
  "ts": "2018-02-06T12:20:16.421182",
  "type": "INFO",
  "values": "Start: Run process"
},
{
  "ts": "2018-02-06T12:20:16.424018",
  "type": "INFO",
  "values": "Write log to /cw/dtailocal/mercs_python/out/633/enb/logs/mercspython_Log_F02.running.log"
},
{
  "ts": "2018-02-06T12:20:18.028700",
  "type": "INFO",
  "values": "Process ended (returncode 0)"
},
{
  "ts": "2018-02-06T12:20:18.028792",
  "type": "INFO",
  "values": "Finished: Run process 1.608 seconds"
},
{
  "ts": "2018-02-06T12:20:18.028876",
  "type": "WARNING",
  "values": {
    "Exit": "finished",
    "Returncode": 0,
    "Time": 1.6076242923736572
  }
},
{
  "ts": "2018-02-06T12:20:18.029234",
  "type": "INFO",
  "values": "Closing /cw/dtailocal/mercs_python/out/633/enb/logs/mercspython_Log_F02.running.log"
}
]
