[
{
  "ts": "2018-02-05T14:51:22.945155",
  "type": "SETTINGS",
  "values": {
    "date": "2018/02/05 15:51:22",
    "date_iso": "2018-02-05T15:51:22.944298",
    "params": null,
    "system": {
      "nodename": "gibson",
      "machine": "x86_64",
      "platform": "Linux-4.4.0-112-generic-x86_64-with-debian-stretch-sid",
      "processor": "x86_64",
      "version": "#135-Ubuntu SMP Fri Jan 19 11:48:36 UTC 2018",
      "system": "Linux",
      "cpu_count": 8,
      "cpu_times": {
        "user": 81676.33,
        "system": 18036.49,
        "idle": 7630551.77,
        "nice": 732.25
      },
      "cpu_percent": 100.0,
      "virtual_memory": {
        "total": 33618501632,
        "available": 25158594560,
        "percent": 25.2,
        "used": 7382925312,
        "free": 9827672064
      }
    },
    "process": {
      "username": "evgeniya",
      "cwd": "/cw/dtailocal/mercs_python/src/core",
      "create_time": 1517842275.4,
      "cpu_times": {
        "user": 0.88,
        "system": 0.08
      }
    },
    "logfile": "/cw/dtailocal/mercs_python/out/328/enb/logs/mercspython_Log_F02",
    "command": "python /cw/dtailocal/mercs_python/bin/mercspython.py /cw/dtailocal/mercs_python/out/328/enb/settings/mercspython_Settings_F02.s"
  }
},
{
  "ts": "2018-02-05T14:51:22.945413",
  "type": "INFO",
  "values": {
    "cmd": "python /cw/dtailocal/mercs_python/bin/mercspython.py /cw/dtailocal/mercs_python/out/328/enb/settings/mercspython_Settings_F02.s",
    "cwd": null
  }
},
{
  "ts": "2018-02-05T14:51:22.969325",
  "type": "INFO",
  "values": "Start: Run process"
},
{
  "ts": "2018-02-05T14:51:23.027783",
  "type": "INFO",
  "values": "Write log to /cw/dtailocal/mercs_python/out/328/enb/logs/mercspython_Log_F02.running.log"
},
{
  "ts": "2018-02-05T14:51:25.843720",
  "type": "INFO",
  "values": "Process ended (returncode 0)"
},
{
  "ts": "2018-02-05T14:51:25.843796",
  "type": "INFO",
  "values": "Finished: Run process 2.874 seconds"
},
{
  "ts": "2018-02-05T14:51:25.843876",
  "type": "WARNING",
  "values": {
    "Exit": "finished",
    "Returncode": 0,
    "Time": 2.874497413635254
  }
}
]
