ID,Dataset,Ind t,Inf t,Nb Atts,Nb Queries,Nb Tuples,R^2 per query,Relative error / query,Sum of squared residuals / query,System,Tot t,basetype,dataset,ensemble,ensemble_its,keyword,param,prediction,selection_h,selection_its,selection_num_targets,system,Mean time/Query,Selection
1,andro,982.5,204.3,36,36,48,-2.0134045929,0.2339778681,0.2354093039,mercspython,1186.8,Ensemble,andro,Rforest,30,basic,1,Simple,base,1,1,mercspython,5.675,1 target / tree
2,edm,621.5,80.8,18,18,153,-0.5395643634,0.16965312,0.0974688644,mercspython,702.3,Ensemble,edm,Rforest,30,basic,1,Simple,base,1,1,mercspython,4.4888888889,1 target / tree
3,enb,436.4,48.7,10,10,767,-0.492480419,0.1967995539,0.1470533367,mercspython,485.1,Ensemble,enb,Rforest,30,basic,1,Simple,base,1,1,mercspython,4.87,1 target / tree
4,jura,618.3,75.3,18,18,358,-0.7686375457,0.1825228133,0.0837697521,mercspython,693.6,Ensemble,jura,Rforest,30,basic,1,Simple,base,1,1,mercspython,4.1833333333,1 target / tree
5,oes10,13345.6,7814.2,314,50,402,0.0984175525,0.0366300177,0.008581922,mercspython,21159.8,Ensemble,oes10,Rforest,30,basic,1,Simple,base,1,1,mercspython,156.284,1 target / tree
6,oes97,11165.5,6199.5,279,50,333,0.0531701145,0.0458572891,0.0118705012,mercspython,17365,Ensemble,oes97,Rforest,30,basic,1,Simple,base,1,1,mercspython,123.99,1 target / tree
8,rf1,37841.7,1924.5,72,50,9004,-1.1056096333,0.148316112,0.0967448025,mercspython,39766.2,Ensemble,rf1,Rforest,30,basic,1,Simple,base,1,1,mercspython,38.49,1 target / tree
9,rf2,110489.1,29390.7,584,50,7678,-1.001464614,0.1471617518,0.0909257825,mercspython,139879.8,Ensemble,rf2,Rforest,30,basic,1,Simple,base,1,1,mercspython,587.814,1 target / tree
10,scm1d,271213.5,6989.1,296,50,9802,-0.3881602916,0.0512922069,0.0124402814,mercspython,278202.6,Ensemble,scm1d,Rforest,30,basic,1,Simple,base,1,1,mercspython,139.782,1 target / tree
11,scm20d,49669.3,1518.7,77,50,8965,-0.94625866,0.1269879782,0.0647917672,mercspython,51188,Ensemble,scm20d,Rforest,30,basic,1,Simple,base,1,1,mercspython,30.374,1 target / tree
13,slump,312.7,33.6,10,10,102,-0.7633696169,0.2165579569,0.1350040219,mercspython,346.3,Ensemble,slump,Rforest,30,basic,1,Simple,base,1,1,mercspython,3.36,1 target / tree
14,wq,2037.5,232.8,30,30,1059,-1.111252858,0.1466414791,0.0564396201,mercspython,2270.3,Ensemble,wq,Rforest,30,basic,1,Simple,base,1,1,mercspython,7.76,1 target / tree
15,andro,371.5,125.1,36,36,48,-1.5533731101,0.214992756,0.2114718626,mercspython,496.6,Ensemble,andro,Rforest,30,basic,1,Simple,base,1,3,mercspython,3.475,3 targets / tree
16,edm,232.6,70.8,18,18,153,-0.245564587,0.1600144953,0.0827434996,mercspython,303.4,Ensemble,edm,Rforest,30,basic,1,Simple,base,1,3,mercspython,3.9333333333,3 targets / tree
17,enb,227.7,52.1,10,10,767,-0.6073218279,0.2052233041,0.1668590415,mercspython,279.8,Ensemble,enb,Rforest,30,basic,1,Simple,base,1,3,mercspython,5.21,3 targets / tree
18,jura,267.8,69.4,18,18,358,-0.4249249451,0.158706195,0.0816517049,mercspython,337.2,Ensemble,jura,Rforest,30,basic,1,Simple,base,1,3,mercspython,3.8555555556,3 targets / tree
19,oes10,4844.3,2742.7,314,50,402,0.0672256466,0.0359070109,0.0088280471,mercspython,7587,Ensemble,oes10,Rforest,30,basic,1,Simple,base,1,3,mercspython,54.854,3 targets / tree
20,oes97,4204.3,2373.6,279,50,333,0.038804889,0.0448050596,0.0120483475,mercspython,6577.9,Ensemble,oes97,Rforest,30,basic,1,Simple,base,1,3,mercspython,47.472,3 targets / tree
22,rf1,13939.6,1558.3,72,50,9004,-1.061871966,0.1449220252,0.0948552953,mercspython,15497.9,Ensemble,rf1,Rforest,30,basic,1,Simple,base,1,3,mercspython,31.166,3 targets / tree
23,rf2,58034.4,10638.5,584,50,7678,-1.0013465694,0.1465053775,0.0907090398,mercspython,68672.9,Ensemble,rf2,Rforest,30,basic,1,Simple,base,1,3,mercspython,212.77,3 targets / tree
24,scm1d,104635.1,4100.9,296,50,9802,-0.2157275006,0.0408263537,0.0121520949,mercspython,108736,Ensemble,scm1d,Rforest,30,basic,1,Simple,base,1,3,mercspython,82.018,3 targets / tree
25,scm20d,21226.8,1629.9,77,50,8965,-0.9961943842,0.1275613576,0.0667035527,mercspython,22856.7,Ensemble,scm20d,Rforest,30,basic,1,Simple,base,1,3,mercspython,32.598,3 targets / tree
27,slump,150.7,33.6,10,10,102,-0.7432369645,0.2133353408,0.1347306816,mercspython,184.3,Ensemble,slump,Rforest,30,basic,1,Simple,base,1,3,mercspython,3.36,3 targets / tree
28,wq,506.4,183.5,30,30,1059,-0.3114200205,0.1124951789,0.0473057204,mercspython,689.9,Ensemble,wq,Rforest,30,basic,1,Simple,base,1,5,mercspython,6.1166666667,3 targets / tree
29,andro,276.1,126,36,36,48,-1.4573986593,0.214249861,0.2053163273,mercspython,402.1,Ensemble,andro,Rforest,30,basic,1,Simple,base,1,5,mercspython,3.5,5 targets / tree
30,edm,174.4,72.2,18,18,153,-0.2513795602,0.1588869035,0.0837830843,mercspython,246.6,Ensemble,edm,Rforest,30,basic,1,Simple,base,1,5,mercspython,4.0111111111,5 targets / tree
31,enb,128.1,57.1,10,10,767,-0.6276021361,0.1981152586,0.1713811202,mercspython,185.2,Ensemble,enb,Rforest,30,basic,1,Simple,base,1,5,mercspython,5.71,5 targets / tree
32,jura,211.2,88.1,18,18,358,-0.3913078715,0.1590932474,0.0863875844,mercspython,299.3,Ensemble,jura,Rforest,30,basic,1,Simple,base,1,5,mercspython,4.8944444444,5 targets / tree
33,oes10,3226.2,1769,314,50,402,0.0579236679,0.0355825839,0.0088832618,mercspython,4995.2,Ensemble,oes10,Rforest,30,basic,1,Simple,base,1,5,mercspython,35.38,5 targets / tree
34,oes97,2712.5,1451.5,279,50,333,0.0273187833,0.0445608294,0.0122149889,mercspython,4164,Ensemble,oes97,Rforest,30,basic,1,Simple,base,1,5,mercspython,29.03,5 targets / tree
36,rf1,9497,1570.4,72,50,9004,-1.0444548385,0.1437725704,0.0940426835,mercspython,11067.4,Ensemble,rf1,Rforest,30,basic,1,Simple,base,1,5,mercspython,31.408,5 targets / tree
37,rf2,43408,7619.1,584,50,7678,-1.0295590173,0.147845753,0.0918150485,mercspython,51027.1,Ensemble,rf2,Rforest,30,basic,1,Simple,base,1,5,mercspython,152.382,5 targets / tree
38,scm1d,66982.9,3004.4,296,50,9802,-0.2469634573,0.040267329,0.0125227924,mercspython,69987.3,Ensemble,scm1d,Rforest,30,basic,1,Simple,base,1,5,mercspython,60.088,5 targets / tree
39,scm20d,12783.7,1722.2,77,50,8965,-0.9987187221,0.1274971352,0.0666978073,mercspython,14505.9,Ensemble,scm20d,Rforest,30,basic,1,Simple,base,1,5,mercspython,34.444,5 targets / tree
41,slump,87.3,42.9,10,10,102,-0.6636340319,0.2127078539,0.1301647084,mercspython,130.2,Ensemble,slump,Rforest,30,basic,1,Simple,base,1,5,mercspython,4.29,5 targets / tree
42,wq,621.3,221.8,30,30,1059,-0.2903600688,0.1121888343,0.0466081825,mercspython,843.1,Ensemble,wq,Rforest,30,basic,1,Simple,base,1,5,mercspython,7.3933333333,5 targets / tree
43,andro,449,152,36,36,48,-1.5837275925,0.2173739304,0.2139857438,mercspython,601,Ensemble,andro,Rforest,30,basic,1,Simple,correlation,1,3,mercspython,4.2222222222,3 targets / tree + heuristic
44,edm,246.2,70.7,18,18,153,-0.1474126444,0.155953179,0.0775920596,mercspython,316.9,Ensemble,edm,Rforest,30,basic,1,Simple,correlation,1,3,mercspython,3.9277777778,3 targets / tree + heuristic
45,enb,234.8,62.8,10,10,767,-0.5767658082,0.199697786,0.1643533165,mercspython,297.6,Ensemble,enb,Rforest,30,basic,1,Simple,correlation,1,3,mercspython,6.28,3 targets / tree + heuristic
46,jura,279,74.4,18,18,358,-0.4492439017,0.1671969737,0.0904983262,mercspython,353.4,Ensemble,jura,Rforest,30,basic,1,Simple,correlation,1,3,mercspython,4.1333333333,3 targets / tree + heuristic
47,oes10,5045.3,3000.8,314,50,402,0.0814506507,0.0356901557,0.0086865088,mercspython,8046.1,Ensemble,oes10,Rforest,30,basic,1,Simple,correlation,1,3,mercspython,60.016,3 targets / tree + heuristic
48,oes97,4294.4,2220.5,279,50,333,0.0397306799,0.0447447149,0.0120161518,mercspython,6514.9,Ensemble,oes97,Rforest,30,basic,1,Simple,correlation,1,3,mercspython,44.41,3 targets / tree + heuristic
50,rf1,14770.9,1798.1,72,50,9004,-1.0606835341,0.1448474853,0.0947663067,mercspython,16569,Ensemble,rf1,Rforest,30,basic,1,Simple,correlation,1,3,mercspython,35.962,3 targets / tree + heuristic
51,rf2,49037.4,11677.5,584,50,7678,-0.9372299124,0.1433815273,0.0894517565,mercspython,60714.9,Ensemble,rf2,Rforest,30,basic,1,Simple,correlation,1,3,mercspython,233.55,3 targets / tree + heuristic
52,scm1d,100478.4,3666.7,296,50,9802,-0.2305525472,0.0436305606,0.0123434586,mercspython,104145.1,Ensemble,scm1d,Rforest,30,basic,1,Simple,correlation,1,3,mercspython,73.334,3 targets / tree + heuristic
53,scm20d,22329.3,1748.7,77,50,8965,-0.9121881534,0.1250636134,0.0637083684,mercspython,24078,Ensemble,scm20d,Rforest,30,basic,1,Simple,correlation,1,3,mercspython,34.974,3 targets / tree + heuristic
55,slump,96.5,24.2,10,10,102,-0.648316637,0.2094709656,0.1271352758,mercspython,120.7,Ensemble,slump,Rforest,30,basic,1,Simple,correlation,1,3,mercspython,2.42,3 targets / tree + heuristic
56,wq,642.2,152.4,30,30,1059,-0.5955707523,0.1231659601,0.0491500498,mercspython,794.6,Ensemble,wq,Rforest,30,basic,1,Simple,correlation,1,3,mercspython,5.08,3 targets / tree + heuristic
57,andro,299.6,133.9,36,36,48,-1.5592625583,0.2157104586,0.2116996712,mercspython,433.5,Ensemble,andro,Rforest,30,basic,1,Simple,correlation,1,5,mercspython,3.7194444444,5 targets / tree + heuristic
58,edm,176.3,74.4,18,18,153,-0.1413825898,0.1532258824,0.0758073481,mercspython,250.7,Ensemble,edm,Rforest,30,basic,1,Simple,correlation,1,5,mercspython,4.1333333333,5 targets / tree + heuristic
59,enb,119.2,64.3,10,10,767,-0.5780805416,0.2101967278,0.1751124452,mercspython,183.5,Ensemble,enb,Rforest,30,basic,1,Simple,correlation,1,5,mercspython,6.43,5 targets / tree + heuristic
60,jura,217.2,84,18,18,358,-0.4151901491,0.1631609793,0.0896787108,mercspython,301.2,Ensemble,jura,Rforest,30,basic,1,Simple,correlation,1,5,mercspython,4.6666666667,5 targets / tree + heuristic
61,oes10,3235.5,2042.5,314,50,402,0.0710579558,0.0355322318,0.0087837252,mercspython,5278,Ensemble,oes10,Rforest,30,basic,1,Simple,correlation,1,5,mercspython,40.85,5 targets / tree + heuristic
62,oes97,2526.2,1525.6,279,50,333,0.0288985238,0.0444147788,0.012172663,mercspython,4051.8,Ensemble,oes97,Rforest,30,basic,1,Simple,correlation,1,5,mercspython,30.512,5 targets / tree + heuristic
64,rf1,9784.8,1825.1,72,50,9004,-1.0509300051,0.1441672996,0.0943577405,mercspython,11609.9,Ensemble,rf1,Rforest,30,basic,1,Simple,correlation,1,5,mercspython,36.502,5 targets / tree + heuristic
65,rf2,33646.5,6414.5,584,50,7678,-0.9404595894,0.1433133264,0.089349513,mercspython,40061,Ensemble,rf2,Rforest,30,basic,1,Simple,correlation,1,5,mercspython,128.29,5 targets / tree + heuristic
66,scm1d,58772.1,2459.8,296,50,9802,-0.1959205792,0.0416707305,0.011960918,mercspython,61231.9,Ensemble,scm1d,Rforest,30,basic,1,Simple,correlation,1,5,mercspython,49.196,5 targets / tree + heuristic
67,scm20d,11764.8,1246,77,50,8965,-0.9136000607,0.124894232,0.063890433,mercspython,13010.8,Ensemble,scm20d,Rforest,30,basic,1,Simple,correlation,1,5,mercspython,24.92,5 targets / tree + heuristic
69,slump,74.5,33.9,10,10,102,-0.5620952973,0.2039385764,0.1212078081,mercspython,108.4,Ensemble,slump,Rforest,30,basic,1,Simple,correlation,1,5,mercspython,3.39,5 targets / tree + heuristic
70,wq,584.4,203.5,30,30,1059,-0.2778094326,0.1091111694,0.0463758253,mercspython,787.9,Ensemble,wq,Rforest,30,basic,1,Simple,correlation,1,5,mercspython,6.7833333333,5 targets / tree + heuristic
