[
{
  "ts": "2018-02-05T17:17:22.669092",
  "type": "SETTINGS",
  "values": {
    "date": "2018/02/05 18:17:22",
    "date_iso": "2018-02-05T18:17:22.668234",
    "params": null,
    "system": {
      "nodename": "gibson",
      "machine": "x86_64",
      "platform": "Linux-4.4.0-112-generic-x86_64-with-debian-stretch-sid",
      "processor": "x86_64",
      "version": "#135-Ubuntu SMP Fri Jan 19 11:48:36 UTC 2018",
      "system": "Linux",
      "cpu_count": 8,
      "cpu_times": {
        "user": 144303.63,
        "system": 18697.72,
        "idle": 7637235.12,
        "nice": 751.59
      },
      "cpu_percent": 100.0,
      "virtual_memory": {
        "total": 33618501632,
        "available": 24502419456,
        "percent": 27.1,
        "used": 8126488576,
        "free": 7228248064
      }
    },
    "process": {
      "username": "evgeniya",
      "cwd": "/cw/dtailocal/mercs_python/src/core",
      "create_time": 1517851015.44,
      "cpu_times": {
        "user": 1.28,
        "system": 0.17
      }
    },
    "logfile": "/cw/dtailocal/mercs_python/out/350/wq/logs/mercspython_Log_F07",
    "command": "python /cw/dtailocal/mercs_python/bin/mercspython.py /cw/dtailocal/mercs_python/out/350/wq/settings/mercspython_Settings_F07.s"
  }
},
{
  "ts": "2018-02-05T17:17:22.669246",
  "type": "INFO",
  "values": {
    "cmd": "python /cw/dtailocal/mercs_python/bin/mercspython.py /cw/dtailocal/mercs_python/out/350/wq/settings/mercspython_Settings_F07.s",
    "cwd": null
  }
},
{
  "ts": "2018-02-05T17:17:22.693432",
  "type": "INFO",
  "values": "Start: Run process"
},
{
  "ts": "2018-02-05T17:17:22.735781",
  "type": "INFO",
  "values": "Write log to /cw/dtailocal/mercs_python/out/350/wq/logs/mercspython_Log_F07.running.log"
},
{
  "ts": "2018-02-05T17:17:26.355748",
  "type": "INFO",
  "values": "Process ended (returncode 0)"
},
{
  "ts": "2018-02-05T17:17:26.355840",
  "type": "INFO",
  "values": "Finished: Run process 3.662 seconds"
},
{
  "ts": "2018-02-05T17:17:26.355934",
  "type": "WARNING",
  "values": {
    "Exit": "finished",
    "Returncode": 0,
    "Time": 3.6624419689178467
  }
}
]
