[
{
  "ts": "2018-02-06T09:56:47.332488",
  "type": "SETTINGS",
  "values": {
    "date": "2018/02/06 10:56:47",
    "date_iso": "2018-02-06T10:56:47.331662",
    "params": null,
    "system": {
      "nodename": "gibson",
      "machine": "x86_64",
      "platform": "Linux-4.4.0-112-generic-x86_64-with-debian-stretch-sid",
      "processor": "x86_64",
      "version": "#135-Ubuntu SMP Fri Jan 19 11:48:36 UTC 2018",
      "system": "Linux",
      "cpu_count": 8,
      "cpu_times": {
        "user": 313354.38,
        "system": 20383.16,
        "idle": 7945138.7,
        "nice": 819.07
      },
      "cpu_percent": 81.0,
      "virtual_memory": {
        "total": 33618501632,
        "available": 25271918592,
        "percent": 24.8,
        "used": 7362465792,
        "free": 14471868416
      }
    },
    "process": {
      "username": "evgeniya",
      "cwd": "/cw/dtailocal/mercs_python/src/core",
      "create_time": 1517911000.45,
      "cpu_times": {
        "user": 0.85,
        "system": 0.23
      }
    },
    "logfile": "/cw/dtailocal/mercs_python/out/539/andro/logs/mercspython_Log_F03",
    "command": "python /cw/dtailocal/mercs_python/bin/mercspython.py /cw/dtailocal/mercs_python/out/539/andro/settings/mercspython_Settings_F03.s"
  }
},
{
  "ts": "2018-02-06T09:56:47.332626",
  "type": "INFO",
  "values": {
    "cmd": "python /cw/dtailocal/mercs_python/bin/mercspython.py /cw/dtailocal/mercs_python/out/539/andro/settings/mercspython_Settings_F03.s",
    "cwd": null
  }
},
{
  "ts": "2018-02-06T09:56:47.335780",
  "type": "INFO",
  "values": "Start: Run process"
},
{
  "ts": "2018-02-06T09:56:47.341410",
  "type": "INFO",
  "values": "Write log to /cw/dtailocal/mercs_python/out/539/andro/logs/mercspython_Log_F03.running.log"
},
{
  "ts": "2018-02-06T09:56:49.143715",
  "type": "INFO",
  "values": "Process ended (returncode 0)"
},
{
  "ts": "2018-02-06T09:56:49.143780",
  "type": "INFO",
  "values": "Finished: Run process 1.808 seconds"
},
{
  "ts": "2018-02-06T09:56:49.143844",
  "type": "WARNING",
  "values": {
    "Exit": "finished",
    "Returncode": 0,
    "Time": 1.8080286979675293
  }
}
]
