[
{
  "ts": "2018-02-06T09:56:43.311398",
  "type": "SETTINGS",
  "values": {
    "date": "2018/02/06 10:56:43",
    "date_iso": "2018-02-06T10:56:43.310697",
    "params": null,
    "system": {
      "nodename": "gibson",
      "machine": "x86_64",
      "platform": "Linux-4.4.0-112-generic-x86_64-with-debian-stretch-sid",
      "processor": "x86_64",
      "version": "#135-Ubuntu SMP Fri Jan 19 11:48:36 UTC 2018",
      "system": "Linux",
      "cpu_count": 8,
      "cpu_times": {
        "user": 313327.96,
        "system": 20382.59,
        "idle": 7945134.26,
        "nice": 819.07
      },
      "cpu_percent": 87.3,
      "virtual_memory": {
        "total": 33618501632,
        "available": 25648119808,
        "percent": 23.7,
        "used": 6985805824,
        "free": 14865625088
      }
    },
    "process": {
      "username": "evgeniya",
      "cwd": "/cw/dtailocal/mercs_python/src/core",
      "create_time": 1517911000.45,
      "cpu_times": {
        "user": 0.68,
        "system": 0.1
      }
    },
    "logfile": "/cw/dtailocal/mercs_python/out/539/andro/logs/mercspython_Log_F01",
    "command": "python /cw/dtailocal/mercs_python/bin/mercspython.py /cw/dtailocal/mercs_python/out/539/andro/settings/mercspython_Settings_F01.s"
  }
},
{
  "ts": "2018-02-06T09:56:43.311513",
  "type": "INFO",
  "values": {
    "cmd": "python /cw/dtailocal/mercs_python/bin/mercspython.py /cw/dtailocal/mercs_python/out/539/andro/settings/mercspython_Settings_F01.s",
    "cwd": null
  }
},
{
  "ts": "2018-02-06T09:56:43.314386",
  "type": "INFO",
  "values": "Start: Run process"
},
{
  "ts": "2018-02-06T09:56:43.314838",
  "type": "INFO",
  "values": "Write log to /cw/dtailocal/mercs_python/out/539/andro/logs/mercspython_Log_F01.running.log"
},
{
  "ts": "2018-02-06T09:56:45.317412",
  "type": "INFO",
  "values": "Process ended (returncode 0)"
},
{
  "ts": "2018-02-06T09:56:45.317497",
  "type": "INFO",
  "values": "Finished: Run process 2.003 seconds"
},
{
  "ts": "2018-02-06T09:56:45.317581",
  "type": "WARNING",
  "values": {
    "Exit": "finished",
    "Returncode": 0,
    "Time": 2.0031368732452393
  }
}
]
