[
{
  "ts": "2018-02-07T13:03:47.515468",
  "type": "SETTINGS",
  "values": {
    "date": "2018/02/07 14:03:47",
    "date_iso": "2018-02-07T14:03:47.514647",
    "params": null,
    "system": {
      "nodename": "gibson",
      "machine": "x86_64",
      "platform": "Linux-4.4.0-112-generic-x86_64-with-debian-stretch-sid",
      "processor": "x86_64",
      "version": "#135-Ubuntu SMP Fri Jan 19 11:48:36 UTC 2018",
      "system": "Linux",
      "cpu_count": 8,
      "cpu_times": {
        "user": 399883.03,
        "system": 23529.77,
        "idle": 8633953.31,
        "nice": 906.12
      },
      "cpu_percent": 95.7,
      "virtual_memory": {
        "total": 33618501632,
        "available": 26032148480,
        "percent": 22.6,
        "used": 6633287680,
        "free": 11745964032
      }
    },
    "process": {
      "username": "evgeniya",
      "cwd": "/cw/dtailocal/mercs_python/src/core",
      "create_time": 1518008621.83,
      "cpu_times": {
        "user": 0.7,
        "system": 0.14
      }
    },
    "logfile": "/cw/dtailocal/mercs_python/out/801/enb/logs/mercspython_Log_F01",
    "command": "python /cw/dtailocal/mercs_python/bin/mercspython.py /cw/dtailocal/mercs_python/out/801/enb/settings/mercspython_Settings_F01.s"
  }
},
{
  "ts": "2018-02-07T13:03:47.515619",
  "type": "INFO",
  "values": {
    "cmd": "python /cw/dtailocal/mercs_python/bin/mercspython.py /cw/dtailocal/mercs_python/out/801/enb/settings/mercspython_Settings_F01.s",
    "cwd": null
  }
},
{
  "ts": "2018-02-07T13:03:47.537277",
  "type": "INFO",
  "values": "Start: Run process"
},
{
  "ts": "2018-02-07T13:03:47.559918",
  "type": "INFO",
  "values": "Write log to /cw/dtailocal/mercs_python/out/801/enb/logs/mercspython_Log_F01.running.log"
},
{
  "ts": "2018-02-07T13:03:51.765816",
  "type": "INFO",
  "values": "Process ended (returncode 0)"
},
{
  "ts": "2018-02-07T13:03:51.765914",
  "type": "INFO",
  "values": "Finished: Run process 4.229 seconds"
},
{
  "ts": "2018-02-07T13:03:51.765995",
  "type": "WARNING",
  "values": {
    "Exit": "finished",
    "Returncode": 0,
    "Time": 4.228661298751831
  }
}
]
