[
{
  "ts": "2018-02-07T13:04:00.731040",
  "type": "SETTINGS",
  "values": {
    "date": "2018/02/07 14:04:00",
    "date_iso": "2018-02-07T14:04:00.730146",
    "params": null,
    "system": {
      "nodename": "gibson",
      "machine": "x86_64",
      "platform": "Linux-4.4.0-112-generic-x86_64-with-debian-stretch-sid",
      "processor": "x86_64",
      "version": "#135-Ubuntu SMP Fri Jan 19 11:48:36 UTC 2018",
      "system": "Linux",
      "cpu_count": 8,
      "cpu_times": {
        "user": 399981.67,
        "system": 23534.22,
        "idle": 8633955.27,
        "nice": 906.12
      },
      "cpu_percent": 98.5,
      "virtual_memory": {
        "total": 33618501632,
        "available": 26090741760,
        "percent": 22.4,
        "used": 6584225792,
        "free": 11801743360
      }
    },
    "process": {
      "username": "evgeniya",
      "cwd": "/cw/dtailocal/mercs_python/src/core",
      "create_time": 1518008621.83,
      "cpu_times": {
        "user": 0.98,
        "system": 0.17
      }
    },
    "logfile": "/cw/dtailocal/mercs_python/out/801/enb/logs/mercspython_Log_F04",
    "command": "python /cw/dtailocal/mercs_python/bin/mercspython.py /cw/dtailocal/mercs_python/out/801/enb/settings/mercspython_Settings_F04.s"
  }
},
{
  "ts": "2018-02-07T13:04:00.731209",
  "type": "INFO",
  "values": {
    "cmd": "python /cw/dtailocal/mercs_python/bin/mercspython.py /cw/dtailocal/mercs_python/out/801/enb/settings/mercspython_Settings_F04.s",
    "cwd": null
  }
},
{
  "ts": "2018-02-07T13:04:00.753653",
  "type": "INFO",
  "values": "Start: Run process"
},
{
  "ts": "2018-02-07T13:04:00.759731",
  "type": "INFO",
  "values": "Write log to /cw/dtailocal/mercs_python/out/801/enb/logs/mercspython_Log_F04.running.log"
},
{
  "ts": "2018-02-07T13:04:05.565760",
  "type": "INFO",
  "values": "Process ended (returncode 0)"
},
{
  "ts": "2018-02-07T13:04:05.565831",
  "type": "INFO",
  "values": "Finished: Run process 4.812 seconds"
},
{
  "ts": "2018-02-07T13:04:05.565896",
  "type": "WARNING",
  "values": {
    "Exit": "finished",
    "Returncode": 0,
    "Time": 4.81222128868103
  }
},
{
  "ts": "2018-02-07T13:04:05.582503",
  "type": "INFO",
  "values": "Closing /cw/dtailocal/mercs_python/out/801/enb/logs/mercspython_Log_F04.running.log"
}
]
