[
{
  "ts": "2018-02-05T17:03:36.793130",
  "type": "SETTINGS",
  "values": {
    "date": "2018/02/05 18:03:36",
    "date_iso": "2018-02-05T18:03:36.792263",
    "params": null,
    "system": {
      "nodename": "gibson",
      "machine": "x86_64",
      "platform": "Linux-4.4.0-112-generic-x86_64-with-debian-stretch-sid",
      "processor": "x86_64",
      "version": "#135-Ubuntu SMP Fri Jan 19 11:48:36 UTC 2018",
      "system": "Linux",
      "cpu_count": 8,
      "cpu_times": {
        "user": 137776.24,
        "system": 18623.44,
        "idle": 7637234.58,
        "nice": 751.58
      },
      "cpu_percent": 100.0,
      "virtual_memory": {
        "total": 33618501632,
        "available": 23243177984,
        "percent": 30.9,
        "used": 9434107904,
        "free": 6048653312
      }
    },
    "process": {
      "username": "evgeniya",
      "cwd": "/cw/dtailocal/mercs_python/src/core",
      "create_time": 1517850211.0,
      "cpu_times": {
        "user": 0.66,
        "system": 0.08
      }
    },
    "logfile": "/cw/dtailocal/mercs_python/out/329/jura/logs/mercspython_Log_F01",
    "command": "python /cw/dtailocal/mercs_python/bin/mercspython.py /cw/dtailocal/mercs_python/out/329/jura/settings/mercspython_Settings_F01.s"
  }
},
{
  "ts": "2018-02-05T17:03:36.793285",
  "type": "INFO",
  "values": {
    "cmd": "python /cw/dtailocal/mercs_python/bin/mercspython.py /cw/dtailocal/mercs_python/out/329/jura/settings/mercspython_Settings_F01.s",
    "cwd": null
  }
},
{
  "ts": "2018-02-05T17:03:36.805793",
  "type": "INFO",
  "values": "Start: Run process"
},
{
  "ts": "2018-02-05T17:03:36.841337",
  "type": "INFO",
  "values": "Write log to /cw/dtailocal/mercs_python/out/329/jura/logs/mercspython_Log_F01.running.log"
},
{
  "ts": "2018-02-05T17:03:40.646601",
  "type": "INFO",
  "values": "Process ended (returncode 0)"
},
{
  "ts": "2018-02-05T17:03:40.646686",
  "type": "INFO",
  "values": "Finished: Run process 3.841 seconds"
},
{
  "ts": "2018-02-05T17:03:40.646779",
  "type": "WARNING",
  "values": {
    "Exit": "finished",
    "Returncode": 0,
    "Time": 3.8409152030944824
  }
}
]
