[
{
  "ts": "2018-02-07T10:17:52.877249",
  "type": "SETTINGS",
  "values": {
    "date": "2018/02/07 11:17:52",
    "date_iso": "2018-02-07T11:17:52.876368",
    "params": null,
    "system": {
      "nodename": "gibson",
      "machine": "x86_64",
      "platform": "Linux-4.4.0-112-generic-x86_64-with-debian-stretch-sid",
      "processor": "x86_64",
      "version": "#135-Ubuntu SMP Fri Jan 19 11:48:36 UTC 2018",
      "system": "Linux",
      "cpu_count": 8,
      "cpu_times": {
        "user": 378436.99,
        "system": 22385.12,
        "idle": 8577342.68,
        "nice": 898.04
      },
      "cpu_percent": 100.0,
      "virtual_memory": {
        "total": 33618501632,
        "available": 26139381760,
        "percent": 22.2,
        "used": 6611808256,
        "free": 12050120704
      }
    },
    "process": {
      "username": "evgeniya",
      "cwd": "/cw/dtailocal/mercs_python/src/core",
      "create_time": 1517998652.57,
      "cpu_times": {
        "user": 1.0,
        "system": 0.16
      }
    },
    "logfile": "/cw/dtailocal/mercs_python/out/728/andro/logs/mercspython_Log_F06",
    "command": "python /cw/dtailocal/mercs_python/bin/mercspython.py /cw/dtailocal/mercs_python/out/728/andro/settings/mercspython_Settings_F06.s"
  }
},
{
  "ts": "2018-02-07T10:17:52.877408",
  "type": "INFO",
  "values": {
    "cmd": "python /cw/dtailocal/mercs_python/bin/mercspython.py /cw/dtailocal/mercs_python/out/728/andro/settings/mercspython_Settings_F06.s",
    "cwd": null
  }
},
{
  "ts": "2018-02-07T10:17:52.893283",
  "type": "INFO",
  "values": "Start: Run process"
},
{
  "ts": "2018-02-07T10:17:52.927804",
  "type": "INFO",
  "values": "Write log to /cw/dtailocal/mercs_python/out/728/andro/logs/mercspython_Log_F06.running.log"
},
{
  "ts": "2018-02-07T10:17:55.971713",
  "type": "INFO",
  "values": "Process ended (returncode 0)"
},
{
  "ts": "2018-02-07T10:17:55.971797",
  "type": "INFO",
  "values": "Finished: Run process 3.079 seconds"
},
{
  "ts": "2018-02-07T10:17:55.971890",
  "type": "WARNING",
  "values": {
    "Exit": "finished",
    "Returncode": 0,
    "Time": 3.07853102684021
  }
},
{
  "ts": "2018-02-07T10:17:55.991807",
  "type": "INFO",
  "values": "Closing /cw/dtailocal/mercs_python/out/728/andro/logs/mercspython_Log_F06.running.log"
}
]
