[
{
  "ts": "2018-02-07T10:17:34.227998",
  "type": "SETTINGS",
  "values": {
    "date": "2018/02/07 11:17:34",
    "date_iso": "2018-02-07T11:17:34.213851",
    "params": null,
    "system": {
      "nodename": "gibson",
      "machine": "x86_64",
      "platform": "Linux-4.4.0-112-generic-x86_64-with-debian-stretch-sid",
      "processor": "x86_64",
      "version": "#135-Ubuntu SMP Fri Jan 19 11:48:36 UTC 2018",
      "system": "Linux",
      "cpu_count": 8,
      "cpu_times": {
        "user": 378291.14,
        "system": 22381.96,
        "idle": 8577342.59,
        "nice": 898.04
      },
      "cpu_percent": 99.8,
      "virtual_memory": {
        "total": 33618501632,
        "available": 25366196224,
        "percent": 24.5,
        "used": 7383891968,
        "free": 11280199680
      }
    },
    "process": {
      "username": "evgeniya",
      "cwd": "/cw/dtailocal/mercs_python/src/core",
      "create_time": 1517998652.57,
      "cpu_times": {
        "user": 0.56,
        "system": 0.07
      }
    },
    "logfile": "/cw/dtailocal/mercs_python/out/728/andro/logs/mercspython_Log_F00",
    "command": "python /cw/dtailocal/mercs_python/bin/mercspython.py /cw/dtailocal/mercs_python/out/728/andro/settings/mercspython_Settings_F00.s"
  }
},
{
  "ts": "2018-02-07T10:17:34.228247",
  "type": "INFO",
  "values": {
    "cmd": "python /cw/dtailocal/mercs_python/bin/mercspython.py /cw/dtailocal/mercs_python/out/728/andro/settings/mercspython_Settings_F00.s",
    "cwd": null
  }
},
{
  "ts": "2018-02-07T10:17:34.257272",
  "type": "INFO",
  "values": "Start: Run process"
},
{
  "ts": "2018-02-07T10:17:34.295814",
  "type": "INFO",
  "values": "Write log to /cw/dtailocal/mercs_python/out/728/andro/logs/mercspython_Log_F00.running.log"
},
{
  "ts": "2018-02-07T10:17:36.899103",
  "type": "INFO",
  "values": "Process ended (returncode 0)"
},
{
  "ts": "2018-02-07T10:17:36.899198",
  "type": "INFO",
  "values": "Finished: Run process 2.642 seconds"
},
{
  "ts": "2018-02-07T10:17:36.899290",
  "type": "WARNING",
  "values": {
    "Exit": "finished",
    "Returncode": 0,
    "Time": 2.6419692039489746
  }
},
{
  "ts": "2018-02-07T10:17:36.919836",
  "type": "INFO",
  "values": "Closing /cw/dtailocal/mercs_python/out/728/andro/logs/mercspython_Log_F00.running.log"
}
]
