[
{
  "ts": "2018-02-05T18:07:40.561276",
  "type": "SETTINGS",
  "values": {
    "date": "2018/02/05 19:07:40",
    "date_iso": "2018-02-05T19:07:40.560409",
    "params": null,
    "system": {
      "nodename": "gibson",
      "machine": "x86_64",
      "platform": "Linux-4.4.0-112-generic-x86_64-with-debian-stretch-sid",
      "processor": "x86_64",
      "version": "#135-Ubuntu SMP Fri Jan 19 11:48:36 UTC 2018",
      "system": "Linux",
      "cpu_count": 8,
      "cpu_times": {
        "user": 161854.24,
        "system": 18916.89,
        "idle": 7643519.13,
        "nice": 753.62
      },
      "cpu_percent": 100.0,
      "virtual_memory": {
        "total": 33618501632,
        "available": 19820969984,
        "percent": 41.0,
        "used": 12822929408,
        "free": 7572619264
      }
    },
    "process": {
      "username": "evgeniya",
      "cwd": "/cw/dtailocal/mercs_python/src/core",
      "create_time": 1517853287.89,
      "cpu_times": {
        "user": 2.81,
        "system": 0.13
      }
    },
    "logfile": "/cw/dtailocal/mercs_python/out/355/scm1d/logs/mercspython_Log_F01",
    "command": "python /cw/dtailocal/mercs_python/bin/mercspython.py /cw/dtailocal/mercs_python/out/355/scm1d/settings/mercspython_Settings_F01.s"
  }
},
{
  "ts": "2018-02-05T18:07:40.561428",
  "type": "INFO",
  "values": {
    "cmd": "python /cw/dtailocal/mercs_python/bin/mercspython.py /cw/dtailocal/mercs_python/out/355/scm1d/settings/mercspython_Settings_F01.s",
    "cwd": null
  }
},
{
  "ts": "2018-02-05T18:07:40.581306",
  "type": "INFO",
  "values": "Start: Run process"
},
{
  "ts": "2018-02-05T18:07:40.611793",
  "type": "INFO",
  "values": "Write log to /cw/dtailocal/mercs_python/out/355/scm1d/logs/mercspython_Log_F01.running.log"
},
{
  "ts": "2018-02-05T18:20:35.735726",
  "type": "INFO",
  "values": "Process ended (returncode 0)"
},
{
  "ts": "2018-02-05T18:20:35.735809",
  "type": "INFO",
  "values": "Finished: Run process 775.155 seconds"
},
{
  "ts": "2018-02-05T18:20:35.735994",
  "type": "WARNING",
  "values": {
    "Exit": "finished",
    "Returncode": 0,
    "Time": 775.1545341014862
  }
}
]
