[SETTINGS] {
  "date": "2018/02/05 19:45:52",
  "date_iso": "2018-02-05T19:45:52.924430",
  "params": null,
  "system": {
    "nodename": "gibson",
    "machine": "x86_64",
    "platform": "Linux-4.4.0-112-generic-x86_64-with-debian-stretch-sid",
    "processor": "x86_64",
    "version": "#135-Ubuntu SMP Fri Jan 19 11:48:36 UTC 2018",
    "system": "Linux",
    "cpu_count": 8,
    "cpu_times": {
      "user": 180088.45,
      "system": 19016.17,
      "idle": 7643520.69,
      "nice": 755.49
    },
    "cpu_percent": 100.0,
    "virtual_memory": {
      "total": 33618501632,
      "available": 17768677376,
      "percent": 47.1,
      "used": 14826401792,
      "free": 6046674944
    }
  },
  "process": {
    "username": "evgeniya",
    "cwd": "/cw/dtailocal/mercs_python/src/core",
    "create_time": 1517853287.89,
    "cpu_times": {
      "user": 3.68,
      "system": 0.24
    }
  },
  "logfile": "/cw/dtailocal/mercs_python/out/355/scm1d/logs/mercspython_Log_F04",
  "command": "python /cw/dtailocal/mercs_python/bin/mercspython.py /cw/dtailocal/mercs_python/out/355/scm1d/settings/mercspython_Settings_F04.s"
}
[INFO] cmd:python /cw/dtailocal/mercs_python/bin/mercspython.py /cw/dtailocal/mercs_python/out/355/scm1d/settings/mercspython_Settings_F04.s; cwd:None
[INFO] Start: Run process
[INFO] Write log to /cw/dtailocal/mercs_python/out/355/scm1d/logs/mercspython_Log_F04.running.log
[STDERR] /cw/dtailocal/mercs_python/bin/mercspython.py:78: VisibleDeprecationWarning: converting an array with ndim > 0 to an index will result in an error in the future
[STDERR]   while((np.sum(codes[partition * nb_models_it + model]) >= nb_out_atts)):
[STDERR] /cw/dtailocal/mercs_python/bin/mercspython.py:81: VisibleDeprecationWarning: converting an array with ndim > 0 to an index will result in an error in the future
[STDERR]   codes[partition * nb_models_it + model][attribute] = 1
[[0 0 1 ..., 0 0 0]
 [0 1 0 ..., 1 1 1]
 [1 0 0 ..., 0 0 0]
 [0 0 0 ..., 0 0 0]]
====================================================
Total induction time of the MDEModel was: 678080 ms
====================================================
====================================================
Total inference time of the MDEModel was: 22633 ms
====================================================
====================================================
This was for: 296 queries.
====================================================
[INFO] Process ended (returncode 0)
[INFO] Finished: Run process 769.367 seconds
[WARNING] Exit:finished; Returncode:0; Time:769.36678
