[
{
  "ts": "2018-02-06T09:53:47.983124",
  "type": "SETTINGS",
  "values": {
    "date": "2018/02/06 10:53:47",
    "date_iso": "2018-02-06T10:53:47.982285",
    "params": null,
    "system": {
      "nodename": "gibson",
      "machine": "x86_64",
      "platform": "Linux-4.4.0-112-generic-x86_64-with-debian-stretch-sid",
      "processor": "x86_64",
      "version": "#135-Ubuntu SMP Fri Jan 19 11:48:36 UTC 2018",
      "system": "Linux",
      "cpu_count": 8,
      "cpu_times": {
        "user": 312436.87,
        "system": 20353.74,
        "idle": 7944666.6,
        "nice": 819.07
      },
      "cpu_percent": 61.4,
      "virtual_memory": {
        "total": 33618501632,
        "available": 26545704960,
        "percent": 21.0,
        "used": 5993426944,
        "free": 15943282688
      }
    },
    "process": {
      "username": "evgeniya",
      "cwd": "/cw/dtailocal/mercs_python/src/core",
      "create_time": 1517910815.0,
      "cpu_times": {
        "user": 1.14,
        "system": 0.57
      }
    },
    "logfile": "/cw/dtailocal/mercs_python/out/526/enb/logs/mercspython_Log_F07",
    "command": "python /cw/dtailocal/mercs_python/bin/mercspython.py /cw/dtailocal/mercs_python/out/526/enb/settings/mercspython_Settings_F07.s"
  }
},
{
  "ts": "2018-02-06T09:53:47.983274",
  "type": "INFO",
  "values": {
    "cmd": "python /cw/dtailocal/mercs_python/bin/mercspython.py /cw/dtailocal/mercs_python/out/526/enb/settings/mercspython_Settings_F07.s",
    "cwd": null
  }
},
{
  "ts": "2018-02-06T09:53:47.985994",
  "type": "INFO",
  "values": "Start: Run process"
},
{
  "ts": "2018-02-06T09:53:47.986505",
  "type": "INFO",
  "values": "Write log to /cw/dtailocal/mercs_python/out/526/enb/logs/mercspython_Log_F07.running.log"
},
{
  "ts": "2018-02-06T09:53:49.588637",
  "type": "INFO",
  "values": "Process ended (returncode 0)"
},
{
  "ts": "2018-02-06T09:53:49.588720",
  "type": "INFO",
  "values": "Finished: Run process 1.603 seconds"
},
{
  "ts": "2018-02-06T09:53:49.588803",
  "type": "WARNING",
  "values": {
    "Exit": "finished",
    "Returncode": 0,
    "Time": 1.602757453918457
  }
},
{
  "ts": "2018-02-06T09:53:49.589170",
  "type": "INFO",
  "values": "Closing /cw/dtailocal/mercs_python/out/526/enb/logs/mercspython_Log_F07.running.log"
}
]
