[
{
  "ts": "2018-02-06T09:55:01.231820",
  "type": "SETTINGS",
  "values": {
    "date": "2018/02/06 10:55:01",
    "date_iso": "2018-02-06T10:55:01.230982",
    "params": null,
    "system": {
      "nodename": "gibson",
      "machine": "x86_64",
      "platform": "Linux-4.4.0-112-generic-x86_64-with-debian-stretch-sid",
      "processor": "x86_64",
      "version": "#135-Ubuntu SMP Fri Jan 19 11:48:36 UTC 2018",
      "system": "Linux",
      "cpu_count": 8,
      "cpu_times": {
        "user": 312780.69,
        "system": 20369.0,
        "idle": 7944886.26,
        "nice": 819.07
      },
      "cpu_percent": 62.3,
      "virtual_memory": {
        "total": 33618501632,
        "available": 25915150336,
        "percent": 22.9,
        "used": 6639267840,
        "free": 15268732928
      }
    },
    "process": {
      "username": "evgeniya",
      "cwd": "/cw/dtailocal/mercs_python/src/core",
      "create_time": 1517910889.74,
      "cpu_times": {
        "user": 1.24,
        "system": 0.11
      }
    },
    "logfile": "/cw/dtailocal/mercs_python/out/535/oes97/logs/mercspython_Log_F01",
    "command": "python /cw/dtailocal/mercs_python/bin/mercspython.py /cw/dtailocal/mercs_python/out/535/oes97/settings/mercspython_Settings_F01.s"
  }
},
{
  "ts": "2018-02-06T09:55:01.231968",
  "type": "INFO",
  "values": {
    "cmd": "python /cw/dtailocal/mercs_python/bin/mercspython.py /cw/dtailocal/mercs_python/out/535/oes97/settings/mercspython_Settings_F01.s",
    "cwd": null
  }
},
{
  "ts": "2018-02-06T09:55:01.235416",
  "type": "INFO",
  "values": "Start: Run process"
},
{
  "ts": "2018-02-06T09:55:01.239768",
  "type": "INFO",
  "values": "Write log to /cw/dtailocal/mercs_python/out/535/oes97/logs/mercspython_Log_F01.running.log"
},
{
  "ts": "2018-02-06T09:55:11.459044",
  "type": "INFO",
  "values": "Process ended (returncode 0)"
},
{
  "ts": "2018-02-06T09:55:11.459125",
  "type": "INFO",
  "values": "Finished: Run process 10.224 seconds"
},
{
  "ts": "2018-02-06T09:55:11.459207",
  "type": "WARNING",
  "values": {
    "Exit": "finished",
    "Returncode": 0,
    "Time": 10.223747491836548
  }
},
{
  "ts": "2018-02-06T09:55:11.459564",
  "type": "INFO",
  "values": "Closing /cw/dtailocal/mercs_python/out/535/oes97/logs/mercspython_Log_F01.running.log"
}
]
