[
{
  "ts": "2018-02-06T09:55:42.981200",
  "type": "SETTINGS",
  "values": {
    "date": "2018/02/06 10:55:42",
    "date_iso": "2018-02-06T10:55:42.980596",
    "params": null,
    "system": {
      "nodename": "gibson",
      "machine": "x86_64",
      "platform": "Linux-4.4.0-112-generic-x86_64-with-debian-stretch-sid",
      "processor": "x86_64",
      "version": "#135-Ubuntu SMP Fri Jan 19 11:48:36 UTC 2018",
      "system": "Linux",
      "cpu_count": 8,
      "cpu_times": {
        "user": 312987.87,
        "system": 20372.97,
        "idle": 7945006.86,
        "nice": 819.07
      },
      "cpu_percent": 63.3,
      "virtual_memory": {
        "total": 33618501632,
        "available": 25337921536,
        "percent": 24.6,
        "used": 7261372416,
        "free": 14674984960
      }
    },
    "process": {
      "username": "evgeniya",
      "cwd": "/cw/dtailocal/mercs_python/src/core",
      "create_time": 1517910889.74,
      "cpu_times": {
        "user": 1.46,
        "system": 0.29
      }
    },
    "logfile": "/cw/dtailocal/mercs_python/out/535/oes97/logs/mercspython_Log_F05",
    "command": "python /cw/dtailocal/mercs_python/bin/mercspython.py /cw/dtailocal/mercs_python/out/535/oes97/settings/mercspython_Settings_F05.s"
  }
},
{
  "ts": "2018-02-06T09:55:42.981289",
  "type": "INFO",
  "values": {
    "cmd": "python /cw/dtailocal/mercs_python/bin/mercspython.py /cw/dtailocal/mercs_python/out/535/oes97/settings/mercspython_Settings_F05.s",
    "cwd": null
  }
},
{
  "ts": "2018-02-06T09:55:42.983666",
  "type": "INFO",
  "values": "Start: Run process"
},
{
  "ts": "2018-02-06T09:55:42.985732",
  "type": "INFO",
  "values": "Write log to /cw/dtailocal/mercs_python/out/535/oes97/logs/mercspython_Log_F05.running.log"
},
{
  "ts": "2018-02-06T09:55:52.597759",
  "type": "INFO",
  "values": "Process ended (returncode 0)"
},
{
  "ts": "2018-02-06T09:55:52.597834",
  "type": "INFO",
  "values": "Finished: Run process 9.614 seconds"
},
{
  "ts": "2018-02-06T09:55:52.597911",
  "type": "WARNING",
  "values": {
    "Exit": "finished",
    "Returncode": 0,
    "Time": 9.614210844039917
  }
}
]
