[
{
  "ts": "2018-02-07T13:04:49.477175",
  "type": "SETTINGS",
  "values": {
    "date": "2018/02/07 14:04:49",
    "date_iso": "2018-02-07T14:04:49.476342",
    "params": null,
    "system": {
      "nodename": "gibson",
      "machine": "x86_64",
      "platform": "Linux-4.4.0-112-generic-x86_64-with-debian-stretch-sid",
      "processor": "x86_64",
      "version": "#135-Ubuntu SMP Fri Jan 19 11:48:36 UTC 2018",
      "system": "Linux",
      "cpu_count": 8,
      "cpu_times": {
        "user": 400351.9,
        "system": 23548.0,
        "idle": 8633959.38,
        "nice": 906.12
      },
      "cpu_percent": 99.0,
      "virtual_memory": {
        "total": 33618501632,
        "available": 25371316224,
        "percent": 24.5,
        "used": 7303610368,
        "free": 11065462784
      }
    },
    "process": {
      "username": "evgeniya",
      "cwd": "/cw/dtailocal/mercs_python/src/core",
      "create_time": 1518008665.31,
      "cpu_times": {
        "user": 1.23,
        "system": 0.15
      }
    },
    "logfile": "/cw/dtailocal/mercs_python/out/812/slump/logs/mercspython_Log_F06",
    "command": "python /cw/dtailocal/mercs_python/bin/mercspython.py /cw/dtailocal/mercs_python/out/812/slump/settings/mercspython_Settings_F06.s"
  }
},
{
  "ts": "2018-02-07T13:04:49.477323",
  "type": "INFO",
  "values": {
    "cmd": "python /cw/dtailocal/mercs_python/bin/mercspython.py /cw/dtailocal/mercs_python/out/812/slump/settings/mercspython_Settings_F06.s",
    "cwd": null
  }
},
{
  "ts": "2018-02-07T13:04:49.493289",
  "type": "INFO",
  "values": "Start: Run process"
},
{
  "ts": "2018-02-07T13:04:49.543795",
  "type": "INFO",
  "values": "Write log to /cw/dtailocal/mercs_python/out/812/slump/logs/mercspython_Log_F06.running.log"
},
{
  "ts": "2018-02-07T13:04:53.152430",
  "type": "INFO",
  "values": "Process ended (returncode 0)"
},
{
  "ts": "2018-02-07T13:04:53.152508",
  "type": "INFO",
  "values": "Finished: Run process 3.659 seconds"
},
{
  "ts": "2018-02-07T13:04:53.152588",
  "type": "WARNING",
  "values": {
    "Exit": "finished",
    "Returncode": 0,
    "Time": 3.659245014190674
  }
},
{
  "ts": "2018-02-07T13:04:53.152973",
  "type": "INFO",
  "values": "Closing /cw/dtailocal/mercs_python/out/812/slump/logs/mercspython_Log_F06.running.log"
}
]
