[
{
  "ts": "2018-02-07T10:17:55.774855",
  "type": "SETTINGS",
  "values": {
    "date": "2018/02/07 11:17:55",
    "date_iso": "2018-02-07T11:17:55.774023",
    "params": null,
    "system": {
      "nodename": "gibson",
      "machine": "x86_64",
      "platform": "Linux-4.4.0-112-generic-x86_64-with-debian-stretch-sid",
      "processor": "x86_64",
      "version": "#135-Ubuntu SMP Fri Jan 19 11:48:36 UTC 2018",
      "system": "Linux",
      "cpu_count": 8,
      "cpu_times": {
        "user": 378459.79,
        "system": 22385.46,
        "idle": 8577342.68,
        "nice": 898.04
      },
      "cpu_percent": 100.0,
      "virtual_memory": {
        "total": 33618501632,
        "available": 26131099648,
        "percent": 22.3,
        "used": 6620090368,
        "free": 12041682944
      }
    },
    "process": {
      "username": "evgeniya",
      "cwd": "/cw/dtailocal/mercs_python/src/core",
      "create_time": 1517998631.05,
      "cpu_times": {
        "user": 1.06,
        "system": 0.13
      }
    },
    "logfile": "/cw/dtailocal/mercs_python/out/727/wq/logs/mercspython_Log_F09",
    "command": "python /cw/dtailocal/mercs_python/bin/mercspython.py /cw/dtailocal/mercs_python/out/727/wq/settings/mercspython_Settings_F09.s"
  }
},
{
  "ts": "2018-02-07T10:17:55.775006",
  "type": "INFO",
  "values": {
    "cmd": "python /cw/dtailocal/mercs_python/bin/mercspython.py /cw/dtailocal/mercs_python/out/727/wq/settings/mercspython_Settings_F09.s",
    "cwd": null
  }
},
{
  "ts": "2018-02-07T10:17:55.785392",
  "type": "INFO",
  "values": "Start: Run process"
},
{
  "ts": "2018-02-07T10:17:55.785900",
  "type": "INFO",
  "values": "Write log to /cw/dtailocal/mercs_python/out/727/wq/logs/mercspython_Log_F09.running.log"
},
{
  "ts": "2018-02-07T10:18:00.823714",
  "type": "INFO",
  "values": "Process ended (returncode 0)"
},
{
  "ts": "2018-02-07T10:18:00.823797",
  "type": "INFO",
  "values": "Finished: Run process 5.038 seconds"
},
{
  "ts": "2018-02-07T10:18:00.823886",
  "type": "WARNING",
  "values": {
    "Exit": "finished",
    "Returncode": 0,
    "Time": 5.038424015045166
  }
}
]
