[
{
  "ts": "2018-02-06T12:20:39.422094",
  "type": "SETTINGS",
  "values": {
    "date": "2018/02/06 13:20:39",
    "date_iso": "2018-02-06T13:20:39.421497",
    "params": null,
    "system": {
      "nodename": "gibson",
      "machine": "x86_64",
      "platform": "Linux-4.4.0-112-generic-x86_64-with-debian-stretch-sid",
      "processor": "x86_64",
      "version": "#135-Ubuntu SMP Fri Jan 19 11:48:36 UTC 2018",
      "system": "Linux",
      "cpu_count": 8,
      "cpu_times": {
        "user": 347728.23,
        "system": 20975.5,
        "idle": 7978970.03,
        "nice": 821.4
      },
      "cpu_percent": 86.6,
      "virtual_memory": {
        "total": 33618501632,
        "available": 24162070528,
        "percent": 28.1,
        "used": 8371601408,
        "free": 11815460864
      }
    },
    "process": {
      "username": "evgeniya",
      "cwd": "/cw/dtailocal/mercs_python/src/core",
      "create_time": 1517919630.39,
      "cpu_times": {
        "user": 0.99,
        "system": 0.38
      }
    },
    "logfile": "/cw/dtailocal/mercs_python/out/634/jura/logs/mercspython_Log_F05",
    "command": "python /cw/dtailocal/mercs_python/bin/mercspython.py /cw/dtailocal/mercs_python/out/634/jura/settings/mercspython_Settings_F05.s"
  }
},
{
  "ts": "2018-02-06T12:20:39.422183",
  "type": "INFO",
  "values": {
    "cmd": "python /cw/dtailocal/mercs_python/bin/mercspython.py /cw/dtailocal/mercs_python/out/634/jura/settings/mercspython_Settings_F05.s",
    "cwd": null
  }
},
{
  "ts": "2018-02-06T12:20:39.424577",
  "type": "INFO",
  "values": "Start: Run process"
},
{
  "ts": "2018-02-06T12:20:39.424947",
  "type": "INFO",
  "values": "Write log to /cw/dtailocal/mercs_python/out/634/jura/logs/mercspython_Log_F05.running.log"
},
{
  "ts": "2018-02-06T12:20:41.035739",
  "type": "INFO",
  "values": "Process ended (returncode 0)"
},
{
  "ts": "2018-02-06T12:20:41.035827",
  "type": "INFO",
  "values": "Finished: Run process 1.611 seconds"
},
{
  "ts": "2018-02-06T12:20:41.035908",
  "type": "WARNING",
  "values": {
    "Exit": "finished",
    "Returncode": 0,
    "Time": 1.6112678050994873
  }
},
{
  "ts": "2018-02-06T12:20:41.036246",
  "type": "INFO",
  "values": "Closing /cw/dtailocal/mercs_python/out/634/jura/logs/mercspython_Log_F05.running.log"
}
]
