[
{
  "ts": "2018-02-05T15:45:48.361226",
  "type": "SETTINGS",
  "values": {
    "date": "2018/02/05 16:45:48",
    "date_iso": "2018-02-05T16:45:48.360367",
    "params": null,
    "system": {
      "nodename": "gibson",
      "machine": "x86_64",
      "platform": "Linux-4.4.0-112-generic-x86_64-with-debian-stretch-sid",
      "processor": "x86_64",
      "version": "#135-Ubuntu SMP Fri Jan 19 11:48:36 UTC 2018",
      "system": "Linux",
      "cpu_count": 8,
      "cpu_times": {
        "user": 100831.38,
        "system": 18250.63,
        "idle": 7637228.05,
        "nice": 749.46
      },
      "cpu_percent": 100.0,
      "virtual_memory": {
        "total": 33618501632,
        "available": 23743877120,
        "percent": 29.4,
        "used": 8930172928,
        "free": 7534469120
      }
    },
    "process": {
      "username": "evgeniya",
      "cwd": "/cw/dtailocal/mercs_python/src/core",
      "create_time": 1517845526.55,
      "cpu_times": {
        "user": 1.21,
        "system": 0.22
      }
    },
    "logfile": "/cw/dtailocal/mercs_python/out/251/andro/logs/mercspython_Log_F06",
    "command": "python /cw/dtailocal/mercs_python/bin/mercspython.py /cw/dtailocal/mercs_python/out/251/andro/settings/mercspython_Settings_F06.s"
  }
},
{
  "ts": "2018-02-05T15:45:48.361503",
  "type": "INFO",
  "values": {
    "cmd": "python /cw/dtailocal/mercs_python/bin/mercspython.py /cw/dtailocal/mercs_python/out/251/andro/settings/mercspython_Settings_F06.s",
    "cwd": null
  }
},
{
  "ts": "2018-02-05T15:45:48.381077",
  "type": "INFO",
  "values": "Start: Run process"
},
{
  "ts": "2018-02-05T15:45:48.411776",
  "type": "INFO",
  "values": "Write log to /cw/dtailocal/mercs_python/out/251/andro/logs/mercspython_Log_F06.running.log"
},
{
  "ts": "2018-02-05T15:45:51.415485",
  "type": "INFO",
  "values": "Process ended (returncode 0)"
},
{
  "ts": "2018-02-05T15:45:51.415567",
  "type": "INFO",
  "values": "Finished: Run process 3.035 seconds"
},
{
  "ts": "2018-02-05T15:45:51.415652",
  "type": "WARNING",
  "values": {
    "Exit": "finished",
    "Returncode": 0,
    "Time": 3.034511089324951
  }
},
{
  "ts": "2018-02-05T15:45:51.423258",
  "type": "INFO",
  "values": "Closing /cw/dtailocal/mercs_python/out/251/andro/logs/mercspython_Log_F06.running.log"
}
]
