[
{
  "ts": "2018-02-05T14:59:00.033170",
  "type": "SETTINGS",
  "values": {
    "date": "2018/02/05 15:59:00",
    "date_iso": "2018-02-05T15:59:00.032350",
    "params": null,
    "system": {
      "nodename": "gibson",
      "machine": "x86_64",
      "platform": "Linux-4.4.0-112-generic-x86_64-with-debian-stretch-sid",
      "processor": "x86_64",
      "version": "#135-Ubuntu SMP Fri Jan 19 11:48:36 UTC 2018",
      "system": "Linux",
      "cpu_count": 8,
      "cpu_times": {
        "user": 85285.28,
        "system": 18078.15,
        "idle": 7630554.34,
        "nice": 732.25
      },
      "cpu_percent": 99.8,
      "virtual_memory": {
        "total": 33618501632,
        "available": 25135689728,
        "percent": 25.2,
        "used": 7405846528,
        "free": 9601753088
      }
    },
    "process": {
      "username": "evgeniya",
      "cwd": "/cw/dtailocal/mercs_python/src/core",
      "create_time": 1517842724.62,
      "cpu_times": {
        "user": 1.13,
        "system": 0.17
      }
    },
    "logfile": "/cw/dtailocal/mercs_python/out/345/jura/logs/mercspython_Log_F05",
    "command": "python /cw/dtailocal/mercs_python/bin/mercspython.py /cw/dtailocal/mercs_python/out/345/jura/settings/mercspython_Settings_F05.s"
  }
},
{
  "ts": "2018-02-05T14:59:00.033321",
  "type": "INFO",
  "values": {
    "cmd": "python /cw/dtailocal/mercs_python/bin/mercspython.py /cw/dtailocal/mercs_python/out/345/jura/settings/mercspython_Settings_F05.s",
    "cwd": null
  }
},
{
  "ts": "2018-02-05T14:59:00.051325",
  "type": "INFO",
  "values": "Start: Run process"
},
{
  "ts": "2018-02-05T14:59:00.083787",
  "type": "INFO",
  "values": "Write log to /cw/dtailocal/mercs_python/out/345/jura/logs/mercspython_Log_F05.running.log"
},
{
  "ts": "2018-02-05T14:59:02.687973",
  "type": "INFO",
  "values": "Process ended (returncode 0)"
},
{
  "ts": "2018-02-05T14:59:02.688057",
  "type": "INFO",
  "values": "Finished: Run process 2.637 seconds"
},
{
  "ts": "2018-02-05T14:59:02.688140",
  "type": "WARNING",
  "values": {
    "Exit": "finished",
    "Returncode": 0,
    "Time": 2.636756658554077
  }
}
]
