[
{
  "ts": "2018-02-05T15:04:52.853068",
  "type": "SETTINGS",
  "values": {
    "date": "2018/02/05 16:04:52",
    "date_iso": "2018-02-05T16:04:52.852211",
    "params": null,
    "system": {
      "nodename": "gibson",
      "machine": "x86_64",
      "platform": "Linux-4.4.0-112-generic-x86_64-with-debian-stretch-sid",
      "processor": "x86_64",
      "version": "#135-Ubuntu SMP Fri Jan 19 11:48:36 UTC 2018",
      "system": "Linux",
      "cpu_count": 8,
      "cpu_times": {
        "user": 88080.34,
        "system": 18103.59,
        "idle": 7630554.91,
        "nice": 732.25
      },
      "cpu_percent": 100.0,
      "virtual_memory": {
        "total": 33618501632,
        "available": 24666701824,
        "percent": 26.6,
        "used": 7834988544,
        "free": 9042665472
      }
    },
    "process": {
      "username": "evgeniya",
      "cwd": "/cw/dtailocal/mercs_python/src/core",
      "create_time": 1517842420.5,
      "cpu_times": {
        "user": 1.8,
        "system": 0.28
      }
    },
    "logfile": "/cw/dtailocal/mercs_python/out/324/rf1/logs/mercspython_Log_F09",
    "command": "python /cw/dtailocal/mercs_python/bin/mercspython.py /cw/dtailocal/mercs_python/out/324/rf1/settings/mercspython_Settings_F09.s"
  }
},
{
  "ts": "2018-02-05T15:04:52.853222",
  "type": "INFO",
  "values": {
    "cmd": "python /cw/dtailocal/mercs_python/bin/mercspython.py /cw/dtailocal/mercs_python/out/324/rf1/settings/mercspython_Settings_F09.s",
    "cwd": null
  }
},
{
  "ts": "2018-02-05T15:04:52.877254",
  "type": "INFO",
  "values": "Start: Run process"
},
{
  "ts": "2018-02-05T15:04:52.899778",
  "type": "INFO",
  "values": "Write log to /cw/dtailocal/mercs_python/out/324/rf1/logs/mercspython_Log_F09.running.log"
},
{
  "ts": "2018-02-05T15:06:09.011758",
  "type": "INFO",
  "values": "Process ended (returncode 0)"
},
{
  "ts": "2018-02-05T15:06:09.011840",
  "type": "INFO",
  "values": "Finished: Run process 76.135 seconds"
},
{
  "ts": "2018-02-05T15:06:09.011921",
  "type": "WARNING",
  "values": {
    "Exit": "finished",
    "Returncode": 0,
    "Time": 76.1346116065979
  }
},
{
  "ts": "2018-02-05T15:06:09.026028",
  "type": "INFO",
  "values": "Closing /cw/dtailocal/mercs_python/out/324/rf1/logs/mercspython_Log_F09.running.log"
}
]
