[
{
  "ts": "2018-02-05T15:45:13.816507",
  "type": "SETTINGS",
  "values": {
    "date": "2018/02/05 16:45:13",
    "date_iso": "2018-02-05T16:45:13.814085",
    "params": null,
    "system": {
      "nodename": "gibson",
      "machine": "x86_64",
      "platform": "Linux-4.4.0-112-generic-x86_64-with-debian-stretch-sid",
      "processor": "x86_64",
      "version": "#135-Ubuntu SMP Fri Jan 19 11:48:36 UTC 2018",
      "system": "Linux",
      "cpu_count": 8,
      "cpu_times": {
        "user": 100558.49,
        "system": 18247.63,
        "idle": 7637227.87,
        "nice": 749.46
      },
      "cpu_percent": 99.6,
      "virtual_memory": {
        "total": 33618501632,
        "available": 24510222336,
        "percent": 27.1,
        "used": 8152498176,
        "free": 8311734272
      }
    },
    "process": {
      "username": "evgeniya",
      "cwd": "/cw/dtailocal/mercs_python/src/core",
      "create_time": 1517845510.3,
      "cpu_times": {
        "user": 2.08,
        "system": 0.07
      }
    },
    "logfile": "/cw/dtailocal/mercs_python/out/244/oes10/logs/mercspython_Log_F00",
    "command": "python /cw/dtailocal/mercs_python/bin/mercspython.py /cw/dtailocal/mercs_python/out/244/oes10/settings/mercspython_Settings_F00.s"
  }
},
{
  "ts": "2018-02-05T15:45:13.816659",
  "type": "INFO",
  "values": {
    "cmd": "python /cw/dtailocal/mercs_python/bin/mercspython.py /cw/dtailocal/mercs_python/out/244/oes10/settings/mercspython_Settings_F00.s",
    "cwd": null
  }
},
{
  "ts": "2018-02-05T15:45:13.849285",
  "type": "INFO",
  "values": "Start: Run process"
},
{
  "ts": "2018-02-05T15:45:13.875810",
  "type": "INFO",
  "values": "Write log to /cw/dtailocal/mercs_python/out/244/oes10/logs/mercspython_Log_F00.running.log"
},
{
  "ts": "2018-02-05T15:45:56.728462",
  "type": "INFO",
  "values": "Process ended (returncode 0)"
},
{
  "ts": "2018-02-05T15:45:56.728544",
  "type": "INFO",
  "values": "Finished: Run process 42.879 seconds"
},
{
  "ts": "2018-02-05T15:45:56.728629",
  "type": "WARNING",
  "values": {
    "Exit": "finished",
    "Returncode": 0,
    "Time": 42.879311084747314
  }
}
]
