[
{
  "ts": "2018-02-05T17:02:51.610201",
  "type": "SETTINGS",
  "values": {
    "date": "2018/02/05 18:02:51",
    "date_iso": "2018-02-05T18:02:51.609372",
    "params": null,
    "system": {
      "nodename": "gibson",
      "machine": "x86_64",
      "platform": "Linux-4.4.0-112-generic-x86_64-with-debian-stretch-sid",
      "processor": "x86_64",
      "version": "#135-Ubuntu SMP Fri Jan 19 11:48:36 UTC 2018",
      "system": "Linux",
      "cpu_count": 8,
      "cpu_times": {
        "user": 137419.22,
        "system": 18619.25,
        "idle": 7637234.58,
        "nice": 751.58
      },
      "cpu_percent": 100.0,
      "virtual_memory": {
        "total": 33618501632,
        "available": 22446010368,
        "percent": 33.2,
        "used": 10153156608,
        "free": 5262622720
      }
    },
    "process": {
      "username": "evgeniya",
      "cwd": "/cw/dtailocal/mercs_python/src/core",
      "create_time": 1517850143.52,
      "cpu_times": {
        "user": 1.13,
        "system": 0.17
      }
    },
    "logfile": "/cw/dtailocal/mercs_python/out/327/andro/logs/mercspython_Log_F07",
    "command": "python /cw/dtailocal/mercs_python/bin/mercspython.py /cw/dtailocal/mercs_python/out/327/andro/settings/mercspython_Settings_F07.s"
  }
},
{
  "ts": "2018-02-05T17:02:51.610346",
  "type": "INFO",
  "values": {
    "cmd": "python /cw/dtailocal/mercs_python/bin/mercspython.py /cw/dtailocal/mercs_python/out/327/andro/settings/mercspython_Settings_F07.s",
    "cwd": null
  }
},
{
  "ts": "2018-02-05T17:02:51.622113",
  "type": "INFO",
  "values": "Start: Run process"
},
{
  "ts": "2018-02-05T17:02:51.647778",
  "type": "INFO",
  "values": "Write log to /cw/dtailocal/mercs_python/out/327/andro/logs/mercspython_Log_F07.running.log"
},
{
  "ts": "2018-02-05T17:02:56.059720",
  "type": "INFO",
  "values": "Process ended (returncode 0)"
},
{
  "ts": "2018-02-05T17:02:56.059802",
  "type": "INFO",
  "values": "Finished: Run process 4.438 seconds"
},
{
  "ts": "2018-02-05T17:02:56.059900",
  "type": "WARNING",
  "values": {
    "Exit": "finished",
    "Returncode": 0,
    "Time": 4.437718152999878
  }
},
{
  "ts": "2018-02-05T17:02:56.075841",
  "type": "INFO",
  "values": "Closing /cw/dtailocal/mercs_python/out/327/andro/logs/mercspython_Log_F07.running.log"
}
]
