[
{
  "ts": "2018-02-05T17:02:43.877203",
  "type": "SETTINGS",
  "values": {
    "date": "2018/02/05 18:02:43",
    "date_iso": "2018-02-05T18:02:43.876260",
    "params": null,
    "system": {
      "nodename": "gibson",
      "machine": "x86_64",
      "platform": "Linux-4.4.0-112-generic-x86_64-with-debian-stretch-sid",
      "processor": "x86_64",
      "version": "#135-Ubuntu SMP Fri Jan 19 11:48:36 UTC 2018",
      "system": "Linux",
      "cpu_count": 8,
      "cpu_times": {
        "user": 137358.57,
        "system": 18618.13,
        "idle": 7637234.58,
        "nice": 751.58
      },
      "cpu_percent": 100.0,
      "virtual_memory": {
        "total": 33618501632,
        "available": 21793067008,
        "percent": 35.2,
        "used": 10797305856,
        "free": 4610740224
      }
    },
    "process": {
      "username": "evgeniya",
      "cwd": "/cw/dtailocal/mercs_python/src/core",
      "create_time": 1517850143.52,
      "cpu_times": {
        "user": 0.92,
        "system": 0.13
      }
    },
    "logfile": "/cw/dtailocal/mercs_python/out/327/andro/logs/mercspython_Log_F05",
    "command": "python /cw/dtailocal/mercs_python/bin/mercspython.py /cw/dtailocal/mercs_python/out/327/andro/settings/mercspython_Settings_F05.s"
  }
},
{
  "ts": "2018-02-05T17:02:43.877378",
  "type": "INFO",
  "values": {
    "cmd": "python /cw/dtailocal/mercs_python/bin/mercspython.py /cw/dtailocal/mercs_python/out/327/andro/settings/mercspython_Settings_F05.s",
    "cwd": null
  }
},
{
  "ts": "2018-02-05T17:02:43.885836",
  "type": "INFO",
  "values": "Start: Run process"
},
{
  "ts": "2018-02-05T17:02:43.941177",
  "type": "INFO",
  "values": "Write log to /cw/dtailocal/mercs_python/out/327/andro/logs/mercspython_Log_F05.running.log"
},
{
  "ts": "2018-02-05T17:02:47.746717",
  "type": "INFO",
  "values": "Process ended (returncode 0)"
},
{
  "ts": "2018-02-05T17:02:47.746804",
  "type": "INFO",
  "values": "Finished: Run process 3.861 seconds"
},
{
  "ts": "2018-02-05T17:02:47.746908",
  "type": "WARNING",
  "values": {
    "Exit": "finished",
    "Returncode": 0,
    "Time": 3.8609960079193115
  }
}
]
