[
{
  "ts": "2018-02-07T10:16:43.017396",
  "type": "SETTINGS",
  "values": {
    "date": "2018/02/07 11:16:43",
    "date_iso": "2018-02-07T11:16:43.016511",
    "params": null,
    "system": {
      "nodename": "gibson",
      "machine": "x86_64",
      "platform": "Linux-4.4.0-112-generic-x86_64-with-debian-stretch-sid",
      "processor": "x86_64",
      "version": "#135-Ubuntu SMP Fri Jan 19 11:48:36 UTC 2018",
      "system": "Linux",
      "cpu_count": 8,
      "cpu_times": {
        "user": 377892.9,
        "system": 22371.69,
        "idle": 8577342.13,
        "nice": 898.04
      },
      "cpu_percent": 99.7,
      "virtual_memory": {
        "total": 33618501632,
        "available": 25073602560,
        "percent": 25.4,
        "used": 7676309504,
        "free": 10965131264
      }
    },
    "process": {
      "username": "evgeniya",
      "cwd": "/cw/dtailocal/mercs_python/src/core",
      "create_time": 1517998586.72,
      "cpu_times": {
        "user": 1.13,
        "system": 0.16
      }
    },
    "logfile": "/cw/dtailocal/mercs_python/out/722/enb/logs/mercspython_Log_F05",
    "command": "python /cw/dtailocal/mercs_python/bin/mercspython.py /cw/dtailocal/mercs_python/out/722/enb/settings/mercspython_Settings_F05.s"
  }
},
{
  "ts": "2018-02-07T10:16:43.017562",
  "type": "INFO",
  "values": {
    "cmd": "python /cw/dtailocal/mercs_python/bin/mercspython.py /cw/dtailocal/mercs_python/out/722/enb/settings/mercspython_Settings_F05.s",
    "cwd": null
  }
},
{
  "ts": "2018-02-07T10:16:43.021028",
  "type": "INFO",
  "values": "Start: Run process"
},
{
  "ts": "2018-02-07T10:16:43.040923",
  "type": "INFO",
  "values": "Write log to /cw/dtailocal/mercs_python/out/722/enb/logs/mercspython_Log_F05.running.log"
},
{
  "ts": "2018-02-07T10:16:45.849272",
  "type": "INFO",
  "values": "Process ended (returncode 0)"
},
{
  "ts": "2018-02-07T10:16:45.849361",
  "type": "INFO",
  "values": "Finished: Run process 2.828 seconds"
},
{
  "ts": "2018-02-07T10:16:45.849463",
  "type": "WARNING",
  "values": {
    "Exit": "finished",
    "Returncode": 0,
    "Time": 2.8283538818359375
  }
}
]
