[
{
  "ts": "2018-02-07T10:16:28.452047",
  "type": "SETTINGS",
  "values": {
    "date": "2018/02/07 11:16:28",
    "date_iso": "2018-02-07T11:16:28.444779",
    "params": null,
    "system": {
      "nodename": "gibson",
      "machine": "x86_64",
      "platform": "Linux-4.4.0-112-generic-x86_64-with-debian-stretch-sid",
      "processor": "x86_64",
      "version": "#135-Ubuntu SMP Fri Jan 19 11:48:36 UTC 2018",
      "system": "Linux",
      "cpu_count": 8,
      "cpu_times": {
        "user": 377780.34,
        "system": 22368.26,
        "idle": 8577341.81,
        "nice": 898.04
      },
      "cpu_percent": 99.8,
      "virtual_memory": {
        "total": 33618501632,
        "available": 25314488320,
        "percent": 24.7,
        "used": 7435550720,
        "free": 11207143424
      }
    },
    "process": {
      "username": "evgeniya",
      "cwd": "/cw/dtailocal/mercs_python/src/core",
      "create_time": 1517998586.72,
      "cpu_times": {
        "user": 0.56,
        "system": 0.06
      }
    },
    "logfile": "/cw/dtailocal/mercs_python/out/722/enb/logs/mercspython_Log_F00",
    "command": "python /cw/dtailocal/mercs_python/bin/mercspython.py /cw/dtailocal/mercs_python/out/722/enb/settings/mercspython_Settings_F00.s"
  }
},
{
  "ts": "2018-02-07T10:16:28.452228",
  "type": "INFO",
  "values": {
    "cmd": "python /cw/dtailocal/mercs_python/bin/mercspython.py /cw/dtailocal/mercs_python/out/722/enb/settings/mercspython_Settings_F00.s",
    "cwd": null
  }
},
{
  "ts": "2018-02-07T10:16:28.465220",
  "type": "INFO",
  "values": "Start: Run process"
},
{
  "ts": "2018-02-07T10:16:28.501833",
  "type": "INFO",
  "values": "Write log to /cw/dtailocal/mercs_python/out/722/enb/logs/mercspython_Log_F00.running.log"
},
{
  "ts": "2018-02-07T10:16:31.313769",
  "type": "INFO",
  "values": "Process ended (returncode 0)"
},
{
  "ts": "2018-02-07T10:16:31.313850",
  "type": "INFO",
  "values": "Finished: Run process 2.849 seconds"
},
{
  "ts": "2018-02-07T10:16:31.313939",
  "type": "WARNING",
  "values": {
    "Exit": "finished",
    "Returncode": 0,
    "Time": 2.848679304122925
  }
},
{
  "ts": "2018-02-07T10:16:31.319853",
  "type": "INFO",
  "values": "Closing /cw/dtailocal/mercs_python/out/722/enb/logs/mercspython_Log_F00.running.log"
}
]
