[
{
  "ts": "2018-02-06T11:03:08.901780",
  "type": "SETTINGS",
  "values": {
    "date": "2018/02/06 12:03:08",
    "date_iso": "2018-02-06T12:03:08.900979",
    "params": null,
    "system": {
      "nodename": "gibson",
      "machine": "x86_64",
      "platform": "Linux-4.4.0-112-generic-x86_64-with-debian-stretch-sid",
      "processor": "x86_64",
      "version": "#135-Ubuntu SMP Fri Jan 19 11:48:36 UTC 2018",
      "system": "Linux",
      "cpu_count": 8,
      "cpu_times": {
        "user": 332175.63,
        "system": 20756.38,
        "idle": 7957636.07,
        "nice": 820.39
      },
      "cpu_percent": 50.0,
      "virtual_memory": {
        "total": 33618501632,
        "available": 21921071104,
        "percent": 34.8,
        "used": 10724528128,
        "free": 10003197952
      }
    },
    "process": {
      "username": "evgeniya",
      "cwd": "/cw/dtailocal/mercs_python/src/core",
      "create_time": 1517914726.19,
      "cpu_times": {
        "user": 1.16,
        "system": 0.64
      }
    },
    "logfile": "/cw/dtailocal/mercs_python/out/560/scm20d/logs/mercspython_Log_F07",
    "command": "python /cw/dtailocal/mercs_python/bin/mercspython.py /cw/dtailocal/mercs_python/out/560/scm20d/settings/mercspython_Settings_F07.s"
  }
},
{
  "ts": "2018-02-06T11:03:08.901916",
  "type": "INFO",
  "values": {
    "cmd": "python /cw/dtailocal/mercs_python/bin/mercspython.py /cw/dtailocal/mercs_python/out/560/scm20d/settings/mercspython_Settings_F07.s",
    "cwd": null
  }
},
{
  "ts": "2018-02-06T11:03:08.905225",
  "type": "INFO",
  "values": "Start: Run process"
},
{
  "ts": "2018-02-06T11:03:08.905736",
  "type": "INFO",
  "values": "Write log to /cw/dtailocal/mercs_python/out/560/scm20d/logs/mercspython_Log_F07.running.log"
},
{
  "ts": "2018-02-06T11:03:45.750918",
  "type": "INFO",
  "values": "Process ended (returncode 0)"
},
{
  "ts": "2018-02-06T11:03:45.750996",
  "type": "INFO",
  "values": "Finished: Run process 36.846 seconds"
},
{
  "ts": "2018-02-06T11:03:45.751075",
  "type": "WARNING",
  "values": {
    "Exit": "finished",
    "Returncode": 0,
    "Time": 36.84582257270813
  }
},
{
  "ts": "2018-02-06T11:03:45.751371",
  "type": "INFO",
  "values": "Closing /cw/dtailocal/mercs_python/out/560/scm20d/logs/mercspython_Log_F07.running.log"
}
]
