[
{
  "ts": "2018-02-06T11:00:02.233337",
  "type": "SETTINGS",
  "values": {
    "date": "2018/02/06 12:00:02",
    "date_iso": "2018-02-06T12:00:02.232511",
    "params": null,
    "system": {
      "nodename": "gibson",
      "machine": "x86_64",
      "platform": "Linux-4.4.0-112-generic-x86_64-with-debian-stretch-sid",
      "processor": "x86_64",
      "version": "#135-Ubuntu SMP Fri Jan 19 11:48:36 UTC 2018",
      "system": "Linux",
      "cpu_count": 8,
      "cpu_times": {
        "user": 331416.68,
        "system": 20750.86,
        "idle": 7956910.21,
        "nice": 820.39
      },
      "cpu_percent": 51.7,
      "virtual_memory": {
        "total": 33618501632,
        "available": 22441586688,
        "percent": 33.2,
        "used": 10193305600,
        "free": 10539618304
      }
    },
    "process": {
      "username": "evgeniya",
      "cwd": "/cw/dtailocal/mercs_python/src/core",
      "create_time": 1517914726.19,
      "cpu_times": {
        "user": 0.64,
        "system": 0.2
      }
    },
    "logfile": "/cw/dtailocal/mercs_python/out/560/scm20d/logs/mercspython_Log_F02",
    "command": "python /cw/dtailocal/mercs_python/bin/mercspython.py /cw/dtailocal/mercs_python/out/560/scm20d/settings/mercspython_Settings_F02.s"
  }
},
{
  "ts": "2018-02-06T11:00:02.233482",
  "type": "INFO",
  "values": {
    "cmd": "python /cw/dtailocal/mercs_python/bin/mercspython.py /cw/dtailocal/mercs_python/out/560/scm20d/settings/mercspython_Settings_F02.s",
    "cwd": null
  }
},
{
  "ts": "2018-02-06T11:00:02.239111",
  "type": "INFO",
  "values": "Start: Run process"
},
{
  "ts": "2018-02-06T11:00:02.239571",
  "type": "INFO",
  "values": "Write log to /cw/dtailocal/mercs_python/out/560/scm20d/logs/mercspython_Log_F02.running.log"
},
{
  "ts": "2018-02-06T11:00:41.091536",
  "type": "INFO",
  "values": "Process ended (returncode 0)"
},
{
  "ts": "2018-02-06T11:00:41.091614",
  "type": "INFO",
  "values": "Finished: Run process 38.853 seconds"
},
{
  "ts": "2018-02-06T11:00:41.091698",
  "type": "WARNING",
  "values": {
    "Exit": "finished",
    "Returncode": 0,
    "Time": 38.85253548622131
  }
},
{
  "ts": "2018-02-06T11:00:41.092085",
  "type": "INFO",
  "values": "Closing /cw/dtailocal/mercs_python/out/560/scm20d/logs/mercspython_Log_F02.running.log"
}
]
