[
{
  "ts": "2018-02-07T10:15:24.961162",
  "type": "SETTINGS",
  "values": {
    "date": "2018/02/07 11:15:24",
    "date_iso": "2018-02-07T11:15:24.960252",
    "params": null,
    "system": {
      "nodename": "gibson",
      "machine": "x86_64",
      "platform": "Linux-4.4.0-112-generic-x86_64-with-debian-stretch-sid",
      "processor": "x86_64",
      "version": "#135-Ubuntu SMP Fri Jan 19 11:48:36 UTC 2018",
      "system": "Linux",
      "cpu_count": 8,
      "cpu_times": {
        "user": 377293.18,
        "system": 22351.88,
        "idle": 8577339.36,
        "nice": 898.04
      },
      "cpu_percent": 99.1,
      "virtual_memory": {
        "total": 33618501632,
        "available": 26492923904,
        "percent": 21.2,
        "used": 6257057792,
        "free": 12342267904
      }
    },
    "process": {
      "username": "evgeniya",
      "cwd": "/cw/dtailocal/mercs_python/src/core",
      "create_time": 1517998486.05,
      "cpu_times": {
        "user": 1.58,
        "system": 0.24
      }
    },
    "logfile": "/cw/dtailocal/mercs_python/out/700/andro/logs/mercspython_Log_F09",
    "command": "python /cw/dtailocal/mercs_python/bin/mercspython.py /cw/dtailocal/mercs_python/out/700/andro/settings/mercspython_Settings_F09.s"
  }
},
{
  "ts": "2018-02-07T10:15:24.961326",
  "type": "INFO",
  "values": {
    "cmd": "python /cw/dtailocal/mercs_python/bin/mercspython.py /cw/dtailocal/mercs_python/out/700/andro/settings/mercspython_Settings_F09.s",
    "cwd": null
  }
},
{
  "ts": "2018-02-07T10:15:24.975330",
  "type": "INFO",
  "values": "Start: Run process"
},
{
  "ts": "2018-02-07T10:15:24.979609",
  "type": "INFO",
  "values": "Write log to /cw/dtailocal/mercs_python/out/700/andro/logs/mercspython_Log_F09.running.log"
},
{
  "ts": "2018-02-07T10:15:28.784437",
  "type": "INFO",
  "values": "Process ended (returncode 0)"
},
{
  "ts": "2018-02-07T10:15:28.784530",
  "type": "INFO",
  "values": "Finished: Run process 3.809 seconds"
},
{
  "ts": "2018-02-07T10:15:28.784614",
  "type": "WARNING",
  "values": {
    "Exit": "finished",
    "Returncode": 0,
    "Time": 3.8092267513275146
  }
}
]
