[
{
  "ts": "2018-02-06T12:12:37.270842",
  "type": "SETTINGS",
  "values": {
    "date": "2018/02/06 13:12:37",
    "date_iso": "2018-02-06T13:12:37.270018",
    "params": null,
    "system": {
      "nodename": "gibson",
      "machine": "x86_64",
      "platform": "Linux-4.4.0-112-generic-x86_64-with-debian-stretch-sid",
      "processor": "x86_64",
      "version": "#135-Ubuntu SMP Fri Jan 19 11:48:36 UTC 2018",
      "system": "Linux",
      "cpu_count": 8,
      "cpu_times": {
        "user": 344434.87,
        "system": 20925.17,
        "idle": 7978465.71,
        "nice": 821.4
      },
      "cpu_percent": 87.2,
      "virtual_memory": {
        "total": 33618501632,
        "available": 23179259904,
        "percent": 31.1,
        "used": 9450274816,
        "free": 10958336000
      }
    },
    "process": {
      "username": "evgeniya",
      "cwd": "/cw/dtailocal/mercs_python/src/core",
      "create_time": 1517918878.74,
      "cpu_times": {
        "user": 2.63,
        "system": 0.45
      }
    },
    "logfile": "/cw/dtailocal/mercs_python/out/603/oes10/logs/mercspython_Log_F07",
    "command": "python /cw/dtailocal/mercs_python/bin/mercspython.py /cw/dtailocal/mercs_python/out/603/oes10/settings/mercspython_Settings_F07.s"
  }
},
{
  "ts": "2018-02-06T12:12:37.270992",
  "type": "INFO",
  "values": {
    "cmd": "python /cw/dtailocal/mercs_python/bin/mercspython.py /cw/dtailocal/mercs_python/out/603/oes10/settings/mercspython_Settings_F07.s",
    "cwd": null
  }
},
{
  "ts": "2018-02-06T12:12:37.274617",
  "type": "INFO",
  "values": "Start: Run process"
},
{
  "ts": "2018-02-06T12:12:37.275053",
  "type": "INFO",
  "values": "Write log to /cw/dtailocal/mercs_python/out/603/oes10/logs/mercspython_Log_F07.running.log"
},
{
  "ts": "2018-02-06T12:13:16.722631",
  "type": "INFO",
  "values": "Process ended (returncode 0)"
},
{
  "ts": "2018-02-06T12:13:16.722710",
  "type": "INFO",
  "values": "Finished: Run process 39.448 seconds"
},
{
  "ts": "2018-02-06T12:13:16.722788",
  "type": "WARNING",
  "values": {
    "Exit": "finished",
    "Returncode": 0,
    "Time": 39.4481155872345
  }
},
{
  "ts": "2018-02-06T12:13:16.723139",
  "type": "INFO",
  "values": "Closing /cw/dtailocal/mercs_python/out/603/oes10/logs/mercspython_Log_F07.running.log"
}
]
