[
{
  "ts": "2018-02-07T13:12:12.641053",
  "type": "SETTINGS",
  "values": {
    "date": "2018/02/07 14:12:12",
    "date_iso": "2018-02-07T14:12:12.640189",
    "params": null,
    "system": {
      "nodename": "gibson",
      "machine": "x86_64",
      "platform": "Linux-4.4.0-112-generic-x86_64-with-debian-stretch-sid",
      "processor": "x86_64",
      "version": "#135-Ubuntu SMP Fri Jan 19 11:48:36 UTC 2018",
      "system": "Linux",
      "cpu_count": 8,
      "cpu_times": {
        "user": 403796.2,
        "system": 23642.47,
        "idle": 8633961.98,
        "nice": 906.12
      },
      "cpu_percent": 99.9,
      "virtual_memory": {
        "total": 33618501632,
        "available": 24060653568,
        "percent": 28.4,
        "used": 8647962624,
        "free": 9617518592
      }
    },
    "process": {
      "username": "evgeniya",
      "cwd": "/cw/dtailocal/mercs_python/src/core",
      "create_time": 1518009117.7,
      "cpu_times": {
        "user": 0.69,
        "system": 0.08
      }
    },
    "logfile": "/cw/dtailocal/mercs_python/out/834/wq/logs/mercspython_Log_F03",
    "command": "python /cw/dtailocal/mercs_python/bin/mercspython.py /cw/dtailocal/mercs_python/out/834/wq/settings/mercspython_Settings_F03.s"
  }
},
{
  "ts": "2018-02-07T13:12:12.641202",
  "type": "INFO",
  "values": {
    "cmd": "python /cw/dtailocal/mercs_python/bin/mercspython.py /cw/dtailocal/mercs_python/out/834/wq/settings/mercspython_Settings_F03.s",
    "cwd": null
  }
},
{
  "ts": "2018-02-07T13:12:12.666678",
  "type": "INFO",
  "values": "Start: Run process"
},
{
  "ts": "2018-02-07T13:12:12.715661",
  "type": "INFO",
  "values": "Write log to /cw/dtailocal/mercs_python/out/834/wq/logs/mercspython_Log_F03.running.log"
},
{
  "ts": "2018-02-07T13:12:16.921400",
  "type": "INFO",
  "values": "Process ended (returncode 0)"
},
{
  "ts": "2018-02-07T13:12:16.921479",
  "type": "INFO",
  "values": "Finished: Run process 4.255 seconds"
},
{
  "ts": "2018-02-07T13:12:16.921564",
  "type": "WARNING",
  "values": {
    "Exit": "finished",
    "Returncode": 0,
    "Time": 4.254828691482544
  }
},
{
  "ts": "2018-02-07T13:12:16.927827",
  "type": "INFO",
  "values": "Closing /cw/dtailocal/mercs_python/out/834/wq/logs/mercspython_Log_F03.running.log"
}
]
