[
{
  "ts": "2018-02-07T13:11:59.426358",
  "type": "SETTINGS",
  "values": {
    "date": "2018/02/07 14:11:59",
    "date_iso": "2018-02-07T14:11:59.406590",
    "params": null,
    "system": {
      "nodename": "gibson",
      "machine": "x86_64",
      "platform": "Linux-4.4.0-112-generic-x86_64-with-debian-stretch-sid",
      "processor": "x86_64",
      "version": "#135-Ubuntu SMP Fri Jan 19 11:48:36 UTC 2018",
      "system": "Linux",
      "cpu_count": 8,
      "cpu_times": {
        "user": 403693.29,
        "system": 23639.83,
        "idle": 8633961.93,
        "nice": 906.12
      },
      "cpu_percent": 100.0,
      "virtual_memory": {
        "total": 33618501632,
        "available": 24248725504,
        "percent": 27.9,
        "used": 8459894784,
        "free": 9807081472
      }
    },
    "process": {
      "username": "evgeniya",
      "cwd": "/cw/dtailocal/mercs_python/src/core",
      "create_time": 1518009117.7,
      "cpu_times": {
        "user": 0.54,
        "system": 0.07
      }
    },
    "logfile": "/cw/dtailocal/mercs_python/out/834/wq/logs/mercspython_Log_F00",
    "command": "python /cw/dtailocal/mercs_python/bin/mercspython.py /cw/dtailocal/mercs_python/out/834/wq/settings/mercspython_Settings_F00.s"
  }
},
{
  "ts": "2018-02-07T13:11:59.426516",
  "type": "INFO",
  "values": {
    "cmd": "python /cw/dtailocal/mercs_python/bin/mercspython.py /cw/dtailocal/mercs_python/out/834/wq/settings/mercspython_Settings_F00.s",
    "cwd": null
  }
},
{
  "ts": "2018-02-07T13:11:59.441143",
  "type": "INFO",
  "values": "Start: Run process"
},
{
  "ts": "2018-02-07T13:11:59.479818",
  "type": "INFO",
  "values": "Write log to /cw/dtailocal/mercs_python/out/834/wq/logs/mercspython_Log_F00.running.log"
},
{
  "ts": "2018-02-07T13:12:03.692310",
  "type": "INFO",
  "values": "Process ended (returncode 0)"
},
{
  "ts": "2018-02-07T13:12:03.692400",
  "type": "INFO",
  "values": "Finished: Run process 4.251 seconds"
},
{
  "ts": "2018-02-07T13:12:03.692492",
  "type": "WARNING",
  "values": {
    "Exit": "finished",
    "Returncode": 0,
    "Time": 4.251300573348999
  }
}
]
