[SETTINGS] {
  "date": "2018/02/06 13:26:33",
  "date_iso": "2018-02-06T13:26:33.924478",
  "params": null,
  "system": {
    "nodename": "gibson",
    "machine": "x86_64",
    "platform": "Linux-4.4.0-112-generic-x86_64-with-debian-stretch-sid",
    "processor": "x86_64",
    "version": "#135-Ubuntu SMP Fri Jan 19 11:48:36 UTC 2018",
    "system": "Linux",
    "cpu_count": 8,
    "cpu_times": {
      "user": 350047.06,
      "system": 21011.63,
      "idle": 7979441.34,
      "nice": 822.94
    },
    "cpu_percent": 75.6,
    "virtual_memory": {
      "total": 33618501632,
      "available": 22742781952,
      "percent": 32.4,
      "used": 9819480064,
      "free": 10324934656
    }
  },
  "process": {
    "username": "evgeniya",
    "cwd": "/cw/dtailocal/mercs_python/src/core",
    "create_time": 1517919976.09,
    "cpu_times": {
      "user": 1.16,
      "system": 0.57
    }
  },
  "logfile": "/cw/dtailocal/mercs_python/out/614/slump/logs/mercspython_Log_F08",
  "command": "python /cw/dtailocal/mercs_python/bin/mercspython.py /cw/dtailocal/mercs_python/out/614/slump/settings/mercspython_Settings_F08.s"
}
[INFO] cmd:python /cw/dtailocal/mercs_python/bin/mercspython.py /cw/dtailocal/mercs_python/out/614/slump/settings/mercspython_Settings_F08.s; cwd:None
[INFO] Start: Run process
[INFO] Write log to /cw/dtailocal/mercs_python/out/614/slump/logs/mercspython_Log_F08.running.log
[STDERR] /cw/dtailocal/mercs_python/bin/mercspython.py:122: DataConversionWarning: A column-vector y was passed when a 1d array was expected. Please change the shape of y to (n_samples,), for example using ravel().
[STDERR]   models[i].fit(X, Y)
[STDERR] /cw/dtailocal/mercs_python/bin/mercspython.py:122: DataConversionWarning: A column-vector y was passed when a 1d array was expected. Please change the shape of y to (n_samples,), for example using ravel().
[STDERR]   models[i].fit(X, Y)
[STDERR] /cw/dtailocal/mercs_python/bin/mercspython.py:122: DataConversionWarning: A column-vector y was passed when a 1d array was expected. Please change the shape of y to (n_samples,), for example using ravel().
[STDERR]   models[i].fit(X, Y)
[STDERR] /cw/dtailocal/mercs_python/bin/mercspython.py:122: DataConversionWarning: A column-vector y was passed when a 1d array was expected. Please change the shape of y to (n_samples,), for example using ravel().
[STDERR]   models[i].fit(X, Y)
[STDERR] /cw/dtailocal/mercs_python/bin/mercspython.py:122: DataConversionWarning: A column-vector y was passed when a 1d array was expected. Please change the shape of y to (n_samples,), for example using ravel().
[STDERR]   models[i].fit(X, Y)
[STDERR] /cw/dtailocal/mercs_python/bin/mercspython.py:122: DataConversionWarning: A column-vector y was passed when a 1d array was expected. Please change the shape of y to (n_samples,), for example using ravel().
[STDERR]   models[i].fit(X, Y)
[[0, 0, 0, 0, 1, 0, 0, 0, 0, 1], [0, 0, 0, 1, 0, 0, 1, 0, 0, 0], [0, 0, 0, 0, 0, 0, 0, 0, 1, 0], [0, 0, 0, 0, 0, 0, 0, 1, 0, 0], [0, 0, 1, 0, 0, 0, 0, 0, 0, 0], [1, 0, 0, 0, 0, 0, 0, 0, 0, 0], [0, 0, 0, 0, 0, 1, 0, 0, 0, 0], [0, 1, 0, 0, 0, 0, 0, 0, 0, 0]]
====================================================
Total induction time of the MDEModel was: 857 ms
====================================================
====================================================
Total inference time of the MDEModel was: 70 ms
====================================================
====================================================
This was for: 10 queries.
====================================================
[INFO] Process ended (returncode 0)
[INFO] Finished: Run process 2.209 seconds
[WARNING] Exit:finished; Returncode:0; Time:2.20869
