[
{
  "ts": "2018-02-06T12:26:19.394235",
  "type": "SETTINGS",
  "values": {
    "date": "2018/02/06 13:26:19",
    "date_iso": "2018-02-06T13:26:19.393434",
    "params": null,
    "system": {
      "nodename": "gibson",
      "machine": "x86_64",
      "platform": "Linux-4.4.0-112-generic-x86_64-with-debian-stretch-sid",
      "processor": "x86_64",
      "version": "#135-Ubuntu SMP Fri Jan 19 11:48:36 UTC 2018",
      "system": "Linux",
      "cpu_count": 8,
      "cpu_times": {
        "user": 349957.25,
        "system": 21008.16,
        "idle": 7979419.32,
        "nice": 822.94
      },
      "cpu_percent": 89.5,
      "virtual_memory": {
        "total": 33618501632,
        "available": 22659026944,
        "percent": 32.6,
        "used": 9896194048,
        "free": 10244919296
      }
    },
    "process": {
      "username": "evgeniya",
      "cwd": "/cw/dtailocal/mercs_python/src/core",
      "create_time": 1517919976.09,
      "cpu_times": {
        "user": 0.64,
        "system": 0.09
      }
    },
    "logfile": "/cw/dtailocal/mercs_python/out/614/slump/logs/mercspython_Log_F01",
    "command": "python /cw/dtailocal/mercs_python/bin/mercspython.py /cw/dtailocal/mercs_python/out/614/slump/settings/mercspython_Settings_F01.s"
  }
},
{
  "ts": "2018-02-06T12:26:19.394371",
  "type": "INFO",
  "values": {
    "cmd": "python /cw/dtailocal/mercs_python/bin/mercspython.py /cw/dtailocal/mercs_python/out/614/slump/settings/mercspython_Settings_F01.s",
    "cwd": null
  }
},
{
  "ts": "2018-02-06T12:26:19.398122",
  "type": "INFO",
  "values": "Start: Run process"
},
{
  "ts": "2018-02-06T12:26:19.400831",
  "type": "INFO",
  "values": "Write log to /cw/dtailocal/mercs_python/out/614/slump/logs/mercspython_Log_F01.running.log"
},
{
  "ts": "2018-02-06T12:26:21.606980",
  "type": "INFO",
  "values": "Process ended (returncode 0)"
},
{
  "ts": "2018-02-06T12:26:21.607088",
  "type": "INFO",
  "values": "Finished: Run process 2.209 seconds"
},
{
  "ts": "2018-02-06T12:26:21.607172",
  "type": "WARNING",
  "values": {
    "Exit": "finished",
    "Returncode": 0,
    "Time": 2.2089591026306152
  }
}
]
