[
{
  "ts": "2018-02-05T15:53:37.597926",
  "type": "SETTINGS",
  "values": {
    "date": "2018/02/05 16:53:37",
    "date_iso": "2018-02-05T16:53:37.597121",
    "params": null,
    "system": {
      "nodename": "gibson",
      "machine": "x86_64",
      "platform": "Linux-4.4.0-112-generic-x86_64-with-debian-stretch-sid",
      "processor": "x86_64",
      "version": "#135-Ubuntu SMP Fri Jan 19 11:48:36 UTC 2018",
      "system": "Linux",
      "cpu_count": 8,
      "cpu_times": {
        "user": 104551.28,
        "system": 18282.23,
        "idle": 7637228.71,
        "nice": 749.46
      },
      "cpu_percent": 100.0,
      "virtual_memory": {
        "total": 33618501632,
        "available": 25107714048,
        "percent": 25.3,
        "used": 7588274176,
        "free": 8801644544
      }
    },
    "process": {
      "username": "evgeniya",
      "cwd": "/cw/dtailocal/mercs_python/src/core",
      "create_time": 1517845935.62,
      "cpu_times": {
        "user": 1.75,
        "system": 0.17
      }
    },
    "logfile": "/cw/dtailocal/mercs_python/out/225/oes97/logs/mercspython_Log_F02",
    "command": "python /cw/dtailocal/mercs_python/bin/mercspython.py /cw/dtailocal/mercs_python/out/225/oes97/settings/mercspython_Settings_F02.s"
  }
},
{
  "ts": "2018-02-05T15:53:37.598063",
  "type": "INFO",
  "values": {
    "cmd": "python /cw/dtailocal/mercs_python/bin/mercspython.py /cw/dtailocal/mercs_python/out/225/oes97/settings/mercspython_Settings_F02.s",
    "cwd": null
  }
},
{
  "ts": "2018-02-05T15:53:37.637467",
  "type": "INFO",
  "values": "Start: Run process"
},
{
  "ts": "2018-02-05T15:53:37.667781",
  "type": "INFO",
  "values": "Write log to /cw/dtailocal/mercs_python/out/225/oes97/logs/mercspython_Log_F02.running.log"
},
{
  "ts": "2018-02-05T15:54:17.915338",
  "type": "INFO",
  "values": "Process ended (returncode 0)"
},
{
  "ts": "2018-02-05T15:54:17.915424",
  "type": "INFO",
  "values": "Finished: Run process 40.278 seconds"
},
{
  "ts": "2018-02-05T15:54:17.915692",
  "type": "WARNING",
  "values": {
    "Exit": "finished",
    "Returncode": 0,
    "Time": 40.27798080444336
  }
},
{
  "ts": "2018-02-05T15:54:17.923801",
  "type": "INFO",
  "values": "Closing /cw/dtailocal/mercs_python/out/225/oes97/logs/mercspython_Log_F02.running.log"
}
]
