[
{
  "ts": "2018-02-05T16:16:08.082621",
  "type": "SETTINGS",
  "values": {
    "date": "2018/02/05 17:16:08",
    "date_iso": "2018-02-05T17:16:08.081771",
    "params": null,
    "system": {
      "nodename": "gibson",
      "machine": "x86_64",
      "platform": "Linux-4.4.0-112-generic-x86_64-with-debian-stretch-sid",
      "processor": "x86_64",
      "version": "#135-Ubuntu SMP Fri Jan 19 11:48:36 UTC 2018",
      "system": "Linux",
      "cpu_count": 8,
      "cpu_times": {
        "user": 115198.61,
        "system": 18431.82,
        "idle": 7637230.91,
        "nice": 749.46
      },
      "cpu_percent": 100.0,
      "virtual_memory": {
        "total": 33618501632,
        "available": 23722532864,
        "percent": 29.4,
        "used": 8991678464,
        "free": 7182979072
      }
    },
    "process": {
      "username": "evgeniya",
      "cwd": "/cw/dtailocal/mercs_python/src/core",
      "create_time": 1517847028.38,
      "cpu_times": {
        "user": 0.94,
        "system": 0.11
      }
    },
    "logfile": "/cw/dtailocal/mercs_python/out/268/scm20d/logs/mercspython_Log_F01",
    "command": "python /cw/dtailocal/mercs_python/bin/mercspython.py /cw/dtailocal/mercs_python/out/268/scm20d/settings/mercspython_Settings_F01.s"
  }
},
{
  "ts": "2018-02-05T16:16:08.082771",
  "type": "INFO",
  "values": {
    "cmd": "python /cw/dtailocal/mercs_python/bin/mercspython.py /cw/dtailocal/mercs_python/out/268/scm20d/settings/mercspython_Settings_F01.s",
    "cwd": null
  }
},
{
  "ts": "2018-02-05T16:16:08.113943",
  "type": "INFO",
  "values": "Start: Run process"
},
{
  "ts": "2018-02-05T16:16:08.151913",
  "type": "INFO",
  "values": "Write log to /cw/dtailocal/mercs_python/out/268/scm20d/logs/mercspython_Log_F01.running.log"
},
{
  "ts": "2018-02-05T16:21:56.777189",
  "type": "INFO",
  "values": "Process ended (returncode 0)"
},
{
  "ts": "2018-02-05T16:21:56.777268",
  "type": "INFO",
  "values": "Finished: Run process 348.663 seconds"
},
{
  "ts": "2018-02-05T16:21:56.777346",
  "type": "WARNING",
  "values": {
    "Exit": "finished",
    "Returncode": 0,
    "Time": 348.6633517742157
  }
},
{
  "ts": "2018-02-05T16:21:56.783821",
  "type": "INFO",
  "values": "Closing /cw/dtailocal/mercs_python/out/268/scm20d/logs/mercspython_Log_F01.running.log"
}
]
