[
{
  "ts": "2018-02-05T16:40:02.021184",
  "type": "SETTINGS",
  "values": {
    "date": "2018/02/05 17:40:02",
    "date_iso": "2018-02-05T17:40:02.020342",
    "params": null,
    "system": {
      "nodename": "gibson",
      "machine": "x86_64",
      "platform": "Linux-4.4.0-112-generic-x86_64-with-debian-stretch-sid",
      "processor": "x86_64",
      "version": "#135-Ubuntu SMP Fri Jan 19 11:48:36 UTC 2018",
      "system": "Linux",
      "cpu_count": 8,
      "cpu_times": {
        "user": 126552.9,
        "system": 18534.17,
        "idle": 7637234.01,
        "nice": 751.58
      },
      "cpu_percent": 100.0,
      "virtual_memory": {
        "total": 33618501632,
        "available": 25919062016,
        "percent": 22.9,
        "used": 6679732224,
        "free": 8842076160
      }
    },
    "process": {
      "username": "evgeniya",
      "cwd": "/cw/dtailocal/mercs_python/src/core",
      "create_time": 1517847028.38,
      "cpu_times": {
        "user": 1.63,
        "system": 0.24
      }
    },
    "logfile": "/cw/dtailocal/mercs_python/out/268/scm20d/logs/mercspython_Log_F05",
    "command": "python /cw/dtailocal/mercs_python/bin/mercspython.py /cw/dtailocal/mercs_python/out/268/scm20d/settings/mercspython_Settings_F05.s"
  }
},
{
  "ts": "2018-02-05T16:40:02.021338",
  "type": "INFO",
  "values": {
    "cmd": "python /cw/dtailocal/mercs_python/bin/mercspython.py /cw/dtailocal/mercs_python/out/268/scm20d/settings/mercspython_Settings_F05.s",
    "cwd": null
  }
},
{
  "ts": "2018-02-05T16:40:02.053527",
  "type": "INFO",
  "values": "Start: Run process"
},
{
  "ts": "2018-02-05T16:40:02.099794",
  "type": "INFO",
  "values": "Write log to /cw/dtailocal/mercs_python/out/268/scm20d/logs/mercspython_Log_F05.running.log"
},
{
  "ts": "2018-02-05T16:46:24.208443",
  "type": "INFO",
  "values": "Process ended (returncode 0)"
},
{
  "ts": "2018-02-05T16:46:24.208522",
  "type": "INFO",
  "values": "Finished: Run process 382.155 seconds"
},
{
  "ts": "2018-02-05T16:46:24.208597",
  "type": "WARNING",
  "values": {
    "Exit": "finished",
    "Returncode": 0,
    "Time": 382.1550214290619
  }
},
{
  "ts": "2018-02-05T16:46:24.223819",
  "type": "INFO",
  "values": "Closing /cw/dtailocal/mercs_python/out/268/scm20d/logs/mercspython_Log_F05.running.log"
}
]
