[
{
  "ts": "2018-02-06T12:14:50.422663",
  "type": "SETTINGS",
  "values": {
    "date": "2018/02/06 13:14:50",
    "date_iso": "2018-02-06T13:14:50.421752",
    "params": null,
    "system": {
      "nodename": "gibson",
      "machine": "x86_64",
      "platform": "Linux-4.4.0-112-generic-x86_64-with-debian-stretch-sid",
      "processor": "x86_64",
      "version": "#135-Ubuntu SMP Fri Jan 19 11:48:36 UTC 2018",
      "system": "Linux",
      "cpu_count": 8,
      "cpu_times": {
        "user": 345338.88,
        "system": 20939.93,
        "idle": 7978610.1,
        "nice": 821.4
      },
      "cpu_percent": 87.1,
      "virtual_memory": {
        "total": 33618501632,
        "available": 22942044160,
        "percent": 31.8,
        "used": 9677824000,
        "free": 10682798080
      }
    },
    "process": {
      "username": "evgeniya",
      "cwd": "/cw/dtailocal/mercs_python/src/core",
      "create_time": 1517919273.56,
      "cpu_times": {
        "user": 1.39,
        "system": 0.78
      }
    },
    "logfile": "/cw/dtailocal/mercs_python/out/626/jura/logs/mercspython_Log_F08",
    "command": "python /cw/dtailocal/mercs_python/bin/mercspython.py /cw/dtailocal/mercs_python/out/626/jura/settings/mercspython_Settings_F08.s"
  }
},
{
  "ts": "2018-02-06T12:14:50.422821",
  "type": "INFO",
  "values": {
    "cmd": "python /cw/dtailocal/mercs_python/bin/mercspython.py /cw/dtailocal/mercs_python/out/626/jura/settings/mercspython_Settings_F08.s",
    "cwd": null
  }
},
{
  "ts": "2018-02-06T12:14:50.426022",
  "type": "INFO",
  "values": "Start: Run process"
},
{
  "ts": "2018-02-06T12:14:50.426458",
  "type": "INFO",
  "values": "Write log to /cw/dtailocal/mercs_python/out/626/jura/logs/mercspython_Log_F08.running.log"
},
{
  "ts": "2018-02-06T12:14:52.236017",
  "type": "INFO",
  "values": "Process ended (returncode 0)"
},
{
  "ts": "2018-02-06T12:14:52.236077",
  "type": "INFO",
  "values": "Finished: Run process 1.810 seconds"
},
{
  "ts": "2018-02-06T12:14:52.236131",
  "type": "WARNING",
  "values": {
    "Exit": "finished",
    "Returncode": 0,
    "Time": 1.8100769519805908
  }
},
{
  "ts": "2018-02-06T12:14:52.236398",
  "type": "INFO",
  "values": "Closing /cw/dtailocal/mercs_python/out/626/jura/logs/mercspython_Log_F08.running.log"
}
]
