[
{
  "ts": "2018-02-06T12:14:38.349493",
  "type": "SETTINGS",
  "values": {
    "date": "2018/02/06 13:14:38",
    "date_iso": "2018-02-06T13:14:38.348537",
    "params": null,
    "system": {
      "nodename": "gibson",
      "machine": "x86_64",
      "platform": "Linux-4.4.0-112-generic-x86_64-with-debian-stretch-sid",
      "processor": "x86_64",
      "version": "#135-Ubuntu SMP Fri Jan 19 11:48:36 UTC 2018",
      "system": "Linux",
      "cpu_count": 8,
      "cpu_times": {
        "user": 345258.28,
        "system": 20937.5,
        "idle": 7978596.94,
        "nice": 821.4
      },
      "cpu_percent": 79.0,
      "virtual_memory": {
        "total": 33618501632,
        "available": 22304542720,
        "percent": 33.7,
        "used": 10315341824,
        "free": 10053668864
      }
    },
    "process": {
      "username": "evgeniya",
      "cwd": "/cw/dtailocal/mercs_python/src/core",
      "create_time": 1517919273.56,
      "cpu_times": {
        "user": 0.77,
        "system": 0.21
      }
    },
    "logfile": "/cw/dtailocal/mercs_python/out/626/jura/logs/mercspython_Log_F02",
    "command": "python /cw/dtailocal/mercs_python/bin/mercspython.py /cw/dtailocal/mercs_python/out/626/jura/settings/mercspython_Settings_F02.s"
  }
},
{
  "ts": "2018-02-06T12:14:38.349645",
  "type": "INFO",
  "values": {
    "cmd": "python /cw/dtailocal/mercs_python/bin/mercspython.py /cw/dtailocal/mercs_python/out/626/jura/settings/mercspython_Settings_F02.s",
    "cwd": null
  }
},
{
  "ts": "2018-02-06T12:14:38.353199",
  "type": "INFO",
  "values": "Start: Run process"
},
{
  "ts": "2018-02-06T12:14:38.355777",
  "type": "INFO",
  "values": "Write log to /cw/dtailocal/mercs_python/out/626/jura/logs/mercspython_Log_F02.running.log"
},
{
  "ts": "2018-02-06T12:14:40.166005",
  "type": "INFO",
  "values": "Process ended (returncode 0)"
},
{
  "ts": "2018-02-06T12:14:40.166082",
  "type": "INFO",
  "values": "Finished: Run process 1.813 seconds"
},
{
  "ts": "2018-02-06T12:14:40.166162",
  "type": "WARNING",
  "values": {
    "Exit": "finished",
    "Returncode": 0,
    "Time": 1.8129091262817383
  }
}
]
