[
{
  "ts": "2018-02-05T17:12:20.897237",
  "type": "SETTINGS",
  "values": {
    "date": "2018/02/05 18:12:20",
    "date_iso": "2018-02-05T18:12:20.896332",
    "params": null,
    "system": {
      "nodename": "gibson",
      "machine": "x86_64",
      "platform": "Linux-4.4.0-112-generic-x86_64-with-debian-stretch-sid",
      "processor": "x86_64",
      "version": "#135-Ubuntu SMP Fri Jan 19 11:48:36 UTC 2018",
      "system": "Linux",
      "cpu_count": 8,
      "cpu_times": {
        "user": 141920.95,
        "system": 18668.52,
        "idle": 7637234.67,
        "nice": 751.58
      },
      "cpu_percent": 100.0,
      "virtual_memory": {
        "total": 33618501632,
        "available": 22062125056,
        "percent": 34.4,
        "used": 10575888384,
        "free": 4815269888
      }
    },
    "process": {
      "username": "evgeniya",
      "cwd": "/cw/dtailocal/mercs_python/src/core",
      "create_time": 1517850714.43,
      "cpu_times": {
        "user": 1.1,
        "system": 0.16
      }
    },
    "logfile": "/cw/dtailocal/mercs_python/out/343/andro/logs/mercspython_Log_F07",
    "command": "python /cw/dtailocal/mercs_python/bin/mercspython.py /cw/dtailocal/mercs_python/out/343/andro/settings/mercspython_Settings_F07.s"
  }
},
{
  "ts": "2018-02-05T17:12:20.897390",
  "type": "INFO",
  "values": {
    "cmd": "python /cw/dtailocal/mercs_python/bin/mercspython.py /cw/dtailocal/mercs_python/out/343/andro/settings/mercspython_Settings_F07.s",
    "cwd": null
  }
},
{
  "ts": "2018-02-05T17:12:20.924988",
  "type": "INFO",
  "values": "Start: Run process"
},
{
  "ts": "2018-02-05T17:12:20.964324",
  "type": "INFO",
  "values": "Write log to /cw/dtailocal/mercs_python/out/343/andro/logs/mercspython_Log_F07.running.log"
},
{
  "ts": "2018-02-05T17:12:24.573847",
  "type": "INFO",
  "values": "Process ended (returncode 0)"
},
{
  "ts": "2018-02-05T17:12:24.573932",
  "type": "INFO",
  "values": "Finished: Run process 3.649 seconds"
},
{
  "ts": "2018-02-05T17:12:24.574015",
  "type": "WARNING",
  "values": {
    "Exit": "finished",
    "Returncode": 0,
    "Time": 3.648970365524292
  }
}
]
