[
{
  "ts": "2018-02-05T21:22:39.862077",
  "type": "SETTINGS",
  "values": {
    "date": "2018/02/05 22:22:39",
    "date_iso": "2018-02-05T22:22:39.861276",
    "params": null,
    "system": {
      "nodename": "gibson",
      "machine": "x86_64",
      "platform": "Linux-4.4.0-112-generic-x86_64-with-debian-stretch-sid",
      "processor": "x86_64",
      "version": "#135-Ubuntu SMP Fri Jan 19 11:48:36 UTC 2018",
      "system": "Linux",
      "cpu_count": 8,
      "cpu_times": {
        "user": 241213.16,
        "system": 19402.97,
        "idle": 7657211.72,
        "nice": 759.22
      },
      "cpu_percent": 50.5,
      "virtual_memory": {
        "total": 33618501632,
        "available": 23342006272,
        "percent": 30.6,
        "used": 9254592512,
        "free": 14427136000
      }
    },
    "process": {
      "username": "evgeniya",
      "cwd": "/cw/dtailocal/mercs_python/src/core",
      "create_time": 1517862590.29,
      "cpu_times": {
        "user": 2.81,
        "system": 0.43
      }
    },
    "logfile": "/cw/dtailocal/mercs_python/out/267/scm1d/logs/mercspython_Log_F02",
    "command": "python /cw/dtailocal/mercs_python/bin/mercspython.py /cw/dtailocal/mercs_python/out/267/scm1d/settings/mercspython_Settings_F02.s"
  }
},
{
  "ts": "2018-02-05T21:22:39.862224",
  "type": "INFO",
  "values": {
    "cmd": "python /cw/dtailocal/mercs_python/bin/mercspython.py /cw/dtailocal/mercs_python/out/267/scm1d/settings/mercspython_Settings_F02.s",
    "cwd": null
  }
},
{
  "ts": "2018-02-05T21:22:39.866909",
  "type": "INFO",
  "values": "Start: Run process"
},
{
  "ts": "2018-02-05T21:22:39.867347",
  "type": "INFO",
  "values": "Write log to /cw/dtailocal/mercs_python/out/267/scm1d/logs/mercspython_Log_F02.running.log"
},
{
  "ts": "2018-02-05T21:47:23.021758",
  "type": "INFO",
  "values": "Process ended (returncode 0)"
},
{
  "ts": "2018-02-05T21:47:23.021819",
  "type": "INFO",
  "values": "Finished: Run process 1483.155 seconds"
},
{
  "ts": "2018-02-05T21:47:23.021874",
  "type": "WARNING",
  "values": {
    "Exit": "finished",
    "Returncode": 0,
    "Time": 1483.15496134758
  }
},
{
  "ts": "2018-02-05T21:47:23.022141",
  "type": "INFO",
  "values": "Closing /cw/dtailocal/mercs_python/out/267/scm1d/logs/mercspython_Log_F02.running.log"
}
]
