Var0,Var1,Var2,Var3,Var4,Var5,Var6,Var7,Var8,Var9,Var10,Var11,Var12,Var13,Var14,Var15,Var16,Var17
0.17241379310344765,0.10256410256410256,0.2636363636363637,0.2888888888888889,0.7300000000000004,0.39473684210526316,0.07619047619047616,0.03896103896103896,0.0,0.5599999999999999,0.0,0.34042553191489366,0.7333333333333331,0.9729729729729729,0.0,0.39560439560439564,0.5,1.0
0.4827586206896555,0.25641025641025644,0.5,0.37777777777777777,0.45999999999999996,0.368421052631579,0.4809523809523809,0.4415584415584416,0.285714285714285,0.48000000000000004,0.1839080459770115,0.4042553191489362,0.8133333333333338,0.5675675675675675,0.1802325581395348,0.4175824175824176,1.0,0.5
0.4827586206896555,0.25641025641025644,0.5,0.37777777777777777,0.45999999999999996,0.368421052631579,0.4809523809523809,0.4415584415584416,0.285714285714285,0.48000000000000004,0.1839080459770115,0.4042553191489362,0.8133333333333338,0.5675675675675675,0.1802325581395348,0.4175824175824176,1.0,0.5
0.258620689655173,0.1794871794871795,0.4909090909090909,0.6222222222222222,0.4800000000000004,0.6052631578947368,0.27142857142857135,0.4675324675324675,0.314285714285713,0.4,0.26436781609195403,0.46808510638297873,0.7200000000000001,0.5135135135135135,0.26162790697674415,0.38461538461538464,0.5,1.0
0.6896551724137936,0.23076923076923075,0.7818181818181819,0.3111111111111111,0.1800000000000006,0.47368421052631576,0.7285714285714284,0.45454545454545453,0.6571428571428565,0.4,0.5517241379310346,0.4893617021276596,0.4400000000000001,0.6216216216216216,0.5755813953488372,0.40659340659340665,0.5,0.5
0.758620689655173,0.23076923076923075,0.9545454545454547,0.08888888888888889,0.020000000000000462,0.0,0.7238095238095238,0.3766233766233766,0.7999999999999989,0.6,0.9195402298850577,0.21276595744680854,0.0266666666666661,0.16216216216216217,0.7732558139534883,0.4285714285714286,0.5,0.5
0.8620689655172413,0.12820512820512822,0.9272727272727274,0.044444444444444446,0.020000000000000462,0.0,0.5666666666666667,0.24675324675324675,0.8857142857142855,0.5599999999999999,0.9195402298850577,0.19148936170212766,0.0266666666666661,0.16216216216216217,0.7616279069767441,0.4285714285714286,0.0,0.5
0.8620689655172413,0.12820512820512822,0.9272727272727274,0.044444444444444446,0.020000000000000462,0.0,0.5666666666666667,0.24675324675324675,0.8857142857142855,0.5599999999999999,0.9195402298850577,0.19148936170212766,0.0266666666666661,0.16216216216216217,0.7616279069767441,0.4285714285714286,0.0,0.5
0.8793103448275857,0.05128205128205128,0.9181818181818183,0.022222222222222223,0.020000000000000462,0.0,0.519047619047619,0.11688311688311688,0.9142857142857135,0.5599999999999999,0.9310344827586209,0.14893617021276598,0.0,0.02702702702702703,0.7616279069767441,0.40659340659340665,0.0,0.5
0.9137931034482761,0.07692307692307691,0.9000000000000001,0.06666666666666667,0.020000000000000462,0.0,0.49047619047619045,0.12987012987012989,0.9428571428571441,0.52,0.9195402298850577,0.14893617021276598,0.0,0.02702702702702703,0.7325581395348837,0.4175824175824176,0.0,0.5
0.8448275862068968,0.1794871794871795,0.9181818181818183,0.08888888888888889,0.020000000000000462,0.0,0.4809523809523809,0.09090909090909091,0.971428571428572,0.52,0.9195402298850577,0.14893617021276598,0.0,0.02702702702702703,0.7034883720930231,0.40659340659340665,0.0,0.5
0.6724137931034476,0.20512820512820512,0.9727272727272729,0.06666666666666667,0.08000000000000007,0.21052631578947367,0.7095238095238093,0.5714285714285714,1.0,0.52,0.9195402298850577,0.14893617021276598,0.0266666666666661,0.13513513513513514,0.6511627906976744,0.37362637362637363,0.5,0.0
0.6551724137931032,0.23076923076923075,0.9727272727272729,0.06666666666666667,0.08000000000000007,0.21052631578947367,0.7857142857142856,0.5324675324675324,1.0,0.52,0.9195402298850577,0.14893617021276598,0.0266666666666661,0.13513513513513514,0.6569767441860466,0.38461538461538464,0.5,0.0
0.6206896551724143,0.12820512820512822,0.9727272727272729,0.044444444444444446,0.020000000000000462,0.0,0.738095238095238,0.20779220779220778,0.8571428571428575,0.32,0.9425287356321841,0.08510638297872342,0.01333333333333305,0.13513513513513514,0.680232558139535,0.3626373626373626,0.5,0.0
0.5,0.20512820512820512,0.6363636363636364,0.4444444444444445,0.5800000000000001,0.47368421052631576,0.8238095238095238,0.10389610389610389,0.6571428571428565,0.32,0.7126436781609197,0.6595744680851064,0.426666666666667,1.0,0.8488372093023254,0.19780219780219782,1.0,0.5
0.43103448275862066,0.23076923076923075,0.41818181818181827,0.35555555555555557,0.6200000000000001,0.5789473684210527,0.557142857142857,0.4675324675324675,0.6000000000000005,0.4,0.5287356321839081,0.6595744680851064,0.6533333333333337,0.891891891891892,0.7616279069767441,0.3626373626373626,1.0,0.5
0.4827586206896555,0.12820512820512822,0.4909090909090909,0.19999999999999998,0.6600000000000001,0.368421052631579,0.8714285714285714,0.14285714285714285,0.514285714285714,0.48000000000000004,0.4367816091954024,0.5531914893617021,0.706666666666667,0.6756756756756757,0.7034883720930231,0.4835164835164835,0.5,1.0
0.3965517241379302,0.15384615384615383,0.6454545454545455,0.4888888888888889,0.4800000000000004,0.47368421052631576,0.45714285714285713,0.5064935064935066,0.45714285714285546,0.48000000000000004,0.4252873563218391,0.5531914893617021,0.6933333333333328,0.5675675675675675,0.5813953488372092,0.6043956043956044,1.0,0.5
0.7758620689655175,0.358974358974359,0.6545454545454547,0.5777777777777778,0.4800000000000004,1.0,0.8761904761904761,0.6753246753246753,0.771428571428571,0.76,0.5057471264367817,0.5957446808510639,0.8266666666666668,0.7297297297297298,0.7325581395348837,0.6593406593406593,1.0,0.5
0.7758620689655175,0.358974358974359,0.6545454545454547,0.5777777777777778,0.4800000000000004,1.0,0.8761904761904761,0.6753246753246753,0.771428571428571,0.76,0.5057471264367817,0.5957446808510639,0.8266666666666668,0.7297297297297298,0.7325581395348837,0.6593406593406593,1.0,0.5
0.7758620689655175,0.358974358974359,0.6545454545454547,0.5777777777777778,0.4800000000000004,1.0,0.8761904761904761,0.6753246753246753,0.771428571428571,0.76,0.5057471264367817,0.5957446808510639,0.8266666666666668,0.7297297297297298,0.7325581395348837,0.6593406593406593,1.0,0.5
0.7758620689655175,0.48717948717948717,0.8545454545454546,0.3333333333333333,0.3200000000000003,0.6052631578947368,0.780952380952381,0.2857142857142857,0.9142857142857135,0.48000000000000004,0.8045977011494253,0.4255319148936171,0.5199999999999996,0.7297297297297298,0.9011627906976745,0.29670329670329676,0.5,0.0
0.5689655172413793,0.05128205128205128,0.9909090909090909,0.0,0.08000000000000007,0.21052631578947367,0.8523809523809524,0.051948051948051945,0.8571428571428575,0.44,0.9080459770114944,0.23404255319148937,0.41333333333333283,0.6486486486486487,0.8895348837209303,0.15384615384615388,0.5,0.0
0.534482758620689,0.23076923076923075,0.1181818181818182,0.13333333333333333,1.0,0.07894736842105263,1.0,0.3896103896103896,0.771428571428571,0.32,0.5632183908045978,0.8297872340425533,0.8533333333333329,0.7027027027027027,0.9709302325581396,0.27472527472527475,1.0,0.5
0.6724137931034476,0.41025641025641024,0.5818181818181819,1.0,0.7400000000000002,0.8421052631578947,0.8238095238095238,0.2727272727272727,0.8285714285714295,0.36000000000000004,0.5632183908045978,0.8510638297872342,0.8533333333333329,0.7837837837837838,0.9709302325581396,0.29670329670329676,1.0,0.5
0.534482758620689,0.4615384615384615,0.3545454545454546,0.5777777777777778,0.5900000000000007,0.8421052631578947,0.6333333333333333,0.5584415584415584,0.714285714285715,0.48000000000000004,0.3563218390804597,0.8085106382978724,0.8800000000000002,0.8108108108108107,0.8662790697674418,0.4175824175824176,0.5,1.0
0.3275862068965524,0.3333333333333333,0.42727272727272736,0.7555555555555555,0.6500000000000004,0.5789473684210527,0.49047619047619045,0.935064935064935,0.4285714285714275,0.48000000000000004,0.3333333333333334,0.5957446808510639,0.7733333333333334,0.6486486486486487,0.6569767441860466,0.5494505494505495,0.5,1.0
0.31034482758620635,0.12820512820512822,0.5181818181818182,0.6666666666666666,0.5700000000000003,0.631578947368421,0.43809523809523804,0.35064935064935066,0.228571428571429,0.32,0.2873563218390805,0.6595744680851064,0.8266666666666668,0.6216216216216216,0.505813953488372,0.5714285714285715,0.5,1.0
0.4827586206896555,0.3846153846153846,0.5545454545454546,0.7777777777777777,0.5900000000000007,0.5789473684210527,0.5999999999999999,0.45454545454545453,0.257142857142857,0.44,0.32183908045977017,0.7021276595744682,0.8266666666666668,0.6216216216216216,0.47674418604651153,0.6043956043956044,1.0,0.5
0.4827586206896555,0.3846153846153846,0.5545454545454546,0.7777777777777777,0.5900000000000007,0.5789473684210527,0.5999999999999999,0.45454545454545453,0.257142857142857,0.44,0.32183908045977017,0.7021276595744682,0.8266666666666668,0.6216216216216216,0.47674418604651153,0.6043956043956044,1.0,0.5
0.7758620689655175,0.7435897435897435,0.6363636363636364,0.6222222222222222,0.4300000000000006,0.6052631578947368,0.619047619047619,0.4415584415584416,0.3714285714285715,0.7999999999999999,0.3448275862068965,0.6808510638297873,0.7733333333333334,0.6756756756756757,0.4651162790697675,0.5824175824175825,1.0,0.5
0.7758620689655175,0.7435897435897435,0.6363636363636364,0.6222222222222222,0.4300000000000006,0.6052631578947368,0.619047619047619,0.4415584415584416,0.3714285714285715,0.7999999999999999,0.3448275862068965,0.6808510638297873,0.7733333333333334,0.6756756756756757,0.4651162790697675,0.5824175824175825,1.0,0.5
0.758620689655173,0.23076923076923075,0.9272727272727274,0.06666666666666667,0.010000000000000675,0.0,0.5761904761904761,0.14285714285714285,0.6571428571428565,0.76,0.632183908045977,0.6808510638297873,0.41333333333333283,0.918918918918919,0.5988372093023256,0.37362637362637363,0.5,0.0
0.8965517241379302,0.28205128205128205,0.890909090909091,0.08888888888888889,0.010000000000000675,0.0,0.4857142857142857,0.12987012987012989,0.8571428571428575,0.72,0.7356321839080461,0.5531914893617021,0.2533333333333327,0.7837837837837838,0.6162790697674417,0.31868131868131877,0.5,0.0
0.6551724137931032,0.1794871794871795,0.9636363636363638,0.11111111111111112,0.1200000000000001,0.1842105263157895,0.7523809523809524,0.5324675324675324,0.8285714285714295,0.36000000000000004,0.9655172413793106,0.10638297872340427,0.22666666666666657,0.35135135135135137,0.8720930232558138,0.3406593406593407,0.5,0.5
0.4827586206896555,0.1794871794871795,0.2636363636363637,0.2888888888888889,0.8800000000000008,0.1842105263157895,0.780952380952381,0.7922077922077921,0.742857142857143,0.32,0.574712643678161,0.7021276595744682,0.9466666666666667,0.7027027027027027,0.9651162790697674,0.37362637362637363,1.0,0.5
0.7241379310344825,0.10256410256410256,0.9727272727272729,0.044444444444444446,0.5600000000000005,0.42105263157894735,0.9666666666666666,0.025974025974025972,0.9142857142857135,0.24000000000000002,0.885057471264368,0.2553191489361702,0.7600000000000003,0.4594594594594595,1.0,0.13186813186813187,0.5,0.5
0.4137931034482762,0.25641025641025644,0.5636363636363637,0.35555555555555557,0.5500000000000007,0.39473684210526316,0.35238095238095235,0.3116883116883117,0.6000000000000005,0.48000000000000004,0.6091954022988507,0.7021276595744682,0.6933333333333328,0.7027027027027027,0.691860465116279,0.6263736263736264,0.5,0.5
0.17241379310344765,0.25641025641025644,0.3454545454545455,0.6888888888888889,0.6900000000000004,0.5789473684210527,0.18571428571428567,0.6493506493506493,0.314285714285713,0.5599999999999999,0.3333333333333334,0.6595744680851064,0.8266666666666668,0.6486486486486487,0.4593023255813954,0.7362637362637362,1.0,0.5
0.29310344827586193,0.25641025641025644,0.31818181818181823,0.4666666666666666,0.6800000000000006,0.47368421052631576,0.2952380952380952,0.7142857142857143,0.39999999999999947,0.4,0.3448275862068965,0.574468085106383,0.8399999999999999,0.5405405405405406,0.5465116279069766,0.6483516483516484,0.5,1.0
0.6551724137931032,0.05128205128205128,0.9363636363636365,0.24444444444444444,0.4500000000000002,0.13157894736842105,0.9476190476190475,0.051948051948051945,0.714285714285715,0.04,0.9540229885057473,0.14893617021276598,0.16000000000000014,0.48648648648648646,0.8953488372093023,0.18681318681318684,0.5,0.5
0.8275862068965508,0.48717948717948717,0.9000000000000001,0.13333333333333333,0.10000000000000053,0.2894736842105263,0.6761904761904761,0.4805194805194805,0.8285714285714295,0.44,0.9540229885057473,0.10638297872340427,0.05333333333333338,0.1891891891891892,0.8023255813953489,0.27472527472527475,0.5,0.5
0.5862068965517239,0.10256410256410256,0.981818181818182,0.044444444444444446,0.020000000000000462,0.0,0.7904761904761906,0.25974025974025977,0.8285714285714295,0.44,0.9540229885057473,0.1276595744680851,0.09333333333333371,0.3783783783783784,0.7965116279069767,0.2527472527472528,0.5,0.0
0.37931034482758574,0.10256410256410256,0.43636363636363645,0.24444444444444444,0.6699999999999999,0.2894736842105263,0.5,0.2207792207792208,0.542857142857142,0.48000000000000004,0.5287356321839081,0.574468085106383,0.6799999999999997,0.6486486486486487,0.680232558139535,0.5274725274725275,0.5,1.0
0.4137931034482762,0.23076923076923075,0.5272727272727273,0.5555555555555556,0.5200000000000005,0.5789473684210527,0.5142857142857142,0.4935064935064935,0.314285714285713,0.19999999999999998,0.367816091954023,0.4468085106382979,0.7999999999999995,0.5135135135135135,0.49418604651162784,0.31868131868131877,0.5,1.0
0.43103448275862066,0.12820512820512822,0.5545454545454546,0.5777777777777778,0.5,0.7105263157894737,0.7238095238095238,0.2987012987012987,0.39999999999999947,0.24000000000000002,0.39080459770114945,0.574468085106383,0.7466666666666661,0.6216216216216216,0.5523255813953488,0.5494505494505495,0.5,1.0
0.7758620689655175,0.28205128205128205,0.9545454545454547,0.06666666666666667,0.020000000000000462,0.0,0.6761904761904761,0.20779220779220778,0.8285714285714295,0.4,0.9540229885057473,0.08510638297872342,0.01333333333333305,0.10810810810810811,0.7499999999999999,0.15384615384615388,0.5,0.0
0.6551724137931032,0.10256410256410256,0.981818181818182,0.044444444444444446,0.020000000000000462,0.0,0.7523809523809524,0.15584415584415584,0.8285714285714295,0.4,0.9540229885057473,0.1276595744680851,0.01333333333333305,0.13513513513513514,0.6453488372093024,0.29670329670329676,0.5,0.0
0.5862068965517239,0.05128205128205128,0.9909090909090909,0.0,0.20999999999999996,0.13157894736842105,0.938095238095238,0.051948051948051945,0.6857142857142845,0.32,0.9195402298850577,0.2765957446808511,0.35999999999999943,0.5945945945945946,0.8488372093023254,0.38461538461538464,0.5,0.5
1.0,1.0,0.8363636363636364,0.35555555555555557,0.3200000000000003,0.13157894736842105,0.7666666666666666,0.6233766233766234,0.742857142857143,1.0,0.6896551724137931,0.6808510638297873,0.4400000000000001,0.7297297297297298,0.6976744186046512,0.6043956043956044,0.5,0.5
0.6206896551724143,0.12820512820512822,0.9727272727272729,0.044444444444444446,0.16000000000000014,0.5263157894736842,0.7714285714285715,0.36363636363636365,0.714285714285715,0.24000000000000002,0.9540229885057473,0.10638297872340427,0.18666666666666623,0.4054054054054054,0.9127906976744187,0.2417582417582418,0.5,0.5
0.5862068965517239,0.02564102564102564,0.9909090909090909,0.0,0.05000000000000071,0.1842105263157895,0.7523809523809524,0.45454545454545453,0.771428571428571,0.4,0.9425287356321841,0.17021276595744683,0.05333333333333338,0.21621621621621623,0.7848837209302325,0.3626373626373626,0.5,0.0
0.534482758620689,0.02564102564102564,0.9909090909090909,0.0,0.05000000000000071,0.07894736842105263,0.838095238095238,0.09090909090909091,0.771428571428571,0.16,0.9195402298850577,0.21276595744680854,0.4800000000000004,0.5945945945945946,0.941860465116279,0.16483516483516483,0.5,0.0
0.241379310344827,0.20512820512820512,0.42727272727272736,0.6888888888888889,0.5800000000000001,0.7894736842105263,0.21904761904761902,0.3116883116883117,0.6285714285714284,0.9199999999999999,0.5057471264367817,0.7021276595744682,0.8133333333333338,0.6756756756756757,0.5988372093023256,0.8351648351648352,0.5,1.0
0.741379310344827,0.23076923076923075,0.9454545454545455,0.11111111111111112,0.45999999999999996,0.5,0.8904761904761905,0.25974025974025977,0.8285714285714295,0.32,0.9195402298850577,0.23404255319148937,0.4666666666666662,0.7837837837837838,0.9011627906976745,0.19780219780219782,0.5,0.5
0.6379310344827587,0.07692307692307691,0.8636363636363636,0.37777777777777777,0.5,0.736842105263158,0.9523809523809523,0.20779220779220778,0.1714285714285705,0.52,0.2758620689655173,0.8297872340425533,0.8933333333333332,0.7297297297297298,0.313953488372093,0.8131868131868133,0.5,0.5
0.5517241379310349,0.02564102564102564,0.9909090909090909,0.0,0.020000000000000462,0.02631578947368421,0.9047619047619047,0.0,0.6285714285714284,0.32,0.8735632183908048,0.5531914893617021,0.23999999999999963,0.6486486486486487,0.8313953488372092,0.5934065934065934,0.5,0.5
0.5862068965517239,0.05128205128205128,0.9272727272727274,0.24444444444444444,0.3100000000000005,0.39473684210526316,0.938095238095238,0.10389610389610389,0.6857142857142845,0.28,0.7471264367816093,0.5106382978723404,0.5199999999999996,0.6486486486486487,0.8604651162790696,0.40659340659340665,0.5,0.5
0.15517241379310318,0.4615384615384615,0.1090909090909091,0.5555555555555556,0.8900000000000006,0.631578947368421,0.2619047619047619,0.935064935064935,0.514285714285714,0.6,0.6091954022988507,0.8936170212765958,0.5733333333333329,0.891891891891892,0.7732558139534883,0.7582417582417582,0.5,0.5
0.0,0.05128205128205128,0.0,0.044444444444444446,1.0,0.05263157894736842,0.0,0.07792207792207792,0.342857142857141,0.72,0.3563218390804597,1.0,0.7600000000000003,1.0,0.569767441860465,1.0,0.5,1.0
0.9137931034482761,0.641025641025641,0.9272727272727274,0.2888888888888889,0.34000000000000075,0.868421052631579,0.8047619047619047,0.40259740259740256,0.7999999999999989,0.5599999999999999,0.885057471264368,0.3617021276595745,0.3733333333333337,0.6486486486486487,0.9767441860465116,0.2197802197802198,0.5,0.5
0.6206896551724143,0.07692307692307691,0.9090909090909092,0.24444444444444444,0.41000000000000014,0.631578947368421,0.957142857142857,0.06493506493506494,0.742857142857143,0.32,0.9310344827586209,0.21276595744680854,0.3200000000000003,0.5135135135135135,0.9476744186046513,0.15384615384615388,0.5,0.5
0.534482758620689,0.15384615384615383,0.5636363636363637,0.4666666666666666,0.5,0.23684210526315788,0.5952380952380952,0.5974025974025974,0.514285714285714,0.36000000000000004,0.5172413793103449,0.8297872340425533,0.706666666666667,0.7027027027027027,0.6453488372093024,0.7582417582417582,0.5,1.0
0.5,0.1794871794871795,0.5454545454545455,0.4222222222222222,0.5,0.34210526315789475,0.619047619047619,0.4675324675324675,0.485714285714286,0.36000000000000004,0.367816091954023,0.7021276595744682,0.7866666666666665,0.5945945945945946,0.5465116279069766,0.6923076923076924,1.0,0.5
0.13793103448275873,0.10256410256410256,0.17272727272727276,0.26666666666666666,0.8500000000000005,0.23684210526315788,0.24285714285714285,0.5194805194805195,0.314285714285713,0.4,0.24137931034482757,0.574468085106383,0.8266666666666668,0.5945945945945946,0.436046511627907,0.5274725274725275,0.5,1.0
0.7758620689655175,0.25641025641025644,0.9363636363636365,0.13333333333333333,0.020000000000000462,0.02631578947368421,0.6714285714285715,0.40259740259740256,0.742857142857143,0.32,0.885057471264368,0.3617021276595745,0.11999999999999982,0.5945945945945946,0.7209302325581396,0.29670329670329676,0.5,0.0
0.6206896551724143,0.1794871794871795,0.9727272727272729,0.044444444444444446,0.010000000000000675,0.0,0.7190476190476189,0.15584415584415584,0.7999999999999989,0.28,0.9540229885057473,0.08510638297872342,0.01333333333333305,0.10810810810810811,0.7325581395348837,0.2527472527472528,0.5,0.0
0.6724137931034476,0.20512820512820512,0.9545454545454547,0.13333333333333333,0.020000000000000462,0.02631578947368421,0.7333333333333333,0.3116883116883117,0.6571428571428565,0.16,0.9655172413793106,0.10638297872340427,0.01333333333333305,0.10810810810810811,0.8313953488372092,0.17582417582417584,0.5,0.0
0.534482758620689,0.02564102564102564,0.9909090909090909,0.0,0.05000000000000071,0.07894736842105263,0.9047619047619047,0.051948051948051945,0.6571428571428565,0.16,0.9770114942528738,0.06382978723404255,0.01333333333333305,0.05405405405405406,0.8720930232558138,0.18681318681318684,0.5,0.0
0.36206896551724127,0.12820512820512822,0.4000000000000001,0.22222222222222224,0.6600000000000001,0.2631578947368421,0.38095238095238093,0.4805194805194805,0.57142857142857,0.32,0.6206896551724139,0.5319148936170213,0.5066666666666665,0.5945945945945946,0.686046511627907,0.5164835164835165,0.5,0.5
0.03448275862068892,0.12820512820512822,0.15454545454545454,0.26666666666666666,0.9199999999999999,0.23684210526315788,0.17142857142857137,0.5844155844155844,0.1142857142857145,0.36000000000000004,0.1839080459770115,0.6170212765957447,0.9599999999999996,0.5945945945945946,0.31976744186046513,0.6153846153846154,0.5,1.0
0.5862068965517239,0.02564102564102564,1.0,0.0,0.020000000000000462,0.0,0.8523809523809524,0.06493506493506494,0.6571428571428565,0.04,0.9770114942528738,0.10638297872340427,0.07999999999999947,0.24324324324324323,0.9127906976744187,0.17582417582417584,0.5,0.5
0.5517241379310349,0.0,1.0,0.0,0.020000000000000462,0.02631578947368421,0.9095238095238095,0.025974025974025972,0.6000000000000005,0.04,0.9770114942528738,0.08510638297872342,0.040000000000000334,0.21621621621621623,0.9011627906976745,0.17582417582417584,0.5,0.0
0.17241379310344765,0.30769230769230765,0.29090909090909095,0.6888888888888889,0.75,0.6578947368421053,0.13333333333333333,0.45454545454545453,0.342857142857141,0.48000000000000004,0.5977011494252874,0.8936170212765958,0.4800000000000004,0.9729729729729729,0.6395348837209301,0.9010989010989011,0.5,1.0
0.3275862068965524,0.1794871794871795,0.3727272727272728,0.4222222222222222,0.7000000000000002,0.368421052631579,0.4619047619047619,0.4415584415584416,0.39999999999999947,0.44,0.3563218390804597,0.6382978723404256,0.8533333333333329,0.5675675675675675,0.569767441860465,0.5714285714285715,0.5,1.0
0.4137931034482762,0.41025641025641024,0.3272727272727273,0.5555555555555556,0.7200000000000006,0.5,0.4142857142857142,0.5064935064935066,0.228571428571429,0.4,0.20689655172413796,0.5106382978723404,0.8933333333333332,0.5135135135135135,0.313953488372093,0.38461538461538464,0.5,1.0
0.5517241379310349,0.02564102564102564,0.9909090909090909,0.022222222222222223,0.0600000000000005,0.1842105263157895,0.8857142857142856,0.11688311688311688,0.6857142857142845,0.36000000000000004,0.7356321839080461,0.6170212765957447,0.35999999999999943,0.891891891891892,0.7965116279069767,0.31868131868131877,0.5,0.0
0.5517241379310349,0.02564102564102564,1.0,0.0,0.03000000000000025,0.0,0.8714285714285714,0.025974025974025972,0.6000000000000005,0.0,1.0,0.021276595744680854,0.01333333333333305,0.08108108108108109,0.9069767441860465,0.021978021978021983,0.5,0.0
0.5517241379310349,0.02564102564102564,1.0,0.0,0.07000000000000028,0.05263157894736842,0.9238095238095237,0.012987012987012986,0.6000000000000005,0.0,1.0,0.0,0.06666666666666643,0.08108108108108109,0.9709302325581396,0.0,0.5,0.5
0.22413793103448254,0.10256410256410256,0.2636363636363637,0.35555555555555557,0.7600000000000007,0.34210526315789475,0.07142857142857138,0.18181818181818182,0.3714285714285715,0.44,0.4942528735632184,0.9361702127659575,0.6000000000000002,0.9459459459459459,0.5116279069767441,0.9670329670329672,0.5,0.5
0.22413793103448254,0.10256410256410256,0.21818181818181823,0.15555555555555556,0.8300000000000001,0.10526315789473684,0.13333333333333333,0.25974025974025977,0.285714285714285,0.44,0.39080459770114945,0.9148936170212766,0.6933333333333328,0.9459459459459459,0.42441860465116277,0.9450549450549451,0.5,1.0
0.6034482758620683,0.05128205128205128,0.981818181818182,0.022222222222222223,0.020000000000000462,0.0,0.7904761904761906,0.11688311688311688,0.714285714285715,0.07999999999999999,0.9770114942528738,0.04255319148936171,0.01333333333333305,0.10810810810810811,0.7790697674418605,0.15384615384615388,0.5,0.5
0.6724137931034476,0.15384615384615383,0.981818181818182,0.022222222222222223,0.03000000000000025,0.02631578947368421,0.7714285714285715,0.07792207792207792,0.6857142857142845,0.16,0.9770114942528738,0.06382978723404255,0.0,0.02702702702702703,0.7906976744186047,0.19780219780219782,0.5,0.0
0.5517241379310349,0.02564102564102564,1.0,0.0,0.020000000000000462,0.0,0.9142857142857143,0.07792207792207792,0.6285714285714284,0.04,0.9885057471264368,0.08510638297872342,0.01333333333333305,0.10810810810810811,0.9011627906976745,0.15384615384615388,0.5,0.0
0.15517241379310318,0.15384615384615383,0.1,0.17777777777777778,0.9300000000000006,0.2894736842105263,0.3476190476190476,0.6753246753246753,0.39999999999999947,0.4,0.45977011494252884,0.8510638297872342,0.7600000000000003,0.8108108108108107,0.686046511627907,0.5384615384615385,0.5,1.0
0.5862068965517239,0.02564102564102564,1.0,0.0,0.020000000000000462,0.0,0.8714285714285714,0.025974025974025972,0.6571428571428565,0.04,1.0,0.0,0.01333333333333305,0.10810810810810811,0.9069767441860465,0.06593406593406594,0.5,0.5
0.534482758620689,0.02564102564102564,0.9909090909090909,0.0,0.010000000000000675,0.0,0.8476190476190475,0.03896103896103896,0.57142857142857,0.04,0.9885057471264368,0.04255319148936171,0.0,0.05405405405405406,0.8720930232558138,0.12087912087912091,0.5,0.0
0.46551724137930955,0.10256410256410256,0.5181818181818182,0.5777777777777778,0.6200000000000001,0.5526315789473684,0.7523809523809524,0.5454545454545454,0.342857142857141,0.19999999999999998,0.3333333333333334,0.3829787234042553,0.8266666666666668,0.4054054054054054,0.48837209302325574,0.39560439560439564,0.5,0.5
0.4482758620689651,0.1794871794871795,0.5909090909090909,0.37777777777777777,0.6500000000000004,0.34210526315789475,0.7142857142857143,0.2857142857142857,0.39999999999999947,0.19999999999999998,0.39080459770114945,0.46808510638297873,0.8266666666666668,0.48648648648648646,0.5581395348837208,0.4505494505494506,0.5,1.0
0.3448275862068968,0.23076923076923075,0.30909090909090914,0.39999999999999997,0.8100000000000005,0.13157894736842105,0.5333333333333332,0.8051948051948051,0.342857142857141,0.28,0.2758620689655173,0.5531914893617021,0.9333333333333336,0.5135135135135135,0.6511627906976744,0.4835164835164835,0.5,1.0
0.5,0.30769230769230765,0.5090909090909091,0.6222222222222222,0.5600000000000005,0.5,0.6476190476190475,0.7922077922077921,0.285714285714285,0.4,0.20689655172413796,0.5106382978723404,0.9466666666666667,0.48648648648648646,0.4534883720930233,0.6373626373626374,1.0,0.5
0.5517241379310349,0.02564102564102564,0.9909090909090909,0.0,0.03000000000000025,0.02631578947368421,0.9476190476190475,0.051948051948051945,0.57142857142857,0.0,0.9885057471264368,0.021276595744680854,0.0,0.02702702702702703,0.9593023255813954,0.021978021978021983,0.5,0.5
0.5517241379310349,0.02564102564102564,1.0,0.0,0.05000000000000071,0.05263157894736842,0.957142857142857,0.025974025974025972,0.6000000000000005,0.0,0.9885057471264368,0.021276595744680854,0.01333333333333305,0.05405405405405406,0.9651162790697674,0.03296703296703297,0.5,0.0
0.534482758620689,0.02564102564102564,1.0,0.022222222222222223,0.020000000000000462,0.02631578947368421,0.9238095238095237,0.09090909090909091,0.57142857142857,0.0,1.0,0.021276595744680854,0.01333333333333305,0.08108108108108109,0.9302325581395349,0.07692307692307694,0.5,0.0
0.258620689655173,0.23076923076923075,0.30909090909090914,0.37777777777777777,0.7000000000000002,0.42105263157894735,0.09999999999999998,0.41558441558441556,0.39999999999999947,0.44,0.5517241379310346,0.8510638297872342,0.49333333333333346,0.9729729729729729,0.5988372093023256,0.9340659340659341,0.5,0.5
0.6034482758620683,0.25641025641025644,0.7636363636363637,0.5333333333333333,0.3000000000000007,0.5526315789473684,0.6857142857142856,0.8441558441558442,0.19999999999999848,0.48000000000000004,0.20689655172413796,0.6808510638297873,0.8933333333333332,0.7567567567567568,0.22093023255813948,0.7032967032967034,0.5,0.5
0.241379310344827,0.23076923076923075,0.2545454545454546,0.4444444444444445,0.8400000000000007,0.2894736842105263,0.22857142857142856,0.6623376623376623,0.08571428571428398,0.28,0.06896551724137932,0.4042553191489362,1.0,0.3783783783783784,0.13372093023255813,0.5054945054945055,0.5,0.5
0.5517241379310349,0.0,0.9909090909090909,0.0,0.05000000000000071,0.05263157894736842,0.9238095238095237,0.012987012987012986,0.485714285714286,0.36000000000000004,0.6091954022988507,0.6808510638297873,0.49333333333333346,0.8648648648648649,0.7034883720930231,0.5054945054945055,0.5,0.5
0.258620689655173,0.10256410256410256,0.21818181818181823,0.3333333333333333,0.8000000000000007,0.368421052631579,0.19999999999999996,0.16883116883116883,0.285714285714285,0.36000000000000004,0.3793103448275862,0.8297872340425533,0.6933333333333328,0.891891891891892,0.4127906976744186,0.7472527472527473,0.5,0.5
0.5517241379310349,0.05128205128205128,0.981818181818182,0.044444444444444446,0.020000000000000462,0.0,0.7952380952380952,0.11688311688311688,0.57142857142857,0.28,0.7471264367816093,0.6170212765957447,0.35999999999999943,0.7837837837837838,0.7441860465116279,0.4505494505494506,0.5,0.5
0.534482758620689,0.0,0.9909090909090909,0.0,0.05000000000000071,0.07894736842105263,0.938095238095238,0.025974025974025972,0.485714285714286,0.32,0.632183908045977,0.7659574468085106,0.4800000000000004,0.891891891891892,0.7034883720930231,0.6813186813186813,0.5,0.5
0.6034482758620683,0.02564102564102564,0.9909090909090909,0.0,0.16999999999999993,0.1842105263157895,0.8857142857142856,0.07792207792207792,0.57142857142857,0.28,0.8045977011494253,0.4893617021276596,0.3733333333333337,0.6486486486486487,0.7151162790697673,0.4505494505494506,0.5,0.5
0.258620689655173,0.25641025641025644,0.30000000000000004,0.7999999999999999,0.7200000000000006,0.9210526315789473,0.3476190476190476,0.6883116883116883,0.39999999999999947,0.44,0.47126436781609204,0.8723404255319149,0.6933333333333328,0.9459459459459459,0.6337209302325582,0.7142857142857144,0.5,0.5
0.5517241379310349,0.02564102564102564,1.0,0.0,0.020000000000000462,0.0,0.8714285714285714,0.06493506493506494,0.6000000000000005,0.0,0.9885057471264368,0.08510638297872342,0.01333333333333305,0.10810810810810811,0.9069767441860465,0.09890109890109891,0.5,0.5
0.6896551724137936,0.1794871794871795,0.8272727272727273,0.26666666666666666,0.4300000000000006,0.39473684210526316,0.9047619047619047,0.15584415584415584,0.6571428571428565,0.19999999999999998,0.7701149425287357,0.4255319148936171,0.5199999999999996,0.5135135135135135,0.8488372093023254,0.17582417582417584,0.5,0.5
0.12068965517241427,0.15384615384615383,0.18181818181818182,0.4222222222222222,0.8600000000000003,0.368421052631579,0.10952380952380951,0.14285714285714285,0.228571428571429,0.52,0.20689655172413796,0.6382978723404256,0.9333333333333336,0.5405405405405406,0.3837209302325581,0.8241758241758242,0.5,1.0
0.3965517241379302,0.30769230769230765,0.31818181818181823,0.39999999999999997,0.7000000000000002,0.368421052631579,0.3095238095238095,0.4675324675324675,0.257142857142857,0.44,0.2873563218390805,0.7446808510638298,0.8266666666666668,0.7297297297297298,0.3662790697674418,0.6593406593406593,0.5,0.5
0.534482758620689,0.0,0.9909090909090909,0.0,0.03000000000000025,0.02631578947368421,0.8809523809523809,0.025974025974025972,0.45714285714285546,0.32,0.7011494252873564,0.7659574468085106,0.3333333333333333,0.9459459459459459,0.7151162790697673,0.6263736263736264,0.5,0.5
0.5862068965517239,0.05128205128205128,0.9909090909090909,0.0,0.15000000000000036,0.21052631578947367,0.9333333333333332,0.11688311688311688,0.8857142857142855,0.84,0.9540229885057473,0.21276595744680854,0.22666666666666657,0.5405405405405406,0.9476744186046513,0.14285714285714288,0.5,0.5
0.4827586206896555,0.1794871794871795,0.5818181818181819,0.35555555555555557,0.6100000000000003,0.1842105263157895,0.6666666666666666,0.45454545454545453,0.45714285714285546,0.19999999999999998,0.4252873563218391,0.5319148936170213,0.7200000000000001,0.43243243243243246,0.6162790697674417,0.4725274725274726,0.5,0.5
0.43103448275862066,0.12820512820512822,0.39090909090909093,0.6444444444444444,0.6800000000000006,0.631578947368421,0.5666666666666667,0.36363636363636365,0.257142857142857,0.32,0.25287356321839083,0.574468085106383,0.8800000000000002,0.5675675675675675,0.3313953488372092,0.5494505494505495,0.5,1.0
0.22413793103448254,0.3333333333333333,0.30909090909090914,0.6222222222222222,0.7400000000000002,0.6578947368421053,0.2952380952380952,1.0,0.45714285714285546,0.4,0.7701149425287357,0.7446808510638298,0.2533333333333327,0.891891891891892,0.7151162790697673,0.6703296703296704,0.5,0.5
0.43103448275862066,0.10256410256410256,0.44545454545454555,0.2888888888888889,0.6200000000000001,0.21052631578947367,0.519047619047619,0.41558441558441556,0.6285714285714284,0.44,0.7471264367816093,0.6382978723404256,0.2666666666666669,0.7297297297297298,0.7674418604651163,0.39560439560439564,0.5,1.0
0.5517241379310349,0.0,0.9909090909090909,0.0,0.020000000000000462,0.0,0.8809523809523809,0.03896103896103896,0.6000000000000005,0.0,0.9885057471264368,0.0,0.0,0.02702702702702703,0.9069767441860465,0.08791208791208792,0.5,0.0
0.5172413793103444,0.05128205128205128,0.9909090909090909,0.0,0.020000000000000462,0.02631578947368421,0.8333333333333333,0.09090909090909091,0.57142857142857,0.0,0.9885057471264368,0.0,0.0,0.02702702702702703,0.8953488372093023,0.03296703296703297,0.5,0.0
0.3965517241379302,0.20512820512820512,0.6181818181818182,0.7555555555555555,0.5200000000000005,0.7894736842105263,0.5523809523809523,0.8181818181818181,0.514285714285714,0.19999999999999998,0.8735632183908048,0.5319148936170213,0.18666666666666623,0.7027027027027027,0.8604651162790696,0.4725274725274726,0.5,0.5
0.6724137931034476,0.3333333333333333,0.9636363636363638,0.13333333333333333,0.020000000000000462,0.02631578947368421,0.757142857142857,0.24675324675324675,0.6857142857142845,0.24000000000000002,0.9770114942528738,0.06382978723404255,0.0,0.05405405405405406,0.8720930232558138,0.2087912087912088,0.5,0.5
0.5517241379310349,0.05128205128205128,0.9909090909090909,0.0,0.020000000000000462,0.0,0.8285714285714284,0.07792207792207792,0.6571428571428565,0.07999999999999999,0.9885057471264368,0.021276595744680854,0.0,0.0,0.8139534883720931,0.12087912087912091,0.5,0.5
0.6551724137931032,0.25641025641025644,0.9727272727272729,0.06666666666666667,0.03000000000000025,0.02631578947368421,0.7666666666666666,0.10389610389610389,0.6571428571428565,0.19999999999999998,0.9885057471264368,0.04255319148936171,0.0,0.02702702702702703,0.8720930232558138,0.07692307692307694,0.5,0.0
0.534482758620689,0.02564102564102564,0.9909090909090909,0.0,0.020000000000000462,0.02631578947368421,0.8809523809523809,0.0,0.6000000000000005,0.07999999999999999,0.9885057471264368,0.021276595744680854,0.01333333333333305,0.10810810810810811,0.883720930232558,0.2197802197802198,0.5,0.0
0.43103448275862066,0.10256410256410256,0.39090909090909093,0.4888888888888889,0.7600000000000007,0.39473684210526316,0.6047619047619047,0.24675324675324675,0.257142857142857,0.24000000000000002,0.19540229885057472,0.5106382978723404,0.9733333333333327,0.5135135135135135,0.4069767441860465,0.4835164835164835,0.5,1.0
0.4827586206896555,0.07692307692307691,0.6636363636363637,0.5555555555555556,0.5200000000000005,0.4473684210526316,0.6619047619047619,0.5324675324675324,0.4285714285714275,0.12,0.4367816091954024,0.574468085106383,0.7866666666666665,0.5945945945945946,0.5930232558139534,0.30769230769230776,0.5,1.0
0.43103448275862066,0.15384615384615383,0.3727272727272728,0.26666666666666666,0.7300000000000004,0.2894736842105263,0.557142857142857,0.4285714285714286,0.314285714285713,0.19999999999999998,0.22988505747126434,0.4255319148936171,0.8933333333333332,0.5135135135135135,0.43023255813953487,0.39560439560439564,0.5,1.0
0.5517241379310349,0.02564102564102564,0.9909090909090909,0.0,0.020000000000000462,0.0,0.8714285714285714,0.09090909090909091,0.57142857142857,0.16,0.8160919540229886,0.6170212765957447,0.2133333333333335,0.7837837837837838,0.8081395348837209,0.38461538461538464,0.5,0.0
0.534482758620689,0.02564102564102564,0.9909090909090909,0.0,0.040000000000000036,0.05263157894736842,0.9333333333333332,0.025974025974025972,0.6000000000000005,0.0,0.9885057471264368,0.021276595744680854,0.01333333333333305,0.08108108108108109,0.9011627906976745,0.15384615384615388,0.5,0.5
0.5517241379310349,0.05128205128205128,0.9909090909090909,0.0,0.020000000000000462,0.0,0.7333333333333333,0.07792207792207792,0.6000000000000005,0.4,0.8275862068965518,0.574468085106383,0.1999999999999993,0.7027027027027027,0.7325581395348837,0.4725274725274726,0.5,0.5
0.5172413793103444,0.02564102564102564,0.9909090909090909,0.0,0.03000000000000025,0.02631578947368421,0.9,0.012987012987012986,0.57142857142857,0.0,0.9885057471264368,0.0,0.0266666666666661,0.10810810810810811,0.941860465116279,0.043956043956043966,0.5,0.5
0.43103448275862066,0.30769230769230765,0.3545454545454546,0.4222222222222222,0.7300000000000004,0.5,0.4476190476190476,0.6623376623376623,0.57142857142857,0.36000000000000004,0.5977011494252874,0.6170212765957447,0.5199999999999996,0.7837837837837838,0.7674418604651163,0.5164835164835165,0.5,0.5
0.5689655172413793,0.0,0.9909090909090909,0.0,0.03000000000000025,0.02631578947368421,0.9142857142857143,0.051948051948051945,0.6000000000000005,0.28,0.8045977011494253,0.46808510638297873,0.27999999999999997,0.6216216216216216,0.7790697674418605,0.4725274725274726,0.5,0.5
0.29310344827586193,0.15384615384615383,0.3454545454545455,0.6666666666666666,0.6900000000000004,0.47368421052631576,0.2952380952380952,0.6233766233766234,0.257142857142857,0.36000000000000004,0.4482758620689656,0.9148936170212766,0.586666666666666,1.0,0.4593023255813954,0.8021978021978022,0.5,0.5
0.4482758620689651,0.15384615384615383,0.6454545454545455,0.3111111111111111,0.5100000000000007,0.42105263157894735,0.7047619047619047,0.2727272727272727,0.542857142857142,0.12,0.8735632183908048,0.3829787234042553,0.1733333333333332,0.5945945945945946,0.8372093023255812,0.2087912087912088,0.5,0.5
0.534482758620689,0.05128205128205128,0.9909090909090909,0.0,0.03000000000000025,0.05263157894736842,0.9476190476190475,0.07792207792207792,0.6285714285714284,0.04,0.9885057471264368,0.0,0.01333333333333305,0.02702702702702703,0.9534883720930232,0.06593406593406594,0.5,0.5
0.534482758620689,0.05128205128205128,0.9909090909090909,0.0,0.040000000000000036,0.07894736842105263,0.9523809523809523,0.051948051948051945,0.6285714285714284,0.04,0.9885057471264368,0.021276595744680854,0.040000000000000334,0.13513513513513514,0.9709302325581396,0.05494505494505495,0.5,0.5
0.5517241379310349,0.07692307692307691,0.9727272727272729,0.08888888888888889,0.0600000000000005,0.10526315789473684,0.8761904761904761,0.051948051948051945,0.57142857142857,0.07999999999999999,0.9425287356321841,0.17021276595744683,0.06666666666666643,0.13513513513513514,0.8895348837209303,0.23076923076923078,0.5,0.5
0.5517241379310349,0.02564102564102564,0.981818181818182,0.022222222222222223,0.07000000000000028,0.15789473684210525,0.9666666666666666,0.09090909090909091,0.57142857142857,0.28,0.8160919540229886,0.5957446808510639,0.22666666666666657,0.7297297297297298,0.8255813953488373,0.5494505494505495,0.5,0.5
0.5689655172413793,0.02564102564102564,0.9909090909090909,0.0,0.03000000000000025,0.02631578947368421,0.9142857142857143,0.012987012987012986,0.6285714285714284,0.0,0.9885057471264368,0.0,0.0266666666666661,0.05405405405405406,0.941860465116279,0.06593406593406594,0.5,0.5
0.5689655172413793,0.02564102564102564,0.9909090909090909,0.0,0.1900000000000004,0.15789473684210525,0.9333333333333332,0.0,0.6857142857142845,0.04,0.9425287356321841,0.19148936170212766,0.293333333333333,0.48648648648648646,0.9767441860465116,0.07692307692307694,0.5,1.0
0.534482758620689,0.02564102564102564,0.9909090909090909,0.0,0.13000000000000078,0.13157894736842105,0.938095238095238,0.012987012987012986,0.6571428571428565,0.04,0.9885057471264368,0.021276595744680854,0.1733333333333332,0.1891891891891892,0.9825581395348836,0.043956043956043966,0.5,1.0
