[
{
  "ts": "2018-02-06T12:26:45.427424",
  "type": "SETTINGS",
  "values": {
    "date": "2018/02/06 13:26:45",
    "date_iso": "2018-02-06T13:26:45.426539",
    "params": null,
    "system": {
      "nodename": "gibson",
      "machine": "x86_64",
      "platform": "Linux-4.4.0-112-generic-x86_64-with-debian-stretch-sid",
      "processor": "x86_64",
      "version": "#135-Ubuntu SMP Fri Jan 19 11:48:36 UTC 2018",
      "system": "Linux",
      "cpu_count": 8,
      "cpu_times": {
        "user": 350119.3,
        "system": 21013.44,
        "idle": 7979458.42,
        "nice": 822.94
      },
      "cpu_percent": 79.0,
      "virtual_memory": {
        "total": 33618501632,
        "available": 22538702848,
        "percent": 33.0,
        "used": 10013532160,
        "free": 10118860800
      }
    },
    "process": {
      "username": "evgeniya",
      "cwd": "/cw/dtailocal/mercs_python/src/core",
      "create_time": 1517919914.84,
      "cpu_times": {
        "user": 1.87,
        "system": 0.18
      }
    },
    "logfile": "/cw/dtailocal/mercs_python/out/636/oes97/logs/mercspython_Log_F05",
    "command": "python /cw/dtailocal/mercs_python/bin/mercspython.py /cw/dtailocal/mercs_python/out/636/oes97/settings/mercspython_Settings_F05.s"
  }
},
{
  "ts": "2018-02-06T12:26:45.427580",
  "type": "INFO",
  "values": {
    "cmd": "python /cw/dtailocal/mercs_python/bin/mercspython.py /cw/dtailocal/mercs_python/out/636/oes97/settings/mercspython_Settings_F05.s",
    "cwd": null
  }
},
{
  "ts": "2018-02-06T12:26:45.434306",
  "type": "INFO",
  "values": "Start: Run process"
},
{
  "ts": "2018-02-06T12:26:45.434895",
  "type": "INFO",
  "values": "Write log to /cw/dtailocal/mercs_python/out/636/oes97/logs/mercspython_Log_F05.running.log"
},
{
  "ts": "2018-02-06T12:27:03.657412",
  "type": "INFO",
  "values": "Process ended (returncode 0)"
},
{
  "ts": "2018-02-06T12:27:03.657494",
  "type": "INFO",
  "values": "Finished: Run process 18.223 seconds"
},
{
  "ts": "2018-02-06T12:27:03.657575",
  "type": "WARNING",
  "values": {
    "Exit": "finished",
    "Returncode": 0,
    "Time": 18.223289489746094
  }
},
{
  "ts": "2018-02-06T12:27:03.657933",
  "type": "INFO",
  "values": "Closing /cw/dtailocal/mercs_python/out/636/oes97/logs/mercspython_Log_F05.running.log"
}
]
