[
{
  "ts": "2018-02-06T01:05:22.745107",
  "type": "SETTINGS",
  "values": {
    "date": "2018/02/06 02:05:22",
    "date_iso": "2018-02-06T02:05:22.743431",
    "params": null,
    "system": {
      "nodename": "gibson",
      "machine": "x86_64",
      "platform": "Linux-4.4.0-112-generic-x86_64-with-debian-stretch-sid",
      "processor": "x86_64",
      "version": "#135-Ubuntu SMP Fri Jan 19 11:48:36 UTC 2018",
      "system": "Linux",
      "cpu_count": 8,
      "cpu_times": {
        "user": 281819.53,
        "system": 19676.29,
        "idle": 7723073.77,
        "nice": 764.54
      },
      "cpu_percent": 36.8,
      "virtual_memory": {
        "total": 33618501632,
        "available": 27085221888,
        "percent": 19.4,
        "used": 5503475712,
        "free": 17881083904
      }
    },
    "process": {
      "username": "evgeniya",
      "cwd": "/cw/dtailocal/mercs_python/src/core",
      "create_time": 1517879120.65,
      "cpu_times": {
        "user": 1.42,
        "system": 0.12
      }
    },
    "logfile": "/cw/dtailocal/mercs_python/out/307/scm1d/logs/mercspython_Log_F00",
    "command": "python /cw/dtailocal/mercs_python/bin/mercspython.py /cw/dtailocal/mercs_python/out/307/scm1d/settings/mercspython_Settings_F00.s"
  }
},
{
  "ts": "2018-02-06T01:05:22.745201",
  "type": "INFO",
  "values": {
    "cmd": "python /cw/dtailocal/mercs_python/bin/mercspython.py /cw/dtailocal/mercs_python/out/307/scm1d/settings/mercspython_Settings_F00.s",
    "cwd": null
  }
},
{
  "ts": "2018-02-06T01:05:22.748162",
  "type": "INFO",
  "values": "Start: Run process"
},
{
  "ts": "2018-02-06T01:05:22.748713",
  "type": "INFO",
  "values": "Write log to /cw/dtailocal/mercs_python/out/307/scm1d/logs/mercspython_Log_F00.running.log"
},
{
  "ts": "2018-02-06T01:22:20.539683",
  "type": "INFO",
  "values": "Process ended (returncode 0)"
},
{
  "ts": "2018-02-06T01:22:20.539746",
  "type": "INFO",
  "values": "Finished: Run process 1017.792 seconds"
},
{
  "ts": "2018-02-06T01:22:20.539805",
  "type": "WARNING",
  "values": {
    "Exit": "finished",
    "Returncode": 0,
    "Time": 1017.7916204929352
  }
},
{
  "ts": "2018-02-06T01:22:20.540128",
  "type": "INFO",
  "values": "Closing /cw/dtailocal/mercs_python/out/307/scm1d/logs/mercspython_Log_F00.running.log"
}
]
