[
{
  "ts": "2018-02-06T12:31:39.027791",
  "type": "SETTINGS",
  "values": {
    "date": "2018/02/06 13:31:39",
    "date_iso": "2018-02-06T13:31:39.026915",
    "params": null,
    "system": {
      "nodename": "gibson",
      "machine": "x86_64",
      "platform": "Linux-4.4.0-112-generic-x86_64-with-debian-stretch-sid",
      "processor": "x86_64",
      "version": "#135-Ubuntu SMP Fri Jan 19 11:48:36 UTC 2018",
      "system": "Linux",
      "cpu_count": 8,
      "cpu_times": {
        "user": 351827.46,
        "system": 21068.02,
        "idle": 7980029.18,
        "nice": 823.13
      },
      "cpu_percent": 77.5,
      "virtual_memory": {
        "total": 33618501632,
        "available": 25281736704,
        "percent": 24.8,
        "used": 7354945536,
        "free": 12766953472
      }
    },
    "process": {
      "username": "evgeniya",
      "cwd": "/cw/dtailocal/mercs_python/src/core",
      "create_time": 1517920094.0,
      "cpu_times": {
        "user": 1.57,
        "system": 0.39
      }
    },
    "logfile": "/cw/dtailocal/mercs_python/out/637/rf1/logs/mercspython_Log_F05",
    "command": "python /cw/dtailocal/mercs_python/bin/mercspython.py /cw/dtailocal/mercs_python/out/637/rf1/settings/mercspython_Settings_F05.s"
  }
},
{
  "ts": "2018-02-06T12:31:39.027938",
  "type": "INFO",
  "values": {
    "cmd": "python /cw/dtailocal/mercs_python/bin/mercspython.py /cw/dtailocal/mercs_python/out/637/rf1/settings/mercspython_Settings_F05.s",
    "cwd": null
  }
},
{
  "ts": "2018-02-06T12:31:39.038524",
  "type": "INFO",
  "values": "Start: Run process"
},
{
  "ts": "2018-02-06T12:31:39.053945",
  "type": "INFO",
  "values": "Write log to /cw/dtailocal/mercs_python/out/637/rf1/logs/mercspython_Log_F05.running.log"
},
{
  "ts": "2018-02-06T12:32:20.102875",
  "type": "INFO",
  "values": "Process ended (returncode 0)"
},
{
  "ts": "2018-02-06T12:32:20.102953",
  "type": "INFO",
  "values": "Finished: Run process 41.064 seconds"
},
{
  "ts": "2018-02-06T12:32:20.103215",
  "type": "WARNING",
  "values": {
    "Exit": "finished",
    "Returncode": 0,
    "Time": 41.06447649002075
  }
}
]
