[
{
  "ts": "2018-02-05T15:08:30.724206",
  "type": "SETTINGS",
  "values": {
    "date": "2018/02/05 16:08:30",
    "date_iso": "2018-02-05T16:08:30.723544",
    "params": null,
    "system": {
      "nodename": "gibson",
      "machine": "x86_64",
      "platform": "Linux-4.4.0-112-generic-x86_64-with-debian-stretch-sid",
      "processor": "x86_64",
      "version": "#135-Ubuntu SMP Fri Jan 19 11:48:36 UTC 2018",
      "system": "Linux",
      "cpu_count": 8,
      "cpu_times": {
        "user": 89807.06,
        "system": 18117.42,
        "idle": 7630556.49,
        "nice": 732.25
      },
      "cpu_percent": 100.0,
      "virtual_memory": {
        "total": 33618501632,
        "available": 25249964032,
        "percent": 24.9,
        "used": 7251750912,
        "free": 9559863296
      }
    },
    "process": {
      "username": "evgeniya",
      "cwd": "/cw/dtailocal/mercs_python/src/core",
      "create_time": 1517842950.75,
      "cpu_times": {
        "user": 2.77,
        "system": 0.17
      }
    },
    "logfile": "/cw/dtailocal/mercs_python/out/314/oes10/logs/mercspython_Log_F09",
    "command": "python /cw/dtailocal/mercs_python/bin/mercspython.py /cw/dtailocal/mercs_python/out/314/oes10/settings/mercspython_Settings_F09.s"
  }
},
{
  "ts": "2018-02-05T15:08:30.724333",
  "type": "INFO",
  "values": {
    "cmd": "python /cw/dtailocal/mercs_python/bin/mercspython.py /cw/dtailocal/mercs_python/out/314/oes10/settings/mercspython_Settings_F09.s",
    "cwd": null
  }
},
{
  "ts": "2018-02-05T15:08:30.741391",
  "type": "INFO",
  "values": "Start: Run process"
},
{
  "ts": "2018-02-05T15:08:30.744426",
  "type": "INFO",
  "values": "Write log to /cw/dtailocal/mercs_python/out/314/oes10/logs/mercspython_Log_F09.running.log"
},
{
  "ts": "2018-02-05T15:09:07.003721",
  "type": "INFO",
  "values": "Process ended (returncode 0)"
},
{
  "ts": "2018-02-05T15:09:07.003803",
  "type": "INFO",
  "values": "Finished: Run process 36.262 seconds"
},
{
  "ts": "2018-02-05T15:09:07.003884",
  "type": "WARNING",
  "values": {
    "Exit": "finished",
    "Returncode": 0,
    "Time": 36.26245355606079
  }
},
{
  "ts": "2018-02-05T15:09:07.011810",
  "type": "INFO",
  "values": "Closing /cw/dtailocal/mercs_python/out/314/oes10/logs/mercspython_Log_F09.running.log"
}
]
