[
{
  "ts": "2018-02-05T15:03:56.874098",
  "type": "SETTINGS",
  "values": {
    "date": "2018/02/05 16:03:56",
    "date_iso": "2018-02-05T16:03:56.873260",
    "params": null,
    "system": {
      "nodename": "gibson",
      "machine": "x86_64",
      "platform": "Linux-4.4.0-112-generic-x86_64-with-debian-stretch-sid",
      "processor": "x86_64",
      "version": "#135-Ubuntu SMP Fri Jan 19 11:48:36 UTC 2018",
      "system": "Linux",
      "cpu_count": 8,
      "cpu_times": {
        "user": 87635.76,
        "system": 18100.52,
        "idle": 7630554.84,
        "nice": 732.25
      },
      "cpu_percent": 100.0,
      "virtual_memory": {
        "total": 33618501632,
        "available": 24319008768,
        "percent": 27.7,
        "used": 8182673408,
        "free": 8705503232
      }
    },
    "process": {
      "username": "evgeniya",
      "cwd": "/cw/dtailocal/mercs_python/src/core",
      "create_time": 1517842950.75,
      "cpu_times": {
        "user": 2.16,
        "system": 0.06
      }
    },
    "logfile": "/cw/dtailocal/mercs_python/out/314/oes10/logs/mercspython_Log_F02",
    "command": "python /cw/dtailocal/mercs_python/bin/mercspython.py /cw/dtailocal/mercs_python/out/314/oes10/settings/mercspython_Settings_F02.s"
  }
},
{
  "ts": "2018-02-05T15:03:56.874253",
  "type": "INFO",
  "values": {
    "cmd": "python /cw/dtailocal/mercs_python/bin/mercspython.py /cw/dtailocal/mercs_python/out/314/oes10/settings/mercspython_Settings_F02.s",
    "cwd": null
  }
},
{
  "ts": "2018-02-05T15:03:56.893261",
  "type": "INFO",
  "values": "Start: Run process"
},
{
  "ts": "2018-02-05T15:03:56.915765",
  "type": "INFO",
  "values": "Write log to /cw/dtailocal/mercs_python/out/314/oes10/logs/mercspython_Log_F02.running.log"
},
{
  "ts": "2018-02-05T15:04:38.375699",
  "type": "INFO",
  "values": "Process ended (returncode 0)"
},
{
  "ts": "2018-02-05T15:04:38.375785",
  "type": "INFO",
  "values": "Finished: Run process 41.483 seconds"
},
{
  "ts": "2018-02-05T15:04:38.375866",
  "type": "WARNING",
  "values": {
    "Exit": "finished",
    "Returncode": 0,
    "Time": 41.48254704475403
  }
},
{
  "ts": "2018-02-05T15:04:38.383801",
  "type": "INFO",
  "values": "Closing /cw/dtailocal/mercs_python/out/314/oes10/logs/mercspython_Log_F02.running.log"
}
]
