[
{
  "ts": "2018-02-05T15:06:41.145410",
  "type": "SETTINGS",
  "values": {
    "date": "2018/02/05 16:06:41",
    "date_iso": "2018-02-05T16:06:41.144524",
    "params": null,
    "system": {
      "nodename": "gibson",
      "machine": "x86_64",
      "platform": "Linux-4.4.0-112-generic-x86_64-with-debian-stretch-sid",
      "processor": "x86_64",
      "version": "#135-Ubuntu SMP Fri Jan 19 11:48:36 UTC 2018",
      "system": "Linux",
      "cpu_count": 8,
      "cpu_times": {
        "user": 88939.04,
        "system": 18110.87,
        "idle": 7630554.98,
        "nice": 732.25
      },
      "cpu_percent": 100.0,
      "virtual_memory": {
        "total": 33618501632,
        "available": 24605319168,
        "percent": 26.8,
        "used": 7886766080,
        "free": 8945164288
      }
    },
    "process": {
      "username": "evgeniya",
      "cwd": "/cw/dtailocal/mercs_python/src/core",
      "create_time": 1517842950.75,
      "cpu_times": {
        "user": 2.56,
        "system": 0.11
      }
    },
    "logfile": "/cw/dtailocal/mercs_python/out/314/oes10/logs/mercspython_Log_F06",
    "command": "python /cw/dtailocal/mercs_python/bin/mercspython.py /cw/dtailocal/mercs_python/out/314/oes10/settings/mercspython_Settings_F06.s"
  }
},
{
  "ts": "2018-02-05T15:06:41.145573",
  "type": "INFO",
  "values": {
    "cmd": "python /cw/dtailocal/mercs_python/bin/mercspython.py /cw/dtailocal/mercs_python/out/314/oes10/settings/mercspython_Settings_F06.s",
    "cwd": null
  }
},
{
  "ts": "2018-02-05T15:06:41.161906",
  "type": "INFO",
  "values": "Start: Run process"
},
{
  "ts": "2018-02-05T15:06:41.203778",
  "type": "INFO",
  "values": "Write log to /cw/dtailocal/mercs_python/out/314/oes10/logs/mercspython_Log_F06.running.log"
},
{
  "ts": "2018-02-05T15:07:19.283734",
  "type": "INFO",
  "values": "Process ended (returncode 0)"
},
{
  "ts": "2018-02-05T15:07:19.283817",
  "type": "INFO",
  "values": "Finished: Run process 38.122 seconds"
},
{
  "ts": "2018-02-05T15:07:19.283903",
  "type": "WARNING",
  "values": {
    "Exit": "finished",
    "Returncode": 0,
    "Time": 38.121931314468384
  }
},
{
  "ts": "2018-02-05T15:07:19.299818",
  "type": "INFO",
  "values": "Closing /cw/dtailocal/mercs_python/out/314/oes10/logs/mercspython_Log_F06.running.log"
}
]
