[
{
  "ts": "2018-02-05T16:13:14.601257",
  "type": "SETTINGS",
  "values": {
    "date": "2018/02/05 17:13:14",
    "date_iso": "2018-02-05T17:13:14.600402",
    "params": null,
    "system": {
      "nodename": "gibson",
      "machine": "x86_64",
      "platform": "Linux-4.4.0-112-generic-x86_64-with-debian-stretch-sid",
      "processor": "x86_64",
      "version": "#135-Ubuntu SMP Fri Jan 19 11:48:36 UTC 2018",
      "system": "Linux",
      "cpu_count": 8,
      "cpu_times": {
        "user": 113828.31,
        "system": 18415.78,
        "idle": 7637230.4,
        "nice": 749.46
      },
      "cpu_percent": 100.0,
      "virtual_memory": {
        "total": 33618501632,
        "available": 23404007424,
        "percent": 30.4,
        "used": 9310208000,
        "free": 6897045504
      }
    },
    "process": {
      "username": "evgeniya",
      "cwd": "/cw/dtailocal/mercs_python/src/core",
      "create_time": 1517845397.28,
      "cpu_times": {
        "user": 1.78,
        "system": 0.23
      }
    },
    "logfile": "/cw/dtailocal/mercs_python/out/228/scm20d/logs/mercspython_Log_F08",
    "command": "python /cw/dtailocal/mercs_python/bin/mercspython.py /cw/dtailocal/mercs_python/out/228/scm20d/settings/mercspython_Settings_F08.s"
  }
},
{
  "ts": "2018-02-05T16:13:14.601535",
  "type": "INFO",
  "values": {
    "cmd": "python /cw/dtailocal/mercs_python/bin/mercspython.py /cw/dtailocal/mercs_python/out/228/scm20d/settings/mercspython_Settings_F08.s",
    "cwd": null
  }
},
{
  "ts": "2018-02-05T16:13:14.633423",
  "type": "INFO",
  "values": "Start: Run process"
},
{
  "ts": "2018-02-05T16:13:14.667770",
  "type": "INFO",
  "values": "Write log to /cw/dtailocal/mercs_python/out/228/scm20d/logs/mercspython_Log_F08.running.log"
},
{
  "ts": "2018-02-05T16:16:55.349920",
  "type": "INFO",
  "values": "Process ended (returncode 0)"
},
{
  "ts": "2018-02-05T16:16:55.350020",
  "type": "INFO",
  "values": "Finished: Run process 220.717 seconds"
},
{
  "ts": "2018-02-05T16:16:55.350140",
  "type": "WARNING",
  "values": {
    "Exit": "finished",
    "Returncode": 0,
    "Time": 220.71660590171814
  }
}
]
