[
{
  "ts": "2018-02-05T15:49:31.105028",
  "type": "SETTINGS",
  "values": {
    "date": "2018/02/05 16:49:31",
    "date_iso": "2018-02-05T16:49:31.104183",
    "params": null,
    "system": {
      "nodename": "gibson",
      "machine": "x86_64",
      "platform": "Linux-4.4.0-112-generic-x86_64-with-debian-stretch-sid",
      "processor": "x86_64",
      "version": "#135-Ubuntu SMP Fri Jan 19 11:48:36 UTC 2018",
      "system": "Linux",
      "cpu_count": 8,
      "cpu_times": {
        "user": 102596.31,
        "system": 18266.46,
        "idle": 7637228.38,
        "nice": 749.46
      },
      "cpu_percent": 100.0,
      "virtual_memory": {
        "total": 33618501632,
        "available": 24708972544,
        "percent": 26.5,
        "used": 7996948480,
        "free": 8441270272
      }
    },
    "process": {
      "username": "evgeniya",
      "cwd": "/cw/dtailocal/mercs_python/src/core",
      "create_time": 1517845397.28,
      "cpu_times": {
        "user": 2.72,
        "system": 0.21
      }
    },
    "logfile": "/cw/dtailocal/mercs_python/out/224/oes10/logs/mercspython_Log_F07",
    "command": "python /cw/dtailocal/mercs_python/bin/mercspython.py /cw/dtailocal/mercs_python/out/224/oes10/settings/mercspython_Settings_F07.s"
  }
},
{
  "ts": "2018-02-05T15:49:31.105182",
  "type": "INFO",
  "values": {
    "cmd": "python /cw/dtailocal/mercs_python/bin/mercspython.py /cw/dtailocal/mercs_python/out/224/oes10/settings/mercspython_Settings_F07.s",
    "cwd": null
  }
},
{
  "ts": "2018-02-05T15:49:31.117114",
  "type": "INFO",
  "values": "Start: Run process"
},
{
  "ts": "2018-02-05T15:49:31.143772",
  "type": "INFO",
  "values": "Write log to /cw/dtailocal/mercs_python/out/224/oes10/logs/mercspython_Log_F07.running.log"
},
{
  "ts": "2018-02-05T15:50:23.606521",
  "type": "INFO",
  "values": "Process ended (returncode 0)"
},
{
  "ts": "2018-02-05T15:50:23.606599",
  "type": "INFO",
  "values": "Finished: Run process 52.490 seconds"
},
{
  "ts": "2018-02-05T15:50:23.606681",
  "type": "WARNING",
  "values": {
    "Exit": "finished",
    "Returncode": 0,
    "Time": 52.48950934410095
  }
}
]
