[
{
  "ts": "2018-02-06T10:04:55.161156",
  "type": "SETTINGS",
  "values": {
    "date": "2018/02/06 11:04:55",
    "date_iso": "2018-02-06T11:04:55.160529",
    "params": null,
    "system": {
      "nodename": "gibson",
      "machine": "x86_64",
      "platform": "Linux-4.4.0-112-generic-x86_64-with-debian-stretch-sid",
      "processor": "x86_64",
      "version": "#135-Ubuntu SMP Fri Jan 19 11:48:36 UTC 2018",
      "system": "Linux",
      "cpu_count": 8,
      "cpu_times": {
        "user": 316334.88,
        "system": 20482.92,
        "idle": 7945922.72,
        "nice": 819.07
      },
      "cpu_percent": 77.6,
      "virtual_memory": {
        "total": 33618501632,
        "available": 25193181184,
        "percent": 25.1,
        "used": 7443144704,
        "free": 13963329536
      }
    },
    "process": {
      "username": "evgeniya",
      "cwd": "/cw/dtailocal/mercs_python/src/core",
      "create_time": 1517911269.32,
      "cpu_times": {
        "user": 2.59,
        "system": 0.35
      }
    },
    "logfile": "/cw/dtailocal/mercs_python/out/546/oes10/logs/mercspython_Log_F08",
    "command": "python /cw/dtailocal/mercs_python/bin/mercspython.py /cw/dtailocal/mercs_python/out/546/oes10/settings/mercspython_Settings_F08.s"
  }
},
{
  "ts": "2018-02-06T10:04:55.161246",
  "type": "INFO",
  "values": {
    "cmd": "python /cw/dtailocal/mercs_python/bin/mercspython.py /cw/dtailocal/mercs_python/out/546/oes10/settings/mercspython_Settings_F08.s",
    "cwd": null
  }
},
{
  "ts": "2018-02-06T10:04:55.170464",
  "type": "INFO",
  "values": "Start: Run process"
},
{
  "ts": "2018-02-06T10:04:55.170887",
  "type": "INFO",
  "values": "Write log to /cw/dtailocal/mercs_python/out/546/oes10/logs/mercspython_Log_F08.running.log"
},
{
  "ts": "2018-02-06T10:05:23.419792",
  "type": "INFO",
  "values": "Process ended (returncode 0)"
},
{
  "ts": "2018-02-06T10:05:23.419870",
  "type": "INFO",
  "values": "Finished: Run process 28.249 seconds"
},
{
  "ts": "2018-02-06T10:05:23.419949",
  "type": "WARNING",
  "values": {
    "Exit": "finished",
    "Returncode": 0,
    "Time": 28.249438047409058
  }
}
]
