[SETTINGS] {
  "date": "2018/02/06 11:03:03",
  "date_iso": "2018-02-06T11:03:03.959293",
  "params": null,
  "system": {
    "nodename": "gibson",
    "machine": "x86_64",
    "platform": "Linux-4.4.0-112-generic-x86_64-with-debian-stretch-sid",
    "processor": "x86_64",
    "version": "#135-Ubuntu SMP Fri Jan 19 11:48:36 UTC 2018",
    "system": "Linux",
    "cpu_count": 8,
    "cpu_times": {
      "user": 315662.04,
      "system": 20461.71,
      "idle": 7945733.4,
      "nice": 819.07
    },
    "cpu_percent": 80.5,
    "virtual_memory": {
      "total": 33618501632,
      "available": 25621020672,
      "percent": 23.8,
      "used": 7057285120,
      "free": 14436376576
    }
  },
  "process": {
    "username": "evgeniya",
    "cwd": "/cw/dtailocal/mercs_python/src/core",
    "create_time": 1517911269.32,
    "cpu_times": {
      "user": 2.31,
      "system": 0.21
    }
  },
  "logfile": "/cw/dtailocal/mercs_python/out/546/oes10/logs/mercspython_Log_F04",
  "command": "python /cw/dtailocal/mercs_python/bin/mercspython.py /cw/dtailocal/mercs_python/out/546/oes10/settings/mercspython_Settings_F04.s"
}
[INFO] cmd:python /cw/dtailocal/mercs_python/bin/mercspython.py /cw/dtailocal/mercs_python/out/546/oes10/settings/mercspython_Settings_F04.s; cwd:None
[INFO] Start: Run process
[INFO] Write log to /cw/dtailocal/mercs_python/out/546/oes10/logs/mercspython_Log_F04.running.log
[STDERR] /cw/dtailocal/mercs_python/bin/mercspython.py:78: VisibleDeprecationWarning: converting an array with ndim > 0 to an index will result in an error in the future
[STDERR]   while((np.sum(codes[partition * nb_models_it + model]) >= nb_out_atts)):
[STDERR] /cw/dtailocal/mercs_python/bin/mercspython.py:81: VisibleDeprecationWarning: converting an array with ndim > 0 to an index will result in an error in the future
[STDERR]   codes[partition * nb_models_it + model][attribute] = 1
[[0 0 0 ..., 0 0 0]
 [0 0 0 ..., 0 0 0]
 [0 0 0 ..., 0 0 0]
 ..., 
 [0 0 0 ..., 0 0 0]
 [1 0 0 ..., 0 0 0]
 [0 1 0 ..., 0 0 0]]
====================================================
Total induction time of the MDEModel was: 22220 ms
====================================================
====================================================
Total inference time of the MDEModel was: 4115 ms
====================================================
====================================================
This was for: 314 queries.
====================================================
[INFO] Process ended (returncode 0)
[INFO] Finished: Run process 28.852 seconds
[WARNING] Exit:finished; Returncode:0; Time:28.85223
