[
{
  "ts": "2018-02-05T16:03:42.609126",
  "type": "SETTINGS",
  "values": {
    "date": "2018/02/05 17:03:42",
    "date_iso": "2018-02-05T17:03:42.608296",
    "params": null,
    "system": {
      "nodename": "gibson",
      "machine": "x86_64",
      "platform": "Linux-4.4.0-112-generic-x86_64-with-debian-stretch-sid",
      "processor": "x86_64",
      "version": "#135-Ubuntu SMP Fri Jan 19 11:48:36 UTC 2018",
      "system": "Linux",
      "cpu_count": 8,
      "cpu_times": {
        "user": 109331.58,
        "system": 18340.03,
        "idle": 7637229.35,
        "nice": 749.46
      },
      "cpu_percent": 100.0,
      "virtual_memory": {
        "total": 33618501632,
        "available": 24394174464,
        "percent": 27.4,
        "used": 8252530688,
        "free": 7980244992
      }
    },
    "process": {
      "username": "evgeniya",
      "cwd": "/cw/dtailocal/mercs_python/src/core",
      "create_time": 1517846271.77,
      "cpu_times": {
        "user": 1.1,
        "system": 0.16
      }
    },
    "logfile": "/cw/dtailocal/mercs_python/out/246/rf1/logs/mercspython_Log_F04",
    "command": "python /cw/dtailocal/mercs_python/bin/mercspython.py /cw/dtailocal/mercs_python/out/246/rf1/settings/mercspython_Settings_F04.s"
  }
},
{
  "ts": "2018-02-05T16:03:42.609281",
  "type": "INFO",
  "values": {
    "cmd": "python /cw/dtailocal/mercs_python/bin/mercspython.py /cw/dtailocal/mercs_python/out/246/rf1/settings/mercspython_Settings_F04.s",
    "cwd": null
  }
},
{
  "ts": "2018-02-05T16:03:42.633243",
  "type": "INFO",
  "values": "Start: Run process"
},
{
  "ts": "2018-02-05T16:03:42.671780",
  "type": "INFO",
  "values": "Write log to /cw/dtailocal/mercs_python/out/246/rf1/logs/mercspython_Log_F04.running.log"
},
{
  "ts": "2018-02-05T16:05:10.375295",
  "type": "INFO",
  "values": "Process ended (returncode 0)"
},
{
  "ts": "2018-02-05T16:05:10.375383",
  "type": "INFO",
  "values": "Finished: Run process 87.742 seconds"
},
{
  "ts": "2018-02-05T16:05:10.375470",
  "type": "WARNING",
  "values": {
    "Exit": "finished",
    "Returncode": 0,
    "Time": 87.74216508865356
  }
},
{
  "ts": "2018-02-05T16:05:10.391806",
  "type": "INFO",
  "values": "Closing /cw/dtailocal/mercs_python/out/246/rf1/logs/mercspython_Log_F04.running.log"
}
]
