[
{
  "ts": "2018-02-05T16:05:10.393134",
  "type": "SETTINGS",
  "values": {
    "date": "2018/02/05 17:05:10",
    "date_iso": "2018-02-05T17:05:10.392320",
    "params": null,
    "system": {
      "nodename": "gibson",
      "machine": "x86_64",
      "platform": "Linux-4.4.0-112-generic-x86_64-with-debian-stretch-sid",
      "processor": "x86_64",
      "version": "#135-Ubuntu SMP Fri Jan 19 11:48:36 UTC 2018",
      "system": "Linux",
      "cpu_count": 8,
      "cpu_times": {
        "user": 110021.95,
        "system": 18351.81,
        "idle": 7637229.35,
        "nice": 749.46
      },
      "cpu_percent": 100.0,
      "virtual_memory": {
        "total": 33618501632,
        "available": 22474424320,
        "percent": 33.1,
        "used": 10172280832,
        "free": 6050000896
      }
    },
    "process": {
      "username": "evgeniya",
      "cwd": "/cw/dtailocal/mercs_python/src/core",
      "create_time": 1517846271.77,
      "cpu_times": {
        "user": 1.15,
        "system": 0.18
      }
    },
    "logfile": "/cw/dtailocal/mercs_python/out/246/rf1/logs/mercspython_Log_F05",
    "command": "python /cw/dtailocal/mercs_python/bin/mercspython.py /cw/dtailocal/mercs_python/out/246/rf1/settings/mercspython_Settings_F05.s"
  }
},
{
  "ts": "2018-02-05T16:05:10.393283",
  "type": "INFO",
  "values": {
    "cmd": "python /cw/dtailocal/mercs_python/bin/mercspython.py /cw/dtailocal/mercs_python/out/246/rf1/settings/mercspython_Settings_F05.s",
    "cwd": null
  }
},
{
  "ts": "2018-02-05T16:05:10.409203",
  "type": "INFO",
  "values": "Start: Run process"
},
{
  "ts": "2018-02-05T16:05:10.447782",
  "type": "INFO",
  "values": "Write log to /cw/dtailocal/mercs_python/out/246/rf1/logs/mercspython_Log_F05.running.log"
},
{
  "ts": "2018-02-05T16:06:37.155808",
  "type": "INFO",
  "values": "Process ended (returncode 0)"
},
{
  "ts": "2018-02-05T16:06:37.155890",
  "type": "INFO",
  "values": "Finished: Run process 86.747 seconds"
},
{
  "ts": "2018-02-05T16:06:37.155969",
  "type": "WARNING",
  "values": {
    "Exit": "finished",
    "Returncode": 0,
    "Time": 86.74670720100403
  }
},
{
  "ts": "2018-02-05T16:06:37.171809",
  "type": "INFO",
  "values": "Closing /cw/dtailocal/mercs_python/out/246/rf1/logs/mercspython_Log_F05.running.log"
}
]
