[
{
  "ts": "2018-02-05T14:49:16.565033",
  "type": "SETTINGS",
  "values": {
    "date": "2018/02/05 15:49:16",
    "date_iso": "2018-02-05T15:49:16.564195",
    "params": null,
    "system": {
      "nodename": "gibson",
      "machine": "x86_64",
      "platform": "Linux-4.4.0-112-generic-x86_64-with-debian-stretch-sid",
      "processor": "x86_64",
      "version": "#135-Ubuntu SMP Fri Jan 19 11:48:36 UTC 2018",
      "system": "Linux",
      "cpu_count": 8,
      "cpu_times": {
        "user": 80686.28,
        "system": 18020.57,
        "idle": 7630548.5,
        "nice": 732.25
      },
      "cpu_percent": 99.5,
      "virtual_memory": {
        "total": 33618501632,
        "available": 24569393152,
        "percent": 26.9,
        "used": 7971618816,
        "free": 9295839232
      }
    },
    "process": {
      "username": "evgeniya",
      "cwd": "/cw/dtailocal/mercs_python/src/core",
      "create_time": 1517842131.55,
      "cpu_times": {
        "user": 0.94,
        "system": 0.1
      }
    },
    "logfile": "/cw/dtailocal/mercs_python/out/311/andro/logs/mercspython_Log_F06",
    "command": "python /cw/dtailocal/mercs_python/bin/mercspython.py /cw/dtailocal/mercs_python/out/311/andro/settings/mercspython_Settings_F06.s"
  }
},
{
  "ts": "2018-02-05T14:49:16.565299",
  "type": "INFO",
  "values": {
    "cmd": "python /cw/dtailocal/mercs_python/bin/mercspython.py /cw/dtailocal/mercs_python/out/311/andro/settings/mercspython_Settings_F06.s",
    "cwd": null
  }
},
{
  "ts": "2018-02-05T14:49:16.588957",
  "type": "INFO",
  "values": "Start: Run process"
},
{
  "ts": "2018-02-05T14:49:16.632034",
  "type": "INFO",
  "values": "Write log to /cw/dtailocal/mercs_python/out/311/andro/logs/mercspython_Log_F06.running.log"
},
{
  "ts": "2018-02-05T14:49:20.036904",
  "type": "INFO",
  "values": "Process ended (returncode 0)"
},
{
  "ts": "2018-02-05T14:49:20.036983",
  "type": "INFO",
  "values": "Finished: Run process 3.448 seconds"
},
{
  "ts": "2018-02-05T14:49:20.037070",
  "type": "WARNING",
  "values": {
    "Exit": "finished",
    "Returncode": 0,
    "Time": 3.4480502605438232
  }
},
{
  "ts": "2018-02-05T14:49:20.043811",
  "type": "INFO",
  "values": "Closing /cw/dtailocal/mercs_python/out/311/andro/logs/mercspython_Log_F06.running.log"
}
]
