[
{
  "ts": "2018-02-06T12:27:19.541715",
  "type": "SETTINGS",
  "values": {
    "date": "2018/02/06 13:27:19",
    "date_iso": "2018-02-06T13:27:19.540867",
    "params": null,
    "system": {
      "nodename": "gibson",
      "machine": "x86_64",
      "platform": "Linux-4.4.0-112-generic-x86_64-with-debian-stretch-sid",
      "processor": "x86_64",
      "version": "#135-Ubuntu SMP Fri Jan 19 11:48:36 UTC 2018",
      "system": "Linux",
      "cpu_count": 8,
      "cpu_times": {
        "user": 350326.46,
        "system": 21019.4,
        "idle": 7979516.15,
        "nice": 823.12
      },
      "cpu_percent": 75.1,
      "virtual_memory": {
        "total": 33618501632,
        "available": 22778937344,
        "percent": 32.2,
        "used": 9794662400,
        "free": 10351140864
      }
    },
    "process": {
      "username": "evgeniya",
      "cwd": "/cw/dtailocal/mercs_python/src/core",
      "create_time": 1517919999.18,
      "cpu_times": {
        "user": 1.47,
        "system": 0.74
      }
    },
    "logfile": "/cw/dtailocal/mercs_python/out/615/wq/logs/mercspython_Log_F08",
    "command": "python /cw/dtailocal/mercs_python/bin/mercspython.py /cw/dtailocal/mercs_python/out/615/wq/settings/mercspython_Settings_F08.s"
  }
},
{
  "ts": "2018-02-06T12:27:19.541852",
  "type": "INFO",
  "values": {
    "cmd": "python /cw/dtailocal/mercs_python/bin/mercspython.py /cw/dtailocal/mercs_python/out/615/wq/settings/mercspython_Settings_F08.s",
    "cwd": null
  }
},
{
  "ts": "2018-02-06T12:27:19.545719",
  "type": "INFO",
  "values": "Start: Run process"
},
{
  "ts": "2018-02-06T12:27:19.546150",
  "type": "INFO",
  "values": "Write log to /cw/dtailocal/mercs_python/out/615/wq/logs/mercspython_Log_F08.running.log"
},
{
  "ts": "2018-02-06T12:27:23.359785",
  "type": "INFO",
  "values": "Process ended (returncode 0)"
},
{
  "ts": "2018-02-06T12:27:23.359845",
  "type": "INFO",
  "values": "Finished: Run process 3.814 seconds"
},
{
  "ts": "2018-02-06T12:27:23.359902",
  "type": "WARNING",
  "values": {
    "Exit": "finished",
    "Returncode": 0,
    "Time": 3.814155101776123
  }
}
]
