[
{
  "ts": "2018-02-05T16:39:11.279943",
  "type": "SETTINGS",
  "values": {
    "date": "2018/02/05 17:39:11",
    "date_iso": "2018-02-05T17:39:11.274070",
    "params": null,
    "system": {
      "nodename": "gibson",
      "machine": "x86_64",
      "platform": "Linux-4.4.0-112-generic-x86_64-with-debian-stretch-sid",
      "processor": "x86_64",
      "version": "#135-Ubuntu SMP Fri Jan 19 11:48:36 UTC 2018",
      "system": "Linux",
      "cpu_count": 8,
      "cpu_times": {
        "user": 126150.65,
        "system": 18530.91,
        "idle": 7637233.94,
        "nice": 751.58
      },
      "cpu_percent": 100.0,
      "virtual_memory": {
        "total": 33618501632,
        "available": 22909599744,
        "percent": 31.9,
        "used": 9688907776,
        "free": 5842239488
      }
    },
    "process": {
      "username": "evgeniya",
      "cwd": "/cw/dtailocal/mercs_python/src/core",
      "create_time": 1517848747.77,
      "cpu_times": {
        "user": 1.74,
        "system": 0.1
      }
    },
    "logfile": "/cw/dtailocal/mercs_python/out/305/oes97/logs/mercspython_Log_F00",
    "command": "python /cw/dtailocal/mercs_python/bin/mercspython.py /cw/dtailocal/mercs_python/out/305/oes97/settings/mercspython_Settings_F00.s"
  }
},
{
  "ts": "2018-02-05T16:39:11.280099",
  "type": "INFO",
  "values": {
    "cmd": "python /cw/dtailocal/mercs_python/bin/mercspython.py /cw/dtailocal/mercs_python/out/305/oes97/settings/mercspython_Settings_F00.s",
    "cwd": null
  }
},
{
  "ts": "2018-02-05T16:39:11.297287",
  "type": "INFO",
  "values": "Start: Run process"
},
{
  "ts": "2018-02-05T16:39:11.331832",
  "type": "INFO",
  "values": "Write log to /cw/dtailocal/mercs_python/out/305/oes97/logs/mercspython_Log_F00.running.log"
},
{
  "ts": "2018-02-05T16:40:02.209868",
  "type": "INFO",
  "values": "Process ended (returncode 0)"
},
{
  "ts": "2018-02-05T16:40:02.209948",
  "type": "INFO",
  "values": "Finished: Run process 50.913 seconds"
},
{
  "ts": "2018-02-05T16:40:02.210030",
  "type": "WARNING",
  "values": {
    "Exit": "finished",
    "Returncode": 0,
    "Time": 50.91270184516907
  }
}
]
