[
{
  "ts": "2018-02-05T16:40:02.218138",
  "type": "SETTINGS",
  "values": {
    "date": "2018/02/05 17:40:02",
    "date_iso": "2018-02-05T17:40:02.217275",
    "params": null,
    "system": {
      "nodename": "gibson",
      "machine": "x86_64",
      "platform": "Linux-4.4.0-112-generic-x86_64-with-debian-stretch-sid",
      "processor": "x86_64",
      "version": "#135-Ubuntu SMP Fri Jan 19 11:48:36 UTC 2018",
      "system": "Linux",
      "cpu_count": 8,
      "cpu_times": {
        "user": 126554.42,
        "system": 18534.21,
        "idle": 7637234.01,
        "nice": 751.58
      },
      "cpu_percent": 100.0,
      "virtual_memory": {
        "total": 33618501632,
        "available": 26051170304,
        "percent": 22.5,
        "used": 6547660800,
        "free": 8973668352
      }
    },
    "process": {
      "username": "evgeniya",
      "cwd": "/cw/dtailocal/mercs_python/src/core",
      "create_time": 1517848747.77,
      "cpu_times": {
        "user": 1.81,
        "system": 0.11
      }
    },
    "logfile": "/cw/dtailocal/mercs_python/out/305/oes97/logs/mercspython_Log_F01",
    "command": "python /cw/dtailocal/mercs_python/bin/mercspython.py /cw/dtailocal/mercs_python/out/305/oes97/settings/mercspython_Settings_F01.s"
  }
},
{
  "ts": "2018-02-05T16:40:02.218293",
  "type": "INFO",
  "values": {
    "cmd": "python /cw/dtailocal/mercs_python/bin/mercspython.py /cw/dtailocal/mercs_python/out/305/oes97/settings/mercspython_Settings_F01.s",
    "cwd": null
  }
},
{
  "ts": "2018-02-05T16:40:02.228602",
  "type": "INFO",
  "values": "Start: Run process"
},
{
  "ts": "2018-02-05T16:40:02.259797",
  "type": "INFO",
  "values": "Write log to /cw/dtailocal/mercs_python/out/305/oes97/logs/mercspython_Log_F01.running.log"
},
{
  "ts": "2018-02-05T16:40:55.341822",
  "type": "INFO",
  "values": "Process ended (returncode 0)"
},
{
  "ts": "2018-02-05T16:40:55.341910",
  "type": "INFO",
  "values": "Finished: Run process 53.113 seconds"
},
{
  "ts": "2018-02-05T16:40:55.341999",
  "type": "WARNING",
  "values": {
    "Exit": "finished",
    "Returncode": 0,
    "Time": 53.11333513259888
  }
}
]
