[
{
  "ts": "2018-02-05T16:27:23.249216",
  "type": "SETTINGS",
  "values": {
    "date": "2018/02/05 17:27:23",
    "date_iso": "2018-02-05T17:27:23.248358",
    "params": null,
    "system": {
      "nodename": "gibson",
      "machine": "x86_64",
      "platform": "Linux-4.4.0-112-generic-x86_64-with-debian-stretch-sid",
      "processor": "x86_64",
      "version": "#135-Ubuntu SMP Fri Jan 19 11:48:36 UTC 2018",
      "system": "Linux",
      "cpu_count": 8,
      "cpu_times": {
        "user": 120545.11,
        "system": 18479.42,
        "idle": 7637232.77,
        "nice": 751.58
      },
      "cpu_percent": 99.9,
      "virtual_memory": {
        "total": 33618501632,
        "available": 24425480192,
        "percent": 27.3,
        "used": 8251551744,
        "free": 7810387968
      }
    },
    "process": {
      "username": "evgeniya",
      "cwd": "/cw/dtailocal/mercs_python/src/core",
      "create_time": 1517847753.67,
      "cpu_times": {
        "user": 2.44,
        "system": 0.14
      }
    },
    "logfile": "/cw/dtailocal/mercs_python/out/294/oes10/logs/mercspython_Log_F04",
    "command": "python /cw/dtailocal/mercs_python/bin/mercspython.py /cw/dtailocal/mercs_python/out/294/oes10/settings/mercspython_Settings_F04.s"
  }
},
{
  "ts": "2018-02-05T16:27:23.249378",
  "type": "INFO",
  "values": {
    "cmd": "python /cw/dtailocal/mercs_python/bin/mercspython.py /cw/dtailocal/mercs_python/out/294/oes10/settings/mercspython_Settings_F04.s",
    "cwd": null
  }
},
{
  "ts": "2018-02-05T16:27:23.285252",
  "type": "INFO",
  "values": "Start: Run process"
},
{
  "ts": "2018-02-05T16:27:23.297415",
  "type": "INFO",
  "values": "Write log to /cw/dtailocal/mercs_python/out/294/oes10/logs/mercspython_Log_F04.running.log"
},
{
  "ts": "2018-02-05T16:28:32.779753",
  "type": "INFO",
  "values": "Process ended (returncode 0)"
},
{
  "ts": "2018-02-05T16:28:32.779834",
  "type": "INFO",
  "values": "Finished: Run process 69.495 seconds"
},
{
  "ts": "2018-02-05T16:28:32.779914",
  "type": "WARNING",
  "values": {
    "Exit": "finished",
    "Returncode": 0,
    "Time": 69.49460935592651
  }
},
{
  "ts": "2018-02-05T16:28:32.787818",
  "type": "INFO",
  "values": "Closing /cw/dtailocal/mercs_python/out/294/oes10/logs/mercspython_Log_F04.running.log"
}
]
