[
{
  "ts": "2018-02-05T17:02:16.881190",
  "type": "SETTINGS",
  "values": {
    "date": "2018/02/05 18:02:16",
    "date_iso": "2018-02-05T18:02:16.880329",
    "params": null,
    "system": {
      "nodename": "gibson",
      "machine": "x86_64",
      "platform": "Linux-4.4.0-112-generic-x86_64-with-debian-stretch-sid",
      "processor": "x86_64",
      "version": "#135-Ubuntu SMP Fri Jan 19 11:48:36 UTC 2018",
      "system": "Linux",
      "cpu_count": 8,
      "cpu_times": {
        "user": 137145.04,
        "system": 18615.88,
        "idle": 7637234.57,
        "nice": 751.58
      },
      "cpu_percent": 100.0,
      "virtual_memory": {
        "total": 33618501632,
        "available": 23135285248,
        "percent": 31.2,
        "used": 9463939072,
        "free": 5953626112
      }
    },
    "process": {
      "username": "evgeniya",
      "cwd": "/cw/dtailocal/mercs_python/src/core",
      "create_time": 1517850045.29,
      "cpu_times": {
        "user": 1.88,
        "system": 0.13
      }
    },
    "logfile": "/cw/dtailocal/mercs_python/out/315/oes97/logs/mercspython_Log_F02",
    "command": "python /cw/dtailocal/mercs_python/bin/mercspython.py /cw/dtailocal/mercs_python/out/315/oes97/settings/mercspython_Settings_F02.s"
  }
},
{
  "ts": "2018-02-05T17:02:16.881347",
  "type": "INFO",
  "values": {
    "cmd": "python /cw/dtailocal/mercs_python/bin/mercspython.py /cw/dtailocal/mercs_python/out/315/oes97/settings/mercspython_Settings_F02.s",
    "cwd": null
  }
},
{
  "ts": "2018-02-05T17:02:16.893099",
  "type": "INFO",
  "values": "Start: Run process"
},
{
  "ts": "2018-02-05T17:02:16.921275",
  "type": "INFO",
  "values": "Write log to /cw/dtailocal/mercs_python/out/315/oes97/logs/mercspython_Log_F02.running.log"
},
{
  "ts": "2018-02-05T17:02:58.372453",
  "type": "INFO",
  "values": "Process ended (returncode 0)"
},
{
  "ts": "2018-02-05T17:02:58.372532",
  "type": "INFO",
  "values": "Finished: Run process 41.479 seconds"
},
{
  "ts": "2018-02-05T17:02:58.372785",
  "type": "WARNING",
  "values": {
    "Exit": "finished",
    "Returncode": 0,
    "Time": 41.479472160339355
  }
}
]
