[
{
  "ts": "2018-02-06T12:07:12.123284",
  "type": "SETTINGS",
  "values": {
    "date": "2018/02/06 13:07:12",
    "date_iso": "2018-02-06T13:07:12.122630",
    "params": null,
    "system": {
      "nodename": "gibson",
      "machine": "x86_64",
      "platform": "Linux-4.4.0-112-generic-x86_64-with-debian-stretch-sid",
      "processor": "x86_64",
      "version": "#135-Ubuntu SMP Fri Jan 19 11:48:36 UTC 2018",
      "system": "Linux",
      "cpu_count": 8,
      "cpu_times": {
        "user": 342215.2,
        "system": 20887.51,
        "idle": 7978126.92,
        "nice": 821.4
      },
      "cpu_percent": 85.0,
      "virtual_memory": {
        "total": 33618501632,
        "available": 23194415104,
        "percent": 31.0,
        "used": 9387122688,
        "free": 11082522624
      }
    },
    "process": {
      "username": "evgeniya",
      "cwd": "/cw/dtailocal/mercs_python/src/core",
      "create_time": 1517918817.01,
      "cpu_times": {
        "user": 1.26,
        "system": 0.42
      }
    },
    "logfile": "/cw/dtailocal/mercs_python/out/609/enb/logs/mercspython_Log_F06",
    "command": "python /cw/dtailocal/mercs_python/bin/mercspython.py /cw/dtailocal/mercs_python/out/609/enb/settings/mercspython_Settings_F06.s"
  }
},
{
  "ts": "2018-02-06T12:07:12.123380",
  "type": "INFO",
  "values": {
    "cmd": "python /cw/dtailocal/mercs_python/bin/mercspython.py /cw/dtailocal/mercs_python/out/609/enb/settings/mercspython_Settings_F06.s",
    "cwd": null
  }
},
{
  "ts": "2018-02-06T12:07:12.126448",
  "type": "INFO",
  "values": "Start: Run process"
},
{
  "ts": "2018-02-06T12:07:12.131032",
  "type": "INFO",
  "values": "Write log to /cw/dtailocal/mercs_python/out/609/enb/logs/mercspython_Log_F06.running.log"
},
{
  "ts": "2018-02-06T12:07:14.334134",
  "type": "INFO",
  "values": "Process ended (returncode 0)"
},
{
  "ts": "2018-02-06T12:07:14.334196",
  "type": "INFO",
  "values": "Finished: Run process 2.208 seconds"
},
{
  "ts": "2018-02-06T12:07:14.334252",
  "type": "WARNING",
  "values": {
    "Exit": "finished",
    "Returncode": 0,
    "Time": 2.2077810764312744
  }
},
{
  "ts": "2018-02-06T12:07:14.334554",
  "type": "INFO",
  "values": "Closing /cw/dtailocal/mercs_python/out/609/enb/logs/mercspython_Log_F06.running.log"
}
]
