[
{
  "ts": "2018-02-05T15:59:08.645088",
  "type": "SETTINGS",
  "values": {
    "date": "2018/02/05 16:59:08",
    "date_iso": "2018-02-05T16:59:08.644270",
    "params": null,
    "system": {
      "nodename": "gibson",
      "machine": "x86_64",
      "platform": "Linux-4.4.0-112-generic-x86_64-with-debian-stretch-sid",
      "processor": "x86_64",
      "version": "#135-Ubuntu SMP Fri Jan 19 11:48:36 UTC 2018",
      "system": "Linux",
      "cpu_count": 8,
      "cpu_times": {
        "user": 107169.95,
        "system": 18310.7,
        "idle": 7637229.07,
        "nice": 749.46
      },
      "cpu_percent": 100.0,
      "virtual_memory": {
        "total": 33618501632,
        "available": 24288768000,
        "percent": 27.8,
        "used": 8405917696,
        "free": 7901650944
      }
    },
    "process": {
      "username": "evgeniya",
      "cwd": "/cw/dtailocal/mercs_python/src/core",
      "create_time": 1517845628.36,
      "cpu_times": {
        "user": 1.4,
        "system": 0.18
      }
    },
    "logfile": "/cw/dtailocal/mercs_python/out/258/scm20d/logs/mercspython_Log_F06",
    "command": "python /cw/dtailocal/mercs_python/bin/mercspython.py /cw/dtailocal/mercs_python/out/258/scm20d/settings/mercspython_Settings_F06.s"
  }
},
{
  "ts": "2018-02-05T15:59:08.645237",
  "type": "INFO",
  "values": {
    "cmd": "python /cw/dtailocal/mercs_python/bin/mercspython.py /cw/dtailocal/mercs_python/out/258/scm20d/settings/mercspython_Settings_F06.s",
    "cwd": null
  }
},
{
  "ts": "2018-02-05T15:59:08.661330",
  "type": "INFO",
  "values": "Start: Run process"
},
{
  "ts": "2018-02-05T15:59:08.685931",
  "type": "INFO",
  "values": "Write log to /cw/dtailocal/mercs_python/out/258/scm20d/logs/mercspython_Log_F06.running.log"
},
{
  "ts": "2018-02-05T16:01:07.229756",
  "type": "INFO",
  "values": "Process ended (returncode 0)"
},
{
  "ts": "2018-02-05T16:01:07.229833",
  "type": "INFO",
  "values": "Finished: Run process 118.569 seconds"
},
{
  "ts": "2018-02-05T16:01:07.229913",
  "type": "WARNING",
  "values": {
    "Exit": "finished",
    "Returncode": 0,
    "Time": 118.56852531433105
  }
},
{
  "ts": "2018-02-05T16:01:07.235774",
  "type": "INFO",
  "values": "Closing /cw/dtailocal/mercs_python/out/258/scm20d/logs/mercspython_Log_F06.running.log"
}
]
