[
{
  "ts": "2018-02-05T15:57:12.829068",
  "type": "SETTINGS",
  "values": {
    "date": "2018/02/05 16:57:12",
    "date_iso": "2018-02-05T16:57:12.828213",
    "params": null,
    "system": {
      "nodename": "gibson",
      "machine": "x86_64",
      "platform": "Linux-4.4.0-112-generic-x86_64-with-debian-stretch-sid",
      "processor": "x86_64",
      "version": "#135-Ubuntu SMP Fri Jan 19 11:48:36 UTC 2018",
      "system": "Linux",
      "cpu_count": 8,
      "cpu_times": {
        "user": 106256.1,
        "system": 18298.35,
        "idle": 7637229.03,
        "nice": 749.46
      },
      "cpu_percent": 100.0,
      "virtual_memory": {
        "total": 33618501632,
        "available": 24743919616,
        "percent": 26.4,
        "used": 7952105472,
        "free": 8377040896
      }
    },
    "process": {
      "username": "evgeniya",
      "cwd": "/cw/dtailocal/mercs_python/src/core",
      "create_time": 1517845628.36,
      "cpu_times": {
        "user": 1.36,
        "system": 0.18
      }
    },
    "logfile": "/cw/dtailocal/mercs_python/out/258/scm20d/logs/mercspython_Log_F05",
    "command": "python /cw/dtailocal/mercs_python/bin/mercspython.py /cw/dtailocal/mercs_python/out/258/scm20d/settings/mercspython_Settings_F05.s"
  }
},
{
  "ts": "2018-02-05T15:57:12.829221",
  "type": "INFO",
  "values": {
    "cmd": "python /cw/dtailocal/mercs_python/bin/mercspython.py /cw/dtailocal/mercs_python/out/258/scm20d/settings/mercspython_Settings_F05.s",
    "cwd": null
  }
},
{
  "ts": "2018-02-05T15:57:12.853417",
  "type": "INFO",
  "values": "Start: Run process"
},
{
  "ts": "2018-02-05T15:57:12.900048",
  "type": "INFO",
  "values": "Write log to /cw/dtailocal/mercs_python/out/258/scm20d/logs/mercspython_Log_F05.running.log"
},
{
  "ts": "2018-02-05T15:59:08.636795",
  "type": "INFO",
  "values": "Process ended (returncode 0)"
},
{
  "ts": "2018-02-05T15:59:08.636877",
  "type": "INFO",
  "values": "Finished: Run process 115.783 seconds"
},
{
  "ts": "2018-02-05T15:59:08.637131",
  "type": "WARNING",
  "values": {
    "Exit": "finished",
    "Returncode": 0,
    "Time": 115.78348135948181
  }
},
{
  "ts": "2018-02-05T15:59:08.643755",
  "type": "INFO",
  "values": "Closing /cw/dtailocal/mercs_python/out/258/scm20d/logs/mercspython_Log_F05.running.log"
}
]
